bienvenue	BIENVENUE\n biin-ve-nue s. f.\n\n1° L'heureuse arrivée de quelqu'un.\n\n2° Bon accueil.\nMa bienvenue au jour me rit dans tous les yeux, A. CHÉN., Jeune captive.\n\n3° Réception dans un corps, et frais du régal qu'on paye à ses nouveaux\ncompagnons.\nMazet à qui pour bienvenue L'on fait bécher...., LA., FONT. Mazet.\nIl fut hué et paya de cette façon sa bienvenue, J. J. ROUSS., Ém. V.\n\nHISTORIQUE\nXVe s.\nSi fut, après ses bienviengnues, une bonne piece à sejour, , Bouciq. I,\nch. 35.\nSe retyra ledit duc à Gand, où il luy fut fait une bien venue de grant\ndespense, COMM., II, 5.\nXVIe s.\nCe prince s'enquist si on avoit pris ce psaume exprès pour sa\nbien-venue, D'AUB., Hist. II, 188.\nÀ la bienvenue et reception de...., CARLOIX, VI, 11.\n\nÉTYMOLOGIE\nBienvenu.
bienvoulu, ue	BIENVOULU, UE\n biin-vou-lu, lue adj.\nÀ qui l'on veut du bien.\nJe vécus tranquille et toujours bienvoulu dans Chambéry, J. J. ROUSS.,\nConf. v.\nCes Banians et les Guèbres sont bienvoulus partout, VOLT., Moeurs, 102.\n\nHISTORIQUE\nXVe s.\nEt s'il pensoit de n'estre point bien voullu, COMM., VI, 7.\n\nÉTYMOLOGIE\nBien, vouloir.
biez	BIEZ\n bié s. m.\nFossé creusé à côté d'une rivière pour l'usage d'un moulin, et pris\nd'assez loin pour pouvoir ménager une chute d'eau ou au moins une pente\nqui augmente la rapidité de l'eau. Le conduit se nomme buse quand l'eau\ntombe sur la roue, et coursier quand elle passe au-dessous.\n\nHISTORIQUE\nXIIe s.\nDe faire bieus, murs e fossés, BENOÎT, Chron. 26711.\nTuz en jur {les paysans} sont semons de plaiz : Plaiz de forez, plaiz de\nmoneies, Plaiz de biez et plaiz de moutes {moûtures}, WACE, Rou,\n5975-6074.\nXIIIe s.\nSire, ce n'est marliere viez, Ne grant fousez, ne parfont biez, Ainz est\nabimes vraiement, , Ren. 20220.\nQue tute la grant ewe fait isir de sun bied, , Voyage de Charlemagne\n774.\n\nÉTYMOLOGIE\nNorm. bieu, ruisseau ; génev. bi ; wallon, bi ; rouchi, biéfe ; piém.\nbial ; génois, beo ; bas-lat. bedale, biale, beale, bedum, becium,\nbyesium ; du germanique : angl. saxon, bed ; anc. nord, bedr ; anc. haut\nallem. betti ; allem. moderne, Bett, proprement lit, par suite lit d'une\nrivière, d'un fossé, conduit. Il y a bien dans le bas-breton béz, fossé,\nmais isolé et sans congénère dans les autres langues celtiques. Biez en\ndeux syllabes, de Wace, vient de bedale ; biez monosyllabe vient de\nbedum.
bifascié, ée	BIFASCIÉ, ÉE\n bi-fa-ssi-é, ée adj.\nTerme didactique.. Qui offre deux bandes.\n\nÉTYMOLOGIE\nBi pour bis (voy. BIS), et fascia, bande.
biffage	BIFFAGE\n bi-fa-j' s. m.\nLes ratures faites sur une pièce d'écriture.\n\nÉTYMOLOGIE\nBiffer.
biffe	BIFFE\n bi-f' s. f.\nPierre précieuse contrefaite.\n\nHISTORIQUE\nXVIe s.\nIl achapta une fois un diament faux, fort grossierement faict ; quoy\nvoyant, un sien ami lui dit : Vous n'avez gueres à faire de porter ceste\nbiffe, , les Contes du sieur Gaulard, p. 33.\n\nÉTYMOLOGIE\nIl est possible que biffe soit, en ce sens, une altération de l'italien\nbeffa, tromperie, attrape. Mais il y avait dans l'ancien français,\nbiffe, signifiant une sorte d'étoffe (voy. BIFFER, à l'étymologie).
biffe	BIFFE\n bi-f' s. f.\n\n1° Instrument employé dans l'administration du timbre pour annuler les\nempreintes des timbres apposés par erreur ou supprimés.\n\n2° Empreinte de cet instrument. Des pièces d'ordre employées à l'atelier\ngénéral du timbre portent ces mots : biffe du timbreur débiteur, biffe\ndu timbreur créditeur, pour indiquer la place de l'empreinte de l'outil\nservant à chacun d'eux.
biffement	BIFFEMENT\n bi-fe-man s. m.\nAction de biffer.\nDans les statuts des orfévres, biffement était employé pour exprimer\nl'action de rompre les poinçons.\n\nHISTORIQUE\nXVIe s.\nAussi s'estoyent-ils bien recordez ensemble, pour parvenir au bifement\ndes deux parties de question, FROUMENTEAU, Finances, 3e livre, p. 425.\n\nÉTYMOLOGIE\nBiffer.
biffer	BIFFER\n bi-fé v. a.\n\n1° Effacer ce qui est écrit. Biffer une ligne.\n\n2° Terme de palais. Annuler en effaçant. Biffer une clause d'un contrat.\n\n3° Rompre. Il était dit dans les statuts des orfévres que l'on bifferait\nou romprait les poinçons des maîtres après leur décès.\n\nÉTYMOLOGIE\nXVIe s.\nPortrait si biffé qu'il ne s'est peu faire cognoissable, MENARD, Hist.\nde du Guesclin, p. VI.\n\nÉTYMOLOGIE\nOrigine incertaine. Ménage le tire de blafard, parce qu'en effaçant on\nrend pâle ; ce qui ne peut se soutenir.\nOn a, dans le bas-latin et l'ancien français, biffa et biffe, signifiant\nune sorte d'étoffe qui était rayée : Et de biffes camelines raiées, ,\nLiv. des mét. 393.\nQui veut sa robe de brunete, D'escarlate ou de violete, Ou biffe de bone\nmaniere, BARBAZAN, Fabliaux, éd. MÉON, t. IV, p. 179. Il serait possible\nque de là on eût fait biffer pour rayer.\nIl y a aussi un composé des-biffer : Au reste sont plus esgriffées, Plus\nusées et desbiffées Que les vieilles chausses d'ung poste, J. MAROT, V,\n216.\nOn a dit aussi biffe pour tromperie : Il veoid que ce n'est que biffe et\npiperie, MONT., I, 330. Mais biffe est ici pour beffe, beffle, ital.\nbeffare, beffa. Enfin biffe avait aussi le sens de pierre fausse.
biffure	BIFFURE\n bi-fu-r' s. f.\nRaie par laquelle on biffe.\nCes trois exemplaires sont condamnés à toutes les ratures et biffures\nque j'y pourrai faire, P. L. COUR., Lett. II, 11.\n\nÉTYMOLOGIE\nBiffer.\n\nSUPPLÉMENT AU DICTIONNAIRE\nBIFFURE. Ajoutez :\n\n2° Action de biffer.\nL'arrêt.... ordonne la rayure et biffure de la sentence...., BACHAUMONT,\nMém. t. XXXV, p. 372.
biffé, ée	BIFFÉ, ÉE\n bi-fé, fée part. passé.\nUn passage biffé. Un acte biffé.\nSur les registres des curés la qualité de prince {du cardinal de\nBouillon} fut rayée, biffée ; et annoté en marge, que...., SAINT-SIMON,\n280, 45.
bifide	BIFIDE\n bi-fi-d' adj.\nTerme de botanique. Qui est fendu en deux.\n\nÉTYMOLOGIE\nBifidus, de bi, deux, et findere, fendre.
bifidité	BIFIDITÉ\n bi-fi-di-té s. f.\nQualité de ce qui est bifide. La bifidité de la colonne vertébrale.
bifilaire	BIFILAIRE\nadj.\nVoy. MAGNÉTOMÈTRE.
biflabellé, ée	BIFLABELLÉ, ÉE\n bi-fla-bèl-lé, lée adj.\nTerme didactique.. En forme de double éventail.\n\nÉTYMOLOGIE\nBi pour bis, et flabellum, éventail, de flare, souffler.
biflexe	BIFLEXE\n bi-flè-ks' adj.\nTerme didactique.. Fléchi en deux sens.\n\nÉTYMOLOGIE\nBi, et flexus, fléchi, part. passé de flectere (voy. FLÉCHIR).
biflore	BIFLORE\n bi-flo-r' adj.\nTerme de botanique. Qui porte deux fleurs.\n\nÉTYMOLOGIE\nBi pour bis, et flos, fleur
bifolié, ée	BIFOLIÉ, ÉE\n bi-fo-li-é, ée adj.\nTerme de botanique. Qui porte deux feuilles.\n\nÉTYMOLOGIE\nBi pour bis, et folium (voy. FEUILLE).
bifore	BIFORE\n bi-fo-r' s. f.\nTerme d'histoire naturelle. Nom d'un genre d'acéphales nus dont le\nmanteau a deux ouvertures (salpa).\n\nÉTYMOLOGIE\nVoy. BIFORÉ. C'est Brugnyères qui a créé ce mot, et il l'a écrit\nbiphore : &quot; J'ai supprimé, dit-il, le nom générique de salpa, et je l'ai\nremplacé par celui de biphore, qui caractérise les deux ouvertures de\nces vers (Encycl. méthodique, Hist. nat. des vers, t. I, p. 179). &quot;\nAinsi il a voulu dire percé de deux trous, ce qui ne peut se rendre que\npar bifore ; biphore voudrait dire qui porte double, et serait\nd'ailleurs hybride (bi latin).
biforme	BIFORME\n bi-for-m' adj.\nTerme didactique.. Qui a deux formes différentes.\n\nÉTYMOLOGIE\nBiformis, de bi pour bis, et forma (voy. FORME).
biforé, ée	BIFORÉ, ÉE\n bi-fo-ré, rée adj.\nTerme didactique.. Qui est percé de deux trous.\n\nÉTYMOLOGIE\nBi pour bis, et foré.
bifteck	BIFTECK\n bif-tèk s. m.\nTranche de boeuf grillée. Deux biftecks.\n\nÉTYMOLOGIE\nAngl. beefsteak, tranche de boeuf en grillade ; de beef, boeuf, mot\nvenant du français (voy. BOEUF), et steak, tranche.
bifurcation	BIFURCATION\n bi-fur-ka-sion s. f.\n\n1° Action de se bifurquer.\n\n2° Endroit où une chose se bifurque. À la bifurcation de la route, vous\nprendrez à droite.\n\n3° Aujourd'hui, dans l'Université, séparation des élèves en élèves des\nsciences et élèves des lettres, après les classes de grammaire\n\nHISTORIQUE\nXVIe s.\nDe l'artere umbilicale à la bifurcation de la grande artere, près de\nl'os sacrum, PARÉ, t. II, p. 631.\n\nÉTYMOLOGIE\nBifurquer.
bifurquer (se)	BIFURQUER (SE)\n bi-fur-ké v. réfl.\nSe diviser en deux, à la façon d'une fourche. Cette racine se bifurque.\nÀ ce point le ruisseau se bifurquait.\n\nHISTORIQUE\nXVIe s.\nParvenue environ le milieu du coulde, ceste artere se bifurche en deux\ninsignes et notables rameaux, PARÉ, IV, 23.\n\nÉTYMOLOGIE\nBifurcus, bifurqué, de bi pour bis, et furca, fourche (voy. FOURCHE) ;\nprovenç. bifurcar.
bifurqué, ée	BIFURQUÉ, ÉE\n bi-fur-ké, kée part. passé.\n\n1° Tige bifurquée.\n\n2° Terme de science. Classification bifurquée, dite aussi dichotomique,\nclassification qui procède en divisant chaque terme en deux autres, dont\nl'un a et l'autre n'a pas telle ou telle qualité. Ainsi les angles se\ndivisent en droits et non droits ; les non-droits en aigus et obtus,\netc.
bifère	BIFÈRE\n bi-fê-r' adj.\nTerme de botanique. Qui produit du fruit deux fois dans l'année.\n\nÉTYMOLOGIE\nBifer, de bi pour bis, et fer, qui porte.
bigaille	BIGAILLE\n bi-ga-ll', ll mouillées s. f.\nNom générique des insectes ailés dans nos colonies.\n\nSUPPLÉMENT AU DICTIONNAIRE\nBIGAILLE. Ajoutez : - ÉTYM. Bigaille est, dans l'Aunis, le nom du menu\nfretin, du petit poisson, Gloss. aunisien, la Rochelle, 1870, p. 72.
bigalet	BIGALET\n bi-ga-lè s. m.\nTerme de marine. Sorte de ponton.\nDeux pontons ou bigalets, appartenant à l'État, le Fort et la Julie,\nvenus de Cherbourg, avaient été mis à la disposition de l'ingénieur qui\ndirigeait le sauvetage {d'un navire coulé}, , Journ. offic. 19 avr.\n1873, p. 2675, 3e col.
bigame	BIGAME\n bi-ga-m' adj.\nQui est marié à deux personnes en même temps.\nSubstantivement. Un bigame ; une bigame.\nEn droit canonique, celui qui a été marié deux fois, et aussi celui qui,\nne s'étant marié qu'une fois, a épousé une veuve.\n\nHISTORIQUE\nXIIIe s.\nNoz ne tenons pas bigame por clerc, car il sunt tout revenu de toutes\ncozes à le {la} laie juridition, BEAUMANOIR, LXIII, 2.\n\nÉTYMOLOGIE\nBigamus, de bi pour bis, deux, et du grec, mariage.\n\nSUPPLÉMENT AU DICTIONNAIRE\nBIGAME. Ajoutez :\n\n2° Terme de chimie. Corps bigame, corps dont les combinaisons\ns'effectuent dans le rapport de deux équivalents des corps qui\ns'unissent.
bigamie	BIGAMIE\n bi-ga-mie s. f.\n\n1° Action criminelle de l'homme qui a deux femmes vivantes, de la femme\nqui a deux maris vivants.\n\n2° Terme de droit canonique. État de celui qui a épousé successivement\ndeux femmes (la première étant morte).\nBigamie spirituelle, se dit quand un ecclésiastique possède deux\nbénéfices incompatibles.\n\nÉTYMOLOGIE\nBigame.
bigarade	BIGARADE\n bi-ga-ra-d' s. f.\nOrange aigre, globuleuse, à peau raboteuse, et dont l'écorce interne est\namère.\n\nHISTORIQUE\nXVIe s.\nBigarrat ou cornu, nom provençal d'une espece d'oranger, O. DE SERRES, .\n(voy. ORANGE).\n\nÉTYMOLOGIE\nBigarrat, qui, d'après O. de Serres, paraît avoir signifié cornu dans la\nProvence, et qu'on pourrait rattacher à bec avec un changement de\nvoyelle (voy. BIGOT 2).
bigaradier	BIGARADIER\n bi-ga-ra-dié s. m.\nEspèce du genre oranger (citrus bigaradia), qui fournit les fleurs\nd'oranger dont on prépare l'eau distillée de ce nom et l'essence de\nnéroli, les orangettes et l'écorce d'orange amère.
bigarreau	BIGARREAU\n bi-ga-rô s. m.\nEspèce de cerise rouge d'un côté et blanche de l'autre, d'une chair très\nferme.\nAu plur. Des bigarreaux.\n\nÉTYMOLOGIE\nBigarré, à cause que ce fruit est bigarré de deux couleurs.
bigarreautier	BIGARREAUTIER\n bi-ga-rô-tié s. m.\nArbre qui porte des bigarreaux.\n\nÉTYMOLOGIE\nBigarreau.
bigarrement	BIGARREMENT\n bi-ga-re-man s. m.\nÉtat de ce qui est bigarré.\n\nHISTORIQUE\nXVIe s.\nLa queue longue à la guenone, Mouchetée diversement D'un naturel\nbigarrement, DU BELLAY, VII, 40, recto.\n\nÉTYMOLOGIE\nBigarrer.
bigarrer	BIGARRER\n bi-ga-ré v. a.\n\n1° Marquer de couleurs qui tranchent l'une sur l'autre. Bigarrer son\najustement.\n\n2° Fig.\nOnt-ils pu démêler toutes les nuances qui bigarrent la vie commune ?,\nVOLT., Lett. Prusse, 79.\nSans bigarrer son discours de quelque plaisanterie hors de place,\nVAUVENARGUES., Batylle.\n\nHISTORIQUE\nXVIe s.\nTu fais germer la terre, et de vives couleurs Tu bigarres les prés\norgueillis de leurs fleurs, RONS., 913.\nSon oraison tant bien parée Semble une juppe bigarrée De plus de sortes\nde couleurs Que les prez ne portent de fleurs, DU BELLAY, VII, 75,\nverso.\nQue le vert pré desserre Ses plus douces odeurs, Se bigarrant de fleurs,\nYVER, p. 574.\nAprès eux marchoient les prevost des marchands et eschevins, bigarrez de\ndiverses couleurs, , Sat. Mén. p. 13.\nLes vers bigarrés sont pires que ceux qui sont d'une seule couleur,\nPARÉ, XXII, 4.\nIl y en a {des pigeons} de blancs, de noirs, de gris, d'enfumés, de\nmeslés et de bigarrés, O. DE SERRES, 404.\nPar telle curiosité {entements réitérés}, les fruits s'en diversifient\net bigearrent avec utile et plaisante admiration, O. DE SERRES, 640.\nSi on veut bigearrer le taillis, en y entremeslant diverses especes\nd'arbres pour le decorement, O. DE SERRES, 793.\nPourquoy bigarres tu ton saion en ceste façon ?, PALSGR., p. 482.\nEt tu ne fais point de cas de deux, trois et quatre cens collecteurs\nbigarrez, FROUMENTEAU, Finances, 3e liv. p. 395.\nCe qu'aucuns bigarrés {irrités} hors de saison ne veulent conceder,\nPARÉ, VIII, 23.\n\nÉTYMOLOGIE\nMénage le tire de bis et variare, bis dans le sens péjoratif (voy. BIS-\npréfixe), et variare. Diez, qui ne repousse pas cette étymologie, en\nsuggère cependant une autre, qui serait : bi-garrer pour bi-carrer, de\ncarrer, disposer, arranger en forme de carrés, d'échiquier. Mais ce qui\nparaît décider la question pour Ménage, c'est l'existence, en Berry, de\ngare, gareau, gariau, gariche, tous mots qui signifient de couleur\nvariée. Que le v latin puisse se changer en g comme le w germanique,\nbien que plus rarement, c'est ce que prouve guivre de vipera, gaîne de\nvagina, etc. On voit par quelques exemples qu'on a confondu bigarrer\navec bizarre, qu'on écrivait bigeare, et qu'on en a fait bigearer ; mais\ncela ne peut être considéré que comme une erreur.\n\nSUPPLÉMENT AU DICTIONNAIRE\nBIGARRER. Ajoutez :\n\n3° V. réfl. Se bigarrer, prendre, recevoir des bigarrures.\nIl n'y a point de valet qui ne soit de race de rois, ni de roi qui ne\nsoit de race de valets : tout se bigarre de cette façon avec le temps,\nMALH., Lexique, L. Lalanne.
bigarrure	BIGARRURE\n bi-ga-ru-r' s. f.\n\n1° Assemblage de couleurs tranchantes.\nLa bigarrure plaît ; partant chacun le vit {le léopard}, LA FONT., Fab.\nIX, 3.\n\n2° Fig.\nLes nations ne jettent pas à l'écart leurs antiques moeurs comme on se\ndépouille d'un vieil habit ; il en résulte des lambeaux qui forment,\navec les nouveaux vêtements, une effroyable bigarrure, CHATEAUB., Génie,\nIII, I, 8.\nBigarrure de style, mélange de styles disparates.\nIl y a bien de la bigarrure dans cette société, elle est composée de\ntoutes sortes de gens.\n\n3° S. f. plur. Terme de fauconnerie. Taches rousses ou noires, ou\ndiversités de couleur, sur le plumage d'un oiseau de proie.\n\nHISTORIQUE\nXVIe s.\nAfin que nous nous rangions tous à l'ancienne fidelité que nous devons à\nnos roys, sans partialité ny bigarrure {révolte}, , Sat. Mén. p. 236.\nLes planches seront bordées d'ozeille, de persil, d'hyssope, dont la\ndiverse bizarreure contentera la veuë, O. DE SERRES, 507.\n\nÉTYMOLOGIE\nBigarrer.
bigarré, ée	BIGARRÉ, ÉE\n bi-ga-ré, rée part. passé.\nEt si je meurs, il {le roi} veut avoir Un manchon de ma peau, tant elle\nest bigarrée, LA FONT., Fab. IX, 3.\nLes hommes bigarrés, Les uns gris, les uns noirs, BOILEAU, Sat. VIII.\nFig. Vers bigarrés, langage bigarré, vers, langage où l'on entremêle les\nmots de deux langues, comme dans le Malade imaginaire : Grandes doctores\ndoctrinae De la rhubarbe et du séné.\nStyle bigarré, style où il y a de la bigarrure.
bigaut	BIGAUT\n bi-gô s. m.\nSorte de houe à crochets pour le binage des vignes.
bige	BIGE\n bi-j' s. m.\nTerme d'antiquité latine. Char à deux chevaux.\n\nÉTYMOLOGIE\nBiga, de bi pour bis, et agere, mener, pousser (voy. AGIR).
bigemme	BIGEMME\n bi-jè-m' adj.\nTerme de botanique. Qui porte deux boutons.\n\nÉTYMOLOGIE\nBi pour bis, et gemma (voy. GEMME).
bigle	BIGLE\n bi-gl' adj.\nLouche. Homme, femme bigle.\nLa loi du borgne Locrien, à mon avis, était extrêmement juste, et il\navait grand intérêt à la proposer ; et, pour moi, quand je n'eusse été\nque bigle, je m'y fusse hasardé, VOIT., Lett. 192.\nSi vous êtes bigle, vous verrez que je deviens aveugle et sourd, VOLT.,\nLett. Pictet, sept. 1763.\nSubstantivement. Un bigle.\nBigle a vieilli.\n\nHISTORIQUE\nXVIe s.\nEstre louche ou bicle : c'est une distorsion contrainte avec inegalité\nde la veuë, PARÉ, XV, 5.\n\nÉTYMOLOGIE\nGénev. bicle ; ital. bieco. On tire ce mot de bis, deux, et oculus, oeil\n(voy. OEIL) ; double oeil, comme l'espagnol bis-ojo, louche. Bien que la\nmutilation soit forte, cependant ce qui peut appuyer cette étymologie,\nqui reste douteuse, c'est le c dans bicle du génevois et de Paré, et\nicle dans le mot patois bourn-icle, borgne. On n'en doit rien inférer\npour besicle, dont l'étymologie est donnée non par une conjecture, mais\npar la série des formes.
bigle	BIGLE\n bi-gl' s. m.\nTerme de chasse. Espèce de chien anglais pour les lièvres et les lapins.\nOn a dit aussi bicle.\n\nÉTYMOLOGIE\nAngl. beagle, nom de ce chien.
bigler	BIGLER\n bi-glé v. n.\nLoucher, avoir les yeux de travers. Ce verbe vieillit.\nIl se conjugue avec l'auxiliaire avoir.\n\nÉTYMOLOGIE\nBigle ; génev. bicler. Quelques personnes disent bicler ; c'est, comme\non voit, un provincialisme. Bigler est peu usité ; on dit loucher.
biglesse	BIGLESSE\n bi-glè-s' s. f.\nFemme qui est bigle, qui louche.\nMlle du Plessis est toujours à un pas de moi.... l'autre jour la\nbiglesse joua Tartuffe au naturel, SÉV., 7 juill. 1671.\nVotre enfant {le fils de Mme de Grignan} était chez Mlles de Castelnau ;\nil y a une cadette qui est toute jolie, toute charmante ; votre fils la\ntrouve à son gré et laisse la biglesse {c'était l'aînée} à Sanzei, SÉV.,\n10 janv. 1689.
biglochidé, ée	BIGLOCHIDÉ, ÉE\n bi-glo-chi-dé, dée adj.\nTerme didactique.. Qui est muni de deux pointes.\n\nÉTYMOLOGIE\nBi pour bis, et terme grec signifiant pointe.
bigne	BIGNE\n bi-gn' s. f.\nTumeur à la tête qui provient d'un coup. Vieux.\n\nHISTORIQUE\nXVe s.\nEt une fois il se feit une bigne, Bien m'en souvient, à l'estal d'un\nboucher, VILLON, Grand test. Ball. et orais.\nXVIe s.\nPuis il trepigne et se fait une bigne ; Comme une guigne estoit rouge\nson nez, MAROT, II, 352.\nIl se faisoit à tout coup une bigne au front, DES PÉRIERS., Contes,\nLXXIX.\n\nÉTYMOLOGIE\nBerry et lorrain, beugne ; romagnol, bogna ; milanais, bugn ; sarde,\nbugnu ; provenç. mod. bougno. Origine incertaine. Il y a dans le\ngermanique : anc. haut-allem. bungo ; moyen haut-allem. bunge ; anc.\nnord, bûnga ; anc. angl. bung, avec bunny, tumeur. Ces mots, d'après\nDiez, auraient donné bonga, bongue. Mais ne pourrait-on pas voir dans\nbunny le moyen terme qui ferait comprendre comment le mot roman a pu\nsortir du mot germanique ?
bignon	BIGNON\n bi-gnon s. m.\nTerme de pêche. Filet nommé aussi truble.\n\nHISTORIQUE\nXVe s.\nLe suppliant, qui aucunefoiz s'entremect de pescher, passant avec aucuns\nengins, nommez bignons ou venuges, DU CANGE, bigo.\n\nÉTYMOLOGIE\nOrigine inconnue.
bigorne	BIGORNE\n bi-gor-n' s. f.\nSorte d'enclume dont chaque extrémité est en pointe, et qui sert à\ntourner en rond ou arrondir les grosses pièces.\nTerme de marine. Coin de fer pour couper les clous qu'on trouve dans les\njoints quand on calfate.\nTerme de métier. Masse en bois qui sert au corroyeur à fouler les peaux\nmouillées.\n\nHISTORIQUE\nXIVe s.\nLe dit François fery l'exposant d'un baston ferré gros au bout, que on\nappelle bigorgne, DU CANGE, biscorna.\nXVIe s.\nLe chasteau semble tonner, Tandis qu'on tourne et retourne Le harnois\nsur la bigourne, Pour le buste façonner, AMADIS JAMYN, Poésies, p. 58.\n\nÉTYMOLOGIE\nBi pour bis, deux, et corne.
bigorneau	BIGORNEAU\n bi-gor-nô s. m.\n\n1° Petite bigorne ou enclume qui sert à tourner en rond les petites\npièces.\n\n2° Nom donné dans les départements de l'ouest à un coquillage (littorine\nvulgaire), espèce comestible, qui est le turbo littoral de Cuvier.\nManger des bigorneaux.\n\n3° Ancien sobriquet moqueur des soldats de marine.\n\nÉTYMOLOGIE\nBigorne.
bigorner	BIGORNER\n bi-gor-né v. a.\nForger le fer sur la bigorne. Bigorner l'anneau d'une clef.\n\nÉTYMOLOGIE\nBigorne.
bigorre	BIGORRE\n bi-go-r' s. m.\nNom, dans le XVIIe siècle, de nouvelles à la main que l'abbé Bigorre\nadressait à diverses personnes.\nVous connaissez les petits Bigorres, SÉV., Lett. inéd. éd. Capmas, t.\nII, p. 356.
bigot	BIGOT\n bi-go s. m.\nSorte de pioche à deux fourchons.\n\nHISTORIQUE\nXIVe s.\nInstrumentum ferreum dictum bigot, DU CANGE, bigo.\nXVe s.\nTenant un bigotz ou pale, DU CANGE, ib.\nLe mary d'icelle femme curoit l'estable à ung engin, appellé bigot, DU\nCANGE, ib.\n\nÉTYMOLOGIE\nBas-lat. bigo, bigonis, peut-être dérivé de bec, à cause de la forme de\nl'instrument.
bigot, ote	BIGOT, OTE\n bi-go, go-t' ; le t se lie : un bigot insensé, dites : un bi-go-t\ninsensé ; au pluriel l's se lie : des bigots insensés, dites : des\nbi-go-zinsensés ; bigots rime avec repos, dos, faux, travaux, etc. adj.\n\n1° Qui est livré à une dévotion étroite et superstitieuse.\nLa différence est totale entre une armée fanatique et une armée bigote,\nMONTESQ., Rom. 22.\n\n2° Substantivement. Un bigot, une bigote.\nL'un, défenseur zélé des bigots mis en jeu...., BOILEAU, Épît. VII.\nVous moquez-vous des gens d'avoir fait ce complot ? Votre fille n'est\npoint l'affaire d'un bigot, MOL., Tart. II, 2.\nLes soubrettes sont comme les bigotes, elles font des actions\ncharitables pour se venger, LESAGE, Turc. I, 9.\nSais-tu bien cependant, sous cette humilité, L'orgueil que quelquefois\nnous cache une bigote ?, BOILEAU, Sat. X.\n\nHISTORIQUE\nXIIe s.\nMoult ont Francheis Normans laidis Et de meffais et de mesdis ; Souvent\nlor dient reproviers, Et claiment bigos et draschiers ; Souvent les ont\nmeslez au roi ; Souvent dient : Sire, pourquoi Ne tollez la terre as\nbigos ?, WACE, Rou, dans DU CANGE, bigothi.\nXVe s.\nDes bigotz ne quiers l'accointance, Ne loue leur oppinion, CH. D'ORL.,\nBal. 78.\nIcelui Rebours en appelant l'abbé de Creste bigot, qui est un mot très\ninjurieux selon le langage du pays, DU CANGE, bigothi.\nXVIe s.\nCette Roxolane fit la devotieuse, et cognoissant Soliman bigot et grand\nbastisseur de chapelles...., D'AUB., Hist. I, 31.\n{L'hypocrisie} Qui parle doucement et sur son dos bigot Va par zèle\nporter au bucher un fagot, D'AUBIG., Tragiques.\nBigot denote celui qui avec une trop grande superstition s'adonne au\nservice divin, PASQUIER, Recherches, liv. VIII.\n\nÉTYMOLOGIE\nBas lat. bigoti. Une vieille chronique latine (DUCHESNE, III, 360) dit\nque Rollon, sommé de baiser le pied du roi Charles, s'écria : Ne se bi\ngod, jamais par Dieu, et que le sobriquet de bigot vint de là aux\nNormands : by, par, et god, Dieu. On peut soupçonner que l'anecdote (ce\nqui arrive souvent) a été imaginée pour expliquer le mot. Remarquez (et\ncela s'oppose à l'étymologie) que le mot est commun aux langues\nromanes : espagn. ligote, moustache (dans le Dictionnaire de l'Académie\nde 1696 : bigotelle ou bigotere, pièce d'étoffe ou de cuir dont on se\nsert pour tenir la moustache relevée), hombre de bigote, homme d'un\ncaractère ferme ; ital. s-bigottire, effrayer, ôter le courage. Fr.\nMichel a proposé visigothus, visigoth. Cette étymologie n'est pas sans\nprobabilité ; car elle permet, dans bigot, à la fois un terme de mépris\net un terme d'éloge ; ayant pu, selon le point de vue, exprimer ou un\nhomme méchant ou un homme brave et courageux ; d'où l'italien\ns-bigottire ; et le changement du v en b, toujours difficile en\nfrançais, a pu se faire dans les autres langues romanes, qui le\ncomportent davantage. Le sens moderne de bigot ne commence, d'après\nl'historique, qu'au XVe siècle.\n\nSUPPLÉMENT AU DICTIONNAIRE\n1. BIGOT. - ÉTYM. Ajoutez : Ce mot est d'origine assez douteuse pour\nqu'on en rapproche tout ce qui paraît y tenir. M. Ch. Nisard,\nParisianismes, Paris, 1876, p. 22, rapporte le verbe bigotter au sens\nd'impatienter ou de s'impatienter : là bigotte tout ton soûl. Bigotter\npourrait avoir des relations avec l'espagnol hombre de bigote, homme\nferme, et bigote, moustache.
bigotelle ou bigotère	BIGOTELLE ou BIGOTÈRE\n bi-go-tè-l' ou bi-gotè-r' s. m.\nAnciennement, pièce d'étoffe ou de cuir dont on se servait pour tenir la\nmoustache relevée.\nSa bigotelle et sa pincette {objets de toilette d'Énée}, SCARRON, Virg.\nIV.\n\nÉTYMOLOGIE\nEspag. bigote, moustache.
bigoterie	BIGOTERIE\n bi-go-te-rie s. f.\nLa dévotion du bigot.\nUne bigoterie universelle abattit les courages et endormit l'empire\nd'Orient, MONTESQ., Rom. 22.\n\nHISTORIQUE\nXVIe s.\nIl allegua à son frere pour l'en divertir plusieurs exemples de leur\nnation qui s'estoit laissée decevoir à telles bigotteries, D'AUBIGNÉ,\nHist. I, 34.\nLes moynes, soubz bigotize et faincte devotion, ne laissent pas de faire\nde terribles remuements, CARLOIX, V, 26.\n\nÉTYMOLOGIE\nBigot.
bigotisme	BIGOTISME\n bi-go-ti-sm' s. m.\nCaractère du bigot.\nCadogan faisait agir les prédicants, et remuait par leur moyen les\npassions du bigotisme protestant, SAINT-SIMON, 496, 255.\n\nÉTYMOLOGIE\nBigot.
bigourdan, ane	BIGOURDAN, ANE\n bi-gour-dan, da-n' adj.\nQui appartient au Bigorre.\nSans parcourir les fertiles et riantes vallées de Tarbes, de Bagnères,\nde Laruns, et sans admirer les chevaux de la race bigourdane qu'on y\nélève,...., HEUZÉ, la France agricole, p. 15.
bigre	BIGRE\n bi-gr' interj.\n\n1° Jurement adouci. Très familier (voy. BOUGRE).\n\nSUPPLÉMENT AU DICTIONNAIRE\n\n2°\nBigre à l'huile, expression grossière par laquelle on désignait les\nminimes, parce que saint François de Paule, fondateur de l'ordre, leur\navait prescrit de ne manger que de l'huile, c'est-à-dire de faire toute\nleur cuisine à l'huile, et cela, parce que les pauvres, en Calabre,\nfaisaient de même, CH. NISARD, Parisianismes, p. 144.\nTu te rengorges bien, reprit le moine altier, Et tu fais bien le bigre à\nl'huile, Apprends, mon grand ami, qu'ignorant cordelier Vaut un minime\nhabile, , Recueil de nouvelles poésies galantes, 2e part. p. 131, 1726.
bigre	BIGRE\n bi-gr' s. m.\nTerme d'ancienne coutume. Garde forestier spécial pour la conservation\ndes abeilles.\nChasseur d'essaims dans les forêts.\n\nHISTORIQUE\nXVe s.\nAvons droit d'avoir et tenir en la dite forest {de Conches} ung bigre,\nlequel peut prendre mousches, miel et cire pour le luminaire de notre\ndite eglise, mercher {marquer}, couper et abattre les arbres, où elles\nseront, sans aucun dangier ne reprinse, DU CANGE, bigrus.\nAi droit de trois ans en trois ans, quand on met les mouches en ladite\nforest {de Breteuil}, d'envoyer mon bigre avec les bigres du roi, lequel\ndoit estre juré devant le chastelain de Breteuil, de bien et fidelement\nquerre les abeiles et le miel, pour en faire mon besoing, DU CANGE, ib.\nEt dudit fief d'Auvergny depend ung hostel appellé la Bigrerie, ou\nl'hostel aux mouches, DU CANGE, ib.\n\nÉTYMOLOGIE\nBas-lat. bigrus, bigarus. Étymologie inconnue.\n\nSUPPLÉMENT AU DICTIONNAIRE\nOn l'a tiré du lat. apiger, celui qui gouverne les abeilles, par le\nretranchement de l'a (voy. LEBER, Collect. des meilleures dissert. t.\nXX, p. 307).\nIl vient plutôt du germanique : anglo-sax. beo ; dan. bie ; angl. bee,\nabeille, d'où le bas-lat. bigarus, bigre, gardien d'abeilles.
bigue	BIGUE\n bi-gh' s. f.\nTerme de marine. Mât ou mâtereau servant à élever des fardeaux à l'aide\nde poulies ou de cordages qui en garnissent l'extrémité.\nTerme de maçon. Assemblage de deux longues pièces de bois dressées et\nunies par le haut, où se trouve une poulie.\n\nÉTYMOLOGIE\nProvenç. biga, bigua, chevron, solive ; bas-lat. bigus, biga.
biguer	BIGUER\n bi-ghé v. a.\nChanger, troquer.\nIl se dit principalement à certain jeu de cartes : j'ai bigué mon as\ncontre le sien ; et absolument, voulez-vous biguer ? Nous avons remis le\nreversi sur pied, et, au lieu de biguer, nous disons bigler, SÉV., 237.\nVieux.\n\nÉTYMOLOGIE\nOn indique l'anglo-sax. bygan, bycgan, vendre et acheter ; angl. to buy,\nacheter.
bigéminé, ée	BIGÉMINÉ, ÉE\n bi-jé-mi-né, née adj.\nTerme de botanique. Fleurs bigéminées, fleurs qui croissent au nombre de\nquatre, deux à deux, sur un pédoncule commun.\n\nÉTYMOLOGIE\nBi pour bis, et geminus, double (voy. GÉMEAU).
bigénère	BIGÉNÈRE\n bi-jé-nê-r' adj.\nTerme d'histoire naturelle. Qui appartient à deux genres différents.\nHybridité bigénère, hybridité produite par deux animaux appartenant à\ndeux genres différents de la même famille.\n\nÉTYMOLOGIE\nBi pour bis, et genus (voy. GENRE).
bihasté, ée	BIHASTÉ, ÉE\n bi-a-sté, stée adj.\nTerme didactique.. Qui a la forme d'une double lance.\n\nÉTYMOLOGIE\nBi pour bis, et hasta, lance (voy. HASTE).
bihoreau	BIHOREAU\n bi-o-rô s. m.\nEspèce de héron.
bijon	BIJON\n bi-jon s. m.\nTerme de pharmacie. Résine liquide qui coule du pin, sans incision, dite\naussi périnet vierge.
bijou	BIJOU\n bi-jou s. m.\n\n1° Petit ouvrage d'un travail élégant et d'une matière précieuse, et qui\nsert de parure et d'ornement. Elle a vendu tous ses bijoux.\n\n2° Fig. Toute chose élégante et ornée, et, en particulier, petite maison\nélégante et commode.\nLe financier la Cour avait fait un bijou d'un vilain lieu et d'une\nméchante maison que Chamillart lui avait donnée, SAINT-SIMON, 222, 253.\nCirey est charmant, c'est un bijou, VOLT., Lett. vers, 80.\n\n3° Fig. et familièrement. Cet enfant est un bijou. C'est le bijou de la\nfamille.\n\nHISTORIQUE\nXVIe s.\nIl ne convient qu'à des femmes et à des comediens de se parer de bijoux,\nHENRI IV, dans le dictionnaire de DOCHEZ.\n\nÉTYMOLOGIE\nOn a indiqué le bas-bret. bizou, bézou, bezeu, qui signifie bague, et\nqui vient de : bas-breton, biz ; gall. bys, doigt. Le changement d's ou\nde z en j, n'est pas facile. Ménage a indiqué bis-jocare, bijouer, de\nsorte que bijou exprimerait quelque chose qui joue ou qui brille de\nplusieurs côtés ; cette étymologie est approuvée par Diez.\n\nSUPPLÉMENT AU DICTIONNAIRE\nBIJOU. Ajoutez :\n\n4°\nBijou de la foire Saint-Ovide, un homme de rien, qui vaut peu, VADÉ, les\nRacoleurs, SC. II, 1756.\nÀ la foire Saint-Ovide, qui se tint d'abord à la place Vendôme et qui\nfut transportée en 1773 à la place Louis XV, on vendait quantité de\nmenues bijouteries de peu de valeur, CH. NISARD, Parisianismes, Paris,\n1876, p. 27.\nBijou du parvis, se disait d'un individu condamné à une peine infamante\net ayant fait amende honorable sur la place du parvis Notre-Dame, CH.\nNISARD, ib. p. 28.\nAllons, tais-toi, diable de bijou du parvis, VADÉ, Compliment de la\nclôture de la foire Saint-Laurent, 1755.\n\n5°\nChez les restaurateurs de Paris, nom donné par antiphrase à toutes les\ndessertes des plats et des assiettes ; c'est le profit des laveurs de\nvaisselle, , Journ. des Débats, 25 oct. 1876, 3e page, 1re col.
bijouterie	BIJOUTERIE\n bi-jou-te-rie s. f.\n\n1° Profession de celui qui fabrique les bijoux ou en fait le commerce.\n\n2° Les objets de ce commerce.\n\nÉTYMOLOGIE\nBijoutier.
bijoutier, ière	BIJOUTIER, IÈRE\n bi-jou-tié, tiê-r' ; l'r de bijoutier ne se lie jamais ; au pluriel l's\nse lie : les bijoutiers et leurs boutiques, dites : les bi-joutié-z\net.... s. m. et f.\nCelui, celle qui monte les pierres sur or ; qui fait et qui vend des\nbijoux.\nPar extension, celui qui porte sur soi des bijoux.\nComme il {le garde des sceaux} était extrêmement bijoutier, et qu'il\navait toujours les doigts pleins de petites bagues, RETZ, III, 143. Peu\nusité en ce dernier sens.\n\nÉTYMOLOGIE\nBijou.\n\nSUPPLÉMENT AU DICTIONNAIRE\nBIJOUTIER.\n\n2° L'homme qui vient prendre, pour les revendre, les restes des\nrestaurants.\nLe bijoutier, acquéreur de ce tohu-bohu culinaire, y met de l'ordre et\nfait un tri intelligent ; il sépare les éléments confus, nettoie et pare\nla marchandise avec coquetterie sur de petites assiettes, , Journ. des\nDébats, 25 oct. 1876, 3e page, 2e col.
bijugué, ée	BIJUGUÉ, ÉE\n bi-ju-ghé, ghée adj.\nTerme de botanique. Qui offre deux couples de parties opposées deux à\ndeux.\n\nÉTYMOLOGIE\nBi pour bis, et jugum, joug, couple (voy. JOUG).
bilabié, ée	BILABIÉ, ÉE\n bi-la-bi-é, ée adj.\nTerme d'histoire naturelle. Qui est partagé en deux lèvres.\n\nÉTYMOLOGIE\nBi pour bis, et labium, lèvre (voy. LÈVRE).
bilamellé, ée	BILAMELLÉ, ÉE\n bi-la-mèl-lé, lée adj.\nTerme didactique.. Qui est composé de deux lamelles.
bilan	BILAN\n bi-lan s. m.\n\n1° Terme de commerce. Anciennement, livre, sorte de carnet sur lequel\nles négociants ou banquiers inscrivent ce qui leur est dû et ce qu'ils\ndoivent, ou leurs opérations de diverse nature. Aujourd'hui, compte ou\nmémoire, dans lequel un marchand expose ses dettes actives et passives.\nLes bilans de ces deux maisons de commerce.\nÉtat de l'actif et du passif d'un négociant en faillite. Déposer son\nbilan.\nFig.\nL'état du parquet est de peser et de comparer les raisons des parties,\net d'établir cette espèce de bilan avec toutes les grâces et les fleurs\nde l'éloquence devant les juges, SAINT-SIMON, 453, 122.\n\n2° Solde de grand-livre, d'un compte particulier, ou de la clôture d'un\ninventaire.\n\nÉTYMOLOGIE\nItal. bilancio, balance, de bilanx (voy. BALANCE).
bilatte	BILATTE\n bi-la-t' s. f.\nVoy. VOLIGE.
bilatéral, ale	BILATÉRAL, ALE\n bi-la-té-ral, ra-l' adj.\nTerme didactique.. Qui a deux côtés ; qui se dirige de deux côtés\nopposés.\nTerme de jurisprudence. Qui assigne des obligations aux deux parties\ncontractantes. Des contrats bilatéraux.\n\nÉTYMOLOGIE\nBi pour bis, et latéral.
bilboquet	BILBOQUET\n bil-bo-kè ; le t ne se lie pas dans le parler ordinaire ; au pluriel\nl's se lie : des bilboquets en ivoire, dites : des bil-bo-kè-z en\nivoire ; bilboquets rime avec traits, jamais, succès, etc. s. m.\n\n1° Jouet de bois ou d'ivoire, composé d'un petit bâton qui est terminé\npar une pointe à un bout et une sorte d'écuelle à l'autre, et d'une\nboule qui, suspendue au bâton et percée d'un trou, doit être reçue par\nun bout ou par l'autre du bâton. Jouer au bilboquet.\n\n2° Petite figure en moelle de sureau ou autre substance très légère,\navec un peu de plomb aux pieds, qui se redresse brusquement, de quelque\nfaçon qu'on la pose.\nFig. et familièrement.\nLe duc d'Orléans, qui se prenait assez aux figures, me répondait sans\ncesse : mais on se moquera de nous avec ce bilboquet {la Vrillière},\nnain grosset, monté sur de hauts talons, SAINT-SIMON, 396, 142.\nFamilièrement. Se tenir droit comme un bilboquet, se tenir toujours\ndebout.\nSe retrouver toujours sur ses jambes comme un bilboquet, se tirer\ntoujours d'affaire quoi qu'il arrive.\nC'est un vrai bilboquet, c'est un homme sans consistance.\n\n3° Terme de typographie. Léger ouvrage de ville, tel que têtes de\nlettres, cartes d'adresse, factures, etc.\n\n4° Morceau de fer dans lequel le monnayeur ajuste le flan.\nOutil avec lequel le doreur place l'or dans les endroits difficiles à\natteindre.\nFragment de pierre bon seulement à faire du moellon.\n\nHISTORIQUE\nXVIe s.\nHenri III portoit quelquefois à la main un bilboquet dont il se jouoit,\n, Journal de Henri III, p. 89.\n\nÉTYMOLOGIE\nBil pour bille, avec une finale qui est sans doute bocquet, fer de lance\ndans le blason (voy. BOCQUET).\n\nSUPPLÉMENT AU DICTIONNAIRE\nBILBOQUET.\n\n2° Ajoutez :\nFig.\nOn dit que la Mancini, femme du duc de Mercoeur et nièce de Mazarin, est\nici quelque part cachée dans un monastère ; et le petit Mancini, son\nfrère, chez le comte de Harcourt ; s'il est vrai, il faut avouer que ces\npetits bilboquets de la fortune sont bien malheureux, GUI PATIN,\nLettres, p. 595.\n\nHISTORIQUE\nXVIe s. Ajoutez :\nBille boucquet, RAB., Garg. I, 22.
bile	BILE\n bi-l' s. f.\n\n1° Matière animale particulière, liquide, amère, jaunâtre ou verdâtre,\nsavonneuse, qui se fait dans le foie, et qui, se rendant dans le\nduodénum, sert à la digestion.\nL'eau se jaunit en bile au corps du bilieux, RÉGNIER, Sat. v.\nDes yeux remplis de bile font voir tout jaune, BOSSUET, Connaiss. I, 7.\nDont le cerveau est offusqué par les noires vapeurs de la bile, DESC.,\nMédit. 1.\n\n2° Fig. Mauvaise humeur, colère.\nUne humeur chagrine décharge sa bile sur eux, BOSSUET, Pens. 22.\nIls ont une bile intarissable sur les plus petits inconvénients, LA\nBRUY., 11.\nEt quel homme si froid ne serait plein de bile...., BOILEAU, Sat. I.\nMa bile s'échauffe, MOL., Tart. II, 2.\nPar la corbleu ! gardez d'échauffer trop ma bile, MOL., Sgan. 1.\nModérez votre bile, et vous rendez traitable, HAUTEROCHE, Nobles de\nProvince, I, 1.\nLa bile de l'auteur était encore animée par quelques contestations\nparticulières avec des aristotéliciens, FONTEN., Leibnitz.\nLes plus satiriques et les plus misanthropes sont assez maîtres de leur\nbile pour se ménager adroitement des protecteurs, FONTEN., Dangeau.\nIl n'y a que la méchanceté orgueilleuse et hypocrite qui m'a quelquefois\nému la bile, VOLT., Lett. Berger, 25 févr. 1765.\n\n3° Bile noire ou mélancolie, sorte d'humeur que les anciens imaginèrent\npar suite d'une fausse observation, et dont ils plaçaient le siége dans\nla rate.\nFig. Tristesse, ennui.\nIl ne faut pas que vous vous fassiez de la bile noire, SÉV., 88.\n\nÉTYMOLOGIE\nBilis. L'ancien français disait cole ou chole, du grec, bile.
biliaire	BILIAIRE\n bi-li-ê-r' adj.\nTerme d'anatomie. Qui a rapport à la bile. Calculs biliaires. Canaux\nbiliaires.\n\nÉTYMOLOGIE\nBiliarius, de bilis, bile.
bilieux, euse	BILIEUX, EUSE\n bi-li-eû, eû-z adj.\n\n1° Terme de médecine. Qui abonde en bile. Tempérament bilieux.\nComplexion bilieuse.\nFièvre bilieuse, fièvre qu'on attribuait à une surabondance ou à une\naltération de la bile. Fièvre bilieuse des pays chauds, fièvre grave qui\na généralement le caractère rémittent ou, comme disent les médecins,\npseudo-continu.\n\n2° Fig. De mauvaise humeur, colère.\nJe suis bilieux comme tous les diables, et il n'y a morale qui tienne,\nMOL., Bourg. gent. II, 6.\nJ'ai aperçu l'ombre pâle et bilieuse de M. d'Épernon, qui s'approche\navec toute sa fierté gasconne, FÉN., XIX, 417.\nEt dites-moi : quand jadis la Fontaine.... De ses bons mots sur plus\nd'une matière Contre Lully, Quinault et Furetière Fit rejaillir\nl'enjoûment bilieux, Fut-il traité d'auteur calomnieux ?, J. B.\nROUSSEAU, liv. I, Aux muses.\n\n3° Substantivement. Les bilieux sont sujets à de grandes maladies.\nFig.\nCette bilieuse Qui follement outrée en sa sévérité...., BOILEAU, Sat. X.\n\nREMARQUE\nBilieux est de trois syllabes en vers ; cependant Béranger ne l'a fait\nque de deux, suivant, en cela, le parler ordinaire : Combien\nd'imperceptibles êtres ! De petits jésuites bilieux ! BÉRANG. Infiniment\npetits.\n\nÉTYMOLOGIE\nBiliosus, de bilis, bile. Des gens qui parlent mal disent bileux au lieu\nde bilieux.
biligulé, ée	BILIGULÉ, ÉE\n bi-li-gu-lé, lée adj.\nTerme de botanique. Qui est partagé en deux languettes.\n\nÉTYMOLOGIE\nBi pour bis, et ligula, languette.
biline	BILINE\n bi-li-n' s. f.\nTerme de chimie. Principe extrait de la bile.\n\nÉTYMOLOGIE\nBile.
bilingue	BILINGUE\n bi-lin-gh' adj.\nTerme d'histoire naturelle. Qui a deux langues.\nTerme de philologie. Qui se sert de deux idiomes différents ; qui est en\ndeux idiomes différents. Des inscriptions bilingues.\n\nÉTYMOLOGIE\nBilinguis, de bi pour bis, et lingua (voy. LANGUE).
bilitère	BILITÈRE\n bi-li-tê-r' adj.\nTerme de grammaire. Composé de deux lettres : ta, je, sont des mots\nbilitères.\n\nÉTYMOLOGIE\nBi pour bis, et litera ou littera, lettre (voy. LETTRE).
bill	BILL\n bil. Des grammairiens recommandent de prononcer bill avec les ll\nmouillées ; à tort : il n'y a aucune raison de changer la prononciation\nanglaise de ce mot s. m.\nProjet d'acte du parlement d'Angleterre, et aussi quelquefois, loi\nrendue. L'Angleterre publia des bills afin de défendre aux sujets de S.\nM. britannique de porter des secours aux Américains, CHATEAUB., Amér.\n312.\nAprès ce bill des miladys de l'ordre, Dans la commune arrive un grand\ndésordre, GRESSET, Vert-Vert, ch. II.\nBill d'indemnité, expression qui, du parlement anglais, est venue dans\nle langage parlementaire, et se dit de l'absolution que la chambre donne\nà un ministre pour quelque chose d'irrégulier, il est vrai, mais\ncommandé par les circonstances.\n\nÉTYMOLOGIE\nAngl. bill, anciennement bille. Le bas-lat. billa, cédule, mémoire,\ncontrat, n'est que le mot anglais latinisé. Bill ou bille, n'ayant de\nrelations avec aucun mot germanique, est une altération de bulle, bulla,\nqui veut dire aussi cédule, rescrit (voy. BULLE), comme le prouvent\nbillette et bullete qui avaient le sens de rescrit ; la confusion entre\nbille et bulle est évidente. Il y a eu peut-être aussi d'autres\nconfusions : à l'article billot, on verra que ce mot a été dit pour\npancarte, et cela parce que la pancarte était fixée à un pieu, à un\nbillot ; faudrait-il penser que, de la même façon, bille, pièce de bois\n(voy. BILLE 2) a influé sur l'assimilation entre bille et bulle ? Quoi\nqu'il en soit, bill est un mot d'origine française.
billage	BILLAGE\n bi-lla-j', ll mouillées s. m.\nPilotage à la descente d'un cours d'eau, à l'endroit des ponts.\nLe service du pilotage {sur la haute Seine} consistait dans le chablage\net le billage des bateaux aux ponts ci-dessus indiqués ; le chablage,\nc'est-à-dire le pilotage à la remonte, a pu être complétement supprimé,\nsauf à Valvin.... quant au billage, c'est-à-dire au pilotage à la\ndescente, il a dû être maintenu encore, E. GRANGEZ, Voies navigables de\nFrance, p. 646.
billard	BILLARD\n bi-llar, ll mouillées, et non bi-yar ; le d ne se lie pas : un billard\nélégant dites : un bi-llar élégant ; l's au pluriel ne se lie pas : des\nbillards élégants, dites : des bi-llar élégants ; cependant plusieurs\nlient l's : des bi-llar-z élégants s. m.\n\n1° Autrefois bâton recourbé avec lequel on poussait les boules, et aussi\nqueue de billard.\nLe but est un coeur fier ; la bille, un pauvre amant ; La passe et les\nbillards, c'est ce que l'on pratique Pour toucher au plus tôt l'objet de\nson amour, LA FONT., à Mme de la Fayette, en lui envoyant un petit\nbillard.\n\n2° Jeu qui se joue avec des boules d'ivoire sur une table entourée de\nrebords rembourrés et garnie d'un tapis vert.\nLa table sur laquelle on joue.\nLa salle dans laquelle est le billard. Montons au billard.\nPetit billard, billard portatif.\nCe billard est petit, ne l'en prisez pas moins; Je prouverai par bons\ntémoins Qu'autrefois Vénus en fit faire Un tout semblable pour son\nfils ; Ce plaisir occupait les amours et les ris, LA FONT., à Mme de la\nFayette.\n\n3° Fer qui sert à fixer la raquette du paumier.\nBillard de terre, sorte de jeu qui consiste à ficher un ou deux anneaux\nen terre, pour y faire passer ensuite de petites boules ou billes que\nl'on fait rouler avec une palette.\n\n4° Terme de chasse. Morceau de bois se terminant en pointe d'un bout et\nrecourbé de l'autre, dont se servent les oiseleurs.\n\n5° Terme de marine. Barre de fer ronde dont le gros bout ressemble à une\nmasse de billard.\n\nHISTORIQUE\nXIVe s.\nAprès avoir feru d'une voiture ou billars le tavernier sur le bras, tant\nque l'espée qu'il {le tavernier} tenoit li vola du poing, , Lett. de\nRémission, Arch. de Sens, fonds de St Rémy ; Transactions.\nXVe s.\nTrès fort vous avez combatu Et j'ay mon billart bien tenu, CH. D'ORL.,\nRond.\nEt un billard de quoi on crosse, VILLON, Petit testament.\nXVIe s.\nJe vous prie nous envoyer ung jeu de billard et ung autre jeu que l'on\nnomme le trou madame, DE LABORDE, Émaux, p. 165.\n\nÉTYMOLOGIE\nBourguig. billard, boiteux, à cause que les boiteux marchent avec un\nbâton qui s'est dit billard. Billard est proprement une crosse à crosser\net vient de bille au sens de pièce de bois (voy. BILLE 2) : et le nom du\njeu actuel vient de la queue, qui était et s'est dite un billard ou\nbâton.\n\nSUPPLÉMENT AU DICTIONNAIRE\nBILLARD. Ajoutez :\n\n6° Billard anglais, table inclinée sur laquelle on chasse avec une queue\nla bille, qui retombe dans des cases numérotées ; on en voit dans les\njardins publics et dans les fêtes de village ; on y gagne des fleurs,\ndes macarons.\nIl y a aussi une sorte de billard anglais où il s'agit pour le joueur de\ndéplacer neuf billes avec les siennes ; il en a trois, et gagne trois\nlots, deux lots ou un seul lot, suivant qu'il réussit du premier coup,\nou en deux coups, ou seulement en trois coups.\n\n7° Adj. Billard, billarde, boiteux, boiteuse (terme provincial).\nJ'ai remarqué qu'ils {les pas} allaient tantôt à droite, tantôt à\ngauche, et qu'ils étaient les pas d'un homme un peu billard, , Gaz. des\nTrib. 10 juin 1876, p. 567, 2e col.\nVoy. l'étymologie, où ce sens est expliqué.\n\nHISTORIQUE\nXVIe s. Ajoutez :\n.... quelque beau jardin où, libre, on puisse aller Pour s'esbattre au\nbillard ou s'esbattre à bouller, , Plaisirs des champs, p. 71.
billarder	BILLARDER\n bi-llar-dé, ll mouillées, et non biyar-dé v. n.\n\n1° Toucher deux fois sa bille ou pousser deux billes à la fois.\nIl se conjugue avec l'auxiliaire avoir.\nOn dit aujourd'hui queuter.\n\n2° Terme de manége. On dit qu'un cheval billarde, quand, en marchant, il\njette les jambes de devant en dehors.\n\n3° On dit des cornes d'un boeuf qu'elles billardent quand elles\ns'écartent beaucoup l'une de l'autre.\n\nÉTYMOLOGIE\nBillard.
billaud	BILLAUD\n bi-llô, ll mouillées s. m.\nInstrument de bois recourbé et en pointe, dont se servent les\nciseleurs ;\n\nÉTYMOLOGIE\nBille 2.
bille	BILLE\n bi-ll', ll mouillées, et non pas bi-ye s. f.\n\n1° Boule d'ivoire servant au jeu de billard.\n\n2° Petites boules de pierre ou de marbre qui servent à des jeux\nd'enfants.\nFig. Être à billes pareilles, à billes égales, se dit de deux personnes\nqui dans une concurrence n'ont point d'avantage l'une sur l'autre.\nAh ! bien, bien, billes pareilles, BARON, Coquette et fausse prude, I,\n8.\n\nHISTORIQUE\nXIIe s.\nLi trois enfant que il ot engendrez, Jeuent et rient et tiennent pain\nassez ; à la billette jeuent desus le sel {les sacs de sel}, , Li\ncharois de Nimes, 884.\nXIIIe s.\nPar foi n'i donroie une bille, Ce dit Tybert, en elz n'en toi, , Ren.\n20580.\n.... Ceste closture Qui n'est pas faite en quarreüre, Ains est si ronde\net si soutille, Qu'onques ne fu beril en bille De forme si bien\narrondie, , la Rose, 20496.\nMais en vain me travaillerai ; Tout ne me vaudroit une bille, , ib.\n9375.\nXIVe s.\nAlons faire {jouer} ceste quarte de vin au jeu des billes, DU CANGE,\nbilla.\nQuant Felix voulut biller son coup, il prit sa bille, et, la cuidant\nferir, elle echeut à terre, , ib.\nXVe s.\nSont-ce coups d'esteufs ou de billes ?, CH. D'ORL., Rondeau.\nUne bille d'or, servant à chappes, garnye de plusieurs perles, de rubis\net de dyamans, DE LABORDE, Émaux, p. 165.\nXVIe s.\nJau {coq} sus braise et bille sur tabour, , Proverbe pour exprimer une\nchose mobile.\n\nÉTYMOLOGIE\nEspagn. billa ; ital. biglia. Diez conjecture que ce mot vient du\ngermanique : haut-allemand moyen, bickel ; flamand, bikkel, osselet dont\nles enfants se servent pour jouer. Mais le sens n'est pas satisfaisant ;\net il faut plutôt songer à une assimilation vicieuse entre bille (voy.\nBILLE 2) et bulla (voy. BOULE), assimilation dont il reste une trace\névidente dans billette et bullete (voy. BILL).\n\nSUPPLÉMENT AU DICTIONNAIRE\n1. BILLE. - HIST.\nXVe s. Ajoutez :\nAllez veoir la solennité, mais revenez à tour de bille {à l'instant,\nsans retard}, , Rec. de farces, etc. p. 342, P. L. JACOB.
bille	BILLE\n bi-ll', ll mouillées, et non pas bi-ye s. f.\n\n1° Pièce de bois de toute la grosseur de l'arbre, destinée à être mise\nen planches.\n\n2° Bille d'acier, morceau d'acier carré\n\n3° Jouer à la bille, faire sauter la bille. On dit plus ordinairement\njouer au bâtonnet, faire sauter le bâtonnet.\n\n4° Bâton dont le peaussier et l'emballeur se servent pour tordre et\nserrer.\n\n5° Outil du perceur d'aiguilles, de l'orfévre.\n\n6° Rejeton qui pousse au pied d'un arbre.\nBranche d'arbre coupée par les deux bouts, propre à mettre en pépinière.\n\nÉTYMOLOGIE\nWallon, bèie, bâton et quille ; anc. franç. bille, quille, dans un texte\ndu XIVe siècle : quilliae, quae in partibus illis {Bapaume} vocantur\ngallice billes, DU CANGE, billa ; bas-lat. billa et billus dans un texte\ndu XIIe siècle, branche, tronc d'arbre ; du celtique : irland. bille ;\nbas-bret. bill, pill ; gall. pill, tronc d'arbre.
billebarrer	BILLEBARRER\n bi-lle-ba-ré, ll mouillées v. a.\nMarquer de raies de diverses couleurs.\n\nÉTYMOLOGIE\nBille 2, et barrer : barrer avec des billes, des bâtons, c'est-à-dire\nfaire des raies qui ressemblent à des verges.
billebarré, ée	BILLEBARRÉ, ÉE\n bi-lle-ba-ré, rée, ll mouillées part. passé.\nQuand les sorciers font porter pierre ou anneaux avec des lettres ou\nfigures ineptes et billebarrées, Statuts synod. de le Gouverneur, évêque\nde St-Malo, art. 21 (1618).\n\nSUPPLÉMENT AU DICTIONNAIRE\nBILLEBARRÉ. Ajoutez :\nOpinions emmaillottées de toutes sortes de langes, et, comme les\nSuisses, revêtues et billebarrées de toutes les couleurs, NAUDÉ,\nRosecroix, VIII, 2.
billebaude	BILLEBAUDE\n bi-lle-bô-d', ll mouillées s. f.\nTerme familier qui signifie confusion, désordre.\nJe suis fort aise de n'avoir point ici {à Vichy} le bon abbé, il y eût\nfait un mauvais personnage ; quand on ne boit point, on s'ennuie ; c'est\nune billebaude qui n'est point agréable, SÉV., 277.\nÀ la billebaude, loc. adv. En confusion.\nTir à la billebaude, tir irrégulier et à volonté, s'est dit autrefois\nsoit à la guerre, soit à la chasse.\n\nÉTYMOLOGIE\nOrigine incertaine. On peut cependant conjecturer que bille est pour\nbelle (voy. BILLEVESÉE), et que baude est le féminin, pris\nsubstantivement, de l'ancien adjectif baud, hardi, vif : le tout\nsignifiant belle hardiesse, et de là hasard, confusion.
billebauder	BILLEBAUDER\n bi-lle-bô-dé, ll mouillées v. n.\nTerme de chasse. On dit que des chiens billebaudent, quand ils chassent\nmal.\n\nÉTYMOLOGIE\nBillebaude.
biller	BILLER\n bi-llé, ll mouillées v. a.\nTordre une peau ou serrer une balle avec la bille.\nPousser à droite ou à gauche une pièce de bois en équilibre sur un\nappui.\nDans le halage des bateaux, attacher la corde à une pièce de bois\ncourbée placée derrière le cheval.\nBiller la pâte, l'aplatir avec un rouleau qui se nomme bille.\n\nÉTYMOLOGIE\nBille 2.
billet	BILLET\n bi-llè, ll mouillées, et non bi-yè ; le t se lie : un billet amical,\ndites : un bi-llè-t amical ; au pluriel l's se lie : des billets\namicaux, dites : des bi-llè-z amicaux ; billets rime avec traits,\nsuccès, jamais s. m.\n\n1° Missive, petite lettre qui n'a pas les formules usitées dans les\nlettres ordinaires.\nMadame, dois-je croire un billet de Maurice ?, CORN., Héracl. II, 6.\nJ'ai trouvé ce billet enfermé dans son sein...., RAC., Baj. IV, 5.\nMais quels malheurs dans ce billet tracés...., RAC., Iphig. I, 1.\nIl m'écrivit l'autre jour un fort joli billet, SÉV., 614.\nTe voilà ravi d'écrire des billets à ta maîtresse, HAMILT., Gramm. 4.\nIl reçoit des billets d'invitation pour un dîner, J. J. ROUSS., Ém. II.\nPapier plié à la manière d'une lettre. On jeta sur la scène un billet\nqui contenait des vers.\nBillet doux, billet d'amour et de galanterie.\nL'un dans la main vous glisse un billet doux, L'autre à Passy vous\npropose une fête, VOLT., Épît. 80.\nBillets de change étaient mes billets doux, VOLT., Pauvre diable.\nOn sait, pour lire un billet doux, Quel moyen prennent nos coquettes,\nBÉRANGER, B. Maman.\n\n2° Avis imprimé ou écrit. Billet de naissance. Billet de faire part ou\nbillet de part, billet par lequel on fait part à ses parents et à ses\namis d'une naissance, d'un mariage ou d'une mort.\nFaire courir le billet, s'est dit autrefois pour avertir les membres\nd'une corporation de se rassembler, ou pour informer les orfévres et les\njoailliers qu'un vol ayant été commis, ils eussent à arrêter ceux qui\nleur porteraient l'argenterie volée.\n\n3° Terme de commerce et de finance. Obligation souscrite par une\npersonne au profit d'une autre personne ; écrit qui la constate.\nDivers papiers de crédit qui ont cours dans le public. Billet de banque,\nbillet émis par une banque de circulation, et, plus spécialement,\npromesse de payer par une banque à vue et au porteur. Billet de change,\npromesse de fournir une lettre de change. Billet à ordre, billet payable\nà celui au profit de qui il est souscrit et de ceux à qui il aura été\ntransmis successivement au moyen d'un simple endos. Billet au porteur,\nbillet qu'on doit payer au porteur.\nCet enfant de famille à qui nous prêtâmes l'année passée trois mille\nlivres, et à qui je fis faire un billet de neuf par votre ordre....,\nLESAGE, Turcaret, III, 9.\nBillet de l'épargne s'est dit anciennement d'une rescription payable sur\nle trésor royal qu'on appelait alors l'Épargne.\n\n4° Carte qui donne le droit d'entrer dans un théâtre, dans un lieu\npublic. Je ne puis disposer que de dix billets pour cette\nreprésentation.\nPetit morceau de papier ou de carton qu'on délivre à ceux qui prennent\nune place dans un chemin de fer.\n\n5° Bulletin qui, portant un numéro, est délivré à toute personne qui met\nà une loterie.\nBulletin, petit rouleau de papier qui sert à tirer au sort.\nTirer au billet, choisir par le sort entre les noms de plusieurs\npersonnes inscrits sur des billets.\nQue l'on tire au billet ceux que l'on doit élire, BOILEAU, Lutrin, I.\nTirer au billet s'est dit autrefois quand, sévissant sur des militaires,\non mettait leurs noms sur des billets et tirait au sort qui serait passé\npar les armes.\nRosen fut pris avec d'autres en maraude et tira au billet, SAINT-SIMON,\n116, 3.\n\n6° Bulletin, petit papier sur lequel est écrit le suffrage dans une\nélection, le vote dans une assemblée délibérante.\nBillet blanc, billet sans nom mis dans l'urne d'un scrutin.\n\n7° Billet de logement, écrit portant injonction à un habitant de loger\nun ou plusieurs soldats.\nBillet de garde, billet portant ordre d'un service militaire.\nBillet de confession, attestation par laquelle un prêtre certifie qu'il\na entendu quelqu'un en confession.\nBillet de santé, certificat constatant que, dans le pays d'où vient un\nvoyageur, il ne règne aucune épidémie.\nDans la marine, écrit délivré aux marins, pour la solde ou la ration.\nDans les eaux et forêts, billet d'afforestement, permis d'exploiter.\nBillet de contentement, déclaration de caution suffisante délivrée par\nle receveur des domaines.\n\nPROVERBE\nAh ! le bon billet qu'a la Châtre ! Se dit pour exprimer qu'une promesse\nest sans valeur Ce mot est fondé sur ce que le marquis de la Châtre,\namant de Ninon de Lenclos, obligé de partir pour l'armée, avait exigé\nd'elle un billet où elle s'engageait à lui être fidèle. Ce fut elle-même\nqui, à la première infidélité qu'elle lui fit, prononça ces mots, qui\ndepuis passèrent en proverbe.\n\nÉTYMOLOGIE\nAngl. billet. Bien que le mot billet n'ait pas été rencontré dans des\ntextes français anciens, cependant on doit penser qu'il existait en\nfrançais dès le XVe siècle au moins ; car le prédicateur Menot, qui\nremplissait son latin de locutions françaises, dit : Et cum essem sic in\npede crucis et sic desolatus, quod ego eram in fine billeti mei, DU\nCANGE, billetus ; à la fin de mon billet, ce que nous dirions : au bout\nde mon rouleau. Billet et billette (voy. ce mot) sont des diminutifs du\nbas-latin billa, rescrit, cédule (voy. BILL).
billeter	BILLETER\n ouillées ; le t se double quand la syllabe qui suit est muette : il\nbillette, il billettera ; cette orthographe est indiquée par billette,\ns. f., car, autrement, on pourrait écrire : il billète ; l'Académie ne\ndit rien v. a.\n\n1° Attacher des étiquettes sur les marchandises. Il a vieilli ; on dit\nétiqueter.\n\n2° Loger par billets de logement. Les soldats furent billetés.\n\nÉTYMOLOGIE\nBillet.
billeteur	BILLETEUR\n bi-lle-teur, ll mouillées s. m.\nTerme de marine. Matelot qui reçoit la paye totale de plusieurs de ses\ncamarades pour la leur distribuer.\n\nÉTYMOLOGIE\nBillet.
billetier	BILLETIER\n bi-lle-tié, ll mouillées s. m.\nDans les douanes, commis qui expédie les billettes.
billette	BILLETTE\n bi-llè-t', ll mouillées s. f.\n\n1° Bois de chauffage fendu et séché.\nFagot de billettes, nom, dans quelques provinces, de ce qu'on nomme, à\nParis, cotret.\nRouleau de bois pour aplanir la terre à mouler.\nMorceau de bois qu'on place le long du toit d'une veine de charbon\nminéral.\n\n2° Terme de blason, pièce d'armoirie solide, en forme de carré long,\ndont on chargeait l'écu.\n\n3° Cylindre ou bâton de jus de réglisse.\n\n4° Terme d'architecture. Série de petits parallélogrammes ou portions de\ncylindres séparés par des vides, et dont les rangs, plus ou moins\nnombreux, chevauchent.\n\nÉTYMOLOGIE\nDiminutif de bille 2 ; bas-lat. bilietum.
billette	BILLETTE\n bi-llè-t', ll mouillées, et non pas bi-yè-t' s. f.\n\n1° Petit écriteau placé aux endroits où un péage est établi, pour\navertir les passants d'acquitter le droit.\n\n2° Acquit que le douanier délivre aux marchands.\n\nHISTORIQUE\nXVe s.\nDeus bilhetes ou brevez {brevets}, DU CANGE, billa.\n\nÉTYMOLOGIE\nBillet, dont billette n'est qu'une autre forme.\nOn a dit aussi bullete dans le sens de rescrit : XIVe siècle : Et\nbailleront les gardes des dits pors bullete, autrement dite police, à\nceux qui auront passé le dit sel, DU CANGE, bulleta.\n\nSUPPLÉMENT AU DICTIONNAIRE\n1. BILLETTE, s. f. Petit écriteau. - ÉTYM. Ajoutez : Billette a eu le\nsens de petit billot de bois que le seigneur péager était tenu de\nsuspendre à une potence en signe de son droit et pour avertir le passant\nqu'il eût à payer péage : XVIe s.\nDit a esté que ledit defendeur sera tenu commettre receveur sur ledit\nport de Marcigny, et y pendre et asseoir une billette pour voir de loing\npar lesdits marchands le lieu où ils devront acquitter ledit droit....\net sera tenu ledit receveur tenir sa recepte sur le grand chemin et\npendre ladite billette es branchieres, MANTELLIER, Glossaire, Paris,\n1869, p. 12. De même que billette petite pièce de bois a été dit pour\nécriteau, de même billot a été dit pour pancarte. Ces deux faits\nmodifient l'opinion exprimée à bill, que billette est le même que\nbullete, rescrit, et bill le même que bulle, rescrit aussi. Bill,\nbillet, billette, billot ont une origine commune, et cette origine n'est\npas bulle. Le sens primitif de ce mot est une pièce de bois, puis pièce\nde bois sur laquelle on fichait un écriteau, et enfin écriteau,\npancarte. C'est une série de sens curieuse. Tous ces mots se rattachent\ndonc (l'anglais bill comme les autres) à bille 2, pièce de bois (voy. ce\nmot).
billette	BILLETTE\n bi-llè-t', ll mouillées s. m.\nReligieux ainsi appelés parce qu'ils portaient de petits scapulaires\ndits billettes pour leur ressemblance avec la billette du blason. La rue\ndes Billettes.\nAmi, dit le billette, à tout pécheur Dieu fait rémission, J. B. ROUSS.,\nÉpigr. IV, 7.
billeté, ée	BILLETÉ, ÉE\n bi-lle-té, tée, ll mouillées adj.\nTerme de blason. Chargé de billettes.\n\nÉTYMOLOGIE\nBillette 2.
billeur	BILLEUR\n bi-lleur, ll mouillées s. m.\nMarinier opérant le billage.\nÀ partir de cette hauteur {1 mètre 30 au-dessus de l'étiage}, les\nmariniers sont obligés de se faire aider par les pilotes billeurs {sur\nla haute Seine}..., E. GRANGEZ, Voies navigables de France, p. 619.
billevesée	BILLEVESÉE\n bi-le-ve-zée s. f.\nDiscours frivole, idées chimériques, vaines occupations.\nIl traite de billevesées tout ce que nous croyons, MOL., Fest. I, 2.\nJe n'ai parlé de ces sublimes billevesées que pour faire savoir les\nopinions de Newton, VOLT., Lett. vers, 80.\nJe suis accablé de tant de riens, si surchargé de billevesées, VOLT.,\nLett. d'Argental, 1er mai 1761.\nToutes les billevesées de la métaphysique ne valent pas un argument ad\nhominem, DIDER., Pens. phil. 17.\n\nHISTORIQUE\nXVIe s.\nAyez en reverence le cerveau caseiforme, qui vous paist de ces belles\nbille-vezées, RAB., Prol. du 1er livre.\n\nÉTYMOLOGIE\nLamonnoye, au mot bourguignon vezai, dit : &quot; Veze est une espèce de\nmusette ; de là gros vezé, pour un gros homme ; veze, pleine de vent,\ndans RABELAIS, IV, 43. &quot; Leduchat tire billevesée de bille, boule, et\nvesée, soufflée. Il est certain que vesée est ici l'équivalent de\nvessie ; mais bille paraît une altération de belle : belle vessie, chose\nde vent, chose de rien. Cela se voit par ce vers du XIIIe siècle : Car\nMahomes ne vaut une belle vessie, Roman du chevalier du Cygne, dans\nSCHWEIGHAÜSER, De la Négation, p. 81.
billion	BILLION\n bi-li-on s. m.\nTerme d'arithmétique. Dix fois cent millions ou mille millions, un\nmilliard, qui est plus particulièrement usité dans le langage de la\nfinance et dans le langage ordinaire.\n\nHISTORIQUE\nXVIe s.\nUng billion vault mille milliers de millions, EST. DE LA ROCHE,\nArismetique, f° 7.\nL'on peut diviser les figures de six en six, en commençant toujours à\ndextre, et sus la premiere figure d'une chescune sixiesme, la premiere\nexceptée, l'on peult metre ung petit point ; et doit on savoir que\ntoutes les figures, depuis le premier point jusques au second, si tant\nen y a, sont tous millions ; et du second au tiers sont millions de\nmillions ; et du tiers au quart sont millions de millions de millions ;\net ainsi des aultres pointz, en proferant ce vocable million autant de\nfois comme il y aura de pointz ; ou, qui veult, le premier point peult\nsignifier million, le second point billion, le tiers point trillion, le\nquart quadrillion, etc., ID., ib.\n\nÉTYMOLOGIE\nMot formé sur le modèle de million, avec bi pour bis, le degré au-dessus\ndu million. Ces formes, billion, trillion, etc. ont été créées dans le\nXVIe siècle pour signifier des tranches de six en six chiffres, les\nunités représentant, à partir de la droite, les six premiers rangs de\nchiffres ; le million représentant les chiffres du 7e rang au 12e ; le\nbillion représentant les chiffres du 13e rang au 18e, et ainsi de suite.\nC'est pour cela qu'Est. de la Roche dit qu'un billion vaut mille\nmilliers de millions. Ce n'est qu'au milieu du XVIIe siècle qu'il fut\nréglé que les tranches, au lieu d'être de six en six chiffres, seraient\nde trois en trois chiffres ; ce qui revint à diviser par 1000 l'ancien\nbillion, l'ancien trillion, etc. Ce mode de compter ne fut admis que\ntard en Angleterre, puisque Locke, Essai sur l'entendement humain, II,\n16, reproche à ses compatriotes de ne pouvoir compter les grands nombres\nqu'en redoublant le mot de million.
billon	BILLON\n bi-llon, ll mouillées, et non bi-yon s. m.\n\n1° Autrefois composé d'un métal précieux avec d'autres métaux qui sont\nen proportion plus considérable ; nom qu'on donnait à l'or ou à\nl'argent, lorsque l'alliage était au-dessous du carat prescrit par les\nordonnances.\n\n2° Aujourd'hui toute espèce de monnaie décriée et défectueuse.\n\n3° Monnaie de cuivre pur ou mêlé d'un peu d'argent.\nUne des raisons qui fit augmenter chez eux la valeur numéraire des\nmonnaies, c'est-à-dire établir le billon, fut la rareté de l'argent,\nMONTESQ., Esp. XXI, 16.\n\n4° Bas argent affiné avec de la casse d'orfévre, sans usage d'eau forte.\n\n5° Lieu où l'on porte toute monnaie en décri ou de faux poids. Envoyer\nau billon.\nFig. Être, mettre au billon.\n\nHISTORIQUE\nXIIIe s.\nQuand je vaurai {voudrai} savoir ke li mars de billons à cinq deniers\nvalra {vaudra}...., , Comput, f° 23.\nXIVe s.\nEt vous mandons que vous deffendez et faictes deffendre que nulles\nautres monnoyes, tant d'or comme d'argent, faictes tant en nostre\nroyaume comme dehors, ne ayent aucun cours, mais soyent portées à nos\nplus prochaines monnoyes, au marc pour billon, et que nul ne soit si\nhardi de porter ou faire porter hors de nostre royaume billon d'or ne\nd'argent en masses ne en billes n'en plates ne autrement ne nulles\nautres monnoyes, , Ord. de 1365, t. IV, p. 552.\nQue nulz ne s'entremecte de faire courretaige d'or, d'argent, ne de nul\nbillon, quel qu'il soit, ne de billonner en l'ostel ne dehors...., ,\nOrdonn. t. III, p. 90.\nQue toutes personnes puissent sauvement porter à les echanges ou\nbullion, et ne mie ailleurs, argent en plate.... - Que toutz marchauntz\npuissent sauvement porter plate d'argent, billettes d'or et tut autre\nmaner d'or à nostre bulione, , Ordonnances des rois d'Angleterre\n(Passages où bullion signifie lieu où se fabrique la monnaie, et qui\nsont cités dans : Transactions of the philological society, 1858, part.\nI, p. 1).\nIcellui du Rut trouva un petit sachet où il y avoit mitaille qui est\napelée billon, DU CANGE, mita.\nXVe s.\nJe l'aleve bien {l'argent} sans essai, Ne sans envoyer au billon,\nFROISS, Le dit dou florin.\nIl n'a tente ne pavillon Qu'il n'ayt laissé à ses amys, Et n'a plus\nqu'un peu de billon, Qui sera tantost à fin mys, VILLON, Pet. test.\nEnfans, baillon Force billon Pour conquerir telle pourprise, G. CRETIN,\nPoésies, p. 163.\nXVIe s.\nSi je montrois une masse de plomb et que je disse : ce billon d'or m'a\nété donné par un tel prince ; on m'estimeroit un fol insensé, CALV.,\nInstit. 155.\nPuisque tu as desja veu nos richesses et nos thresors, et combien nous\navons d'or en billon..., , les Oeuvres de Lucian de Samosate traduites\npar J. BEAUDOIN, f° 94, verso.\n\nÉTYMOLOGIE\nProvenç. billo ; espagn. vellon ; portug. bilhao ; ital. biglione ;\nbas-lat. billio, bullio ; angl. bullion. Billon a certainement voulu\ndire primitivement masse. &quot; L'or et l'argent en masse est celui que l'on\nappelle culot, soit qu'on le laisse refroidir dans le creuset, soit\nqu'on le jette dans quelque récipient creux et profond. L'or et l'argent\nen bille est celui que l'on jette en lingot dans une espèce de machine\nqui est appelée lingotière. L'or et l'argent en plate est celui que l'on\njette, quand il est fondu, dans un vase moins creux que celui où l'on\njette les masses, Note dans Ordonnances des rois de France, t. IV, p.\n553. &quot; Billon ou billette ou bille d'or ou d'argent est le métal qui a\npris la forme d'une bille (voy. BILLE 2). Cependant une difficulté se\nprésente : comment alors expliquer l'anglais bullion, bas-latin bullio ?\nD'abord remarquons que ces deux formes n'en font vraiment qu'une, le\nbas-latin bullio ne se trouvant que dans des textes anglais et n'étant\npar conséquent que la transcription du bullion anglais. Cela posé, et la\nforme anglaise restant isolée, il faut seulement y voir une altération\ndu français billon. Maintenant quelle est la série des sens ? Le sens\nprimitif est lingot, soit d'or, soit d'argent ; puis lieu où l'on fait\ndes billons, où l'on fabrique la monnaie ; en troisième lieu, monnaie\nbonne ou mauvaise qu'on porte au billon, à l'hôtel des monnaies pour y\nêtre refondue ; en quatrième lieu, mauvaise monnaie, cuivre avec alliage\nd'argent, et même cuivre seulement.
billon	BILLON\n bi-llon, ll mouillées, et non bi-yon s. m.\n\n1° Terme d'agriculture. Bande de terre élevée par la charrue au-dessus\ndu niveau environnant. Le billon est formé par deux ou un plus grand\nnombre de tranches adossées ; la largeur en varie donc avec le nombre\ndes tranches.\n\n2° Sarment taillé fort court.\n\n3° Terme de construction. Pièce de bois de sapin équarrie.\n\nÉTYMOLOGIE\nCe mot dans le sens de sarment vient du bas latin billa, pièce de bois,\nrameau (voy. BILLE 2) ; dans le sens de ados, il est vraisemblable qu'il\nen vient aussi par l'assimilation de l'ados à une poutre, à une solive.\n\nSUPPLÉMENT AU DICTIONNAIRE\n2. BILLON. Ajoutez :\n\n4° Un des noms vulgaires de la vesce.
billonnage	BILLONNAGE\n bi-llo-na-j, ll mouillées, et non bi-yo-na-j' s. m.\n\n1° Délit de celui qui fait un trafic illégal de monnaies défectueuses.\n\n2° Terme de monnaies. Opération dite aussi triage, qui consiste à trier\nles pièces qui excèdent le poids pour les fondre.\n\n3° Sur-achat de monnaies d'or ou d'argent, pour les exporter ou les\nfondre.\n\n4° Mélange prohibé des matières de billon.\n\nÉTYMOLOGIE\nBillonner 1.
billonnage	BILLONNAGE\n bi-llo-na-j', ll mouillées s. m.\nTerme d'agriculture. Labourage en billons.\n\nÉTYMOLOGIE\nBillonner 2.
billonnement	BILLONNEMENT\n bi-llo-ne-man, ll mouillées s. m.\nAction de billonner.\n\nÉTYMOLOGIE\nBillonner 1.\n\nSUPPLÉMENT AU DICTIONNAIRE\nBILLONNEMENT. Ajoutez : à l'égard de ce que vous appelez billonnement,\nen cas que ce ne soit autre chose.... qu'un commerce d'espèces d'argent\nqui passe continuellement d'Espagne en France, par l'industrie des\nhabitants des frontières.... Lettres, etc. de Colbert, t. VI, p. 65.
billonner	BILLONNER\n bi-llo-né, ll mouillées, et non bi-yo-né v. a.\nFaire un trafic illégal de monnaies défectueuses.\nAcheter les monnaies d'or ou d'argent pour les exporter ou les fondre.\n\nHISTORIQUE\nXVIe s.\nVous ne faites que commuer, alterer et billonner tout l'argent qui vient\nde France, CARLOIX, VI, 9.\n\nÉTYMOLOGIE\nBillon 1.
billonner	BILLONNER\n bi-llo-né, ll mouillées, et non bi-yo-né v. n.\n\n1° Terme d'agriculture. Labourer en billons.\n\n2° Châtrer un animal.\n\nÉTYMOLOGIE\nBillon 2.
billonnette	BILLONNETTE\n bi-llo-nè-t', ll mouillées s. f.\nNom, dans l'Oise, de branches de futaie de 98 centimètres de longueur, ,\nles Primes d'honneur, Paris, 1872, p. 70.
billonneur	BILLONNEUR\n bi-llo-neur, ll mouillées, et non bi-yo-neur s. m.\nCelui qui se rend coupable de billonnage, qui a l'habitude de billonner.\n\nHISTORIQUE\nXVIe s.\nLa pluspart faulx monnoyeurs, souffleurs d'alquemye et billonneux,\nCARLOIX, VI, 34.\nAyant mis à part deux cents escus en pieces {fausses} de dix souls pour\nles vendre à un billonneur, D'AUB., Faen. IV, 10.\n\nÉTYMOLOGIE\nBillonner 1.
billot	BILLOT\n bi-llo, ll mouillées, et non bi-yo ; le t ne se lie pas dans le parler\nordinaire ; au pluriel, l's se lie : des billots épais, dites : des\nbi-llo-z épais : billots rime avec repos, maux, etc. s. m.\n\n1° Gros tronçon de bois à hauteur d'appui, aplani sur sa partie\nsupérieure. Un billot de cuisine. Couper, hacher de la viande sur un\nbillot.\n\n2° Bloc de bois sur lequel on appuie la tête d'un homme condamné à être\ndécapité.\nFig. et par exagération. J'en mettrais ma tête, ma main sur le billot,\nje garantis ce que j'avance de la manière la plus formelle.\n\n3° Fig. Un livre trop gros, trop épais pour son format.\n\n4° Bâton qu'on attache le long du flanc des chevaux que l'on conduit les\nuns à la suite des autres.\nMors de bois qu'on emploie pour le cheval, et qu'on entoure de\nsubstances médicamenteuses.\nBâton qu'on suspend au cou des chiens pour les empêcher de chasser ; au\ncou des chevaux et des vaches pour les empêcher de courir.\nLes maréchaux appellent billot un tronçon d'arbre sur lequel ils\ncontre-percent les trous du fer à cheval ou placent l'enclume.\nMorceau de bois sur lequel le cordonnier frappe les semelles.\n\nHISTORIQUE\nXIVe s.\nFut donné congié à Jehan le Febvre carbartier de pendre le billot\n{billot, la pancarte du péage, ainsi dite du pieu, du billot auquel elle\nétait attachée} au pont de Thasnes pour receuiller {recueillir} le\ntravers mons. de Heilly, DU CANGE, billonus.\nPrenez un billot qui ayt ung demi pié de long, et l'aplanez à ung bout,\n, Modus, f° CXXIV, verso.\n\nÉTYMOLOGIE\nDiminutif de bille, pièce de bois (voy. BILLE 2) ; provenç. bilho. On\ntrouve aussi dans la bouche du peuple, billot pour gros bâton : il est\narmé d'un billot. Billot avec ce sens n'est plus du bon langage ; mais\nil en a été : billot, diminutif de bille, pouvant aussi bien signifier\nune grosse branche qu'un tronçon de l'arbre.\n\nSUPPLÉMENT AU DICTIONNAIRE\nBILLOT. - HIST. Ajoutez :\nXVIe s.\nPour le debvoir d'impost de chacune pipe de vin, hors le creu nantois,\ndoit XLV sols VIII deniers.... pour le debvoir de billot....,\nMANTELLIER, Glossaire, p. 13.
bilobé, ée	BILOBÉ, ÉE\n bi-lo-bé, bée adj.\nTerme d'histoire naturelle. Qui est partagé en deux lobes ; et, en\nbotanique, quelquefois synonyme de dicotylédoné.\n\nÉTYMOLOGIE\nBi pour bis, et lobe (voy. LOBE).
biloculaire	BILOCULAIRE\n bi-lo-cu-lê-r' adj.\nTerme d'histoire naturelle. Qui renferme deux loges.\n\nÉTYMOLOGIE\nBi pour bis, et loculus, loge, diminutif de locus (voy. LIEU).
biloquer	BILOQUER\n bi-lo-ké v. a.\nFaire un premier labour très profond avant l'hiver.
bilunulé, ée	BILUNULÉ, ÉE\n bi-lu-nu-lé, lée adj.\nTerme didactique.. Qui est marqué de deux taches en forme de petit\ncroissant.\n\nÉTYMOLOGIE\nBi pour bis, et lunule, petite lune.
bimaculé, ée	BIMACULÉ, ÉE\n bi-ma-ku-lé, lée adj.\nTerme didactique.. Qui est marqué de deux taches.\n\nÉTYMOLOGIE\nBi pour bis, et maculé.
bimane	BIMANE\n bi-ma-n' adj.\nTerme d'histoire naturelle. Qui a deux mains. L'homme est le seul animal\nbimane.\nS. m. plur. Bimanes, ordre de la classe des mammifères, qui a pour\ncaractère, entre autres, deux mains à pouces opposables. Cette famille\nne comprend que l'homme. L'homme est un bimane.\n\nÉTYMOLOGIE\nBi pour bis, et manus, main (voy. MAIN).
bimarginé, ée	BIMARGINÉ, ÉE\n bi-mar-ji-né, née adj.\nTerme d'histoire naturelle. Qui offre deux bords ou deux bordures.\n\nÉTYMOLOGIE\nBi pour bis, et marge.
bimastoidien, ienne	BIMASTOIDIEN, IENNE\n bi-ma-sto-i-diin, dièn' adj.\nQui va d'une apophyse mastoïde à l'autre. La largeur bimastoïdienne du\ncrâne.
bimbelot	BIMBELOT\n bin-be-lo ; le t ne se lie pas dans le parler ordinaire ; au pluriel\nl's se lie : des bimbelots élégants, dites : des bin-be-lo-z élégants ;\nbimbelots rime avec repos, maux s. m.\nTout jouet d'enfants.\n\nÉTYMOLOGIE\nNorm. bimbelot, trousseau ; picard, bibelots ; sans doute d'un radical\nbimb ou bamb, qui se trouve dans bambin.
bimbeloterie	BIMBELOTERIE\n bin-be-lo-te-rie s. f.\n\n1° Fabrication, commerce de bimbelots.\n\n2° Marchandises qui consistent en bimbelots. Acheter de la bimbeloterie.\n\nÉTYMOLOGIE\nBimbelot.
bimbelotier, ière	BIMBELOTIER, IÈRE\n bin-be-lo-tié, tiê-r' s. m. et f.\nCelui, celle qui fabrique, qui vend des bimbelots.\n\nÉTYMOLOGIE\nBimbelot.
bimensuel, elle	BIMENSUEL, ELLE\n bi-man-su-èl, è-l' adj.\nQui se fait, qui paraît tous les deux mois, par opposition à\nsemi-mensuel, qui s'applique à ce qui se fait, qui paraît deux fois par\nmois.\n\nREMARQUE\nC'est une erreur de prendre bimensuel pour exprimer deux fois par mois.\nBisannuel signifie non pas deux fois par an, mais qui se fait tous les\ndeux ans, qui dure deux ans. Bimensuel ne veut pas plus dire deux fois\npar mois que trimestriel ne veut dire trois fois par mois.
bimestre	BIMESTRE\n bi-mè-str' adj.\nDe deux mois.\n\nÉTYMOLOGIE\nBimestris, de bi pour bis, et mensis, mois (voy. MOIS).
bimucroné, ée	BIMUCRONÉ, ÉE\n bi-mu-kro-né, née adj.\nTerme d'histoire naturelle. Qui est garni de deux pointes.\n\nÉTYMOLOGIE\nBi pour bis, et mucro, pointe.
bimétallique	BIMÉTALLIQUE\n bi-mé-tal-li-k' adj.\nQui a rapport au bimétallisme. La Monnaie bimétallique, par Henri\nCernuschi, Paris, 1876.
bimétallisme	BIMÉTALLISME\n bi-mé-tal-li-sm' s. m.\nSystème de monnaie à double étalon, par opposition à monométallisme (ces\nmots sont dus à M. Cernuschi), , le Temps, 25 nov. 1875, 2e page, 1re\ncol.\n\nÉTYMOLOGIE\nBi..., et métal.
binage	BINAGE\n bi-na-j' s. m.\n\n1° Terme d'agriculture. Action de biner. Donner un binage.\n\n2° Terme de discipline ecclésiastique. Action d'un prêtre qui célèbre\ndeux messes le même jour dans deux lieux différents.\n\nHISTORIQUE\nXVIe s.\nDis muis de binage {sorte de prestation} pris et receus chascun an, DU\nCANGE, binagium.\n\nÉTYMOLOGIE\nBiner.
binaire	BINAIRE\n bi-nê-r' adj.\n\n1° Terme d'arithmétique. Qui est composé de deux unités.\nL'idée du nombre infini diffère du nombre binaire, DESC, Rép. 2.\nSystème binaire, celui où tous les nombres s'expriment avec les deux\nchiffres 1 et 0.\nSubstantivement.\nDeux binaires font le quaternaire, PASC., Géom.\n\n2° Terme de chimie. Qui est composé de deux éléments. Une combinaison\nbinaire.\n\n3° Terme de musique. Mesure binaire, mesure à deux temps.\n\nÉTYMOLOGIE\nBinarius, de bis, deux (voy. BIS).
binairement	BINAIREMENT\n bi-nê-re-man adv.\nD'une façon binaire. Une première combinaison binaire combinée\nbinairement avec une deuxième combinaison binaire.
binard	BINARD\n bi-nar s. m.\nGros chariot à quatre roues d'égale hauteur, pour le transport des\npierres de taille, des lourds fardeaux.\n\nÉTYMOLOGIE\nBinus, double, de bis, deux ; ainsi dit parce que les deux paires de\nroues sont égales.
binauriculaire	BINAURICULAIRE\n bi-nô-ri-ku-lê-r' adj.\nQui appartient aux deux oreilles.\nPerception binauriculaire, LE ROUX, Acad. des sc. Comptes rendus, t.\nLXXX, p. 1073.\n\nÉTYMOLOGIE\nLat. bini, deux, et auriculaire.
bine	BINE\n bi-n' s. f.\nInstrument de labour.\n\nÉTYMOLOGIE\nVoy. BINER.
biner	BINER\n bi-né v. a.\n\n1° Terme d'agriculture. Donner une seconde façon aux terres, aux vignes.\nLabourer, biner, tenir la charrue, J. J. ROUSSEAU, Ém. II.\n\n2° Terme de jardinage. Briser dans une plantation de légumes la\nsuperficie de la terre à six ou huit centimètres de profondeur avec une\nbêche ou une binette pour qu'elle ne durcisse pas, et pour détruire les\nmauvaises herbes qui commencent à pousser.\n\n3° V. n. Dire deux messes le même jour dans deux églises différentes.\n\nHISTORIQUE\nXVe s.\nAprès ce que Bertaut eust aré et re-biné la caneviere, DU CANGE,\ncanaveria.\nLa seconde oeuvre, dite bisner : sera bon, en mesme temps qu'on bisne la\nvigne, qu'en certains endroits de Languedoc on appelle reclorre, de la\nfaire espamprer et esbourgeonner, O. DE SERRES, 174.\nOn la laboure ou houe au mois de mars : à la mi-mai, on la bisne : et on\nla tierce à la Saint-jan, O. DE SERRES, 182.\n\nÉTYMOLOGIE\nBas-lat. binare, de binus, double, de bis, deux (voy. BIS).
binervé, ée	BINERVÉ, ÉE\n bi-nèr-vé, vée adj.\nTerme de botanique. Qui offre deux nervures.\n\nÉTYMOLOGIE\nBi pour bis, et nervus, nervure.
binet	BINET\n bi-nè s. m.\nPetit morceau de laiton ayant une queue qu'on met dans la bobèche du\nchandelier, et, au milieu, une pointe de fer où l'on fiche le bout de\nchandelle qui reste à brûler.\nFaire binet, attacher sur le bord d'un chandelier un petit bout de\nchandelle pour le brûler.\nElle {Mme Cornuel} disoit que Sanguin, le médecin, faisoit binet de M.\nle duc d'Elboeuf, parce qu'il le faisoit vivre par miracle après son\napoplexie, TALL., DES RÉAUX, Histor. t. IX, p. 56.\nFig. Faire binet, user de son reste.\n\nÉTYMOLOGIE\nAinsi dit probablement parce qu'on bine, c'est-à-dire double la bobèche\ndu chandelier en plaçant dessus une autre bobèche, ou parce qu'on double\nou allonge la chandelle.
binet	BINET\n binè s. m.\nVoy. BINOT.
binette	BINETTE\n bi-nè-t' s. f.\nMot très familier. Tête ridicule. Les binettes contemporaines.\n\nÉTYMOLOGIE\nLes perruques de Louis XIV furent dites binettes, de Binet, le premier\nfaiseur du roi après la Vienne, FEUILLET DE CONCHES, Caus. d'un cur., t.\nII, p. 226.
binette	BINETTE\n bi-nè-t' s. f.\nInstrument de jardinage pour biner.\n\nÉTYMOLOGIE\nBiner.\n\nSUPPLÉMENT AU DICTIONNAIRE\n1. BINETTE. Ajoutez :\n\nPROVERBE\nProverbe rural. On peut rappeler ce proverbe du midi de la France : Une\nbonne binette (ou, autrement dit, un sarclage) vaut un arrosage, Rebois.\ndes montagnes, compte rendu 1869-1874, 7e fasc. p. 98.
biniou	BINIOU\n bi-ni-ou s. m.\nNom breton d'une espèce de cornemuse dont on fait grand usage en\nBretagne.
binochon	BINOCHON\n bi-no-chon s. m.\nPetite binette, outil pour sarcler les oignons.
binocle	BINOCLE\n bi-no-kl' s. m.\n\n1° Sorte de double lorgnon à charnière ou de besicles qu'on tient à la\nmain, et qui diffère de la jumelle en ce que celle-ci présente une\npetite lorgnette à chaque oeil, tandis que le binocle ne présente qu'un\nseul verre à chaque oeil.\n\n2° En chirurgie, sorte de bandage roulé, aussi appelé diophthalme,\ndestiné à maintenir un appareil sur les deux yeux.\n\nÉTYMOLOGIE\nBinus, double, de bis, deux (voy. BIS), et oculus, oeil (voy. OEIL).
binoculaire	BINOCULAIRE\n bi-no-ku-lê-r' adj.\nTerme didactique.. Qui est pour deux yeux. Télescope binoculaire.\nQui se fait par les deux yeux. Vision binoculaire.\n\nÉTYMOLOGIE\nVoy. BINOCLE.
binoculé, ée	BINOCULÉ, ÉE\n bi-no-ku-lé, lée adj.\nTerme d'histoire naturelle. Qui a deux yeux. Les binoculés, les insectes\nqui ont deux yeux.\n\nÉTYMOLOGIE\nBini, deux, et oculi, yeux.
binot	BINOT\n bi-no s. m.\nSorte de charrue légère.\n\nÉTYMOLOGIE\nBiner.
binotage	BINOTAGE\n bi-no-ta-j' s. m.\nAction de binoter.\n\nÉTYMOLOGIE\nBinoter.
binoter	BINOTER\n bi-no-té v. a.\nLabourer avec le binot.\n\nHISTORIQUE\nXVe s.\nTrente journaux de terre binotés, DU CANGE, binota.\nXVIe s.\nTrois mencaudées de terre qu'il doit binotter, DU CANGE, ib.\n\nÉTYMOLOGIE\nBinot.
biné, ée	BINÉ, ÉE\n bi-né, née part. passé.\nTerre bien binée.
binée	BINÉE\n bi-née s. f.\nPetite auge pour donner à manger aux boeufs.
binôme	BINÔME\n bi-nô-m' s. m.\nTerme d'algèbre. Quantité composée de deux termes unis par les signes +\n{plus} ou - {moins}.\nDivisé par un binôme, DESC., Géom. 3.\n\nÉTYMOLOGIE\nOn trouve, dans le bas-lat. binomius, signifiant qui a deux noms ; mais\nmonôme empêche qu'on ne rattache binôme à binomius. Il faut y voir un\nmot composé par rapport à monôme (voy. ce mot), comme billion, trillion\nle sont par rapport à million, c'est-à-dire bi, tri, signifiant deux,\ntrois, avec la finale du mot.
bio-	BIO-\npréfixe\nPréfixe qui signifie vie, et qui vient du mot grec, vie (voy. ce mot).
biochimie	BIOCHIMIE\n bi-o-chi-mie s. f.\nBranche de la biologie qui traite de la constitution chimique des\nsubstances produites par l'action de la vie.\n\nÉTYMOLOGIE\nTerme grec signifiant vie (voy. VIVRE), et chimie.
biodynamique	BIODYNAMIQUE\n bi-o-di-na-mi-k' s. f.\nThéorie des forces vitales.\n\nÉTYMOLOGIE\nBio.... et dynamique.
biographe	BIOGRAPHE\n bi-o-gra-f' s. m.\nAuteur qui a écrit une ou plusieurs biographies.\n\nÉTYMOLOGIE\nTermes grecs signifiant vie (voy. VIVRE), et écrire (voy. GRAPHIQUE).
biographie	BIOGRAPHIE\n bi-o-gra-fie s. f.\nSorte d'histoire qui a pour objet la vie d'une seule personne.\n\nÉTYMOLOGIE\nBiographe.
biographique	BIOGRAPHIQUE\n bi-o-gra-fi-k' adj.\n\n1° Qui a rapport à la biographie. Détails biographiques.\n\n2° Qui contient une ou plusieurs biographies. Notice, dictionnaire\nbiographique.\n\nÉTYMOLOGIE\nBiographe.
biographiquement	BIOGRAPHIQUEMENT\n bi-o-gra-fi-ke-man adv.\nAu point de vue biographique.\nSur le fond d'une existence terne {il s'agit de Rembrandt}, neutre et\nbiographiquement assez confuse, FROMENTIN, les Maîtres d'autrefois, p.\n399.
biologie	BIOLOGIE\n bi-o-lo-jie s. f.\nScience qui a pour sujet les êtres organisés, et dont le but est\nd'arriver, par la connaissance des lois de l'organisation, à connaître\nles lois des actes que ces êtres manifestent. Ce mot, créé par un\nnaturaliste allemand, Treviranus, a été employé, pour la première fois,\npar Lamarck, dans son Hydrologie, 1802, et dans son Discours d'ouverture\nsur la question de l'espèce, 1803 (voy. IS. G. ST-HILAIRE, Hist natur.\nt. I, p. 167).\n\nÉTYMOLOGIE\nTermes grecs signifiant vie (voy. VIVRE), et doctrine (voy. LOGIQUE).
biologique	BIOLOGIQUE\n bi-o-lo-ji-k' adj.\nTerme didactique.. Qui concerne la biologie. Phénomènes biologiques,\nceux qui appartiennent en propre aux corps organisés.\n\nÉTYMOLOGIE\nBiologie.
biologiste	BIOLOGISTE\n bi-o-lo-ji-st' s. m.\nCelui qui est livré à l'étude de la biologie.
biomètre	BIOMÈTRE\n bi-o-mè-tr' s. m.\nTerme didactique.. Mémorial horaire indiquant les heures de la vie et\nleur emploi.\n\nÉTYMOLOGIE\nterme grec signifiant vie (voy. VIVRE), et mètre.
biométrie	BIOMÉTRIE\n bi-o-mé-trie s. f.\nConnaissance des lois qui régissent la durée de la vie.\n\nÉTYMOLOGIE\nDu grec, vie, et, mesure.
biométrique	BIOMÉTRIQUE\n bi-o-mé-tri-k' adj.\nQui a rapport à la biométrie.
bion	BION\n bi-on s. m.\nOutil du verrier pour inciser la bosse, qui est le verre soufflé.
bionguiculé, ée	BIONGUICULÉ, ÉE\n bi-on-gui-ku-lé, lée ; prononcez ui comme dans huile adj.\nTerme d'histoire naturelle. Qui a deux ongles.\n\nÉTYMOLOGIE\nBi et unguicule, petit ongle (voy. ONGLE).
bionomie	BIONOMIE\n bi-o-no-mie s. f.\nTerme didactique.. Synonyme inusité de biologie.\n\nÉTYMOLOGIE\nTermes grecs signifiant vie (voy. VIVRE), et loi.
biosson	BIOSSON\n bi-o-son s. m.\nSorte de poire sauvage.\nTristan.... fait une ample moisson de cornouilles et de biossons, dont\nil savoure la chair âpre et aigrelette, A. THEURIET, Rev. des\nDeux-Mondes, 1er nov. 1875, p. 101.
biotaxie	BIOTAXIE\n bi-o-ta-ksie s. f.\nL'une des branche de la biologie, qui a pour sujet les êtres organisés\nconsidérés à l'état statique (en tant qu'aptes à agir), et pour but la\ncoordination de tous les organismes connus en une hiérarchie destinée\nensuite à servir de base à l'ensemble des spéculations biologiques.\n\nÉTYMOLOGIE\nTermes grecs signifiant vie (voy. VIVRE), et ordre (voy. TACTIQUE).
biotaxique	BIOTAXIQUE\n bi-o-ta-ksi-k' adj.\nTerme didactique.. Qui a rapport à la biotaxie.\n\nÉTYMOLOGIE\nBiotaxie.
biotechnie	BIOTECHNIE\n bi-o-tè-knie s. f.\nTerme didactique.. L'art d'utiliser les animaux et les végétaux.\n\nÉTYMOLOGIE\nTermes grecs signifiant vie, et art.
biotique	BIOTIQUE\n bi-o-ti-k' adj.\nTerme de physiologie. Qui a rapport à la vie.\nTrès peu usité.\n\nÉTYMOLOGIE\nTerme grec signifiant vie.
bioxyde	BIOXYDE\n bi-o-ksi-d' s. m.\nTerme de chimie. Nom générique des oxydes non acides qui renferment 2\nd'oxygène pour 1 d'un autre corps simple.\n\nÉTYMOLOGIE\nBi pour bis, et oxyde.
biparasite	BIPARASITE\n bi-pa-ra-zi-t' adj.\nTerme d'histoire naturelle. Qui vit en parasite sur un parasite.\n\nÉTYMOLOGIE\nBi pour bis, et parasite.
bipariétal, ale	BIPARIÉTAL, ALE\n bi-pa-ri-é-tal, ta-l' adj.\nTerme d'anatomie. Qui a rapport aux deux pariétaux. Diamètre bipariétal,\ndiamètre transversal de la tête qui s'étend d'une bosse pariétale à\nl'autre.\n\nÉTYMOLOGIE\nBi et pariétal.
biparti, ie	BIPARTI, IE\n bi-par-ti, tie adj.\nTerme d'histoire naturelle. Divisé en deux.\nFeuille bipartie, feuille divisée de manière que la scissure excède\nmanifestement le milieu de la longueur.\n\nÉTYMOLOGIE\nBi pour bis, et partitus, partagé (voy. PARTIR, au sens de partager).
bipartible	BIPARTIBLE\n bi-par-ti-bl' adj.\nTerme didactique.. Qui peut se diviser en deux parties.\n\nÉTYMOLOGIE\nVoy. BIPARTI.
bipartition	BIPARTITION\n bi-par-ti-sion s. f.\nTerme didactique.. Division en deux parties.\n\nÉTYMOLOGIE\nBiparti.
bipelté, ée	BIPELTÉ, ÉE\n bi-pèl-té, tée adj.\nTerme de zoologie. Qui porte deux cuirasses ou deux boucliers.\n\nÉTYMOLOGIE\nBi pour bis, et pelta, bouclier.
bipenne	BIPENNE\n bi-pè-n' adj.\nTerme de zoologie. Qui a deux ailes. Les insectes bipennes ou,\nsubstantivement, les bipennes, autre nom des diptères.\n\nÉTYMOLOGIE\nBi, deux, et penna, aile.\n\nSUPPLÉMENT AU DICTIONNAIRE\n2. BIPENNE (bi-pè-n'), s. f. Terme d'antiquité. Hache à deux tranchants.\nIl {le Jupiter de la Carie} est représenté la bipenne sur l'épaule,\nFOUCARD, Des Associations religieuses chez les Grecs, p. 106.\nLa bipenne caractérise particulièrement les Amazones dans l'art grec, F.\nDELAUNAY, Journ. offic. 11 juill. 1876, p. 5032, 1re col.\n\nÉTYMOLOGIE\nLat. bipennis, hache à deux tranchants.
bipenné, ée	BIPENNÉ, ÉE\n bi-pè-nné, née adj.\nTerme d'histoire naturelle. Qui est muni de deux ailes.\n\nÉTYMOLOGIE\nVoy. BIPENNE.
biphore	BIPHORE\n bi-fo-r' s. f.\nFausse orthographe pour bifore (voy. ce mot).
bipinné, ée	BIPINNÉ, ÉE\n bi-pi-nné, née adj.\nTerme de botanique. Feuilles bipinnées, feuilles dont le pétiole commun\nporte latéralement des pétioles secondaires garnis de folioles.\n\nÉTYMOLOGIE\nBi pour bis, et pinné.
bipolaire	BIPOLAIRE\n bi-po-lè-r' adj.\nTerme de physique. Qui a deux pôles ; qui jouit de la bipolarité.\n\nÉTYMOLOGIE\nBi pour bis, et polaire.
bipolarité	BIPOLARITÉ\n bi-po-la-ri-té s. f.\nTerme de physique. État d'un corps qui, animé d'électricité magnétique,\na deux pôles doués d'une vertu contraire. La bipolarité d'un aimant. La\npile voltaïque présente la bipolarité, ayant deux pôles, un positif,\nl'autre négatif.\n\nÉTYMOLOGIE\nBi pour bis, et polarité.
bipyramidal, ale	BIPYRAMIDAL, ALE\n bi-pi-ra-mi-dal, da-l' adj.\nTerme de cristallographie. Qui offre deux pyramides.\nCristaux très nets, bipyramidaux, DAUBRÉE, Acad. des sc. Compt. rend. t.\nLXXX, p. 464.
bipède	BIPÈDE\n bi-pè-d' adj.\n\n1° Qui marche à deux pieds, en parlant des animaux.\n\n2° S. m.\nIl y a de meilleures raisons pour soutenir que l'homme est un bipède, J.\nJ. ROUSS., Orig. notes.\nTout tient au caprice de deux ou trois bipèdes sans plumes qui se jouent\nde l'espèce humaine, P. L. COUR., Lett. I, 80.\n\n3° En termes de manége, un bipède est la réunion de deux membres du\ncheval considérés ensemble. Bipède antérieur ; bipède postérieur ;\nbipède latéral droit et gauche ; bipède diagonal, composé d'un membre\nantérieur d'un côté et d'un membre postérieur du côté opposé. On\ndistingue le bipède diagonal droit ou gauche par le côté auquel\nappartient le membre antérieur.\n\nÉTYMOLOGIE\nBi pour bis, et pes, pedis, pied (voy. PIED).
bipédal, ale	BIPÉDAL, ALE\n bi-pé-dal, da-l' adj.\nQui a la mesure de deux pieds.\nAu plur. Des troncs bipédaux.\n\nHISTORIQUE\nXVIe s.\nLa France n'est pas un morceau pour sa bouche, quelque bipedale qu'elle\nsoit, non plus que Geneve, Genes, , Sat. Mén. p. 178.\n\nÉTYMOLOGIE\nBipedalis, de bis deux, et pes, pedis, pied (voy. PIED).
bipétalé, ée	BIPÉTALÉ, ÉE\n bi-pé-ta-lé, lée adj.\nTerme de botanique. Qui a deux pétales.\n\nÉTYMOLOGIE\nBi et pétale.
biquadratique	BIQUADRATIQUE\n bi-koua-dra-ti-k' adj.\nTerme de mathématiques. Puissance biquadratique, quatrième puissance,\ncarré multiplié par lui-même.\n\nÉTYMOLOGIE\nBi pour bis, et quadratique qui, vient de quadratus, carré (voy. CARRÉ).
bique	BIQUE\n bi-k' s. f.\n\n1° Nom familier de la chèvre.\nLa bique allant remplir sa traînante mamelle, LA FONT., Fabl. IV, 14.\n\n2° Voy. BOUQUET.\n\nÉTYMOLOGIE\nDe même radical que l'italien becco, bouc, qui, ainsi que le remarque\nDiez, est différent du radical de bouc, allemand Bock, l'o n'ayant pu se\nchanger en e ou en i.
biquet	BIQUET\n bi-kè s. m.\n\n1° Le petit d'une bique.\nNon sans dire à son biquet, LA FONT., Fabl. IV, 15.\n\n2° Trébuchet pour peser la monnaie d'or ou d'argent.\n\nHISTORIQUE\nXIVe s.\nBichot sauvage, , Ménagier, II, 5.\nXVe s.\nLe suppliant prinst une custode d'arain à un biquet {sorte de support},\nDU CANGE, custoda.\n\nÉTYMOLOGIE\nBique ; nivernais, bigot ; Berry, biget, biquiat, biquion ; namurois,\nbiquet, lièvre mâle.
biqueter	BIQUETER\n bi-ke-té ; le t se double quand la syllabe qui suit est muette : notre\nchèvre biquette, biquettera ; orthographe qui est conforme à celle de\nbiquette, s. f. ; autrement, on pourrait écrire : elle biquète,\nbiquètera ; l'Académie ne dit rien\n1° V. n. Mettre bas, en parlant des chèvres.\n\n2° V. a. Peser avec un biquet.\n\nÉTYMOLOGIE\nBiquet.
biquette	BIQUETTE\n bi-kè-t' s. f.\nJeune chèvre.\n\nÉTYMOLOGIE\nDiminutif de bique.
biquintile	BIQUINTILE\n bi-kuin-ti-l' adj. m.\nAncien terme d'astronomie. Aspect biquintile, position relative de deux\nplanètes éloignées l'une de l'autre des 2/5 de 360° ou de 144°.\n\nÉTYMOLOGIE\nBi pour bis, et quintil.
