pseudo-béryl	PSEUDO-BÉRYL\n pseu-do-bé-ril s. m.\nTerme de minéralogie. Quartz hyalin verdâtre.
pseudo-catholique	PSEUDO-CATHOLIQUE\n pseu-do-ka-to-li-k' adj.\nQui a un faux caractère de catholicisme.\n\nHISTORIQUE\nXVIe s.\nPseudo-catholique, , Sat. Mén. De l'ordre tenu pour les séances.
pseudo-chrysolithe	PSEUDO-CHRYSOLITHE\n pseu-do-kri-zo-li-t' s. f.\nTerme de minéralogie, Péridot.
pseudo-cobalt	PSEUDO-COBALT\n pseu-do-ko-balt' s. m.\nTerme de minéralogie. Nickel arsenical.
pseudo-continu, ue	PSEUDO-CONTINU, UE\n pseu-do-kon-ti-nu, nue adj.\nTerme de médecine. Qui prend le caractère des fièvres continues, en\nparlant des fièvres intermittentes et rémittentes.
pseudo-continuité	PSEUDO-CONTINUITÉ\n pseu-do-kon-ti-nu-i-té s. f.\nCaractère des fièvres pseudo-continues.
pseudo-cotylédon	PSEUDO-COTYLÉDON\n pseu-do-ko-ti-lé-don s. m.\nTerme de botanique. Synonyme de proembryon.
pseudo-cristal	PSEUDO-CRISTAL\n pseu-do-kri-stal s. m.\nTerme de minéralogie. Forme cristalline appartenant à un autre minéral\nque celui qui l'offre accidentellement.
pseudo-croup	PSEUDO-CROUP\n pseu-do-kroup' s. m.\nTerme de médecine. Maladie aiguë qui simule les principaux symptômes du\ncroup, mais qui s'en distingue essentiellement, parce qu'elle n'a point\nde fausses membranes et qu'elle est peu dangereuse.\n\nÉTYMOLOGIE\nPseudo..., et croup.
pseudo-grenat	PSEUDO-GRENAT\n pseu-do-gre-na s. m.\nTerme de minéralogie. Quartz hyalin orangé.
pseudo-iris	PSEUDO-IRIS\n pseu-do-i-ris' s. m.\nGlaïeul jaune.
pseudo-kinique	PSEUDO-KINIQUE\n pseu-do-ki-ni-k' adj.\nTerme de chimie. Acide pseudo-kinique, acide particulier, découvert dans\nl'écorce du strychnos pseudo-kina, apocynées.\n\nÉTYMOLOGIE\nPseudo..., et kinique.
pseudo-malachite	PSEUDO-MALACHITE\n pseu-do-ma-la-ki-t' s. f.\nTerme de minéralogie. Cuivre phosphaté.
pseudo-martyr	PSEUDO-MARTYR\n pseu-do-mar-tir s. m.\nMartyr pour une mauvaise cause.\n\nÉTYMOLOGIE\nPseudo..., et martyr.
pseudo-membrane	PSEUDO-MEMBRANE\n pseu-do-man-bra-n' s. f.\nTerme d'anatomie pathologique. Fausse membrane.\n\nÉTYMOLOGIE\nPseudo..., et membrane.
pseudo-membraneux, euse	PSEUDO-MEMBRANEUX, EUSE\n pseu-do-manbra-neû, neû-z' adj.\nQui a rapport aux fausses membranes.
pseudo-médecin	PSEUDO-MÉDECIN\n pseu-do-mé-de-sin s. m.\nMédicastre, charlatan.
pseudo-platane	PSEUDO-PLATANE\n pseu-do-pla-ta-n' s. m.\nEspèce d'érable, acer pseudoplatanus, L.\n\nÉTYMOLOGIE\nPseudo..., et platane.
pseudo-pleurésie	PSEUDO-PLEURÉSIE\n pseu-do-pleu-ré-zie s. f.\nTerme de médecine. Nom donné quelquefois à la pleurodynie.\n\nÉTYMOLOGIE\nPseudo..., et pleurésie.
pseudo-prophète	PSEUDO-PROPHÈTE\n pseu-do-pro-fè-t' s. m.\nFaux prophète.\n\nHISTORIQUE\nXIIIe s.\nLes ypocrites perilleus, Desquex l'escriture recete {recite} Que ce sunt\nli pseudo-prophete, , la Rose, 19550.
pseudo-périptère	PSEUDO-PÉRIPTÈRE\n pseu-do-pé-ri-ptè-r' s. m.\nÉdifice auquel manquent quelques-unes des conditions du périptère.\nCe que dit Vitruve, que la cella était bâtie dorico more, donne à\nprésumer que c'était un pseudo-périptère, c'est-à-dire qu'il y avait un\nordre dorique engagé dans le mur, QUATREMÈRE DE QUINCY, Instit. Mém.\nhist. et litt. anc. t. III, p. 259.
pseudo-saphir	PSEUDO-SAPHIR\n pseu-do-sa-fir s. m.\nTerme de minéralogie. Quartz bleu.
pseudo-science	PSEUDO-SCIENCE\n pseu-do-si-an-s' s. f.\nTerme hybride employé par quelques auteurs pour désigner une fausse\nscience, une prétendue science. L'astrologie était une pseudo-science.\n\nÉTYMOLOGIE\nPseudo..., et science.
pseudo-topaze	PSEUDO-TOPAZE\n pseu-do-to-pa-z' s. f.\nTerme de minéralogie. Quartz d'un jaune plus ou moins enfumé ou doré.
pseudo-volcanique	PSEUDO-VOLCANIQUE\n pseu-do-vol-ka-ni-k' adj.\nTerme de minéralogie. Qui a été altéré par l'action de feux souterrains\naccidentels.
pseudo-émeraude	PSEUDO-ÉMERAUDE\n pseu-do-é-me-rô-d' s. f.\nTerme de minéralogie. Quartz hyalin vert.
pseudoblepsie	PSEUDOBLEPSIE\n pseu-do-blè-psie s. f.\nTerme de médecine. Nom sous lequel on comprend les diverses perversions\ndu sens de la vue.\n\nÉTYMOLOGIE\nPseudo..., et du grec, vue.
pseudocarpe	PSEUDOCARPE\n pseu-do-kar-p' s. m.\nTerme de botanique. Nom donné au cône globuleux et bacciforme du\ngenévrier.\n\nÉTYMOLOGIE\nPseudo..., et du grec, fruit.
pseudocarpien, ienne	PSEUDOCARPIEN, IENNE\n pseu-do-kar-piin, piè-n' adj.\nTerme de botanique. Se dit d'un fruit masqué par d'autres parties qui\nsemblent le constituer, et des plantes qui portent de tels fruits.
pseudocubique	PSEUDOCUBIQUE\n pseu-do-ku-bi-k' adj.\nTerme de cristallographie. Qui présente une anomalie dans sa forme\ncubique.\nSubstances pseudocubiques, MALLARD, Acad. des sc. Comptes rend. t.\nLXXXII, p. 1063.\n\nÉTYMOLOGIE\nDu grec, faux, et cube.
pseudomorphique	PSEUDOMORPHIQUE\n pseu-do-mor-fi-k' adj.\nQui a rapport au pseudomorphisme. En cas de pseudomorphisme, le minéral\nremplaçant est dit pseudomorphique.
pseudomorphisme	PSEUDOMORPHISME\n pseu-do-mor-fi-sm' s. m.\nTerme de cristallographie. Substitution d'une substance à une autre,\navec conservation de la forme du minéral originaire.
pseudomorphose	PSEUDOMORPHOSE\n pseu-do-mor-fô-z' s. f.\n\n1° Terme de cristallographie. Résultat, effet du pseudomorphisme.\n\n2° Terme de physiologie. Toute augmentation anomale des parties\nnormales.\n\nÉTYMOLOGIE\nPseudo..., et, forme.
pseudomorphosé, ée	PSEUDOMORPHOSÉ, ÉE\n pseu-do-mor-fô-zé, zée adj.\nEn cas de pseudomorphisme, le minéral remplacé est dit pseudomorphosé.
pseudonyme	PSEUDONYME\n pseu-do-ni-m' adj.\n\n1° Auteur pseudonyme, auteur qui publie ses ouvrages sous un faux nom.\nSubstantivement. Un pseudonyme, un auteur pseudonyme.\n\n2° Écrit pseudonyme, écrit publié sous un nom supposé.\nOn ne saura qu'avec le temps que ce recueil {Lettres de Mme de\nPompadour} n'est que la friponnerie d'un homme d'esprit qui s'est amusé\nà faire un de ces livres que nous appelons, nous autres pédants,\npseudonymes, VOLT., Lett. Mme du Deffant, 6 juill. 1772.\n\nSYNONYME\nPSEUDONYME, CRYPTONYME, HÉTÉRONYME. Les ouvrages pseudonymes proprement\ndits paraissent sous un nom fait à plaisir. Les cryptonymes offrent le\nnom de l'auteur véritable sous la forme d'un anagramme. Les hétéronymes\nportent le nom véritable d'une autre personne.\nCotin faisait un livre hétéronyme quand il publiait ses mauvais vers\nsous le nom de Boileau, LEGOARANT, .\n\nÉTYMOLOGIE\nDu grec, faux, et, nom.
pseudonymie	PSEUDONYMIE\n pseu-do-ni-mie s. f.\nQualité d'un ouvrage pseudonyme.
pseudonéphéline	PSEUDONÉPHÉLINE\n pseu-do-né-fé-li-n' s. f.\nCristaux en prisme à six faces du terrain volcanique des environs de\nRome.
pseudopape	PSEUDOPAPE\n pseu-do-pa-p' s. m.\nFaux pape, antipape.\n\nHISTORIQUE\nXVIe s.\nL'intrus de Rome ou pseudopape qui se faisoit nommer Urbain sixieme,\nPARADIN, Chron. de Savoye, p. 322.
pseudoplasme	PSEUDOPLASME\n pseu-do-pla-sm' s. m.\nTerme de pathologie. Produit morbide de production nouvelle, et dont les\néléments ne sont pas semblables à ceux qui se rencontrent dans\nl'organisme normal.\n\nÉTYMOLOGIE\nPseudo..., et du grec, formation, produit.
pseudopode	PSEUDOPODE\n pseu-do-po-d' s. m.\nTerme d'histoire naturelle. Faux pied, nom donné à des prolongements qui\npoussent sur des animaux inférieurs, comme les amibes.\n\nÉTYMOLOGIE\nDu grec, faux, et, pied.
pseudopsie	PSEUDOPSIE\n pseu-do-psie s. f.\nTerme de médecine. Hallucination du sens de la vue.\n\nÉTYMOLOGIE\nPseudo..., et du grec, vue.
pseudoquadratique	PSEUDOQUADRATIQUE\n pseu-do-koua-dra-ti-k' adj.\nTerme de cristallographie. Qui présente une anomalie dans la forme\ncarrée.\nSubstances pseudoquadratiques, MALLARD, Acad. des sc. Comptes rend. t.\nLXXXII, p. 1064.\n\nÉTYMOLOGIE\nDu grec, faux, et quadratique.
pseudorexie	PSEUDOREXIE\n pseu-do-rè-ksie s. f.\nFaux appétit.\n\nÉTYMOLOGIE\nPseudo..., et du grec, appétit.
pseudoscope	PSEUDOSCOPE\n pseu-do-sko-p' s. m.\nSorte de stéoroscope inventé par Wheatstone, qui change, pour l'oeil, un\ncône en cornet creux, un miroir concave en un miroir convexe, un moule\nde médaille saillante en une médaille saillante.\n\nÉTYMOLOGIE\nPseudo..., et du grec, voir.
pseudosperme	PSEUDOSPERME\n pseu-do-spèr-m' adj.\nTerme de botanique. Se dit des graines appelées improprement nues, parce\nque le péricarpe est soudé avec la graine ; exemple, le caryopse.\n\nÉTYMOLOGIE\nPseudo..., et du grec, graine.
pseudépigraphe	PSEUDÉPIGRAPHE\n pseu-dé-pi-gra-f' s. m.\nNom donné aux livres bibliques qui portent de faux titres, de faux noms.\n\nÉTYMOLOGIE\nDu grec faux, et, inscrire (voy. ÉPIGRAPHE).
pseudépigraphique	PSEUDÉPIGRAPHIQUE\n pseu-dé-pi-gra-fi-k' adj.\nQui porte une fausse épigraphe, un faux titre, un faux nom d'auteur. Des\nécrits pseudépigraphiques.\n\nÉTYMOLOGIE\nPseudo..., et épigraphe.
pseudérythrine	PSEUDÉRYTHRINE\n pseu-dé-ri-tri-n' s. f.\nTerme de chimie. Un des produits obtenus de l'orseille, et qu'on nomme\naussi éther érythrique.\n\nÉTYMOLOGIE\nPseudo..., et du grec, rouge.
psiadie	PSIADIE\n psi-a-die s. f.\nNom d'un genre de synanthérées ayant au moins huit espèces, dont la\npsiadie glutineuse a été le conyza glutinosa.\n\nÉTYMOLOGIE\nDu grec, goutte, à cause que les feuilles sécrètent des gouttelettes\nvisqueuses.
psilo-	PSILO-\nMot tiré du grec et qui est employé en composition pour signifier\nglabre.
psilomélane	PSILOMÉLANE\n psi-lo-mé-la-n' s. m.\nSorte d'oxyde de manganèse naturel.
psilopode	PSILOPODE\n psi-lo-po-d' adj.\nTerme de zoologie. Qui a les jambes nues.\n\nÉTYMOLOGIE\nPsilo..., et du grec, pied.
psilète	PSILÈTE\n psi-lè-t'ou, suivant la prononciation des Grecs modernes, PSILITE,\n(psi-li-t'), s. m.\nTerme d'antiquité. Soldat d'infanterie légère chez les Grecs.\nL'infanterie légère des Grecs était de deux espèces : 1° les peltastes,\narmés d'un petit bouclier et d'un casque léger ; 2° les psilites, nom\nsous lequel on désignait les archers, les frondeurs et toutes les\ntroupes destinées à combattre isolément, Notice jointe à la carte de\nl'Empire d'Alexandre le Grand, publiée par MM. Paulin et Le Chevalier,\np. 2, 2e col\n\nÉTYMOLOGIE\nLe grec est traduit par, qui n'est pas couvert d'armure.
psitt ou ps't ou même s't	PSITT ou PS'T ou même S'T\ninterject.\nMot que l'on prononce en sifflant et que l'on redouble la plupart du\ntemps, pour attirer l'attention de quelqu'un, pour imposer silence, ou\npour appeler un chien.\nS't s't ; ramassez vite et sauvez-vous, BEAUMARCHAIS, le Barbier de\nSéville, I, 3.\n\nREMARQUE\nLa différence d'écriture vient de ce que rien n'est nettement articulé\ndans cette interjection.
psittaciens	PSITTACIENS\n psi-tta-siin s. m. pl.\nLes oiseaux appartenant au genre perroquet.
psittacisme	PSITTACISME\n psi-tta-si-sm' s. m.\nÉtat d'esprit dans lequel on ne pense ou ne parle qu'en perroquet. Nos\npensées et nos raisonnements contraires au sentiment sont une espèce de\npsittacisme qui ne fournit rien pour le présent à l'esprit, Esprit de\nLeibnitz, t. I, p. 430. Peu de gens conçoivent même que la vie future,\ntelle que la vraie religion et même la vraie raison l'enseignent, soit\npossible, bien loin d'en concevoir la probabilité, pour ne pas dire la\ncertitude ; tout ce qu'ils en pensent n'est que psittacisme ou des\nimages grossières et vaines à la mahométane, où eux-mêmes voient peu\nd'apparence, ib. p. 439.\n\nÉTYMOLOGIE\nLat. psittacus, perroquet.
psittacule	PSITTACULE\n psi-tta-ku-l' s. m.\nGenre d'oiseaux comprenant des perruches à queue courte. Le psittacule\npoussin, psittacula pullaria, Lesson, est connu sous le nom de moineau\nde Guinée.\n\nÉTYMOLOGIE\nDiminutif du latin psittacus, perroquet.
psittaque	PSITTAQUE\n psi-tta-k' s. m.\nNom moderne du genre perroquet (zygodactyles).\n\nÉTYMOLOGIE\nLat. psittacus, perroquet.
psoas	PSOAS\n pso-as' s. m.\nTerme d'anatomie. Nom donné à deux muscles abdominaux appliqués sur la\npartie antérieure des vertèbres lombaires.\n\nÉTYMOLOGIE\nDu grec, les lombes.
psodyme	PSODYME\n pso-di-m' adj.\nTerme de tératologie. Monstres psodymes, et, substantivement, les\npsodymes, monstres qui ont, à partir de la région lombaire, deux corps\ndistincts supérieurement, deux thorax complets et séparés, deux membres\npelviens et quelquefois les rudiments d'un troisième.\n\nÉTYMOLOGIE\nDu grec, lombes, et dyme, pour le grec, double.
psophie	PSOPHIE\n pso-fie s. f.\nGenre d'échassiers, dans lequel on distingue la psophie crépitante, dite\nagami ou oiseau trompette.\n\nÉTYMOLOGIE\nDu grec, bruit.
psoque	PSOQUE\n pso-k' s. m.\nGenre d'insectes névroptères, vulgairement appelés poux de bois.\n\nÉTYMOLOGIE\nDu grec, gratter, ronger le bois.
psora	PSORA\n pso-ra s. m.\nVoy. PSORE.
psoralier	PSORALIER\n pso-ra-lié s. m.\nGenre de plantes légumineuses papilionacées, qui tire son nom du\npsoralea, venant du grec, gale, à cause de la surface tuberculeuse du\ncalice.
psore	PSORE\n pso-r' s. f.\nTerme de médecine. Nom générique de différentes maladies de la peau\ncaractérisées par des vésicules ou des pustules.\nIl se dit aussi quelquefois de la gale.\n\nREMARQUE\nL'Académie fait ce mot masculin ; c'est une faute contre l'étymologie et\ncontre l'usage des médecins.\n\nHISTORIQUE\nXVIe s.\n....Ladrerie, et psora, qui est une rongne puante où il est trouvé de\npetits corps farineux, maladie qui est dite du vulgaire mal Saint-Main,\nPARÉ, Introd. 6.\n\nÉTYMOLOGIE\nDu grec, gale.
psorentérie	PSORENTÉRIE\n pso-ran-té-rie s. f.\nTerme de médecine. Éruption de petits boutons qu'on rencontre dans\nl'intestin de la plupart des personnes qui ont succombé au choléra\nasiatique.\n\nÉTYMOLOGIE\nPsore, et du grec, intestin.
psoriasis	PSORIASIS\n pso-ri-a-zis' s. m.\nTerme de médecine. Inflammation chronique de la peau, bornée à une\npartie du corps plus ou moins étendue, se présentant d'abord sous la\nforme d'élevures solides, qui se transforment ensuite en plaques\nsquameuses, comme nacrées.\n\nÉTYMOLOGIE\nDu grec, psore.
psoriforme	PSORIFORME\n pso-ri-for-m' adj.\nQui a l'apparence de la gale.\n\nÉTYMOLOGIE\nPsore, et forme.
psorique	PSORIQUE\n pso-ri-k' adj.\nQui est de la nature de la psore ou de la gale.\nDiverses acrimonies dartreuses et psoriques, PORTAL, Instit. Mém.\nscienc. 1807, 2e sem. p. 69.\nIl se dit aussi des médicaments employés contre la gale.\n\nÉTYMOLOGIE\nDu grec, psore.
psorophthalmie	PSOROPHTHALMIE\n pso-ro-ftal-mie s. f.\nTerme de médecine. Nom donné à diverses variétés de l'inflammation du\nbord libre des paupières\n\nÉTYMOLOGIE\nDu grec, psore, et ophthalmie.
psorospermie	PSOROSPERMIE\n pso-ro-spèr-mie s. m.\nCorpuscules microscopiques que l'on rencontre en parasites chez\ndifférents poissons.\n\nÉTYMOLOGIE\nDu grec, gale, et, graine.
psorospermique	PSOROSPERMIQUE\n pso-ro-spèr-mi-k' adj.\nCorpuscules psorospermiques, corpuscules qui se développent chez les\nvers à soie, et qui leur causent une maladie très grave.\n\nÉTYMOLOGIE\nPsore, et du grec, graine.
psoïte	PSOÏTE\n pso-i-t' s. f.\nTerme de médecine. Inflammation du muscle psoas.\n\nÉTYMOLOGIE\nPsoas..., et la finale médicale ite.
psych- et psycho-	PSYCH- et PSYCHO-\nMot qui vient du grec et qui en composition signifie âme (voy. PSYCHÉ\n1).
psychagogie	PSYCHAGOGIE\n psi-ka-go-jie s. f.\nTerme d'antiquité grecque. Cérémonie religieuse qui avait pour but\nd'apaiser les âmes des morts, en les appelant trois fois par leur nom.\nCérémonie magique par laquelle on évoquait les ombres.\n\nÉTYMOLOGIE\nEn grec (voy. PSYCHAGOGUE).
psychagogique	PSYCHAGOGIQUE\n psi-ka-go-ji-k' adj.\n\n1° Qui a rapport à la psychagogie.\n\n2° Terme de médecine. Médicaments psychagogiques, médicaments qui\nraniment l'action vitale dans la syncope, l'apoplexie.\n\nÉTYMOLOGIE\nEn grec (voy. PSYCHAGOGUE).
psychagogue	PSYCHAGOGUE\n psi-ka-go-gh' s. m. et f.\nMagicien, magicienne qui faisait profession d'évoquer les ombres.\n\nÉTYMOLOGIE\nDu grec, âme, et, qui amène.
psychiatre	PSYCHIATRE\n psi-chi-a-tr' s. m.\nMédecin qui s'occupe spécialement des maladies mentales.\n\nÉTYMOLOGIE\nPsych..., et du grec, médecin.
psychiatrie	PSYCHIATRIE\n psi-chi-a-trie s. f.\nDoctrine des maladies mentales et de leur traitement.\nEn psychiatrie, il {le travail} est regardé comme un puissant moyen\nthérapeutique, SUIN, Rapp. au sénat, Monit. 3 juill. 1867, p. 857, 2e\ncol.
psychique	PSYCHIQUE\n psi-chi-k' adj.\n\n1° Qui a rapport à l'âme, aux facultés intellectuelles et morales.\n\n2° Nom que Tertullien donna, par dénigrement, aux catholiques, après\nqu'il eut embrassé l'hérésie des montanistes.\n\nÉTYMOLOGIE\nDu grec, âme.
psychologie	PSYCHOLOGIE\n psi-ko-lo-jie s. f.\nMot employé par Wolff le premier pour désigner l'étude que l'on fait du\nmoral et de l'intelligence, sans prendre en considération les parties\nqui en sont les organes. La psychologie est le principal objet de\nl'école écossaise et de l'école éclectique contemporaine.\nLa psychologie est la science de l'âme, BONNET, Paling. XVII, 5.\nCharles Bonnet fut un grand naturaliste autant qu'un grand\nmétaphysicien ; il a fait plusieurs applications directes de ses\nconnaissances anatomiques à la psychologie, CABANIS, Instit. Mém.\nscienc. mor. et pol. t. I, p. 63.\n\nÉTYMOLOGIE\nPsycho..., et du grec, doctrine.
psychologique	PSYCHOLOGIQUE\n psi-ko-lo-ji-k' adv.\nQui appartient à la psychologie.
psychologiste ou psychologue	PSYCHOLOGISTE ou PSYCHOLOGUE\n psi-ko-lo-ji-st' ou psi-ko-lo-gh' s. m.\nCelui qui s'occupe de psychologie.\nIl faut que le psychologue étudie l'homme, comme le physicien étudie la\nnature, BONNET, Ess. anal. âme, 12.\nLes psychologues et les physiologistes ont rangé, comme de concert, les\nimpressions par rapport à leurs états généraux dans l'organe sensitif\nsous deux chefs qui les embrassent effectivement toutes, le plaisir et\nla douleur, CABANIS, Instit. Mém. scienc. mor. et pol. t. I, p. 138.
psychomancie	PSYCHOMANCIE\n psi-ko-man-sie s. f.\nDivination par l'évocation des ombres.\n\nÉTYMOLOGIE\nDu grec, âme, et, , divination.
psychomancien, ienne	PSYCHOMANCIEN, IENNE\n psi-ko-man-siin, siè-n' s. m. et f.\nTerme d'antiquité. Celui, celle qui pratique la psychomancie.\n\nÉTYMOLOGIE\nDu grec, âme, et, devin.
psychomoteur, trice	PSYCHOMOTEUR, TRICE\n psi-ko-mo-teur, tri-s' adj.\nTerme de physiologie. Qui, dans l'écorce grise des hémisphères du\ncerveau, siége des facultés psychiques, détermine des mouvements\nvolontaires. Les points psychomoteurs, Rev. anthropol. t. VI, p. 280.\n\nÉTYMOLOGIE\nMot hybride, fait du grec, âme, et moteur.
psychomètre	PSYCHOMÈTRE\n psi-ko-mè-tr' s. m.\nMoyen pour mesurer la valeur de l'âme, de l'intelligence.\nLe nombre des conséquences justes que différents esprits tirent du même\nprincipe, ne pourrait-il pas servir de fondement à la construction d'un\npsychomètre, et ne peut-on pas présumer qu'un jour on mesurera les\nesprits comme on mesure les corps ?, BONNET, Contempl. IV, 10.\n\nÉTYMOLOGIE\nPsycho..., et du grec, mesure.
psychophysique	PSYCHOPHYSIQUE\n psi-ko-fi-zi-k' adj.\nRelatif à la physique de l'intelligence animale.\nLes rapports qui sont entre les fleurs et la constitution psychophysique\ndes abeilles, BONNET, Causes prem. V. 8.\nS. f. La psychophysique, la physique de l'âme.\n\nÉTYMOLOGIE\nPsycho..., et physique.\n\nSUPPLÉMENT AU DICTIONNAIRE\nPSYCHOPHYSIQUE. Ajoutez : - REM. La psychophysique est plus exactement\nla physique des sensations et de l'intelligence.
psychopompe	PSYCHOPOMPE\n psi-ko-pon-p' adj.\nQui mène les âmes dans l'autre monde. Divinité psychopompe. Hermès\npsychopompe.\n\nÉTYMOLOGIE\nDu grec, âme, et, conduire.
psychose	PSYCHOSE\n psi-kô-z' s. f.\nNom générique des maladies mentales.\n\nÉTYMOLOGIE\nDu grec, âme.
psychostasie	PSYCHOSTASIE\n psi-ko-sta-zie s. f.\nChez les Égyptiens, pesée de l'âme, jugement de l'âme après la mort.\n\nÉTYMOLOGIE\nPsycho..., et du grec, action de mettre dans la balance (voy. STASE).
psychromètre	PSYCHROMÈTRE\n psi-kro-mè-tr' s. m.\nTerme de physique. Instrument qui sert à reconnaître le degré d'humidité\nde l'air en des points déterminés, et qui est formé de deux thermomètres\nsemblables, dont on observe simultanément la température, le réservoir\nde l'un étant sec et celui de l'autre constamment humide.\n\nÉTYMOLOGIE\nDu grec, froid, et, mesure. Ces termes appartiennent à une racine spu,\nqui se retrouve dans spirare, et dont le sens est souffler.
psychrométrie	PSYCHROMÉTRIE\n psi-kro-mé-trie s. f.\nEmploi du psychromètre.
psychrométrique	PSYCHROMÉTRIQUE\n psi-kro-mé-tri-k' adj.\nQui a rapport à la psychrométrie.
psychronose	PSYCHRONOSE\n psi-kro-nô-z' s. f.\nMaladie causée par l'action du froid (Gubler).\n\nÉTYMOLOGIE\nDu grec, froid, et, maladie.
psyché	PSYCHÉ\n psi-ché s. f.\n\n1° Jeune fille qui inspira de l'amour à Cupidon, et qui, après diverses\naventures, devint sa femme ; elle est représentée avec des ailes de\npapillon ; on admet aujourd'hui qu'elle est une aurore qui veut voir\nÉros, le soleil levant, et qui disparaît quand elle le voit ; même mythe\nqu'Eurydice. La fable de Psyché a été peinte par Raphaël à la Farnésine.\nPsyché perdit momentanément son mari, pour avoir voulu le contempler,\nmalgré la défense formelle qu'il en avait faite ; elle prit une lampe,\nune goutte enflammée tomba sur le dieu qui s'éveilla et disparut.\nLa Muse est un divin mystère, Elle craint le monde et le jour : La lampe\nde Psyché, le regard de la terre La fait enfuir comme l'Amour, P.\nLEBRUN, Poésies, t. II, 28, Muse du réveil.\n\n2° Néologisme. S'est dit quelquefois pour âme.\n\n3° Genre de papillons.\n\n4° Planète télescopique découverte en 1852.\n\nÉTYMOLOGIE\nDu grec, âme, proprement souffle, du grec, souffler, rafraîchir (voy.\nPSYCHROMÈTRE, à l'étymologie).
psyché	PSYCHÉ\n psi-ché s. f.\nGrande glace mobile, établie sur pivots dans un châssis, et où la femme\nqui fait sa toilette peut se voir de la tête aux pieds.\n\nÉTYMOLOGIE\nAinsi dite à cause de Psyché de la Fable, la femme apparaissant comme\nune Psyché dans cette glace.
psylle	PSYLLE\n psi-l' s. m.\nCharlatan qui apprivoise les serpents et joue avec eux. Les psylles\négyptiens. Les psylles chinois.\nIl ne se dit guère qu'en parlant des anciens ou des pays étrangers.\n\nÉTYMOLOGIE\nLat. Psylli ; en grec, peuples de Libye, qui avaient des préservatifs et\ndes remèdes contre les morsures de serpents.
psylle	PSYLLE\n psi-l' s. f.\nGenre d'insectes hémiptères.\n\nÉTYMOLOGIE\nDu grec, puce, même mot que pulex.
pséphite	PSÉPHITE\n psé-fi -t' s. f.\nTerme de minéralogie. Sorte de roche à texture grenue.\n\nÉTYMOLOGIE\nDu grec, caillou.
ptarmigan	PTARMIGAN\n ptar-mi-gan s. m.\nNom d'un oiseau des contrées arctiques.\n\nSUPPLÉMENT AU DICTIONNAIRE\nPTARMIGAN. Ajoutez : - REM. Le ptarmigan se trouve en deçà des contrées\narctiques.\nToute la contrée {les Highlands d'Ecosse} a été atteinte d'une épidémie\nmeurtrière à laquelle les grouses, les gelinottes, les ptarmigans et\ntous les oiseaux connus sous la dénomination générique de coqs de\nbruyère ou de tétras, ont succombé dans des proportions inconnues\njusqu'ici, , Journ. offic. 8 nov. 1874, p. 7456, 1re col.
ptarmique	PTARMIQUE\n ptar-mi-k' s. f.\nPlante dont les feuilles et les fleurs ont été employées comme\nsternutatoires (achillaea ptarmica, L.).\n\nÉTYMOLOGIE\nDu grec, la ptarmique, du grec, qui fait éternuer.
ptilose	PTILOSE\n pti-lô-z' s. f.\nChute des cils par irritation chronique du bord libre des paupières.\n\nÉTYMOLOGIE\nTerme grec.
ptisane	PTISANE\n pti-za-n' s. f.\nNom, chez les Grecs, de l'orge pilée, avec laquelle on faisait une\ndécoction qu'on administrait aux malades soit non passée et avec le\ngrain, soit passée.\nOn a trouvé dans ses papiers plusieurs mémoires qui avaient rapport à\nl'histoire de la médecine, par exemple sur la diète des anciens, sur\nleur boisson, et leur ptisane, FONT., Dodart.\nAujourd'hui on dit tisane ; et notre tisane n'est pas la ptisane des\nGrecs.\n\nÉTYMOLOGIE\nDu grec, orge broyée, avec laquelle on faisait une décoction, du grec,\nbroyer : lat. pinsere, sanscr. pish, d'où le lat. pisum, pois.
ptolémaïque	PTOLÉMAÏQUE\n pto-lé-ma-i-k' adj.\nTerme d'histoire ancienne. Qui a rapport aux Ptolémées, souverains de\nl'Égypte.\nCe culte des Pharaons fut si persistant et si révéré, qu'on vit\nsubsister jusqu'à l'époque ptolémaïque l'adoration des rois de l'âge\nprimitif, FR. LENORMANT, Manuel d'hist. anc. t. I, p. 485, 4e éd.
ptolémaïte	PTOLÉMAÏTE\n pto-lé-ma-i-t' s. m.\nSectateur d'un certain Ptolémée, l'un des chefs des gnostiques. Dans la\nloi de Moïse, il distinguait des choses de trois espèces, les unes\nvenant de Dieu, les autres de Moïse, les autres de pures traditions des\nanciens docteurs.
ptoléméen, enne	PTOLÉMÉEN, ENNE\n pto-lé-mé-in, è-n' adj.\nQui appartient à Claude Ptolémée de Péluse, astronome et géographe.\nSystème ptoléméen, système qui plaçait la terre au centre du monde ; se\ndit par opposition à système de Copernic.
ptyalagogue	PTYALAGOGUE\n pti-a-la-go-gh' adj.\nTerme de médecine. Synonyme de sialagogue.\n\nÉTYMOLOGIE\nDu grec, crachat, salive, et, qui amène.
ptyaline	PTYALINE\n pti-a-li-n' s. f.\nTerme de chimie. Substance organique propre à la salive parotidienne.\n\nÉTYMOLOGIE\nDu grec, crachat, salive, et la finale chimique ine.
ptyalisme	PTYALISME\n pti-a-li-sm' s. m.\nTerme de médecine. Sécrétion surabondante de la salive et du fluide\nmuqueux buccal.\n\nÉTYMOLOGIE\nDu grec, crachat.
ptère	PTÈRE\n ptè-r' s. f.\nTerme d'anthropologie. Partie ascendante de la grande aile du sphénoïde,\ncomprise entre le frontal, l'écaille temporale et l'angle antérieur\ninférieur du pariétal.\n\nÉTYMOLOGIE\nDu grec, aile.
ptère	PTÈRE\nVoy. PTÉRO-.
ptélée	PTÉLÉE\n pté-lée s. f.\nGenre de plantes dicotylédones, de la famille des térébinthacées, ayant\npour type la ptélée à trois feuilles, vulgairement orme à trois\nfeuilles.\n\nÉTYMOLOGIE\nDu grec, orme.
ptéride	PTÉRIDE\n pté-ri-d' s. f.\nPlante de la famille des fougères.\n\nÉTYMOLOGIE\nDu grec, fougère, diminutif du grec, aile, à cause que les feuilles sont\npennées.
ptéridie	PTÉRIDIE\n pté-ri-die s. f.\nTerme de botanique. Fruit entouré d'une aile membraneuse. On dit aussi\nsamare.
ptéridographe	PTÉRIDOGRAPHE\n pté-ri-do-gra-f' s. m.\nAuteur qui décrit les fougères.\n\nÉTYMOLOGIE\nDu grec, fougère, et, décrire.
ptérion	PTÉRION\n pté-ri-on s. m.\nTerme d'anthropologie. Point singulier de la paroi du crâne,\ncorrespondant au sommet de la ptère. On dit aussi point ptérique.\n\nÉTYMOLOGIE\nDérivé de ptère.
ptérique	PTÉRIQUE\n pté-ri-k' adj.\nVoy. PTÉRION ci-dessus.
ptéro- et -ptère	PTÉRO- et -PTÈRE\nMots qui viennent du grec et qui sont employés en composition, le\npremier comme préfixe, le second comme suffixe, pour signifier aile et,\ns'il s'agit de poissons, nageoire.
ptérobranche	PTÉROBRANCHE\n pté-ro-bran-ch' adj.\nTerme de zoologie. Qui a des branchies en forme d'ailes ou de nageoires.\n\nÉTYMOLOGIE\nPtéro..., et branchie.
ptérocarpe	PTÉROCARPE\n pté-ro-kar-p' adj.\nTerme de botanique. Qui a des fruits ailés.\nS. m. Genre de plantes de la famille des légumineuses papilionacées,\ndont l'espèce pterocarpus draco, arbre des deux Indes, fournit la résine\nsang-dragon, et l'espèce pterocarpus santalinus donne le santal rouge.\n\nÉTYMOLOGIE\nPtéro..., et du grec, fruit.
ptérocarye	PTÉROCARYE\n pté-ro-ka-rie s. f.\nNom d'un genre de juglandées, dans lequel on distingue la ptérocarye\nfraxinifoliée, qui a fait partie du genre noyer, sous la désignation de\nnoyer à feuilles de frêne ; elle habite les bords de la mer Caspienne,\nLEGOARANT.\n\nÉTYMOLOGIE\nPtéro .., et du grec, noix.
ptérodactyle	PTÉRODACTYLE\n pté-ro-da-kti-l' adj.\nTerme de zoologie. Qui a les doigts lobés, ou réunis par une membrane.\nS. m. Genre de reptiles sauriens dont on ne connaît que des débris\nfossiles.\n\nÉTYMOLOGIE\nPtéro..., et du grec, doigt.
ptérome	PTÉROME\n pté-ro-m' s. m.\nTerme de zoologie. Ensemble des plumes tectrices internes des ailes des\noiseaux.\n\nÉTYMOLOGIE\nDu grec, aile.
ptéromys	PTÉROMYS\n pté-ro-mis' s. m.\nGenre de rongeurs où l'on distingue le ptéromys pétauriste, polatouche\ntaguan de certains auteurs, et appelé taguan par Buffon.\n\nÉTYMOLOGIE\nPtéro..., et du grec, rat.
ptérope	PTÉROPE\n pté-ro-p' s. m.\nNom moderne du genre de chiroptères anciennement appelé roussette, et\ndans lequel on distingue : le ptérope vulgaire qui est la roussette de\nBuffon ; il habite l'île Maurice et l'île de la Réunion ; quelques\nauteurs ont donné à cette espèce le nom de vampire ; le ptérope rubricot\nnommé par Buffon rougette, on le trouve dans les mêmes îles que la\nroussette ; le ptérope édule, dont la chair est tendre et recherchée par\nles habitants de Timor, LEGOARANT.\n\nÉTYMOLOGIE\nPtéro..., et du grec, pied.
ptérophore	PTÉROPHORE\n pté-ro-fo-r' s. m.\nTerme d'antiquité égyptienne. Nom donné à certains prêtres égyptiens à\ncause de la forme de leur coiffure.\nTandis que les hiérogrammates avaient mission d'écrire et de conserver\nles hymnes sacrés, les ptérophores avaient la garde des autres livres de\nla science sacerdotale, F. DELAUNAY, Journ. offic. 22 août 1877, p.\n5924, 1re col.\n\nÉTYMOLOGIE\nLe grec signifie, celui qui porte la plume, du grec, plume, et, qui\nporte.
ptéropode	PTÉROPODE\n pté-ro-po-d' adj.\nTerme de zoologie. Qui a des nageoires pour organes locomoteurs.\nS. m. pl. Les ptéropodes, ordre de la classe des mollusques comprenant\nceux qui ont de chaque côté du corps un appendice en forme d'aile,\nservant à la natation.\n\nÉTYMOLOGIE\nPtéro..., et du grec, pied.
ptéropége	PTÉROPÉGE\n pté-ro-pè-j' s. f.\nTerme de zoologie. Partie du corps des insectes d'où naissent les ailes.\n\nÉTYMOLOGIE\nPtéro..., et du grec, construit.
ptérosperme	PTÉROSPERME\n pté-ro-spèr-m' adj.\nTerme de botanique. Qui a des fruits ailés.\n\nÉTYMOLOGIE\nPtéro..., et du grec, graine.
ptérostyle	PTÉROSTYLE\n pté-ro-sti-l' adj.\nTerme de botanique. Qui a le style élargi en forme d'aile.
ptérothèque	PTÉROTHÈQUE\n pté-ro-tè-k' s. f.\nTerme de zoologie. Partie de la chrysalide qui protége les ailes de\nl'insecte.\n\nÉTYMOLOGIE\nPtéro..., et du grec, loge.
ptérygine	PTÉRYGINE\n pté-ri-ji-n' s. f.\nTerme de botanique. Appendice membraneux des graines.\n\nÉTYMOLOGIE\nDu grec, aile.
ptérygion	PTÉRYGION\n pté-ri-ji-on s. m.\n\n1° Terme de zoologie. Nom de l'aile du nez, chez les mammifères.\nAppendice situé à la base des ailes de quelques papillons.\n\n2° Terme de chirurgie. Épaississement partiel de la conjonctive\noculaire, se présentant sous l'apparence d'un repli plus ou moins épais,\nde forme triangulaire, dit aussi onglet, à cause de sa ressemblance avec\nun ongle.\n\nHISTORIQUE\nXVIe s.\nPterygion, ungle, c'est une excroissance de chair fibreuse, laquelle\npetit à petit couvre la conjonctive, venant d'un angle de l'oeil, PARÉ,\nXV, 5.\n\nÉTYMOLOGIE\nDiminutif du grec, aile, ainsi dit par une assimilation de forme.
ptérygo-hyoïdien, ienne	PTÉRYGO-HYOÏDIEN, IENNE\n pté-ri-go-i-o-idiin, diè-n' adj.\nTerme d'anatomie. Qui appartient à l'apophyse ptérygoïde et à l'hyoïde.\nLigament ptérygo-hyoïdien ligament fibreux partant de l'apophyse\nptérygoïde et s'étendant en éventail sur la face externe du muscle\nptérygo-pharyngien.
ptérygo-palatin, ine	PTÉRYGO-PALATIN, INE\n pté-ri-go-pa-la-tin, ti-n' adj.\nTerme d'anatomie. Qui appartient à l'apophyse ptérygoïde et au palais.\nConduit ptérygo-palatin, petit canal formé sur les côtés de la face\ngutturale du sphénoïde par une petite gouttière longitudinale que\nrecouvre une apophyse de l'os du palais.
ptérygo-pharyngien, enne	PTÉRYGO-PHARYNGIEN, ENNE\n pté-ri-go-farin-jiin, jiè-n' adj.\nTerme d'anatomie. Qui a rapport à l'apophyse ptérygoïde et au pharynx.
ptérygode	PTÉRYGODE\n pté-ri-go-d' s. m.\nTerme de zoologie. Pièce placée à la base des ailes supérieures des\npapillons.\n\nÉTYMOLOGIE\nDu grec, aile, et, forme : en forme d'aile.
ptérygographie	PTÉRYGOGRAPHIE\n pté-ri-go-gra-fie s. f.\nTraité ou description des plumes.\n\nÉTYMOLOGIE\nDu grec, aile, et, décrire.
ptérygoïde	PTÉRYGOÏDE\n pté-ri-go-i-d' adj.\nTerme d'anatomie. Qui a la forme d'une aile. Nom donné à deux apophyses\nsituées sur la face gutturale de l'os sphénoïde, une de chaque côté de\nla ligne médiane.
ptérygoïdien, ienne	PTÉRYGOÏDIEN, IENNE\n pté-ri-go-i-diin, diè-n' adj.\nTerme d'anatomie. Qui a rapport à l'apophyse ptérygoïde.\nOs ptérygoïdien, petit os bien distinct dans les animaux, et considéré\nchez l'homme comme une apophyse du sphénoïde.\nSubstantivement. Nom de deux muscles, le ptérygoïdien grand ou interne,\net le ptérygoïdien petit ou externe, qui appartiennent aux apophyses\nptérygoïdes.\n\nÉTYMOLOGIE\nDu grec, aile, et, forme.
pu, ue	PU, UE\n pu, pue part. passé du verbe paître
pu, ue	PU, UE\n pu, pue part. passé du verbe pouvoir
puamment	PUAMMENT\n pu-a-man adv.\nD'une manière puante.\nFig. Mentir puamment, mentir avec impudence.\nJ'en ferai peu d'usage {du conseil de régence}, répondit-il ; il mentit\nbien puamment, car il vint au premier conseil de régence, et n'en manqua\nplus aucun, SAINT-SIMON, 480, 216.\n\nÉTYMOLOGIE\nPuant, et le suffixe ment.
puant, ante	PUANT, ANTE\n pu-an, an-t' adj.\n\n1° Qui pue.\nJe vous parais peut-être dégoûtante, Un peu ridée et même un peu\npuante ; Cela n'est rien pour des héros bien nés ; Fermez les yeux et\nbouchez-vous le nez, VOLT., Ce qui plaît.\nLe gaz puant, se dit principalement du gaz hydrogène sulfuré.\nTerme de chasse. Bêtes puantes, les renards, les blaireaux, etc.\nFig.\nIl me semble qu'il faudrait faire une battue contre ces bêtes puantes\n{les ennemis de la philosophie} ; mais les philosophes ne sont presque\njamais réunis, VOLT., Lett. Thiriot, 5 déc. 1759.\n\n2° Fig. Mensonge puant, menteur puant, mensonge, menteur impudent.\nLe comble de l'extravagance était, que les missionnaires qui venaient\ntous enseigner la vérité {en Chine}... s'accusassent réciproquement des\nplus puants mensonges, VOLT., Mél. litt. Lett. chin. 6.\n\n3° S. m. Terme populaire Personne vaniteuse. C'est un puant, un vilain\npuant.\n\n4° Nom d'un animal.\nLe puant d'Amérique est un animal différent, et l'espèce du putois\nparaît être confinée en Europe, depuis l'Italie jusqu'à la Pologne,\nBUFF., Quadr. t. II, p. 250.\nOn appelle aussi puant la mouffette, et, parmi les oiseaux, la huppe et\nle martin-pêcheur.\n\nHISTORIQUE\nXIIIe s.\nOr atent m'ame nostre sire, Qui m'a jeté de cest martire, De cest puant\nsiecle où j'estoie, , Ren. 6729.\nXVe s.\nVoire, dit le maire.... gars puant, parles tu ainsi en la presence du\nroi ?, FROISS., II, II, 115.\nXVIe s.\nJe fuys l'air puant et poisant, MONT., I, 393.\nIls avoient l'haleine puante à l'ail, et l'estomach musqué de bonne\nconscience, MONT., II, 223.\nUn puant {un glorieux}, OUDIN, Dict.\nDebonnaire mire fait playe puante {le chirurgien qui n'est pas rigoureux\nfait que les plaies empirent}, COTGRAVE, .
puanteur	PUANTEUR\n pu-an-teur s. f.\nMauvaise odeur.\nJ'ai fait monter à vos narines la puanteur des corps morts de votre\narmée, SACI, Bible, Amos, IV, 10.\nLe sang corrompu répandait une puanteur capable de suffoquer, FÉN., Tél.\nX.\n\nHISTORIQUE\nXIVe s.\nPour la puanteur de ton soulfre, , Nat. à l'alch. err. 26.\nXVIe s.\nToute bonne odeur et serenité d'air n'en promet pas la santé, ny toute\nespesseur et puanteur, l'infection, en temps pestilent, MONT., IV, 224.\n\nÉTYMOLOGIE\nPuant. La forme la plus ancienne était puor, du lat. putorem.
puantise	PUANTISE\n pu-an-ti-z' s. f.\nChose puante.\n\nHISTORIQUE\nXVIe s.\nPour la puantise des bestes que l'on tuoit en l'ost..., FROISS., liv.\nII, p. 290, dans LACURNE.\n\nÉTYMOLOGIE\nPuant.
puberté	PUBERTÉ\n pu-bèr-té s. f.\nâge où les individus deviennent aptes à se reproduire.\nLa puberté accompagne l'adolescence et précède la jeunesse, BUFF., Hist.\nnat. Oeuv. t. IV, p. 221.\nL'âge de la puberté est le printemps de la nature, la saison des\nplaisirs ; pourrons-nous écrire l'histoire de cet âge avec assez de\ncirconspection pour ne réveiller dans l'imagination que des idées\nphilosophiques ?, BUFF., ib. p. 22.\nL'homme est celui de tous les êtres vivants connus, dont la puberté peut\nêtre le plus accélérée par les excitations vicieuses, CABANIS., Instit.\nMém. scienc. mor. et pol. t. I, p. 117.\nâge de puberté, l'âge auquel la loi permet qu'on se marie. L'âge de\npuberté légale est chez nous à quinze ans pour les filles, à dix-huit\nans pour les garçons.\nDans le langage physiologique, série des phénomènes d'accroissement qui\naccompagnent la première maturation et chute d'un ovule chez les filles,\net la première production des spermatozoïdes chez les garçons.\n\nSYNONYME\nPUBERTÉ, NUBILITÉ. Il faut distinguer la puberté de la nubilité :\ncelle-là arrive avant celle-ci ; on est pubère quelques années avant\nd'être nubile, c'est-à-dire avant d'avoir le corps suffisamment\ndéveloppé pour le mariage.\n\nHISTORIQUE\nXVIe s.\nOn tient la puberté de la fille à douze ans, et on recule les masles\njusques à quatorze, CHOLIÈRES, Contes, t. I, Matin. IV, p. 110, dans\nPOUGENS.\n\nÉTYMOLOGIE\nProvenç. pubertat ; espagn. puberdad ; ital. pubertà ; du lat.\npubertatem, de puber, pubère.
pubescence	PUBESCENCE\n pu-bè-ssan-s' s. f.\nTerme d'histoire naturelle. État d'une surface pubescente.
pubescent, ente	PUBESCENT, ENTE\n pu-bè-ssan, ssan-t' adj.\nTerme d'histoire naturelle. Garni de poils fins et courts.\nBractées membraneuses, droites, pubescentes, VENTENAT, Instit. Mém.\nscienc. t. IV, p. 15.\n\nÉTYMOLOGIE\nLat. pubescere, se couvrir de poil follet, de pubes (voy. PUBIS).
pubien, enne	PUBIEN, ENNE\n pu-biin, biè-n' adj.\nTerme d'anatomie. Qui appartient ou a rapport au pubis.\nSymphyse pubienne, articulation des deux pubis par leur bord interne.
pubio-fémoral, ale	PUBIO-FÉMORAL, ALE\n pu-bi-o-fé-mo-ral, ra-l' adj.\nTerme d'anatomie. Qui appartient au pubis et au fémur.\nLigament pubio-fémoral, gros cordon ligamenteux émanant du tendon commun\ndes muscles de l'abdomen, et se portant dans la cavité cotyloïde, où il\ns'insère à l'échancrure rugueuse de la tête du fémur.
pubis	PUBIS\n pu-bis' s. m.\n\n1° Terme d'anatomie. La partie médiane inférieure de la région\nhypogastrique.\n\n2° Partie inférieure et antérieure de l'os coxal.\nOn dit aussi adjectivement : l'os pubis.\n\nHISTORIQUE\nXVIe s.\nL'epigastre est le demeurant du tronc du corps contenu entre le\ndiaphragme et l'os pubis, PARÉ, I, 1.\n\nÉTYMOLOGIE\nLat. pubis ou pubes, pubis, proprement poil follet, que l'on rapporte à\nune racine pu, engendrer, nourrir, avec le suffixe bes, le même que bus,\nl'imparfait bam, le futur bo, rattachés à fuo.
publiable	PUBLIABLE\n pu-bli-a-bl' adj.\nQu'on peut publier.\nLa première assurance est un écrit réciproque, publiable en cas de\nmanquement de part et d'autre, RICHELIEU, Lettres, etc. t. VI, p. 586\n(1639).
public, ique	PUBLIC, IQUE\n pu-blik, bli-k' adj.\n\n1° Qui appartient à tout un peuple, qui concerne tout un peuple.\nLe péril dont Rodrigue a su nous retirer, Et le salut public que vous\nrendent ses armes, CORN., Cid, IV, 2.\nLe bien public, CORN., Nicom. III, 2.\nQuoi ! sur l'illusion d'une terreur panique Trahir vos intérêts et la\ncause publique !, CORN., Cinna, I, 4.\nLe prince est un bien public que chacun doit être jaloux de se\nconserver, BOSSUET, Polit. VI, I, 4.\nSi le prince n'est ponctuellement obéi, l'ordre public est renversé, et\nil n'y a plus d'unité, par conséquent plus de concours ni de paix dans\nun État, BOSSUET, ib. VI, II, 1.\nL'espérance publique frustrée tout à coup par la mort de cette\nprincesse, BOSSUET, Duch. d'Orl.\nIl est temps de nous joindre aux prières publiques, RAC., Athal. II, 1.\nEt ne suffit-il pas, seigneur, à vos souhaits Que le bonheur public soit\nun de vos bienfaits ?, RAC., Brit. IV, 3.\nDe la reine et de moi que dit la voix publique ?, RAC., Bérén. II, 2.\nLe cardinal {Mazarin}... accablé de soins et de maladies, comblé de\ntrésors dont il ne savait que faire, et raisonnablement chargé de la\nhaine publique, HAMILT., Gramm. 5.\nLeurs moeurs {des grands} forment bientôt les moeurs publiques, MASS.,\nPet. carême, Exemples des gr.\nIl me semble que la voix publique donne la préférence à ses fables sur\nses contes {de la Fontaine}, VOLT., Mél. hist. Lett. de la Visclède.\nOn peut quelquefois le mettre avant son substantif, mais surtout en\npoésie et dans le style élevé.\nLui seul {un médecin} v fit longtemps la publique misère, BOILEAU, Art\np. IV.\nEt mes malheurs encor font la publique joie, VOLT., Mérope, IV, 5.\nQue m'importe à présent ce peuple et son outrage..., Et la publique voix\nque je n'entendrai pas ?, ID., Tancr. V, 3.\nLes publiques rumeurs Souvent aux souverains annoncent leurs malheurs,\nVOLT., Sophon. III, 1.\nDans la publique paix, c'est le seul ennemi, VOLT., Zadig, 4.\n\n2° Morale publique, l'ensemble des préceptes que doivent observer les\nhommes à l'égard de leurs semblables.\nOù trouver la moindre apparence, le moindre soupçon d'offense à la\nmorale publique, dans un écrit dont le public non-seulement approuve la\nmorale, mais la juge même trop rigide pour le train ordinaire du\nmonde ?, P. L. COUR., Procès.\nPudeur publique, sentiment de retenue qui affecte la masse des individus\ncomme si elle ne faisait qu'un seul homme.\n\n3° Puissance publique, la puissance du peuple, de la nation.\nAutorité publique, l'ensemble des fonctionnaires et des magistrats\nchargés de l'administration publique.\nLa chose publique, l'État.\nBien qu'un tel refus soit un acte héroïque, Il vous rend inutile à la\nchose publique, C. DELAV., la Popular. I, 8.\n\n4° Personnes publiques, personnes revêtues de l'autorité publique.\nOn voit, dans le monde, des personnes publiques, des familles d'un grand\nnom...., MASS., Carême, Pardon.\nSi vous êtes homme public, l'usage injuste de votre autorité, tous les\nmaux que vous faites et tous les biens que vous ne faites pas....,\nMASS., Carême, Vocat.\nJe voudrais que tout homme public, quand il est près de faire une grosse\nsottise, se dît toujours à lui-même : l'Europe te regarde, VOLT., Lett.\nd'Alemb. 28 août 1765.\nOn dit dans un sens analogue : professions publiques.\nCe n'est pas qu'il faille.... négliger ces professions publiques qui\nfournissent aux besoins de la société, MASS., Carême, Vocat.\nVie publique, actions d'un homme revêtu de quelque autorité publique,\npar opposition à vie privée.\n\n5° Charges publiques, impositions que tout le monde doit payer pour\nsubvenir aux dépenses de l'État.\nServices publics, les diverses branches de l'administration des affaires\nde l'État.\n\n6° Ministère public, magistrature établie près de chaque tribunal, pour\ny requérir l'exécution et l'application des lois.\nLa partie publique, le magistrat qui, dans les causes civiles ou\ncriminelles, porte la parole et requiert au nom de la société.\nIl n'y avait point alors {chez les anciens} de partie publique,\nd'accusateur public, de vindicte publique, LÉVESQUE, Instit. Mém.\nscienc. mor. et pol. t. IV, p. 175.\nOfficier public, fonctionnaire public, celui qui exerce quelque charge\nou fonction déléguée par la société.\nDroit public, science qui fait connaître la constitution des États,\nleurs droits, etc.\n\n7° Commun, à l'usage de tous. La voie publique.\nEt lui-même marchant en habits magnifiques Criât à haute voix dans les\nplaces publiques : Mortels, prosternez-vous, RAC., Esth. II, 5.\nLa femme qui lui plaît le rencontre partout ; Dans les jardins\npublics..., C. DELAV., Éc. des vieill. II, 3.\nÉdifices publics, édifices employés aux différents services publics.\nTerme de pratique. Marchande publique, femme qui tient boutique ouverte,\net qui, à cause de son commerce, peut s'obliger sans l'autorisation de\nson mari.\nLa femme ne peut ester en jugement sans le consentement de son mari,\nquand même elle serait marchande publique, , Cod. Nap. art. 215.\n\n8° Femmes publiques, filles publiques, les prostituées.\n\n9° Qui est dans la bouche de tout le monde.\nJe voudrais que vous nous entendissiez quelquefois mêler notre critique\naux admirations publiques du P. Bourdaloue, SÉV., 9 avr. 1683.\n\n10° Qui est manifeste, connu de tout le monde, répandu de toutes parts.\nCette nouvelle est déjà publique. Un bruit public.\nParaissez donc, ô vérité sainte, faites la censure publique des\nmauvaises moeurs, BOSSUET, Sermons, Prédication, Préambule.\nIl est public que Mme de Jouarre a donné un placet, BOSSUET, Lett. abb.\n138.\nTrop heureux, si, par sa douleur et par sa confusion publique, elle peut\nobtenir la grâce qu'elle lui demande !, FLÉCH., I, 213.\nMais avec qui daignez-vous aujourd'hui me recevoir, après qui vous\nfais-je ce public remercîment ?, LA BRUY., Disc. à l'Acad. fr.\nIl était public dans Rome que les Espagnols pressaient le pape de\nréaggraver ses excommunications contre le roi de France, ANQUET., Ligue,\nIII, 319.\nCe que je dis ici, partout je le dirai, C'est que l'honneur, monsieur,\nvous fut toujours sacré, Et qu'en le proclamant par un public hommage Je\nvenge la vertu dans sa plus noble image, C. DELAV., la Popular. V, 6.\n\n11° Qui a lieu en présence de tout le monde. Cours public. Débats\npublics.\nJe me suis un peu arrêté sur Boindin, parce que c'est le seul de\nl'Académie des belles-lettres dont on n'ait point parlé à la séance\npublique qui suivit sa mort, DUCLOS, Oeuv. t. x, p. 60.\n\n12° S. m. Le peuple pris en général.\nMais le bien du public est une faible loi Que l'on respecte peu quand\nchacun craint pour soi, DU RYER, Scévole, I, 3.\nVivez pour le public, comme je meurs pour lui, CORN., Oedipe, II, 4.\nIls étaient de ceux-là qui vivent Sur le public, et, craignent peu les\ncoups, LA FONT., Fabl. VIII, 7.\nÔ vous ! dont le public emporte tous les soins, Magistrats, princes et\nministres, LA FONT., ib. XII, 27.\nLe public paraît content, c'est beaucoup : car on est si sot que c'est\nquasi sur cela qu'on se règle, SÉV., à Bussy, 4 déc. 1668.\nAprès tout, mon ami le public fait toujours bien : il loue quand on fait\nbien ; et, comme il a bon nez, il n'est pas longtemps la dupe, et blâme\nquand on fait mal, SÉV., 19 juill. 1671.\nQuand je me vis donnée au public et répandue dans les provinces {il\ns'agit du portrait satirique de Mme de Sévigné par Bussy}, je vous avoue\nque je fus au désespoir, SÉV., à Bussy, 28 août 1668.\nJe rends au public ce qu'il m'a prêté : j'ai emprunté de lui la matière\nde cet ouvrage, il est juste que... je lui en fasse la restitution, LA\nBRUY., les Caractères.\nOù il s'agit de l'intérêt et des commodités de tout le public, le\nparticulier est-il compté ?, LA BRUY., x.\nNi son génie ni l'habitude de réussir ne lui avaient inspiré de\nconfiance, et il n'avait jamais cessé de craindre ce même public qui\navait tant de vénération pour lui, FONT., Bernoulli.\nQue dites-vous, en tout genre, de ce monstre énorme qu'on appel le\npublic, et qui a tant d'oreilles et de langues, étant privé des yeux ?,\nVOLT., Lett. Mme du Deffant, 10 sept. 1773.\n... Être né dans un siècle dégoûté qui ne veut plus que des drames et\ndes doubles croches... le public est à table depuis quatre-vingts ans ;\nil boit enfin de mauvaise eau-de-vie sur la fin du repas, VOLT., Lett.\nCondorcet, 18 juill. 1774.\nQui du public s'est fait le serviteur Peut se vanter d'avoir un méchant\nmaître, VOLT., Guerre Gen. IV.\nQu'on se figure cinq cents miroirs se renvoyant l'un à l'autre la\nlumière qu'ils réfléchissent, ou cinq cents échos le même son ; c'est\nl'image d'un public ému par le ridicule ou par le pathétique, MARMONTEL,\nOeuv. t. IX, p. 176.\nLe public ? combien faut-il de sots pour faire un public ?, CHAMFORT,\nCaractères et anecdotes.\nLe monde ne s'abuse point, et les sentences des magistrats ne sont\nflétrissantes qu'autant que le public les a confirmées, P. L. COUR.,\nProcès.\n\n13° Nombre plus ou moins considérable de personnes réunies pour assister\nà un spectacle, à une cérémonie, à une réunion, etc. Je connais mon\npublic.\nIl n'y a personne qui n'ait son public, c'est-à-dire une portion de la\nsociété commune dont on fait soi-même partie ; voilà le public dont on\ndoit attendre le jugement, sans le prévenir ni même le solliciter,\nDUCLOS, Consid. moeurs, 16.\nTel {comédien} que le public applaudit comme homme de talent, nous\nl'estimons comme honnête homme, C. DELAV., les Coméd. Prologue.\nToi, prépare, Laurent, les vers et la couronne Que le public charmé doit\njeter de ta main à l'acteur de Paris qui paraîtra demain, C. DELAV., ib.\nI, 8.\nSe donner au public, assister aux réunions, cérémonies, etc.\nJe comprends le plaisir que vous faites à ce cordon bleu {M. de Grignan}\nde vous donner au public de si bonne grâce... il craignait ici que vous\nne fussiez toujours cachée et chagrine, SÉV., à Mme de Grignan, 25 févr.\n1689.\n\n14° Le public, l'intérêt public, la chose publique (vieilli en ce sens).\nLe peuple laissera entre les mains de ses supérieurs la liberté, la\nreligion et le public, BALZ., liv. VIII, lett. 45.\n\n15° En public, loc. adv. En présence de tout le monde, à la vue de tout\nle monde.\nPrenons part en public aux victoires publiques, CORN., Hor. IV, 7.\nEschyle.... Sur les ais d'un théâtre en public exhaussé Fit paraître\nl'acteur d'un brodequin chaussé, BOILEAU, Art p. III.\nEn public, en secret, contre vous déclarée, J'ai voulu par des mers en\nêtre séparée, RAC., Phèdre, II, 5.\nOn sait que, chez les Athéniens, les auteurs jouaient souvent dans leurs\npièces, et qu'ils n'étaient point déshonorés pour parler avec grâce en\npublic devant leurs concitoyens, VOLT., Vie de Molière.\nEn demi-public, en ne se montrant et ne se cachant qu'à moitié.\nLes visites journelles en demi-public du roi à son ancienne maîtresse\n{Mme de Montespan} faisaient un contraste fort ridicule avec son\nassiduité chez celle qui l'avait servie, SAINT-SIMON, 413, 188.\n\nHISTORIQUE\nXVe s.\nDe toutes ces paroles, ces dons, ces desheritances et heritances, on fit\ninstruments publics et authentiques, FROISS., II, II, 50.\nLes combattre {les Anglais} en bataille publique {rangée}, MONSTREL., t.\nI, ch. 147, dans LACURNE.\nLe bien publicque, COMM., I, 2.\nXVIe s.\nFaire montre d'une chose en public, MONT., I, 119.\nRenverser la paix publicque, MONT., I, 122.\nUn debvoir publicque, MONT., I, 167.\nIl en provenoit des fruicts très utiles au privé et au public, MONT., I,\n211.\nQu'une femme ne puisse porter robbe enrichie de broderies, si elle n'est\npublicque et putain, MONT., I, 337.\nès gouvernemens des choses publiques {républiques}, AMYOT, Agésil. 11.\n\nÉTYMOLOGIE\nProvenç. public ; anc. cat. public ; espagn. publico ; ital. pubblico ;\ndu lat. publicus (1er u long), de populus, peuple (voy. PEUPLE).\nL'ancienne forme est poublicom dans les monuments, puis poblice ; l'o ou\nl'u long indique une contraction : publicus (1er u long) pour populicus.\n\nSUPPLÉMENT AU DICTIONNAIRE\nPUBLIC. Ajoutez :\n\n13° Dans le langage des bureaux, un public, un individu qui se présente\nà la caisse centrale du trésor, au mont-de-piété, etc.\nL'individu qui se présente au mont-de-piété pour emprunter s'appelle un\npublic ; presque toutes les administrations ont ainsi à leur usage une\nsérie de vocables avec lesquels le dictionnaire de l'Académie n'a rien\nde commun, et qui sont nés des obligations mêmes du service, qu'ils\nfacilitent singulièrement, MAXIME DU CAMP, Rev. des Deux-Mondes, 15\njanv. 1873, p. 317.\n\nREMARQUE\nBalzac a dit monsieur le public :\nLe public est un mauvais interprète et glose sur tout ; à vous dire le\nvrai, je ne pense pas qu'il songe à moi, et je suis trop caché et trop\nobscur, pour être vu ni remarqué de ce Monsieur le public, BALZAC, Lett.\ninédites, LXXVI, éd. Tamizey-Larroque.\n\nHISTORIQUE\nAjoutez : XIVe s.\nJehan Sabulette, clers puble, notaire par l'auctoriteit apostolike et\nimperial.... par maniere de instrument puble..., , Testament de Robert\nde Namur, communiqué par M. Caffiaux.\n(Puble est la forme régulière et bien accentuée de públicus). Aussi\nsachiez qu'il avenra Pour voir {pour vrai}, ains le derrenier jour, Que\nli publique pecheour Ou {au} regne Dieu seront avant Mis que vous, je le\nvous creant, , Miracles de Nostre Dame, par personnages, Paris, 1876, p.\n235.
publicain	PUBLICAIN\n pu-bli-kin s. m.\n\n1° Chez les anciens Romains, fermier des deniers publics.\nScévola fit justice des publicains, et fit mener en prison ceux qui y\ntraînaient les autres, MONTESQ., Espr. XI, 18.\nNom donné chez les Juifs aux percepteurs d'impôts, qui, comme on le voit\ndans les Évangiles, étaient fort haïs.\nPlusieurs Juifs se faisaient publicains, c'est-à-dire fermiers des\ntributs et des impositions, FLEURY, Moeurs des Israél. tit. XXXII, 3e\npart. p. 398 et 399, dans POUGENS.\n\n2° Par dénigrement, traitant, financier, homme d'affaires.\nLacroix, receveur général de Paris, était fort honnête homme et modeste\npour un publicain qui a de tels accès {chez la Choin}, SAINT-SIMON, 295,\n31.\nN'avez-vous pas été frappé de l'énergie avec laquelle l'Antifinancier\npeint la misère du peuple et les vexations des publicains ?, VOLT.,\nLett. d'Argental, 8 janv. 1764.\nDéplorant le sort de ces belles contrées, à qui la nature n'a prodigué\nses dons que pour en faire la proie des barbares publicains, J. J.\nROUSS., Conf. IV.\n\nÉTYMOLOGIE\nProvenç. publican ; cat. publica ; espagn. publicano ; ital.\npubblicano ; du lat. publicanus, de publicus (voy. PUBLIC). L'ancienne\nlangue en avait fait un terme d'injure sous la forme de poplican.\n\nSUPPLÉMENT AU DICTIONNAIRE\nPUBLICAIN. Ajoutez : - HIST. XIVe s.\nAussi seront {mis avant vous, Juifs} les folles fames, Pour ce vous sera\ngrant diffames, Pour ce qu'il ont creü Jehan Entre elles et li\npubliquan, , Miracles de Nostre Dame par personnages, Paris, 1876, p.\n235.
publicateur	PUBLICATEUR\n pu-bli-ka-teur s. m.\nNéologisme. Celui qui publie, qui fait une publication.\n\nÉTYMOLOGIE\nLat. publicatorem, de publicare, publier.\n\nSUPPLÉMENT AU DICTIONNAIRE\nPUBLICATEUR. Ajoutez :\nL'article 7 de la loi du 6 juillet 1871 sur la presse, en édictant que\nle publicateur et l'imprimeur seront solidairement responsables des\namendes, , Gaz. des Trib. 14 avril 1875, p. 361, 4e col.\nLa rudesse des jugements que portent Mirabeau et le comte de la Marck\nsur beaucoup de personnes dont les familles sont constituées en dignité,\nferont des ennemis au publicateur, qui ne prend pourtant pas ces\njugements à sa charge, DOUDAN, Mélanges et Lett. 1876, t. II, p. 249.\n\n2° Crieur public.\nÀ Roz-sur-Couesnon {Ille-et-Vilaine}, le publicateur de la commune,\nc'est-à-dire le publicateur officiel, après les publications ordinaires,\na lu un avis du maire, prévenant les habitants que..., , Journ. offic. 9\navril 1876, p. 2569, 1re col.
publication	PUBLICATION\n pu-bli-ka-sion ; en vers, de cinq syllabes s. f.\n\n1° Action de publier. La publication d'une ordonnance.\nQue tous les gentils se pouvaient sauver devant la publication de\nl'Évangile, en observant les seuls préceptes du droit naturel, LA MOTHE\nLE VAYER, Vertu des païens, I, État de la loi.\nJe vous envoie, mon cher ami, la publication de votre bonheur {mariage},\nfaite bien authentiquement en présence des hommes et des anges, VOLT.,\nLett. Florian, 19 sept. 1774.\nAvant la célébration du mariage, l'officier de l'état civil fera deux\npublications à huit jours d'intervalle.... devant la porte de la maison\ncommune ; ces publications de l'acte qui en sera dressé énonceront..., ,\nCod. Nap. art. 63.\n\n2° Ordonnance publiée.\nCes publications sont pour le peuple, pour les laquais, pour la\ncanaille, à qui l'on fait bien de défendre certains jeux qui ne sont\nfaits que pour les gens de qualité, DANCOURT, la Désolation des\njoueuses, SC. 7.\n\n3° Action de faire paraître un livre.\nJ'ai vu, monsieur, un petit poëme sur votre Pomone {où l'on reprochait à\nSanteuil ses locutions païennes} ; j'ai empêché la publication du poëme,\nBOSSUET, Lett. 160.\nJe voulus lui marquer ma confiance, en lui envoyant la profession de foi\ndu vicaire savoyard avant la publication, J. J. ROUSS., Conf. X.\nOn dit de même : la publication d'un journal, d'un écrit périodique.\nL'ouvrage même qui a paru. Une publication intéressante. Publications\nillustrées. Les nouvelles publications.\n\nHISTORIQUE\nXVIe s.\nTisaphernes ne adjousta plus de creance à cette seconde publication,\nAMYOT, Agés. 15.\n\nÉTYMOLOGIE\nProvenç. publication ; espagn. publicacion ; ital pubblicazione ; du\nlat. publicationem, de publicare, publier.
publiciste	PUBLICISTE\n pu-bli-si-st' s. m.\n\n1° Celui qui écrit sur le droit public, qui est versé dans cette\nscience. Un savant publiciste.\nUn publiciste allemand trouverait là de quoi faire un gros volume, et le\nsage d'assez courtes, mais d'assez tristes réflexions, D'ALEMB., Dest.\ndes jésuit. Oeuv. t. v, p. 238, dans POUGENS.\n\n2° Écrivain politique.\n\nREMARQUE\nPubliciste n'est dans le Dictionnaire de l'Académie qu'à partir de\nl'édition de 1762.\n\nÉTYMOLOGIE\nPublic.
publicité	PUBLICITÉ\n pu-bli-si-té s. f.\n\n1° Notoriété publique. La publicité d'un crime.\n\n2° Qualité de ce qui est rendu public. La publicité des débats\nparlementaires, d'une audience.\nPierre mit dans toutes ses démarches une publicité qui montrait la\npersuasion intime de sa justice, VOLT., Russie, II, 10.\nCes inventions guerrières qui, en devenant bientôt communes à tous les\npeuples, perdent par cette publicité même, sinon leur mérite, au moins\nleurs avantages, D'ALEMB., Éloges, Caillères.\nSongez.... Que la publicité.... - Je vais la rendre immense, C. DELAV.,\nla Popular. III, 7.\n\n3° État de ce qui appartient au public, de ce qui est d'un usage public.\nLorsqu'un chemin, tracé sur le territoire d'une commune, est affecté à\nl'usage public, il est naturel de penser qu'il appartient au domaine\nmunicipal ; la publicité fait naturellement supposer la communauté,\nBAYLE-MOUILLARD, Projet de Code rural, Session 1868 du Corps législatif,\np. 28.\nLes chemins ruraux sont prescriptibles malgré leur publicité,\nBAYLE-MOUILLARD, ib. p. 33.\n\nÉTYMOLOGIE\nPublic.
publier	PUBLIER\n pu-bli-é v. a.\nJe publiais, nous publiions, vous publiiez ; que je publie, que nous\npubliions, que vous publiiez.\n\n1° Rendre public et notoire. Publier une loi, un manifeste. Publier une\nnouvelle.\nAfin d'avoir cette douleur D'ouïr démentir ses victoires, Et nier ce que\nles histoires Ont publié de sa valeur !, MALH., VI, 8.\nEt faisons publier par toute l'Italie : La liberté de Rome est l'oeuvre\nd'Émilie, CORN., Cinna, I, 2.\nEt que vos conjurés entendent publier Qu'Auguste a tout appris, et veut\ntout oublier, CORN., ib. V, 3.\nQuoiqu'on publie tous les ans à Rome la bulle In coena Domini, personne\nne croit en France qu'elle lie nos consciences ; on a même souvent\ndéfendu de la publier, DUMARS., Lib. Églis. gallic. II, Max. 16.\nIl est très vrai que le pape Léon X publia une bulle en faveur de\nl'Orlando furioso, VOLT., Dict. phil. Épopée.\nFig.\nTout ce qu'il fait {le Seigneur} publie ses louanges et sa grandeur ; et\nsa justice demeure dans tous les siècles, SACI, Bible, Psaum. CX, 3.\n\n2° Dire partout.\nQue ne publieront point l'envie et l'imposture ?, CORN., Cid, III, 4.\nMais quoi que notre siècle à sa gloire {du Tasse} publie, BOILEAU, Art\np. III.\nLe sénat chaque jour et le peuple irrités Publiaient qu'en mourant\nClaude avec sa puissance M'avait encor laissé sa simple obéissance,\nRAC., Brit. IV, 2.\nLes dieux vont s'apaiser : du moins Calchas publie Qu'avec eux, dans une\nheure, il nous réconcilie, RAC., Iphig. III, 3.\nFamilièrement. Publier quelque chose sur les toits, le divulguer avec\néclat.\n\n3° Déclarer hautement.\nUn enfant courageux publie Que Dieu lui seul est éternel, RAC., Athal.\nII, 9.\n\n4° Vanter.\nJ'entends de tous côtés Publier vos vertus, seigneur, et ses beautés {de\nBérénice}, RAC., Bérén. II, 2.\nEst-ce là toute cette science que les hommes publient, et qui vous fait\nrévérer de toute la terre ?, LA BRUY., XI.\n\n5° Publier pour, avec un adjectif pour complément, déclarer que tel\nest...\nEt ne sera jour de ma vie que je ne vous publie pour la plus ingrate et\nplus trompeuse femme qui soit sous le ciel, D'URFÉ, l'Astrée, I, 5.\nEt que direz-vous de la marquise Araminte qui la publie partout {cette\ncomédie} pour épouvantable ?, MOL., Critique, 6.\nOn le dit avec la même signification sans pour.\nEt je l'entends partout publier hautement Aussi brave guerrier que\nmalheureux amant, CORN., Cid, IV, 2.\n\n5° Éditer, faire paraître.\nLes écrits qu'il publia contre saint Cyrille, BOSSUET, Hist. I, 11.\nCe pauvre Bernard était bien sage de ne pas publier son poëme {l'Art\nd'aimer} ; c'était un mélange de sable et de brins de paille avec\nquelques diamants très joliment taillés, VOLT., Lett. St-Lambert, 1er\nsept. 1773.\n\n6° Se publier, v. réfl. Se vanter en qualité de.\nLe vaudois ne croit pas comme l'albigeois ; mais, comme l'albigeois, il\nhait l'Église, et se publie le seul saint, le seul ministre des\nsacrements, BOSSUET, Var. XI, 205.\n\n7° Être publié, Cette ordonnance se publiera demain.\nÊtre édité, mis au jour. Il s'est publié beaucoup de livres cet hiver.\n\nHISTORIQUE\nXIIIe s.\nLi edifice des maisons ki pour omecide seront abatues, seront publié\n{vendus à l'encan}, TAILLIAR, Recueil, p. 510.\nIl advint que li troi eslurent le meor {maire} de Saint-Liz, et mistrent\nleur requeste en la volenté le roi, et la puplierent au commun, , Liv.\nde just. 39.\nXVe s.\nMès freres Jehans de Primai Les ot tous deux {ouvrages} à exemplaire, Ce\ndist-il, por son roman faire.... Mais n'est mie moult publié, Ains est\ncomme tout oublié, G. GUIART, Royaux lignages, V. 342.\nC'est une chose qui par les anciens a jà esté escripte et publiée,\nBERCHEURE, f° 7.\nCeulz qui mettent et font ou publient les lois, ORESME, Eth. 326.\nXVIe s.\nLa honte {des infortunes conjugales} s'en augmente et se publie\nprincipalement par la jalousie, MONT., III, 347.\nIl {la Boétie} écrivit une satire latine excellente, qui est\npubliée...., MONT., I, 213.\nSi Plutarque.... dict sçavoir de certaine science que, du temps de\nDomitian, la nouvelle de la battaille perdue par Antonius en Allemaigne\nà plusieurs journées de là, feut publiée à Rome le mesme jour qu'elle\navoit esté perdue, MONT., I, 203.\n\nÉTYMOLOGIE\nProvenç. publicar, publiar ; espagn. publicar ; ital. pubblicare ; du\nlat. publicare, de publicus, public.\n\nSUPPLÉMENT AU DICTIONNAIRE\nPUBLIER, Ajoutez :\n\n9° Publier à, faire connaître publiquement à.\nMélite serait trop ingrate de rechercher une autre protection que la\nvôtre ; elle vous doit cet hommage et cette légère reconnaissance de\ntant d'obligations qu'elle vous a ; non qu'elle présume par là s'en\nacquitter en quelque sorte, mais seulement pour les publier à toute la\nFrance, CORN., Mélite, Épître.
publieur	PUBLIEUR\n pu-bli-eur s. m.\nCelui qui publie.\n\nHISTORIQUE\nXVe s.\nMon disciple sainct Pol, herault et publieur de mes commandemens, AL.\nCHART., Oeuv. p. 280.\nXVIe s.\nPublieur, COTGRAVE, .
publiquement	PUBLIQUEMENT\n pu-bli-ke-man adv.\nD'une manière publique, avec publicité, au su et au vu de tout le monde.\nC'est par mes seuls conseils qu'il veut publiquement Du prince Héraclius\nfaire le châtiment, CORN., Héracl. IV, 6.\nElle s'en est vantée assez publiquement, RAC., Brit. IV, 4.\nEn 1670, M. Leibnitz, âgé de vingt-quatre ans, se déclara publiquement\nphilosophe dans un livre dont voici l'histoire..., FONTEN., Leibnitz.\nOn {hommes et femmes} se prend, on se quitte assez publiquement,\nGRESSET, Méch. II, 7.\nCe prince {Louis XI} est le premier de nos rois qui ait introduit, ou du\nmoins fait étendre l'usage de manger publiquement avec ses sujets,\nDUCLOS, Oeuv. t. III, p. 340.\n\nHISTORIQUE\nXIIIe s.\nCil leu {ces lieux} sont seint, qui sont publiaument desdié en cité, ,\nLiv. de just. 65.\nXIVe s.\nPubliquement il demandoient la restitucion des dessus dites choses ;\nsecretement il..., BERCHEURE, f° 28, verso.\n...Soient mis au pilory, ou en l'eschielle, sans nulle remission,\npubliement et notoirement, , Ordonn. des rois de Fr. t. I, p. 537.\nXVe s.\nQue un roy ne doit croyre personne du monde qui lui die publiquement ou\nen secret d'autruy absent aucun mal, , Bibl. des ch. 6e série, t. II, p.\n151.\nXVIe s.\nQuand il leur mesadvient {à certains Indiens} en quelque rencontre ou\nbattaille, ils en demandent publicquement pardon au soleil, qui est leur\ndieu, comme d'une action injuste, MONT., I, 248.\n\nÉTYMOLOGIE\nPublique, et le suffixe ment ; provenç. publicamen ; catal.\npublicament ; espagn. publicamente ; ital. pubblicamente.
publié, ée	PUBLIÉ, ÉE\n pu-bli-é, ée part. passé de publier\n\n1° Rendu public, notoire. Une ordonnance publiée.\nSans le secours des vers, leurs noms {des anciens héros} tant publiés\nSeraient depuis mille ans avec eux oubliés, BOILEAU, Ép. I.\n\n2° Édité, mis au jour, en parlant d'un livre. Hippocrate publié par\nFoes.
pubère	PUBÈRE\n pu-bè-r' adj.\nQui a atteint l'âge de puberté.\nOn trouva que le nombre des citoyens pubères faisait à Rome le quart de\nses habitants, MONTESQ., Rom. 3.\nDans les climats les plus chauds de l'Asie, de l'Afrique et de\nl'Amérique, la plupart des filles sont pubères à dix et même à neuf ans,\nBUFF., Hist. nat. hom. Oeuv. t. IV, p. 239.\nDéjà pubère et sensible, je pensais quelquefois à mes folies ; mais je\nne voyais rien au delà, J. J. ROUSS., Conf. I.\nEn termes de jurisprudence, qui a atteint l'âge où la loi permet qu'on\nse marie.\n\nÉTYMOLOGIE\nLat. puber (voy. PUBIS).
puccinie	PUCCINIE\n pu-ksi-nie s. f.\nVoy. NOIR des céréales, n° 23.
puce	PUCE\n pu-s' s. f.\n\n1° Terme d'histoire naturelle. Genre d'insectes de l'ordre des\naphaniptères.\nInsecte qui se nourrit du sang de l'homme et de quelques animaux.\nUn sot par une puce eut l'épaule mordue, LA FONT., Fabl. VIII, 5.\nPour tuer une puce il voulait obliger Ces dieux à lui prêter leur foudre\net leur massue, LA FONT., ib.\nJusque-là qu'il se vint l'autre jour accuser D'avoir pris une puce en\nfaisant sa prière, Et de l'avoir tuée avec trop de colère, MOL., Tart.\nI, 6.\nIl y a certainement du divin dans une puce ; elle saute cinquante fois\nsa hauteur ; elle ne s'est pas donné cet avantage, VOLT., Dial. XXIV,\n17.\nFig. Avoir la puce à l'oreille, être inquiet, agité.\nSi les catholiques d'Augsbourg ont la puce à l'oreille contre les\nluthériens, GUI PATIN, Nouv. Lett. t. I, p. 140, dans POUGENS.\nJeanne, la puce à l'oreille, Bat sa chatte que réveille La tendresse des\nmatous, BÉRANG., Ivrogne.\nMettre à quelqu'un la puce à l'oreille, lui inspirer des inquiétudes.\nOn te secouera les puces, se dit à quelqu'un qu'on menace de battre ou\nde traiter sévèrement.\nPopulairement. N'avoir pas le temps de chercher ses puces, se dit d'une\nfemme très occupée.\n\n2° Puce de mer, petit insecte aquatique.\nDes espèces de puces de mer sont lumineuses, et communiquent leur éclat\naux eaux, BONNET, Contempl. nat. Oeuv. t. VIII, p. 378, dans POUGENS.\nLa puce aquatique, daphnie puce.\n\n3° Puce maligne ou puce de Bourgogne, la pustule maligne, ainsi dite\nparce que d'abord la pustule ressemble à une morsure de puce.\nLes puces, nom donné par les hommes qui travaillent dans l'air comprimé,\nà un prurit pénible, brûlant, quelquefois intolérable, qui survient\nquand la pression est grande.\n\n4° Herbe aux puces, nom vulgaire du psyllion.\n\n5° Adj. invar. Qui est d'un brun semblable à celui de la puce. Étoffe\npuce. Ruban puce. Des habits puce.\nLes acides rougissent les couleurs noires, fauves, violettes, puce....,\nCHAPTAL, Instit. Mém. scienc. t. VI, p. 486.\n\nPROVERBES\nQui se couche avec les chiens se lève avec des puces.\nÀ la Sainte-Luce du saut d'une puce, phrase elliptique qui signifie que,\ndu 23 décembre, fête de sainte Luce dans l'ancien calendrier, les jours\ncroissent d'une quantité imperceptible.\nIl s'ensuit que ce proverbe a près de trois siècles ; car depuis 1582 la\nSainte-Luce se trouve le 13 décembre, époque après laquelle les jours\ndiminuent encore sensiblement, LEGOARANT, .\nÀ peine le soleil remonte du saut d'une puce..., SÉV., 15 janv. 1690.\n\nHISTORIQUE\nXIIe s.\nCil ki tu pursieus {poursuis} est cume uns chienz mors u {ou} une pulce,\n, Rois, p. 95.\nXIVe s.\n{Un discours} Ne laissa que ni li mesist {à une dame} Pluisours fois la\npuche à l'oreille, J. DE CONDÉ, t. II, p. 9.\nCharles en fist tel joie, ne fist mais la paroille ; Mais encore en aura\ntelle puce en l'oroille, Dont il aura peour de perdre corps et terre, ,\nGirart de Rossillon, v. 2257.\nEn esté, gardez que en vostre chambre ne en vostre lit n'ait nulles\npuces, , Ménagier, I, 7.\nXVe s.\nElle estoit amoureuse d'un gros chanoine, qui avoit plus d'argent qu'un\nchien n'a de puces, LOUIS XI, Nouv. XCII.\nXVIe s.\nDames qui ont tant la puce en l'oreille, Qu'il ne les fault appeler\nn'esveiller, G. CRETIN, Poés. p. 79, dans POUGENS.\nPsyllion, seu pulicaris, herbe à puces, in Ruellium, De stirpibus. Puce\nen l'oreille l'homme reveille, LEROUX DE LINCY, Prov. t. I, p. 198.\nNul sang blanc, nulle puce blanche, , ib. t. II, p. 358.\nQui bien dort pulce ne sent, , ib. p. 384.\nComment Panurge avoyt la pulce en l'aureille, RAB., Pant. III, 7.\nCeux qui ont charmé les puces {qui ont bu avec excès, au point de n'être\npas réveillés par les puces}, CHOLIÈRES, Contes, f° 259, dans LACURNE.\n(on a dit dans le même sens, brider les puces).\n\nÉTYMOLOGIE\nWallon, pouss ; picard, puche ; provenç. piuze, piutz ; catal. pussa ;\nespagn. pulga ; ital. pulce ; du lat. pulicem, que les étymologistes\nrapprochent le grec et de l'all. Floh, qui signifient puce. La racine\nest le sanscr. sphur, sauter, sautiller ; le grec fait métathèse, et le\nlatin laisse tomber l's initial.\n\nSUPPLÉMENT AU DICTIONNAIRE\nPUCE. Ajoutez :\n\n6° Puce de terre, la mordelle, voy. ce mot.\nIls {les criquets de Chypre}, au sortir de l'oeuf, ne sont pas plus gros\nque des mordelles ou puces de terre, , Journ. offic. 8 août 1875, p.\n6540, 3e col.\n\n7°\nArbre à la puce, le rhus toxicodendron, BAILLON, Dict. de bot. p. 248.
puceau	PUCEAU\n pu-sô s. m.\nTerme libre.\n\n1° Jeune garçon vierge.\n\n2° Adj. Puceau, pucelle.\nJe la tiens pucelle sans faute, Et si pucelle qu'il n'est rien De plus\npuceau que cette belle, LA FONT., Joc.\nElle affermit de ses pucelles mains Des fleurs de lis la tige gallicane,\nVOLT., Puc. I.\n\nHISTORIQUE\nXIIIe s.\nLi cors de li, ki puceus fu, Ne puet {peut} mort estre corrompu, ,\nÉdouard le Conf. v. 3982.\nLi uns est tout nouviaus Ameres {amant} et tout puciaus, , Anc. poés.\nfr. Vat. n° 1499, f° 170, dans LACURNE.\nXVIe s.\nPar maniere de gausserie on appelle puceaux ceux qui au souffle de leur\nhaleine rallument une chandelle esteinte, PASQUIER, Rech. liv. VIII, p.\n692, dans LACURNE.\nGarder soigneusement son ame pucelle et nette de la contagion et\ncorruption du monde, CHARRON, Sagesse, p. 522, dans LACURNE.\n\nÉTYMOLOGIE\nVoy. PUCELLE.
pucelage	PUCELAGE\n pu-se-la-j' s. m.\n\n1° Terme familier et libre. Se dit d'un homme qui n'a pas connu de\nfemme, d'une femme qui n'a pas connu d'homme. Avoir son pucelage. Perdre\nson pucelage.\nEt combien la Neveu.... A de fois au public vendu son pucelage, BOILEAU,\nSat. IV.\nMme de Beauvais ne s'était pas mise moins bien avec le roi, dont elle\npassait pour avoir eu le pucelage, SAINT-SIMON, 14, 159.\nJ'en avais rapporté non ma virginité, mais mon pucelage, J. J. ROUSS.,\nConf. III.\nFig. et familièrement.\nJe n'ai jamais dit monseigneur à M. le duc d'Orléans, et jusqu'à présent\nencore je me suis conservé ce pucelage, SAINT-SIMON, 227, 48.\nMoi.... qui osai me vanter d'avoir jusqu'à ce moment conservé chèrement\ntoute une vie mon pucelage entier sur les bassesses, SAINT-SIMON, t.\nXVIII, p. 146, éd. in-8°, 1829.\n\n2° Terme d'histoire naturelle. Espèce de petit coquillage univalve du\ngenre des porcelaines.\n\nSYNONYME\nPUCELAGE, VIRGINITÉ. Voy. l'exemple du XVe siècle, à l'historique.\n\nHISTORIQUE\nXIIIe s.\nSe une feme, el tans de sa veveté ou el tans de son pucelage....,\nBEAUMANOIR, II, 26.\nXVe s.\nVirginité et pucellage ne sont pas une mesme chose ne une mesme\nvertu.... pucellaige est une vertu que tous ceulx et toutes celles ont,\nqui n'ont attouchement de charnelle compaignie ; mais virginité est trop\nplus haulte chose et plus merveilleuse, car nul ne la peut avoir, soit\nhomme ou femme, qu'il ait volunté de charnel attouchement, , Lancelot du\nlac, t. III, f° 104, dans LACURNE.\n\nÉTYMOLOGIE\nPucelle ; provenç. piucelatge ; ital. pulcelaggio.
pucelle	PUCELLE\n pu-sè-l' s. f.\n\n1° Terme familier. Vierge.\nS' {si} elle a force ducats, elle est toute pucelle, RÉGNIER, Sat. III.\nVotre petit Allemand.... est beau comme un ange, et doux et honnête\ncomme une pucelle, SÉV., 7 oct. 1676.\nJe découvre enfin deux pucelles, ou, pour mieux dire, deux filles de\ncinquante ans, LESAGE, Diable boit. 10.\nSi les neuf Muses sont pucelles, Les trois Grâces ne le sont pas, VOLT.,\nÉpît 29.\nLa Pucelle d'Orléans, Jeanne d'Arc qui délivra la France (en cet emploi,\npucelle n'est pas du style familier).\nDans la poésie badine, les doctes pucelles, les neuf Muses.\n\n2° Il se dit quelquefois simplement pour jeune fille.\nLe coton pris en leurs rives, Que leurs pucelles captives En nos maisons\nfileront, MALH., VI, 28.\nOn choisit cent pucelles, Toutes sachant broder, aussi sages que belles,\nLA FONT., Filles de Minée.\n\n3° Espèce de poire, dite aussi chat-brûlé, et intermédiaire entre le\nmessire Jean et le martin sec.\n\nHISTORIQUE\nXe s.\nBuona pulcella fut Eulalia, , Eulalie.\nXIe s.\nEt des pulceles et des gentilz oixurs {femmes}, , Ch. de Rol. LXIII.\nXIIe s.\nSi l'amad tant forment {fortement} qu'il enmaladid ; kar grevuse chose\nlui semblad à mustrer à la pulcele nule descunvenue, , Rois, 162.\nXIIIe s.\nOr à mari autre que vous n'aurai ; Pucele ainçois tousjours ainsi\nvivrai, , Romancero, p. 72.\nEncor {je} te commant et encharge, Que tenir te faces por large\n{généreux} à la pucele {servante} de l'ostel, , la Rose, 2571.\nXVe s.\nTous chevaliers doivent aider, à leur loyal pouvoir, toutes dames et\npucelles dechassées et deconfortées, à leur besoin, mesmement quand ils\nen sont requis, FROISS., I, I, 16.\nXVIe s.\nLes lits se font : les trois pucelles de Marolles {qui n'étaient plus\npucelles} se couchent, et les maris après, DESPER., Contes, V.\n\nÉTYMOLOGIE\nProv. piucela, pieucela ; anc. espagn. puncella ; ital. pulcella,\npulzella ; du bas-latin pullicella, diminutif de pulla (qui avait donné\npolle, jeune fille, dans le Chant d'Eulalie), du lat. pullus, jeune\nenfant, jeune animal (voy. POULE). Le masculin pullicellus a donné\npuceau.\n\nSUPPLÉMENT AU DICTIONNAIRE\n1. PUCELLE. Ajoutez :\n\n4° Nom d'un papillon de nuit, noctua puella.
pucelle	PUCELLE\n pu-sè-l' s. f.\nUn des noms vulgaires de la feinte, poisson qui ressemble à l'alose.\n\nSUPPLÉMENT AU DICTIONNAIRE\n2. PUCELLE.  Ajoutez :\nLes poissons {de mer} qui appartiennent au troisième groupe, donnent une\nchair médiocre, sèche ou grêle ; ce sont la vive, l'ange, l'orphie, la\npucelle, A. HUSSON, les Consommations de Paris, p. 254.
pucerie	PUCERIE\n pu-se-rie s. m.\nNom bas-normand de la buanderie.\n{Un mur} a écrasé dans sa chute un petit bâtiment à usage de pucerie\ndans lequel plusieurs femmes travaillaient d'ordinaire, , Avranchin, 1er\ndéc. 1872, Aux annonces.\n\nÉTYMOLOGIE\nPucer ou pucher, qui est l'équivalent normand de puiser.
puceron	PUCERON\n pu-se-ron s. m.\nGenre d'insectes hémiptères qui s'attachent aux feuilles et aux rameaux\ndes plantes, dont le mode de génération, longtemps inexpliqué, est un\ncas de métagenèse.\nNous avons dans nos pucerons un genre d'insectes qui, à la propriété de\nse multiplier sans accouplement, joint encore celle d'être à la fois\nvivipare et ovipare, BONNET, Observ. pucerons.\nUn puceron pris au moment de sa naissance et renfermé à l'instant dans\nla plus parfaite solitude y mit au jour, sous mes yeux,\nquatre-vingt-quinze petits, BONNET, Consid. Corps organ. Oeuv. t. VI, p.\n158, dans POUGENS.\nUn des exemples les plus remarquables et les plus heureux de patience\noffert dans l'observation de la nature, c'est celui de Bonnet, qui vit\net éleva la neuvième génération d'un puceron né sans accouplement,\nSENNEBIER, Ess. art d'observ. t. I, p. 240, dans POUGENS.\nLes pucerons, quoique très petits, sont aussi nuisibles ; ils causent\ndes altérations aux plantes, et font souffrir la végétation de celles\nqui sont délicates, GENLIS, Maison rust. t. I, p. 338, dans POUGENS.\n\nÉTYMOLOGIE\nDiminutif irrégulier de puce, analogue à forgeron, fumeron ; Berry,\npiôsons, au pluriel. On trouve aussi au XVIe siècle pulçon et pulçot,\nqui sont des formations régulières.
puceronne	PUCERONNE\n pu-se-ro-n' s. f.\nFemelle du puceron.\nUn puceron de cette espèce mis au jour sous mes yeux par une puceronne\nailée, BONNET, Observ. pucerons.
pucher ou puchier	PUCHER ou PUCHIER\n pu-ché ou pu-chié v. a.\nPuiser avec le pucheux.\n\nÉTYMOLOGIE\nAutre forme de puiser, usitée en Normandie.
puchette	PUCHETTE\n pu-chè-t' s. f.\nEspèce de drague à l'usage du tourbier.\n\nÉTYMOLOGIE\nPucher.
pucheux	PUCHEUX\n pu-cheû s. m.\nEspèce de cuiller à pot à l'aide de laquelle le fabricant de sucre verse\nle sirop du rafraîchisseur dans le bec de corbin ; on dit aussi puisoir.\nOn agite le sirop avec une grande spatule, en raclant les parois pour en\ndétacher les cristaux.... puis on verse immédiatement le sirop dans les\nformes, à l'aide du pucheux ou de bassins à anses, , Mémoire annexé à la\ncircul. n° 186 du 18 août 1838, p. 7.\n\nÉTYMOLOGIE\nPucher.
puchoir	PUCHOIR\n pu-choir s. m.\nPetit baril emmanché servant de cuiller à puiser, dans les salines.\n\nÉTYMOLOGIE\nPucher.
puchot	PUCHOT\n pu-cho s. m.\nNom, sur le Niger, d'un tourbillon de vent qui, en tournant avec\nviolence, entraîne tout ce qu'il rencontre, LABAT, Nouv. rel. de\nl'Afrique, t. III, p. 186, dans JAL.\n\nÉTYMOLOGIE\nPucher, parce que ce tourbillon puche, puise l'eau.
pudding	PUDDING\n pou-dingh s. m.\nVoy. POUDINGUE.
puddlage	PUDDLAGE\n pu-dla-j' s. m.\nTerme de métallurgie. Action de puddler.\nDepuis plusieurs années, on cherchait à fabriquer de l'acier par le\nprocédé du puddlage, c'est-à-dire au moyen de l'affinage de la fonte par\nla houille dans un fourneau à réverbère, procédé jusqu'alors réservé\nexclusivement à la production du fer, A. GUÉBHARD, Moniteur, 27 août\n1867, p. 1147, 1re col.
puddler	PUDDLER\n pu-dlé v. a.\nAffiner la fonte à la houille par un traitement spécial qui consiste à\nplacer la fonte dans un four à réverbère, et à la porter à une haute\ntempérature, qui, jointe à l'action des gaz provenant de la combustion\ndu charbon {coke} mis sur une grille en tête du four, enlève le carbone\nde la fonte.\n\nÉTYMOLOGIE\nAnglais, to puddle, rendre trouble, corroyer.
puddleur	PUDDLEUR\n pu-dleur s. m.\nOuvrier employé au puddlage.\nL'administration des forges prévient MM. les ouvriers puddleurs,\nchauffeurs, lamineurs.... Avis des maîtres de forges aux ouvriers de\nNantes, , Moniteur, 13 mai 1868, p. 647, 6e col.
pudeur	PUDEUR\n pu-deur s. f.\n\n1° Honte honnête causée par l'appréhension de ce qui peut blesser la\ndécence.\nPudeur, dont on ne s'est servi que depuis M. Desportes, qui en a usé le\npremier, à ce que j'ai entendu dire, VAUGEL., Rem. t. II, p. 979, dans\nPOUGENS.\nElle tombe, et, tombant, range ses vêtements ; Dernier trait de pudeur\nmême aux derniers moments, LA FONT., Filles de Minée.\nLa nature a mis en nous la pudeur, c'est-à-dire la honte de nos\nimperfections, MONTESQ., Esp. XVI, 12.\nMais je vois la pudeur s'avancer sur sa trace ; Ah ! qui peut séparer la\npudeur de la grâce ?, DELILLE, Imag. III.\nEt la pudeur enfin est la grâce de l'âme, DELILLE, ib.\nFig.\nTous mes écrits, enfants d'une chaste candeur, N'ont jamais fait rougir\nle front de la pudeur, GILBERT, Mon apologie.\n\n2° Honte honnête causée par l'appréhension de ce qui peut blesser la\nmodestie, l'honnêteté.\nLa femme sainte et pleine de pudeur est une grâce qui passe toute grâce,\nSACI, Bible, Ecclésiastique, XXVI, 19.\nLa vraie chasteté de l'âme, la vraie pudeur chrétienne est de rougir du\npéché, BOSSUET, Mar.-Thér.\nJe veux dans la satire un esprit de candeur, Et fuis un effronté qui\nprêche la pudeur, BOILEAU, Art p. II.\nUne noble pudeur à tout ce que vous faites Donne un prix que n'ont point\nni la pourpre ni l'or, RAC., Esth. III, 4.\nQuelle aimable pudeur sur leur visage est peinte !, RAC., ib. I, 2.\nLes hommes corrompus n'ont aucune pudeur, et ils sont toujours prêts à\ntoutes sortes de bassesses, FÉN., Tél. XI.\nAinsi que l'honneur, La générosité, madame, a sa pudeur, DUFRÉNY,\nRéconc. norm. IV, 4.\nHomme sans pudeur, homme qui ne rougit de rien.\n\n3° Chasteté, en parlant d'une femme.\nMais la pudeur peut tout sur l'esprit d'une fille, CORN., Théod. II, 7.\nVous qu'il prit à témoins d'une immortelle ardeur, Quand, par un faux\nserment, il vainquit ma pudeur, CORN., Médée, I, 4.\nDe l'austère pudeur les bornes sont passées, RAC., Phèd. III, 1.\n\n4° Sorte de discrétion, de retenue, de modestie qui empêche de dire,\nd'entendre ou de faire certaines choses sans embarras.\nIl {l'ami} cherche vos besoins au fond de votre coeur ; Il vous épargne\nla pudeur De les lui découvrir vous-même, LA FONT., Fabl. VIII, 11.\nVous.... Qui ne pûtes jamais écouter sans pudeur La louange la plus\npermise, LA FONT., ib. X, 15.\nSi toujours dans leur âme {des ministres protestants} une pudeur\nrebelle, Près d'embrasser l'Église, au prêche les rappelle, BOILEAU, Ép.\nIII.\n.... Votre fils me défend de poursuivre ; Je l'affligerais trop si\nj'osais achever ; J'imite sa pudeur et fuis votre présence, RAC., Phèd.\nv, 3.\nMoi-même, je l'avoue avec quelque pudeur.... Ce nom de roi des rois et\nde chef de la Grèce Chatouillait de mon coeur l'orgueilleuse faiblesse,\nRAC., Iph. I, 1.\nIl n'accepte la place qu'en faisant bien sentir la noble pudeur qu'il\navait de succéder à un des premiers géomètres de l'Europe, lui qui ne\ns'était nullement tourné de ce côté là, FONTEN., Dangeau.\nLa pudeur des lois, le respect que les lois inspirent.\nL'autorité établie pour maintenir l'ordre et la pudeur des lois, méritée\npar les excès qui les violent {remise entre les mains de ceux qui les\nviolent en récompense de leurs excès}, MASS., Petit car. Exemples.\n\nHISTORIQUE\nXVIe s.\nUtile decence de nostre virginale pudeur, si elle pouvoit interdire\nceste descouverte, MONT., III, 5.\n\nÉTYMOLOGIE\nLat. pudorem. Pudeur, d'après Vaugelas (voy. ci-dessus au n° 1) a été\nemployé pour la première fois par Desportes.
pudibond, onde	PUDIBOND, ONDE\n pu-di-bon, bon-d' adj.\nTerme familier qui ne se dit guère que par plaisanterie. Qui est plein\nde pudeur. Un air pudibond.\nCette pudibonde demoiselle, VOLT., Lett. Florian, 22 janv. 1775.\nRougeur pudibonde, rougeur du visage produite par la timidité, par la\npudeur\n\nHISTORIQUE\nXVIe s.\nHippocrates ne veut qu'aux autres parties on ouvre trop subit les\napostemes, excepté aux parties pudibondes, PARÉ, V, 10.\n\nÉTYMOLOGIE\nLat. pudibundus, de pudere, avoir pudeur.\n\nSUPPLÉMENT AU DICTIONNAIRE\nPUDIBOND. Ajoutez :\nS. m. Nom d'un papillon de nuit gris, bombyx pudibunda.
pudibondage	PUDIBONDAGE\n pu-di-bon-da-j' s. m.\nTerme familier qui ne s'emploie guère que par moquerie pour\nl'affectation d'une pudeur excessive.\nSa conduite passée {d'un mari}, comparée aux sages et pieuses habitudes\nde Marthe {sa femme}, l'avait jeté dans un accès de pudibondage sans\npareil, CH. DE BERNARD, Un acte de vertu, § v.
pudicité	PUDICITÉ\n pu-di-si-té s. f.\nPureté du corps et de l'âme par rapport aux plaisirs illicites.\nDans ces refuges où la pudicité est à couvert des tentations du\ndésespoir et de l'indigence, FLÉCH., Panég. II, p. 321.\nUn usurier avait voulu corrompre la pudidicité d'un jeune homme,\nMONTESQ., Esp. XII, 21.\nLes lois de la pudicité sont du droit naturel, et doivent être senties\npar toutes les nations du monde, MONTESQ., ib. XV, 12.\n\nHISTORIQUE\nXVIe s.\nNous voyons que le poete attribue la cause de continence et de pudicité\nà la sagesse, AMYOT, Comm. lire, 48.\nSolon feut le premier en la Grece, dict-on, qui par ses lois donna\nliberté aux femmes, aux despens de leur pudicité, de pourveoir au\nbesoing de leur vie, MONT., III, 346.\n\nÉTYMOLOGIE\nLat. pudicitatem, de pudicus, pudique.
pudique	PUDIQUE\n pu-di-k' adj.\n\n1° Qui a de la pudicité.\nVous aviez reçu en naissant une âme si pudique, MASS., Carême, Prod.\nEt les Muses toujours pudiques Chassent les poëtes cyniques De qui le\nvin est l'Apollon, LAMOTTE, Odes, t. I, p. 266, dans POUGENS.\nL'on peut dire que l'honneur d'une femme pudique est sous la protection\nspéciale de tous les gens de bien, J. J. ROUSS., Hél. III, 18.\n\n2° Il se dit des choses.\nSi l'absolu pouvoir d'une pudique flamme...., CORN., Hor. IV, 7.\nJe défie à la fois tous vos vers, vos romans, Vos lettres, billets doux,\ntoute votre science, De valoir cette honnête et pudique ignorance, MOL.,\nÉc. des fem. I, 5.\nLes grâces pudiques de la reine Esther, BOSSUET, Reine d'Angl.\nIl est du style soutenu.\n\n3° Terme de botanique. Se dit de plantes qui, au moindre choc, abaissent\nleurs feuilles et leurs branches.\n\nHISTORIQUE\nXVIe s.\nAu paravant Clitaemnestre pudique...., AMYOT, Comm. lire les poëtes, 48.\nLa philosophie se mesle et parle librement de toutes choses pour en\ntrouver les causes, les juger et reigler ; si faict bien la theologie,\nqui est encore plus pudique et retenue, CHARRON, Sagesse, I, 23.\n\nÉTYMOLOGIE\nLat. pudicus, de pudere, avoir pudeur.
pudiquement	PUDIQUEMENT\n pu-di-ke-man adv.\nD'une manière pudique. Vivre pudiquement. S'exprimer pudiquement.\n\nHISTORIQUE\nXVIe s.\nPudiquement, COTGRAVE, .\n\nÉTYMOLOGIE\nPudique, et le suffixe ment.
puer	PUER\n pu-é v. n.\nJe puais, nous puions, vous puiez ; que je pue, que nous puions, que\nvous puiez ; d'après l'Académie, ce verbe n'a que le présent je pue,\nl'imparfait je puais, le futur je puerai, le conditionnel je puerais, et\nil manque des autres temps ; mais on ne voit pas pourquoi on ne se\nservirait pas du prétérit défini je puai, de l'imparfait du subjonctif\nque je puasse et des temps composés.\n\n1° Exhaler une odeur fétide. Viande qui commence à puer. Ces charognes\npuèrent longtemps.\nIl pue comme un rat mort, comme un bouc, comme une charogne, comme la\npeste, se dit d'un homme qui sent très mauvais.\nFig. et populairement. Cela lui pue, lui pue au nez, il en est dégoûté,\nrebuté.\nLes bancs, le séminaire, l'apprentissage de l'épiscopat, toutes ces\nchoses lui puaient horriblement {à l'abbé de Polignac}, SAINT-SIMON,\n153, 240.\nFig. et familièrement. Il fait tellement parade de son savoir qu'il en\npue.\n\n2° Activement. Puer l'ail, exhaler une odeur d'ail.\nRetirez-vous : vous puez le vin à pleine bouche, MOL., G. Dandin, III,\n12.\nCela pue le musc, l'ambre, la civette, se dit d'une odeur forte et\nincommode de musc, d'ambre, de civette.\nFig.\n....Ah ! sollicitude à mon oreille est rude ; Il pue étrangement son\nancienneté, MOL., Femm. sav. II, 7.\nIl se trouve dans les mémoires de Villars des traits dont la hardiesse\npue la fausseté, SAINT-SIMON, 111, 204.\n\nPROVERBE\nParoles ne puent point, ou parole ne pue point, se dit par excuse quand\non est obligé de nommer quelque chose de sale.\nPour Dieu, daignez m'envoyer (paroles ne puent pas) la feuille de\nl'infâme Fréron contre M. le Brun, VOLT., Lett. Mme d'Argental, 14 janv.\n1761.\n\nREMARQUE\nAutrefois on disait puer ou puir ; Richelet et Furetière les admettent\ndans leurs dictionnaires, en disant que ce sont deux verbes défectueux ;\nque puir n'est point usité à l'infinitif, mais seulement puer, et qu'au\nprésent on conjugue je pus, tu pus, il put. Malherbe a dit : Phlègre qui\nles reçut {les géants}, put encore la foudre Dont ils furent touchés,\nII, 12 ; Dancourt : La bourgeoisie me put horriblement à l'heure qu'il\nest, Cur. de Comp. sc. 9 ; Lesage : Tant mieux, s'écria-t-il, l'esprit\nme put, et je le regarde à l'heure qu'il est comme le présent le plus\nfuneste que le ciel puisse faire à l'homme, Gil Bl. II, 7. Aujourd'hui,\npuir étant tombé dans l'oubli, cette conjugaison anomale a disparu, et\nl'on conjugue je pue, tu pues, il pue.\n\nHISTORIQUE\nXIIIe s.\n....La grace dechiet D'aucun dit, que trop est en cours ; Il est si\nvieus en toutes cours, Qu'il semble à chascun que il pue, Si est sa\ngrace corrumpue, BAUDOUIN DE CONDÉ, t. I, p. 234.\nEt moult en trouverent par les rues qui estoient mort de maladie tout\npuant, , Chr. de Rains, 39.\nLi femiers {fumiers}, Qui de puir est coustumiers, , la Rose, 8950.\nCar tant cum avarice put à Dieu qui de ses biens reput Le monde...., ,\nib. 5261.\nXVe s.\nIl samble voir qu'argens me pue ; Dalès moi ne peut arrester, FROISS.,\nle Dit dou florin.\nXVIe s.\nPuants au dedans toute sorte de vices, MONT., II, 223.\n\nÉTYMOLOGIE\nProvenç. pudir ; ital. putire ; du lat. putere, puer ; du grec,\npourrir ; sanscr. puy, pourrir, puer.
puerpéral, ale	PUERPÉRAL, ALE\n pu-èr-pé-ral, ra-l' adj.\nTerme de médecine. Qui tient à l'accouchement. État puerpéral. Accidents\npuerpéraux.\nFièvre puerpérale, fièvre qui attaque les femmes en couche.\n\nÉTYMOLOGIE\nLat. puerpera, femme en couche, de puer, enfant (voy. PUÉRIL), et\nparere, enfanter (voy. PART, s. m.).
puerpéralité	PUERPÉRALITÉ\n pu-èr-pé-ra-li-té s. f.\nTerme de médecine. État d'une femme qui, ayant accouché, se trouve dans\nla période qui suit l'enfantement.
puff	PUFF\n puf s. m.\nTromperie de charlatan, annonce pour leurrer.\nLe puff ou peuf comme disent nos voisins d'outre-mer.... le puff,\nnécessité si grande que le mot lui-même, devenu français, a forcément\nconquis ses lettres de grande naturalisation ; le puff.... c'est le\nmensonge passé à l'état de spéculation, mis à la portée de tout le\nmonde, et circulant librement pour les besoins de la société et de\nl'industrie, toutes les vanteries, jongleries, sensibleries de nos\npoëtes, de nos orateurs et de nos hommes d'état, autant de puffs !...,\nSCRIBE, le Puff, I, 2.\n\nÉTYMOLOGIE\nAngl. puff, souffle, bouffée de tabac, bulle de savon.
puffin	PUFFIN\n pu-fin s. m.\nNom anglais devenu nom spécifique de la procellaire puffin (oiseaux\npalmipèdes).
pugilat	PUGILAT\n pu-ji-la ; le t ne se prononce pas et ne se lie pas s. m.\nCombat à coups de poing en usage dans les anciens gymnases.\nEntre les combats gymniques, le pugilat était un des plus rudes et des\nplus périlleux, puisque, outre le danger d'y être estropiés, les\nathlètes y couraient risque de la vie, ROLLIN, Hist. anc. Oeuv. t. V, p.\n71, dans POUGENS.\nChez nous, tout combat à coups de poing.\nIl se contenta de contraindre son adversaire à se rasseoir, après lui\navoir tenaillé le poignet de manière à lui ôter l'envie de tenter les\nchances du pugilat, CH. DE BERN., le Gendre, § VIII.\nFig.\nComme il dédaigne alors tant de vils adversaires, Tant de combats\ngrossiers, pugilats littéraires !, MILLEV., Indép. du poëte.\nLa plaidoirie ne saurait être le pugilat de la parole, et les libertés\nde l'improvisation ne doivent pas aller jusqu'à l'invective, CH.\nREYBAUD, Jér. Paturot, II, 7.\n\nÉTYMOLOGIE\nLat. pugilatus, de pugil, athlète pour le pugilat, de pugnus, poing\n(voy. POING).
pugiliste	PUGILISTE\n pu-ji-li-st' s. m.\nCelui qui se bat à coups de poing, boxeur.
pugilistique	PUGILISTIQUE\n pu-ji-li-sti-k' adj.\nQui a rapport aux pugilistes, au pugilat. Luttes pugilistiques.
pugnace	PUGNACE\n pugh-na-s' adj.\nQui a de la pugnacité.\nLa nature prudente de M. de Saci n'était pas sans quelque méfiance de la\nnature pugnace d'Arnauld, et il l'aurait voulu tempérer, STE-BEUVE,\nPort-royal, t. II, p. 326, 3e éd.\n\nÉTYMOLOGIE\nLat. pugnacem (voy. PUGNACITÉ).
pugnacité	PUGNACITÉ\n pugh-na-si-té s. f.\nPropension à combattre, à aimer les luttes corporelles, les dangers, la\nguerre.\nQuelqu'une de ces harangues hautaines et enflammées qui flattent\nl'orgueil national, mais qui ont toujours le mauvais côté de représenter\nl'Angleterre comme étant en lutte avec quelqu'un, homme ou peuple, et de\nfaire appel aux instincts de pugnacité de la race anglaise, XAVIER\nRAYMOND, J. des Débats, 27 janv. 1863.\n\nÉTYMOLOGIE\nLat. pugnacitatem, de pugnare, combattre, qui est le dénominatif de\npugnus (voy. POING).
pui	PUI\ns. m.\nVoy. PUY.
