antidartreux, euse,	ANTIDARTREUX, EUSE,\n an-ti-dar-treû, treûz' adj.\nTerme de médecine. Bon contre les dartres.\n\nÉTYMOLOGIE\nTerme grec signifiant contre (voy. ANTI), et dartreux.
antidate	ANTIDATE\n an-ti-da-t' s. f.\nDate fausse et antérieure à la date véritable.\n\nÉTYMOLOGIE\nAnti pour ante, avant (voy. AINS), et date.
antidater	ANTIDATER\n an-ti-da-té v. a.\nMettre une date antérieure à celle du jour où l'on écrit. Antidater un\ncontrat, un acte sous seing privé.\n\nHISTORIQUE\nXVIe s.\nIl les date ou antidate avec son urinal quand il luy plaist, , Satire\nMén. p. 86.\n\nÉTYMOLOGIE\nAntidate.
antidaté, ée	ANTIDATÉ, ÉE\n an-ti-da-té, tée part. passé.\nDes pièces antidatées.\nLe régent offrit à Cheverny et à Canillac des brevets antidatés qui les\nferaient conseillers d'État avant Dubois, SAINT-SIMON, 454, 141.\nSi les Esquimaux venaient nous donner des annales antidatées de\nplusieurs siècles...., VOLT., Moeurs, premiers peuples qui ont, etc.
antidespote	ANTIDESPOTE\n an-ti-dè-spo-t' s. m.\nNéologisme.\nCelui qui est opposé au despotisme Lorsque j'ai fait dans la suite à\nParis l'antidespote et le fier républicain, J. J. ROUSS., Confess. V.\n\nÉTYMOLOGIE\nTerme grec signifiant contre, et despote.
antidiarrhéique	ANTIDIARRHÉIQUE\n an-ti-di-a-rré-i-k' adj.\nTerme de médecine. Bon contre la diarrhée.\n\nÉTYMOLOGIE\nTerme grec signifiant contre, et diarrhée.
antidogmatique	ANTIDOGMATIQUE\n an-ti-dogh-ma-ti-k' adj.\nQui est opposé aux dogmes d'une théologie, d'une philosophie.\nIl {le P. Hyacinthe} n'espère pas satisfaire les exigences d'un siècle\nantidogmatique, , le Temps, 30 juin 1876, 2e page, 3e col.
antidogmatisme	ANTIDOGMATISME\n an-ti-do-gma-ti-sm' s. m.\nTerme didactique.. Doctrine qui combat le dogmatisme ; c'est le\nscepticisme.\n\nÉTYMOLOGIE\nAnti et dogmatisme.
antidotaire	ANTIDOTAIRE\n an-ti-do-tê-r' s. m.\nMot qui, dans l'ancienne médecine, avait passé du sens de livre des\nantidotes à celui de livre des médicaments.\n\nÉTYMOLOGIE\nAntidote.
antidote	ANTIDOTE\n an-ti-do-t' s. m.\n\n1° Contre-poison. L'antidote est une substance non toxique, capable de\nneutraliser les propriétés toxiques d'autres corps.\n\n2° Fig.\nL'air, les raisins, le vin des bords de la Garonne et l'humeur des\nGascons sont d'excellents antidotes contre la mélancolie, MONTESQ.,\nCorrespondance, 9.\nContre l'humeur qui nous irrite Quels antidotes souverains {que les\nchansons} !, BÉRANG., Bouquet.\nCet ouvrage sera un antidote destiné à réparer en moi un tempérament\naffaibli...., DIDER., A mon frère.\nQue l'amour qu'elle a prise et qu'elle m'a ravie, Lui serve d'antidote\net de contre-poison, TRIST., Mort de Chrispe, V, 1.\n\nÉTYMOLOGIE\nTerme dérivé de deux mots grecs, de contre (voy. ANTI), et (voy. DOT),\ndonné : ce qui est donné contre.\n\nSUPPLÉMENT AU DICTIONNAIRE\nANTIDOTE. Ajoutez : - HIST. XVIe s.\nSçachons que c'est icy le principal antidote contre la peste, que la\nconversion et amendement de nos vies, PARÉ, XXII, 2.
antidotisme	ANTIDOTISME\n an-ti-do-ti-sm' s. m.\nQualité d'antidote.\nIl ne faut pas confondre l'antagonisme {des poisons} avec\nl'antidotisme : le premier se passe dans l'organisme, dans l'épaisseur\nmême des tissus ; le second est une action purement chimique qui n'a\nguère lieu que dans le tube digestif, HENNEGUY, Étude des poisons, p.\n158.
antidoté, ée	ANTIDOTÉ, ÉE\n an-ti-do-té, tée adj.\nPourvu d'antidote.\nNous instruisant par gracieux préceptes Et par sermons de joie\nantidotés, J. B. ROUSS., Épît. III, 1, à Marot.\n\nHISTORIQUE\nXVIe s.\nLes fanfreluches antidotées, trouvées en un monument antique, RAB.,\nGarg. I, 2.\n\nÉTYMOLOGIE\nAntidote.
antidramatique	ANTIDRAMATIQUE\n an-ti-dra-ma-ti-k' adj.\nNéologisme. Qui est contraire aux règles de l'art dramatique et surtout\nà l'effet qu'on cherche à produire au théâtre.\n\nÉTYMOLOGIE\nAnti et dramatique.
antidyssentérique	ANTIDYSSENTÉRIQUE\n an-ti-di-san-té-ri-k' adj. et s. m.\nBon contre la dyssenterie.\n\nÉTYMOLOGIE\nAnti, contre, et dyssenterie.
antidémoniaque	ANTIDÉMONIAQUE\n an-ti-dé-mo-ni-a-k' s. m.\nTerme d'histoire ecclésiastique. Celui qui nie l'existence des démons.\n\nÉTYMOLOGIE\nTermes grecs signifiant contre et démoniaque.
antidéperditeur, trice	ANTIDÉPERDITEUR, TRICE\n an-ti-dé-pèr-diteur, tri-s' adj.\nQui s'oppose à la déperdition, en parlant des corps organisés.\nQuelques savants, le considérant {l'alcool} comme boisson, y ont vu un\nagent antidéperditeur, un moyen d'épargne, DESJARDINS, Rapp. du 7 sept.\n1872 à l'Assemblée nationale, n° 786, p. 13.\n\nÉTYMOLOGIE\nAnti..., et un mot fictif déperditeur, qui tient à déperdition.
antidéveloppée	ANTIDÉVELOPPÉE\n an-ti-dé-ve-lo-pée s. f.\nTerme de mathématiques.\nNon-seulement il tire du roulement d'une courbe sur elle-même une\nroulette ou cycloïdale décrite à la manière ordinaire par un point fixe\nde la courbe mobile, mais encore la caustique par réflexion, et de plus\ndeux courbes, dont il appelle la première antidéveloppée, la seconde\npéricaustique, FONTEN., Bernoulli.
antienne	ANTIENNE\n an-tiè-n' ; tiè monosyllabe s. f.\n\n1° Passage de l'Écriture, qu'on chante en tout ou en partie, avant un\npsaume, et qu'on répète en entier après.\nFig. et familièrement.\nDieu et raison Vous recommandent cette antienne, LA FONT., Pâté.....\nFig. Chanter toujours la même antienne, répéter toujours la même chose.\nFig. Annoncer une triste antienne, annoncer une triste nouvelle.\n\n2° Chant que l'on exécutait autrefois à deux choeurs qui alternaient.\n\nHISTORIQUE\nXIIIe s.\nOvrez les huis de cest chancel ; Nos i verrons encor bien cler ; As\nantiennes n'estuet torner, , Ren. 21300.\nXIVe s.\nPour avoir par chacun dimanche une antoine, verset et oraison ordinaire\ndes morts sur la sepulture de moy, DU CANGE, antiphona.\nXVe s.\nUne hymne ou anthaine de St Nicolas, IB., id.\n\nÉTYMOLOGIE\nProvenç. antifona, antifena ; ital. antifona ; du latin, antiphona, qui\nvient d'un terme grec dérivé de contre (voy. ANTI), et de voix (voy.\nPHONIQUE) ; mot à mot, chant qui se répond. L'antienne était dans\nl'origine le chant de deux choeurs chantant alternativement des psaumes.
antifermentescible	ANTIFERMENTESCIBLE\n an-ti-fèr-man-tè-ssibl' adj.\nQui s'oppose à la fermentation.\nUn travail sur les propriétés antifermentescibles du silicate de soude,\nH. DE PARVILLE, Journ. offic. 9 nov. 1872, p. 6888, 2e col.\nLes propriétés antifermentescibles de l'acide sulfureux se retrouvent\ndans les sulfites alcalins et terreux, , Acad. des sc. Compt. rend. t.\nLXXXIII, p. 439.
antifriction	ANTIFRICTION\n an-ti-fri-ksion s. f.\nNom d'une espèce d'alliage, , Journ. offic. 11 août 1876, p. 6211, 3e\ncol.
antifébrile	ANTIFÉBRILE\n an-ti-fé-bri-l' adj.\nTerme de médecine. Qui est bon contre la fièvre.\n\nÉTYMOLOGIE\nAnti, contre, et fébrile.
antigoutteux, euse	ANTIGOUTTEUX, EUSE\n an-ti-gou-teû, teû-z' adj.\nTerme de médecine. Bon contre la goutte.\n\nÉTYMOLOGIE\nAnti, contre, et goutte.
antigraphe	ANTIGRAPHE\n an-ti-gra-f' s. m.\nTerme de paléographie. Manuscrit ; copie manuscrite.\n\nÉTYMOLOGIE\nTermes grecs signifiant copie, de en place de, et écrire.
antiinfaillibiliste	ANTIINFAILLIBILISTE\n an-ti-in-fa-lli-bi-list' s. m.\nCelui qui est opposé au dogme de l'infaillibilité du pape, proclamé en\n1870.
antilaiteux, euse	ANTILAITEUX, EUSE\n an-ti-lè-teû, teû-z' adj. et s. m.\nLes médicaments antilaiteux ou simplement les antilaiteux, médicaments\nauxquels on supposait la propriété de diminuer la sécrétion du lait, ou\nmédicaments qu'on employait contre les maladies dites laiteuses,\nc'est-à-dire causées par la rétrocession du lait.\n\nÉTYMOLOGIE\nAnti, contre, et laiteux.
antilambda	ANTILAMBDA\n an-ti-lan-bda s. m.\nTerme de paléographie. Signe servant à indiquer les citations, comme nos\nguillemets.\n\nÉTYMOLOGIE\nAnti, indiquant renversement, et lambda, l'l de l'alphabet grec.
antilibéralisme	ANTILIBÉRALISME\n an-ti-li-bé-ra-lis-m' s. m.\nSentiment, esprit opposé au libéralisme.\nLa foule {à Bologne} est allée crier sous les fenêtres de divers palais\nconnus pour leur antilibéralisme, , le Temps, 15 oct. 1876, 2e page, 1re\ncol.
antilogarithme	ANTILOGARITHME\n an-ti-lo-ga-ri-tm' s. m.\nTerme de mathématiques. Complément d'un logarithme.\nVieux.\n\nÉTYMOLOGIE\nAnti et logarithme.\n\nSUPPLÉMENT AU DICTIONNAIRE\nANTILOGARITHME. Ajoutez :\n\n2° Aujourd'hui, l'antilogarithme d'un nombre a est un nombre b dont a\nest le logarithme.\nDodron a publié le premier une table d'antilogarithmes, , The\nAntilogarithmic canon, 1742.
antilogie	ANTILOGIE\n an-ti-lo-jie s. f.\nTerme didactique.. Contradiction de langage, d'idées.\n\nÉTYMOLOGIE\nTermes grecs, l'un est dérivé de contre (voy. ANTI), et l'autre signifie\ndiscours (voy. LOGIQUE).
antilogoumènes	ANTILOGOUMÈNES\n an-ti-lo-gou-mè-n' s. m. pl.\nSe dit, depuis Eusèbe, dans son Histoire de l'Église, des livres\nbibliques qui ont été contestés.\n\nÉTYMOLOGIE\nEn grec, livres contredits, participe passif pluriel du grec,\ncontredire, du grec, contredisant, du grec, contre, et, dire.
antilogue	ANTILOGUE\n an-ti-lo-gh' adj.\nTerme de minéralogie. Pôle antilogue, celui des deux sommets de la\ntourmaline électrisée par échauffement ou par refroidissement, qui se\nmontre électrisé négativement quand la température est croissante, et\npositivement quand elle est décroissante.\n\nÉTYMOLOGIE\nVoy. ANTILOGIE.
antilope	ANTILOPE\n an-ti-lo-p' s. f.\nGenre de ruminants à cornes creuses non caduques, chez lesquels la\nprotubérance de l'os frontal qui supporte les cornes est solide, sans\ncavité centrale proprement dite. La gazelle, le chamois, le bubale des\nanciens appartiennent à ce genre.
antimilitaire	ANTIMILITAIRE\n an-ti-mi-li-tê-r' adj.\nContraire à l'esprit militaire. Tâchez de vous conserver, sans oublier\ncependant que la mort vaut mille fois mieux, je ne dis pas qu'une\nlâcheté, mais la moindre grimace antimilitaire, DE MAISTRE,\nCorrespondance. A son fils officier.
antiministériel, elle	ANTIMINISTÉRIEL, ELLE\n an-ti-mi-ni-sté-ri-èl, è-l' adj.\nTerme de politique parlementaire. Qui n'est pas ministériel, qui\ns'oppose à la politique du ministère.
antimoine	ANTIMOINE\n an-ti-moi-n' s. m.\n\n1° Métal d'un blanc bleuâtre avec lequel on prépare l'émétique.\n\n2° Antimoine diaphorétique. Les pharmacologistes donnent ce nom au\nproduit de la calcination d'une partie de protosulfate d'antimoine avec\nune partie et demie de nitrate de potasse.\n\nHISTORIQUE\nXVIe s.\nAdjoustant antimonium, aloës, mastic, PARÉ, XVI, 14.\nPrenez antimoine cru, subtilement pulverisé et passé par le cicotrin,\nPARÉ, XVI, 27.\nIl y en a de deux especes {d'antimoine}, à sçavoir masle et femelle,\nPARÉ, XXIV, Ch. compl.\nLorsque l'antimoine est calciné ou bruslé, qu'aucuns appellent preparé,\nil est rendu plus sec et plus dur. Estant crud et non calciné, il....,\nPARÉ, ib.\nNy le pront argent vif, principe de metaux, Ny tout ce que Pluton cache\nen son patrimoine, Ny des fortes poisons l'execrable antimoine, RONS.,\n723.\n\nÉTYMOLOGIE\nMot d'une origine douteuse. On l'a fait venir, d'après sa composition\napparente, d'antimoine, c'est-à-dire contraire aux moines. Mais cette\nétymologie ne se fonde absolument sur rien, aucune anecdote de quelque\nauthenticité ne nous apprenant comment un pareil sobriquet aurait pu\nêtre donné à ce métal. Quelques-uns le font venir d'un terme grec en le\njustifiant par le fait que ce métal ne se trouve jamais seul ; certains,\nd'un autre mot grec indiquant qu'il fortifie les corps. Antimonium se\ntrouve dans les écrits de Constantin l'Africain, De gradibus, p. 381,\nmédecin salernitain qui vivait à la fin du XIe siècle. D'autres, avec\nraison, ce semble, tirent ce mot de l'arabe athmoud ou ithmid. Athmoud\nest devenu facilement, dans le latin barbare, antimonium. D'un autre\ncôté, la forme propre de l'arabe est ithmid, et vient sans aucun doute\ndu grec, qui est dans stibié (voy. ce mot) ; de sorte que, par un jeu\nsingulier de l'altération des langues, antimoine et stibié seraient un\nmot identique.
antimonacal, ale	ANTIMONACAL, ALE\n an-ti-mo-na-kal, ka-l' adj.\nNéologisme. Qui est opposé aux moines, aux couvents de moines.\n\nÉTYMOLOGIE\nAnti et monacal.
antimonarchique	ANTIMONARCHIQUE\n an-ti-mo-nar-chi-k' adj.\nNéologisme. Qui est opposé au gouvernement monarchique.\n\nÉTYMOLOGIE\nAnti et monarchique.\n\nSUPPLÉMENT AU DICTIONNAIRE\nANTIMONARCHIQUE. Ajoutez : - REM. Ce mot n'est pas tout à fait aussi\nnéologique qu'on le croirait.\nVoyez cet exemple : Il nous souffle un vent philosophique de\ngouvernement libre et antimonarchique, D'ARGENSON, Mémoires, dans le\njournal le Soir, 22 janv. 1873, 3e col.
antimonial, ale	ANTIMONIAL, ALE\n an-ti-mo-ni-al, a-l'\n1° Adj. Qui est fait avec l'antimoine. Préparations antimoniales.\n\n2° S. m. plur. Les antimoniaux, médicaments dont le principe actif est\nl'antimoine.\n\nHISTORIQUE\nXVIe s.\nLedit vin antimonien fera tel effet que la poudre, PARÉ, XXIV, Ch.\ncompl.\n\nSUPPLÉMENT AU DICTIONNAIRE\nANTIMONIAL. Ajoutez :\n\n3° Lors du débat sur l'antimoine, au XVIIe siècle, les antimoniaux, les\npartisans de l'antimoine.\nM. Merlet dit que ce sont les antimoniaux de notre faculté {faculté de\nmédecine} qui en ont payé l'impression {d'un pamphlet pour faire dépit à\nM. Riolan et à moi-même}, GUI PATIN, Lett. t. II, p. 137.
antimoniate	ANTIMONIATE\n an-ti-mo-ni-a-t' s. m.\nTerme de chimie. Sel formé par la combinaison de l'acide antimonique\navec une base.
antimonides	ANTIMONIDES\n an-ti-mo-ni-d' s. m. plur.\nTerme de minéralogie. Famille de minéraux qui contiennent de\nl'antimoine.
antimonique	ANTIMONIQUE\n an-ti-mo-ni-k' adj.\nTerme de chimie. Acide antimonique, c'est le même que le peroxyde\nd'antimoine.
antimoniure	ANTIMONIURE\n an-ti-mo-ni-u-r' s. m.\nTerme de chimie. Alliage d'antimoine.
antimonié, ée et antimonifère	ANTIMONIÉ, ÉE et ANTIMONIFÈRE\n an-ti-mo-ni-é, ée et an-ti-mo-ni-fê-r' adj.\nQui contient de l'antimoine.
antimoral, ale	ANTIMORAL, ALE\n an-ti-mo-ral, ra-l' adj.\nQui est opposé aux règles de la morale. Les doctrines sociales et\nantimorales, le National, 7 août 1876, 1re page, 3e col.\n\nSYNONYME\nANTIMORAL, IMMORAL. Ces deux mots ne sont pas tout à fait synonymes.\nImmoral exprime une violation de la morale, et indique quelque chose\ndigne de flétrissure. Antimoral exprime une opposition à la morale\nreçue, et indique une tendance à l'écarter comme chose vieillie.
antimétabole	ANTIMÉTABOLE\n an-ti-mé-ta-bo-l' s. f.\nSynonyme de ANTIMÉT A THÈSE.\n\nÉTYMOLOGIE\nTermes grecs signifiant à l'opposite (voy. ANTI), changement, et jeter\n(voy. BALISTIQUE).
antimétalepse	ANTIMÉTALEPSE\n an-ti-mé-ta-lè-ps' s. f.\nSynonyme de ANTIMÉTATHÈSE.\n\nÉTYMOLOGIE\nTermes grecs signifiant à l'opposite (voy. ANTI), et métalepse.
antimétathèse	ANTIMÉTATHÈSE\n an-ti-mé-ta-tè-z' s. f.\nL'antimétathèse ou le renversement est : 1° une figure de grammaire par\nlaquelle deux ou plusieurs lettres d'un mot se mettent l'une à la place\nde l'autre, comme utile et tuile ; 2° une figure de mots par laquelle\ndeux phrases font pour ainsi dire entre elles l'échange des mots qui les\ncomposent, de manière que chacun se trouve à son tour à la même place et\ndans le même rapport où était l'autre ; exemple : Courbe la tête, fier\nSicambre ; adore ce que tu as brûlé, et brûle ce que tu as adoré.\n\nÉTYMOLOGIE\nTerme grec signifiant à l'opposite (voy. ANTI), et métathèse ;\nproprement, contre-déplacement.
antinational, ale	ANTINATIONAL, ALE\n an-ti-na-sio-nal, na-l' adj.\nNéologisme. Contraire à la nation, à ses intérêts.\nLe roi, dit-on, pourra donc faire des guerres injustes, des guerres\nantinationales ?, MIRABEAU, Collection, t. III, p. 332.\n\nÉTYMOLOGIE\nAnti et national.
antinomianisme	ANTINOMIANISME\n an-ti-no-mi-a-ni-sm' s. m.\nNom donné, dans l'Église protestante, à la doctrine qui enseigne qu'il\nest resté dans l'homme assez de bonté morale pour saisir le bien par\namour pour Jésus-Christ, sans la crainte de la loi et de l'enfer\n(BERTHOUD). L'antinomianisme, qui a été l'une des faiblesses de notre\nréveil, ALEX., VINET, Liberté religieuse et questions ecclésiastiques.\n\nÉTYMOLOGIE\nLe mot d'antinomianisme est devenu presque général chez les réformés de\nlangue française d'après antinomien, et non pas d'après le mot latin qui\naurait donné antinomisme (NITZSCH, De antinomismo Agricolae). Agricola,\nprofesseur à Wittemberg et prédicateur à la cour de Berlin, est l'auteur\nde l'antinomianisme ; mais il s'humilia volontairement devant les\ncensures de Luther, qui l'accusait d'anéantir la loi morale (BERTHOUD.)
antinomie	ANTINOMIE\n an-ti-no-mie s. f.\n\n1° Contradiction réelle ou apparente entre deux lois. Concilier une\nantinomie, des antinomies.\n\n2° En philosophie, nom donné par Kant à une contradiction naturelle, par\nconséquent inévitable, qui résulte non d'un raisonnement vicieux, mais\ndes lois mêmes de la raison, toutes les fois que, franchissant les\nlimites de l'expérience, nous voulons savoir de l'univers quelque chose\nd'absolu, étant alors dans l'alternative ou de ne pas répondre à l'idée\nde l'absolu ou de dépasser les limites de notre intelligence qui\nn'atteint que les phénomènes. C'est ainsi que l'on peut soutenir à la\nfois par des arguments d'égale valeur que le monde est éternel et\ninfini, ou qu'il a un commencement dans le temps et des limites dans\nl'espace.\n\nSYNONYME\nANTILOGIE, ANTINOMIE, ANTIPHRASE. Trois substantifs dont le premier\nsignifie contradiction de langage, et se dit aussi des contradictions de\nsens dans le discours. Le second est un terme de jurisprudence ou de\nphilosophie, qui signifie contradiction entre deux lois. Le troisième se\ndit pour contre-vérité, par ironie ou par crainte.\n\nHISTORIQUE\nXVIe s.\nSouldre et sortir d'une ambiguité, difficulté, antinomie, CHARRON,\nSagesse, II, 3.\n\nÉTYMOLOGIE\nTerme dérivé de deux mots grecs signifiant contre et loi (voy. NOME).
antinomien	ANTINOMIEN\n an-ti-no-miin s. m.\nSectaire du XVIe siècle qui enseignait que les oeuvres de la loi divine\nne sont point nécessaires au salut.\n\nÉTYMOLOGIE\nTermes grecs signifiant contre et loi.
antinoüs	ANTINOÜS\n an-ti-no-ûs' s. m.\nTerme d'astronomie. Constellation de l'hémisphère boréal, située au midi\nde l'Aigle.\n\nÉTYMOLOGIE\nNom propre de l'antiquité grecque.
antiope	ANTIOPE\n an-ti-o-p' s. f.\n\n1° Dans la mythologie, nom de femme qui ne figure dans Homère que comme\nmère d'Amphion et de Zéthus.\n\n2° La 90e planète télescopique, découverte par M. Luther.
antipape	ANTIPAPE\n an-ti-pa-p' s. m.\nCelui qui prétend passer pour pape au préjudice du pape choisi\nlégitimement, et qui cause par cette prétention un schisme dans\nl'Église.\nGerson osait s'opposer aux fureurs de quatre antipapes, VOLT., Phil. II,\n221.\n\nHISTORIQUE\nXVIe s.\nÀ ceste cause ils pourroient tenir un autre concile, et y creer un\nantipape qui approuvast leurs heresies, M. DU BELL., 184.\n\nÉTYMOLOGIE\nAnti et pape.
antipapisme	ANTIPAPISME\n an-ti-pa-pi-sm' s. m.\n\n1° État de celui qui est antipape.\n\n2° Opinion religieuse qui ne reconnaît pas la suprématie du pape.
antipapiste	ANTIPAPISTE\n an-ti-pa-pi-st' s. m.\nQui est opposé au papisme.
antiparallèle	ANTIPARALLÈLE\n an-ti-pa-ra-llè-l'\n1° S. m. Terme de rhétorique. Mot employé pour désigner une sorte de\nrépétition où les mots répétés le sont en ordre in verse.\n\n2° Adj. En termes de mathématiques, se dit de deux droites formant avec\nune troisième des angles égaux, mais dirigés en sens contraire.\n\nÉTYMOLOGIE\nAnti et parallèle.
antiparastase	ANTIPARASTASE\n an-ti-pa-ra-sta-z' s. f.\nFigure de rhétorique, qui consiste en ce qu'un accusé maintient qu'il\ndevrait être loué plutôt que blâmé, s'il avait fait ce qu'on lui impute.\n\nÉTYMOLOGIE\nTermes grecs signifiant contre (voy. ANTI), et preuve, de auprès, et\nposition (voy. STASE).
antipathie	ANTIPATHIE\n an-ti-pa-tie s. f.\n\n1° Aversion naturelle et non raisonnée.\nIl y a entre votre père et lui une antipathie naturelle, J. J. ROUSS.,\nHél. IV, 7.\nÀ moins d'une secrète et forte antipathie, CORN., Sertor. I, 2.\nMille manières forment entre elles l'antipathie, LA BRUY., 3.\nLe coeur toujours plein de jalousies, d'antipathies, de désirs\nd'élévation et de faveur, MASS., Carême, Culte.\nEst-il si naturel d'être toujours en garde contre son propre coeur, d'en\nvaincre les antipathies, d'en réprimer les penchants ?, MASS., Car.\nInjust. du monde.\nLe mariage a ses antipathies et ses fureurs, MASS., Avent, Afflict.\nSous le joug du mariage, on se plaint que les antipathies mettent un\nobstacle au salut, MASS., Conc.\nVous ne nourrissez pas des antipathies secrètes, MASS., Prof. 2.\n\n2° Défaut d'affinité entre les choses. L'eau et l'huile ont de\nl'antipathie.\n\n3° En peinture, défaut d'harmonie des couleurs.\n\nÉTYMOLOGIE\nTerme dérivé de mots grecs signifiant contre (voy. ANTI), et affection,\npassion (voy. PATHOS).
antipathique	ANTIPATHIQUE\n an-ti-pa-ti-k' adj.\nSe dit des personnes et des choses qui se repoussent l'une l'autre.\nCaractères, sentiments antipathiques.\nFamilièrement. Cet homme m'est antipathique ; j'ai de l'aversion pour\nlui.
antipatriotique	ANTIPATRIOTIQUE\n an-ti-pa-tri-o-ti-k' adj.\nOpposé au patriotisme.\nCette allégation {qu'un seigneur ne saura où les placer, s'il ne fait\nses filles religieuses} est inhumaine, antipatriotique, VOLT., l'H. aux\n40 écus, sur les moines.\n\nÉTYMOLOGIE\nAnti, contre, et patriotique.
antipestilentiel, elle	ANTIPESTILENTIEL, ELLE\n an-ti-pè-sti-lan-siel, è-l' adj.\nTerme de médecine. Qui est propre à combattre la peste, à en préserver.
antiphernaux	ANTIPHERNAUX\n an-ti-fèr-nô adj. m. plur.\nTerme de pratique. Biens antiphernaux, biens que le mari donne à sa\nfemme par contrat de mariage.\n\nÉTYMOLOGIE\nTermes grecs signifiant en place de et dot.
antiphilosophique	ANTIPHILOSOPHIQUE\n an-ti-fi-lo-zo-fi-k' adj.\nQui est contraire aux principes de la philosophie.
antiphlogistique	ANTIPHLOGISTIQUE\n an-ti-flo-ji-sti-k' adj.\n\n1° En termes de chimie, qui combat la théorie du phlogistique.\n\n2° En termes de médecine, qui combat l'inflammation. Traitement\nantiphlogistique.\n\n3° S. m. plur. Les antiphlogistiques.\n\nÉTYMOLOGIE\nAnti, contre, et phlogistique.
antiphonaire ou antiphonier	ANTIPHONAIRE ou ANTIPHONIER\n an-ti-fo-nê-r' ou an-ti-fo-nié s. m.\nLivre d'église où se trouvent notés les antiennes et tous les chants de\nl'office.\n\nÉTYMOLOGIE\nProvenç. antifonari ; bas-latin, antiphonarium (voy. ANTIENNE).
antiphrase	ANTIPHRASE\n an-ti-frâ-z' s. f.\nEmploi d'un mot ou d'une proposition dans un sens contraire à son\nvéritable sens ; ainsi le mot Euménides, qui signifie bienveillantes,\nest formé par antiphrase.\nLe nom de boeuf que le roitelet porte dans plusieurs provinces, lui est\ndonné par antiphrase à cause de son extrême petitesse, BUFF., Roitelet.\n\nSYNONYME\nANTIPHRASE, CONTRE-VÉRITÉ. Contre-vérité est plus général et se dit de\ntoute espèce de contre-vérité, renfermée soit dans un seul mot, dans une\ndénomination, soit dans une proposition, dans un discours. Antiphrase se\ndit d'une contre-vérité réduite à un seul mot, à une seule dénomination.\nAinsi contre-vérité peut se dire en place d'antiphrase ; mais antiphrase\nne peut pas se dire dans tous les cas pour contre-vérité.\n\nHISTORIQUE\nXVIe s.\nLes aultres {plantes} ont leur nom par antiphrase et contrarieté, RAB.,\nPant. III, 48.\n\nÉTYMOLOGIE\nTerme dérivé du mot grec signifiant contre (voy. ANTI), et PHRASE.
antiphysique	ANTIPHYSIQUE\n an-ti-fi-zi-k' adj.\nQui est contre la nature.\n\nÉTYMOLOGIE\nAnti, contre, et physique.
antipied	ANTIPIED\n an-ti-pié s. m.\nTerme de zoologie. Pied ou patte de devant d'un mammifère.\n\nÉTYMOLOGIE\nAnti, en avant, et pied.
antipindarique	ANTIPINDARIQUE\n an-ti-pin-da-ri-k' adj.\nOpposé à Pindare.\nPerrault l'antipindarique...., BOILEAU, Épigr. 29.\n\nÉTYMOLOGIE\nAnti, contre, et pindarique.
antipode	ANTIPODE\n an-ti-po-d' s. m.\n\n1° Celui qui habite à l'extrémité d'un diamètre de la terre en\nopposition à celui qui habite à l'autre extrémité.\nPythagore disait que la terre était ronde, qu'elle était habitée en tous\nsens, et par conséquent qu'il y avait des antipodes qui marchaient les\npieds opposés aux nôtres...., FÉNEL., Phil. Pyth.\nSaint Paulin vit un possédé qui marchait la tête en bas comme un\nantipode, VOLT., Phil. III, 297.\n\n2° Fig. Cet homme est l'antipode du bon sens ; ses raisonnements, ses\nactions n'ont pas le sens commun.\nIl faudrait être l'antipode de la raison pour ne pas confesser que\nParis...., MOL., Préc. rid. sc. 10.\nPour faire en sorte que tout ce qui est en nous ne soit qu'erreur, il\nfaut que Dieu ait formé tout exprès de rien un être tout nouveau qui\nsoit l'antipode de la raison, FÉNEL., Exist. II, 12.\nTournebroches {chiens dressés à tourner la broche} par lui rendus\ncommuns en France Y font un corps à part, gens fuyant les hasards,\nPeuple antipode des Césars, LA FONT., Fab. VIII, 24.\n\n3° Il se dit des lieux. Les antipodes de Paris sont au sud-est de la\nNouvelle-Zélande.\nFamilièrement. Je voudrais que cet homme fût aux antipodes, bien loin,\nle plus loin possible.\nPour vous ôter l'idée que je suis aux antipodes, SÉV., 219.\n\nREMARQUE\nOn trouve, dans St-Simon, antipode employé singulièrement pour signifier\ncaractère opposé à.\nLa netteté de son esprit {du chancelier}, l'agrément de ses manières,\nsurtout son antipode de pédanterie plaisaient infiniment au roi,\nSAINT-SIMON, 358, 227.\n\nÉTYMOLOGIE\nTerme dérivé du mot grec contre (voy. ANTI), et terme grec signifiant\npied (voy. PIED).
antipodique	ANTIPODIQUE\n an-ti-po-di-k' adj.\nQui a rapport aux antipodes.\nFig. Qui est opposé, contraire.\nPour l'histoire des peintres, où les graveurs eurent à traduire Raphaël\net Titien, Poussin et Velasquez, - des talents presque antipodiques -\nquelle variété de travail ne faut-il pas ?..., BÜRGER, Salons de 1861 à\n1868, t. I, p. 82.\nCe que Courbet représente dans l'école contemporaine, c'est un franc\nnaturalisme, absolument antipodique aux manières prétentieuses et\nfausses des peintres récemment adoptés par un monde frivole, BÜRGER, ib.\nt. II, p. 279.
antipolitique	ANTIPOLITIQUE\n an-ti-po-li-ti-k' s. f.\nPolitique opposée à la saine politique.\nAvec ces belles maximes et cette antipolitique.... ils ont gouverné le\nmonde, BALZ., 2e Discours, De la Cour.
antipoétique	ANTIPOÉTIQUE\n an-ti-po-è-tik' adj.\nContraire à la poésie.\nUne religion qui a donné l'idée des amours d'Adam et ève n'est pas une\nreligion antipoétique, CHATEAUBR., Génie, II, V 12.\n\nÉTYMOLOGIE\nAnti, contre, et poétique.
antipsorique	ANTIPSORIQUE\n an-ti-pso-ri-k' adj. et s. m.\nQui convient contre la gale.\n\nÉTYMOLOGIE\nAnti, contre, et psorique.
antiptose	ANTIPTOSE\n an-ti-pto-z' s. f.\nFigure de syntaxe. Emploi d'un cas pour un autre.\n\nÉTYMOLOGIE\nTermes grecs signifiant en place de (voy. ANTI), et cas.
antiputride	ANTIPUTRIDE\n an-ti-pu-tri-d' adj. et s. m.\nTerme de médecine. Qui s'oppose à la putridité.\n\nÉTYMOLOGIE\nAnti, contre, et putride.
antipériodique	ANTIPÉRIODIQUE\n an-ti-pé-ri-o-di-k' adj. et s. m.\nTerme de médecine. Qui combat les maladies périodiques.
antipéristaltique	ANTIPÉRISTALTIQUE\n an-ti-pé-ri-stal-ti-k' adj.\nTerme de physiologie. On nomme mouvement antipéristaltique de l'estomac\net des intestins, le mouvement de contraction de ces organes de bas en\nhaut, de manière que les matières qu'ils contiennent se trouvent\nreportées en sens inverse de leur cours habituel, qui est déterminé par\nles mouvements normaux ou péristaltiques.\n\nÉTYMOLOGIE\nAnti, contre, et péristaltique.
antipéristase	ANTIPÉRISTASE\n an-ti-pé-ri-sta-z' s. f.\nTerme didactique.. Action de deux qualités contraires dont l'une sert à\nrendre l'autre plus vive et plus puissante.\nDe la glace et du chocolat.... je veux vous demander si vos entrailles\nn'en sont point offensées, et si elles ne vous font point de bonnes\ncoliques pour vous apprendre à leur donner de telles antipéristases :\nvoilà un grand mot, SÉV., 94.\n\nHISTORIQUE\nXVIe s.\nL'hiver augmente la chaleur du corps, par antiperistase, c'est-à-dire\npar contrariété de l'air voisin, PARÉ, Introd. 5.\n\nÉTYMOLOGIE\nTerme dérivé de mots grecs signifiant contre (voy. ANTI), et\ncirconstance ; mot à mot, contre-circonstance. Le terme grec\ncirconstance est composé de autour, et de station (voy. STASE).
antiquaille	ANTIQUAILLE\n an-ti-kâ-ll', ll mouillées s. f.\n\n1° Chose antique de peu de valeur. Sa chambre est remplie\nd'antiquailles.\nPour avoir la permission d'attaquer la vieille antiquaille de cheminée,\nSÉV., 381.\n\n2° Familièrement.\nBien qu'après coup tous ces croquants Osent me traiter d'antiquaille,\nBÉRANG., Prétint.\nIls veulent déterrer les Grecs du monument, Les Latins, les Hébreux et\ntoute l'antiquaille, Et leur dire en leur nez qu'ils n'ont rien fait qui\nvaille, RÉGNIER, Sat. IX.\n\nHISTORIQUE\nXVIe s.\nAu demourant je me suis estudié de recueillir des choses qui ne sont pas\ncommunes à tout le monde, que d'autres ont par cy par là escrites, ou\nque j'ay retirées de quelques antiquailles, ou de quelques anciens\nregistres, dont j'ay tissu...., AMYOT, Nicias, 2.\n\nREMARQUE\nDans le milieu du XVIIe siècle, antiquaille prit momentanément un sens\nfavorable.\nEstimant quelque chose qui ne sera pas nouveau, par exemple, un livre ou\nquelque ouvrage de la main, on dit : vous aimez l'antiquaille. Ce mot\nd'antiquaille est bien reçu, on le fait nouveau, MARG. BUFF., Observ. p.\n39.\n\nÉTYMOLOGIE\nItal. anticaglia ; du bas-lat. antiqualia, neutre pluriel d'un adjectif\nantiqualis, qui n'existe pas, mais qu'on peut supposer dérivé d'antiquus\n(voy. ANTIQUE). Les noms latins neutres, au pluriel, forment souvent,\ndans les langues romanes, des noms féminins au singulier.
antiquaire	ANTIQUAIRE\n an-ti-kê-r' s. m.\n\n1° Celui qui s'applique à l'étude de l'antiquité, en expliquant les\nanciennes médailles, les inscriptions, l'usage et la forme des vases et\ndes instruments antiques, en restituant les vieux manuscrits, et\ncherchant d'autres lumières qui puissent jeter du jour sur l'histoire et\nles usages des anciens temps.\nLes papas me disent qu'ils avaient vu des antiquaires anglais,\nCHATEAUBR., Itin. 96.\nAntiquaire d'une nouvelle espèce, il me fallut apprendre à la fois à\nrestaurer ces monuments des révolutions passées et à en déchiffrer le\nsens, CUV., Révol. p. 7.\n\n2° En paléographie, copiste qui écrivait en lettres capitales antiques.\n\nÉTYMOLOGIE\nAntiquarius, de antiquus (voy. ANTIQUE).\n\nSUPPLÉMENT AU DICTIONNAIRE\nANTIQUAIRE. Ajoutez :\n\n3° Recueil d'antiquités. Quelques livres ont été publiés sous ce titre\nau XVIIe siècle, notamment l'Antiquaire de la ville d'Alençon, 1685,\nin-12.\n\nREMARQUE\nAntiquaire au sens de docte en antiquités est plus ancien que les\nexemples ne le feraient croire.\nC'est un homme docte et en réputation de grand antiquaire, CORN.,\nLexique, éd. Marty Laveaux.
antique	ANTIQUE\n an-ti-k' adj.\n\n1° Il se dit de ce qui est d'une époque très reculée. Monument antique.\nJe viens suivant l'usage antique et solennel, RAC., Ath. I, 1.\nJe veux que la valeur de ses aïeux antiques Ait fourni de matière aux\nplus vieilles chroniques, BOILEAU, Sat. v.\n\n2° Qui était auparavant.\nDieu de Sion rappelle, Rappelle en sa faveur tes antiques bontés, RAC.,\nAthal. III, 7.\nHeureux Helvétiens, Nos antiques amis et nos concitoyens, VOLT.,\nFontenoy.\n\n3° Fig. Homme d'une vertu, d'une probité antique, de moeurs antiques ;\nhomme d'une grande probité, de moeurs très pures.\n\n4° En termes d'arts, ayant le caractère des productions de l'antiquité.\nOuvrage d'une simplicité, d'une majesté antique.\n\n5° Qui est hors de mode, hors du goût du moment. Vêtements, meubles\nantiques.\nNégliger vêpres comme une chose antique, LA BRUY., 13.\nUne femme qui quitte Paris pour aller passer six mois à la campagne en\nrevient aussi antique que si elle s'y était oubliée trente ans,\nMONTESQ., Lettres pers. 99.\n\n6° Par raillerie, en parlant de personnes avancées en âge. Une antique\nbeauté.\nTrès rarement les antiques discrètes Logeaient l'oiseau...., GRESSET,\nVert-Vert.\n\n7° S. m. L'ensemble des ouvrages des artistes de l'ancienne Grèce et de\nl'ancienne Italie. Étudier, copier l'antique. Pour certains\nenthousiastes l'antique est toujours beau.\nLe comte de Bussy traduisit de l'antique les amours d'Hélène, P. L.\nCOURIER, I, 82.\n\n8° S. f. Ce qui nous reste de l'antiquité, armes, médailles, statues,\nvases, etc. Une belle antique.\nUn Anglais en fait dessiner quelques antiques, J. J. ROUSS., Ém. v.\nLord Elgin découvrit des antiques que je n'ai point vues, CHATEAUB.,\nItin. 201.\nLes élèves de Rome sont entretenus aux frais du roi ; ils y dessinent\nles antiques, VOLT., Louis XIV, 32.\nSa main creusa les traits de ton visage étique {de Voltaire}, Et plus\nd'un connaisseur le prend pour une antique, VOLT., Pégase.\n\n9° À l'antique, loc. adv. D'une façon antique, à l'ancienne mode.\nS'habiller à l'antique.\nComme homme simple et qui vis à l'antique, LA FONT, Orais.\n\n10° En termes de blason, se dit des couronnes à pointes de rayons, des\ncoiffures anciennes, vêtements, bâtiments, etc.\n\nHISTORIQUE\nXIIe s.\nEst descendus devant la tour antie, , Ronc. p. 115.\nClair luit la lune par la cité antie, , ib. p. 147.\nRiches fu li tournois desous la tour antive, AUDEFR. LE BAST., p. 18.\nEt nous repairerons vostre chemin antif, , Sax. XXIV.\nAndui monterent el grant palais anti ; Ele l'apele, maint baron l'ont\noï, , Raoul de C. 39.\nXIIIe s.\nEn la maison Symon, en la forest antie, , Berte, LX.\nXIVe s.\nLi heraux est entrez en la cité antie, Le cappitaine vit avec sa\ncompaignie, , Guesclin. 1567.\nXVIe s.\nLes fanfreluches antidotées, trouvées en un monument antique, RAB.,\nGarg. I, 2.\nSi ceste antique estoyt mise en or, ce seroyt une belle chose, PALSGR.,\np. 487.\n\nÉTYMOLOGIE\nProvenç. antic ; catal. antig ; espagn. antiguo ; ital. antico ; de\nantiquus, dérivé de ante, avant (voy. AINS). L'ancien français est antif\nau masculin, antie ou antive au féminin.\n\nSUPPLÉMENT AU DICTIONNAIRE\nANTIQUE. Ajoutez :\n\n8° S. f. Terme de lapidaire.\nPierre composée de plusieurs couches, comme le sont ordinairement les\nonyx, représentant un sujet quelconque exécuté par un graveur d'un\ntalent incontestable, soit grec, italien, allemand, anglais ou français,\netc., CHRITEN, Art du lapidaire, p. 289.
antiquement	ANTIQUEMENT\n an-ti-ke-man adv.\nD'une façon antique.\n\nHISTORIQUE\nXIVe s.\nArmilles estoient certains aornemenz que l'en portoit antiquement ou\nbras, BERCHEURE, f° 10.\n\nÉTYMOLOGIE\nAntique, et le suffixe ment.
antiquer	ANTIQUER\n an-ti-ké v. a.\nEn termes de relieur, enjoliver la tranche d'un livre de figures de\ndiverses couleurs ; relier à la manière antique.
antiquité	ANTIQUITÉ\n an-ti-ki-té s. f.\n\n1° Ancienneté très reculée.\nElles ont une antiquité au-dessus d'Esdras, BOSSUET, Hist. II, 13.\nDe nos arts, de nos lois l'auguste antiquité, VOLT., Orphel. de la\nChine, I, 1.\n\n2° De toute antiquité, loc. adv. De tout temps.\nTerres censuelles, dont le cens avait de toute antiquité appartenu au\nroi, MONTESQ., Esp. XXX, 15.\n\n3° Collectivement, les hommes qui ont vécu dans les siècles éloignés du\nnôtre. L'antiquité raconte.\nOn peut opposer les deux Scaligers à la plus savante antiquité, BALZAC,\ndans BOUHOURS.\n\n4° Au plur. Monuments, oeuvres d'art qui nous restent de l'antiquité.\nDes antiquités romaines. Les antiquités d'une ville.\nLes moeurs antiques qu'Homère et Hésiode nous représentent, ne servent\npas peu à nous faire entendre les antiquités beaucoup plus reculées et\nla divine simplicité de l'Écriture, BOSSUET, Hist. univ. I, 25.\nClément XI lui donna par une bulle l'intendance générale sur toutes les\nantiquités de Rome, auxquelles il était défendu de toucher sans sa\npermission, FONTEN., Bianchini.\nIl s'emploie en ce sens, mais plus rarement, au singulier. On voit près\nde cette ville une belle antiquité.\n\nHISTORIQUE\nXIe s.\nC'est l'amiral le viel d'antiquitet, , Ch. de Rol. CLXXXV.\nXIIe s.\nAs reis d'antiquité devriez reguarder, Qui les comandemenz Deu ne\nvoldrent guarder, , Th. le Mart. p. 78.\nXIIIe s.\nBien sembloit l'ermitage de viel antiquité, , Berte, XLV.\nIl meïsmes ses cors a le fu alumé En un palais d'encoste qui fu\nd'antiquité, , Ch. d'Ant. VII, 580.\nSire, dist l'Arabis, en orés verité ; Cil sont bon chevalier de viele\nantiquité ; Si conquistrent Espagne par lor grand poesté, , ib. VIII,\n335.\nXVIe s.\nNous en voyons mille exemples en l'antiquité, MONT., III, 120.\n\nÉTYMOLOGIE\nProvenç. antiquitat ; espagn. antiguedad ; ital. antichità ; de\nantiquitatem (voy. ANTIQUE).\n\nSUPPLÉMENT AU DICTIONNAIRE\nANTIQUITÉ. Ajoutez :\n\n5° Il s'est dit pour vieillesse.\nMon âge, mon antiquité, la simplicité de mes sentiments.... me donnaient\ncette confiance, BOSSUET, Relation sur le quiétisme.\nOn se cache de celui qui par son antiquité était à la tête, BOSSUET,\nRemarque sur la réponse {de Fénelon} à la relation sur le quiétisme.\nMon antiquité ne me permet plus d'entretenir la compagnie au delà de\nneuf heures, Mme DE COULANGES, Lett. à Mme de Grignan, 3 mars 1704.\nCet emploi a cessé d'être en usage.
antiraisonnable	ANTIRAISONNABLE\n an-ti-rè-zo-na-bl' adj.\nOpposé à la raison.\nL'usage qu'en a fait {des ruines de l'antiquité} Warburton pour bâtir\nson système antiraisonnable, VOLT., Phil. III, 99.\n\nÉTYMOLOGIE\nAnti, contre, et raisonnable.
antiraisonneur	ANTIRAISONNEUR\n an-ti-rè-zo-neur s. m.\nCelui qui raisonne contre.\nAucun de mes antiraisonneurs ne m'a intimidé pendant quatre ans, VOLT.,\nLett. à Cath. 111.
antirationalisme	ANTIRATIONALISME\n an-ti-ra-sio-na-li-sm' s. m.\nDoctrine opposée au rationalisme.\n\nÉTYMOLOGIE\nAnti et rationalisme.
antireligieux, euse	ANTIRELIGIEUX, EUSE\n an-ti-re-li-ji-eû, eû-z' adj.\nContraire à la religion.\n\nÉTYMOLOGIE\nAnti et religieux.
antiréalisme	ANTIRÉALISME\n an-ti-ré-a-li-sm' s. m.\nDoctrine opposée au réalisme.\n\nÉTYMOLOGIE\nAnti et réalisme.
antiréformiste	ANTIRÉFORMISTE\n an-ti-ré-for-mi-st' s. m.\nEnnemi de la réforme, de toute réforme.\n\nÉTYMOLOGIE\nAnti et réformiste.
antiréglementaire	ANTIRÉGLEMENTAIRE\n an-ti-ré-gle-man-têr' adj.\nQui est opposé au règlement.\nJe ne dois pas laisser pousser plus loin cet incident antiréglementaire,\n, Journ. offic. 30 juin 1876, p. 4665, 2e col.
antirépublicain, aine	ANTIRÉPUBLICAIN, AINE\n an-ti-ré-pu-bli-kin, kè-n' adj.\nEnnemi de la république ; qui est contraire, hostile à la république.
antirévolutionnaire	ANTIRÉVOLUTIONNAIRE\n an-ti-ré-vo-lu-sionê-r' adj. et s. m.\nEnnemi des révolutions, des mouvements et de l'esprit révolutionnaires.
antisatire	ANTISATIRE\n an-ti sa-ti-r' s. f.\nRéponse à une satire.\n\nÉTYMOLOGIE\nAnti et satire.
antisciens	ANTISCIENS\n an-ti-ssiin s. m. plur.\nPeuples qui habitent, sur le même méridien, les uns en deçà, les autres\nau delà de l'équateur, et dont à midi les ombres sont opposées.\n\nÉTYMOLOGIE\nAntiscii ; termes grecs signifiant à l'opposé (voy. ANTI), et ombre\n(voy. SCIATÉRIQUE).
antiscorbutique	ANTISCORBUTIQUE\n an-ti-scor-bu-ti-k' adj. et s. m.\nTerme de médecine. Qui sert contre le scorbut.\n\nÉTYMOLOGIE\nAnti, contre, et scorbutique.
antiscripturaire	ANTISCRIPTURAIRE\n an-ti-scri-ptu-rê-r' s. m.\nMembre d'une secte qui ne reconnaissait point l'authenticité de\nl'Écriture.\n\nÉTYMOLOGIE\nAnti, contre, et scriptura, l'Écriture.
antiscrofuleux, euse	ANTISCROFULEUX, EUSE\n an-ti-scro-fu-leû, leû-z' adj.\nTerme de médecine. Qui sert contre les scrofules.\nS. m. Les antiscrofuleux.
antiseptique	ANTISEPTIQUE\n an-ti-sè-pti-k' adj. et s. m.\nTerme de médecine. Qui prévient la putréfaction.\n\nÉTYMOLOGIE\nAnti, contre (voy. ANTI), et septique.
antisigma	ANTISIGMA\n an-ti-si-gma s. m.\nTerme de paléographie. Sigle , correspondant à un C inversé, indiquant\nqu'il faut changer l'ordre des vers devant lesquels il est placé.\nAntisigma ponctué , sigle indiquant qu'entre vers dont le sens est le\nmême, on ne sait auquel accorder la préférence.\n\nÉTYMOLOGIE\nAnti, exprimant renversement, et sigma, l's de l'alphabet grec.
antisocial, ale	ANTISOCIAL, ALE\n an-ti-so-si-al, a-l' adj.\nContraire à la société, qui tend à la dissoudre. Système antisocial.\nPrincipes antisociaux.\nJe réponds, sur la possession {l'usage} de n'avoir payé que d'une\nmanière volontaire, que l'impôt que l'on demande aux deux premiers\nordres est précisément volontaire, non pour les individus, ce qui serait\nabsurde et antisocial, mais pour la nation, MIRABEAU, Collection, t. I,\n76.\n\nÉTYMOLOGIE\nAnti et social.
antisomnifère	ANTISOMNIFÈRE\n an-ti-so-mni-fè-r' adj.\nQui combat les somnifères.\nS. m. Antidote contre les somnifères.\nLe sultan, frappé de l'observation de Mirzoza, se précautionna d'un\nantisomnifère des plus violents, DIDEROT, Bijoux indiscrets, II, 13.
antisophiste	ANTISOPHISTE\n an-ti-so-fi-st' s. m.\nNéologisme. Ennemi des sophistes.\n\nÉTYMOLOGIE\nAnti et sophiste.
antispasmodique	ANTISPASMODIQUE\n an-ti-spa-smo-di-k' adj.\nTerme de médecine. Qui sert contre les spasmes.\nS. m. Les antispasmodiques.\n\nÉTYMOLOGIE\nAnti, contre, et spasmodique.
antispaste	ANTISPASTE\n an-ti-spa-st' s. m.\nPied grec ou latin, composé d'un iambe et d'un trochée, ou de deux\nbrèves entre deux longues. C'est l'opposé du choriambe.\n\nÉTYMOLOGIE\nTerme dérivé de deux mots grecs signifiant en sens inverse (voy. ANTI),\net tiré (voy. SPASME).
antispastique	ANTISPASTIQUE\n an-ti-spa-sti-k' adj.\nTerme de métrique ancienne. C'était un vers où se trouvait l'antispaste.
antispiritualisme	ANTISPIRITUALISME\n an-ti-spi-ri-tu-a-li-sm' s. m.\nDoctrine opposée au spiritualisme ; matérialisme.\n\nÉTYMOLOGIE\nAnti et spiritualisme.
antistrophe	ANTISTROPHE\n an-ti-stro-f' s. f.\n\n1° Division particulière dans la poésie lyrique des Grecs, et la\ncontre-partie de la strophe.\n\n2° L'antistrophe était aussi une sorte de répétition plus souvent nommée\népiphore.\n\n3° Figure de pensée, nommée chez nous rétorsion, ou, de son nom grec,\nantimétathèse.\n\nÉTYMOLOGIE\nTerme dérivé d'un mot grec signifiant à l'opposite (voy. ANTI). et\nstrophe.
antisyphilitique	ANTISYPHILITIQUE\n an-ti-si-fi-li-ti-k' adj.\nTerme de médecine. Propre à guérir la syphilis.\nS. m. Les antisyphilitiques.\n\nÉTYMOLOGIE\nTerme grec signifiant contre (voy. ANTI), et syphilitique.
antisystème	ANTISYSTÈME\n an-ti-si-stê-m' s. m.\nSystème financier opposé au système de Law, dit par excellence le\nSystème.\nIl {Boisguillebert} n'a pas même de système à lui, à une époque où tout\nle monde en confectionne, à la veille du jour où le Système et\nl'Antisystème viendront à tour de rôle bouleverser la France, HORN,\nl'Écon. polit. avant les physiocrates, ch. IV.
antithèse	ANTITHÈSE\n an-ti-tè-z' s. f.\n\n1° Figure de rhétorique qui exprime une opposition de pensées ou de\nmots.\nCeux qui font les antithèses en forçant les mots, PASC., P. Éloq. 6.\nL'antithèse est une opposition de deux vérités qui se donnent du jour\nl'une à l'autre, LA BRUY., 1.\nL'antithèse d'expression n'est pas cachée, celle d'idées l'est : l'une\nest variée, l'autre non, MONTESQ., Des beautés.\n\n2° En philosophie, proposition opposée à une thèse. La thèse et\nl'antithèse composent une antinomie.\n\n3° En algèbre, transposition des termes d'une équation. Inusité\naujourd'hui.\n\nÉTYMOLOGIE\nTerme dérivé du mot grec signifiant contre (voy. ANTI), et thèse.
antithénar	ANTITHÉNAR\ns. m.\nTerme d'anatomie. Portion de la main qui s'étend depuis la base du petit\ndoigt jusqu'au poignet.\n\nÉTYMOLOGIE\nAnti, à l'opposite, et thénar.
antithétique	ANTITHÉTIQUE\n an-ti-tè-ti-k' adj.\n\n1° Qui tient de l'antithèse. Le tour antithétique de certains auteurs.\n\n2° En termes de philosophie, qui contient une antithèse.
antithéâtral, ale	ANTITHÉÂTRAL, ALE\n an-ti-té-â-tral, tra-l' adj.\nNéologisme. Qui ne convient pas au théâtre, à la scène.\n\nÉTYMOLOGIE\nAnti et théâtre.
antitonnerre	ANTITONNERRE\ns. m.\nanc. syn. de paratonnerre.\n\nSUPPLÉMENT AU DICTIONNAIRE\nANTITONNERRE. Ajoutez :\nJ'ai un antitonnerre à Ferney dans mon jardin, VOLT., Lett. d'Argental,\n8 mars 1775.
antitrinitaire	ANTITRINITAIRE\ns. m.\n(an-ti-tri-ni-tê-r'). Terme d'histoire ecclésiastique. Nom que l'on\ndonne aux hérétiques qui ne croient pas à la Trinité, et\nparticulièrement aux sociniens.\n\nÉTYMOLOGIE\nAnti, contre, et trinité.
antitrope	ANTITROPE\n an-ti-tro-p' s. m.\nMot qu'on a employé pour désigner collectivement l'ironie, le sarcasme,\nl'euphémisme.\n\nÉTYMOLOGIE\nAnti, contre, et trope.
antitrope	ANTITROPE\n an-ti-tro-p' adj.\nTerme de botanique. Embryon antitrope, embryon dirigé en sens contraire\nde la graine.\n\nÉTYMOLOGIE\nTermes grecs signifiant en sens inverse, et tourner (voy. TROPE).
antiunioniste	ANTIUNIONISTE\n an-ti-u-ni-o-ni-st' s. m.\nCelui qui est opposé à la réunion de deux sectes religieuses, de deux\npays, de deux peuples.\n\nÉTYMOLOGIE\nAnti et union.
antivermineux, euse	ANTIVERMINEUX, EUSE\n an-ti-vêr-mi-neû, neû-z' adj.\nQui est propre à détruire les vers.\n\nÉTYMOLOGIE\nAnti, contre, et vermineux.
antivénérien, ienne	ANTIVÉNÉRIEN, IENNE\n an-ti-vé-né-riin, rièn' adj.\nTerme de médecine. Propre à guérir les maux vénériens.\nS. m. Les antivénériens.\n\nÉTYMOLOGIE\nAnti, contre, et vénérien.
antizymique	ANTIZYMIQUE\n an-ti-zi-mi-k' adj.\nTerme de chimie. Qui empêche la fermentation de se développer.\n\nÉTYMOLOGIE\nTermes grecs signifiant contre, et fermentation.
antiévangélique	ANTIÉVANGÉLIQUE\n an-ti-é-van-jé-li-k' adj.\nNéologisme. Qui est contraire à l'Évangile.\n\nÉTYMOLOGIE\nAnti et évangélique.
antlie	ANTLIE\n an-tlie s. f.\nTerme de zoologie. Instrument oral des papillons.\n\nÉTYMOLOGIE\nAntlia, pompe.
antoecien	ANTOECIEN\n an-té-siinVoy. ANTÉCIEN.
antoillier	ANTOILLIER\n an-toi-llé, ll mouillées s. m.\nTerme de vénerie. Le même que ANDOUILLER.
antoine (saint-)	ANTOINE (SAINT-)\nOrdre de St-Antoine, ordre militaire institué en Hainaut, l'an 1382, par\nle comte Albert de Bavière, par reconnaissance de la guérison d'une\nmaladie appelée feu St-Antoine. La marque de l'ordre était un collier en\nforme de corde d'ermite auquel pendait un bâton pour s'appuyer et une\npetite cloche.
antoiser	ANTOISER\n an-toi-zé v. a.\nMettre du fumier en tas.\n\nSUPPLÉMENT AU DICTIONNAIRE\nANTOISER. - REM. Antoiser n'est sans doute qu'une orthographe incorrecte\npour entoiser, qui est dans le Dictionnaire.
antoit	ANTOIT\n an-toi s. m.\nTerme de charpentier de marine. Sorte de levier coudé, en fer, et pointu\npar une de ses extrémités.
antonin	ANTONIN\n an-to-nin s. m.\nNom d'un ordre religieux (chanoines réguliers de St-Antoine), fondé dans\nle XIe siècle sous la règle de Saint-Augustin, par un prieur viennois,\nnommé Antoine, pour prendre soin des malades atteints du feu sacré ou\nfeu St-Antoine. Ils portaient sur leurs habits la figure d'un T ; elle\nreprésente une potence pour marcher.
antonomase	ANTONOMASE\n an-to-no-mâ-z' s. f.\nSorte de synecdoque qui consiste à prendre un nom commun pour un nom\npropre, ou un nom propre pour un nom commun. Un Zoïle pour un critique ;\nl'Orateur romain pour Cicéron.\n\nHISTORIQUE\nXVIe s.\nIl a esté si plaisant en sa vie, que, par une antonomasie, on l'a appelé\nle Plaisantin, DESPER., Contes, I.\n\nÉTYMOLOGIE\nTerme dérivé de mots grecs signifiant en place de (voy. ANTI), et nom ;\nle terme grec nom et nom ayant même radical, voy. NOM.
antonymie	ANTONYMIE\n an-to-ni-mie s. f.\nOpposition de mots ou de noms qui offrent un sens contraire.\n\nÉTYMOLOGIE\nTermes grecs signifiant opposition et nom.
antre	ANTRE\n an-tr' s. m.\n\n1° Caverne, grotte naturelle profonde et obscure.\nCes antres, ces trépieds qui rendent les oracles, VOLT., Oedipe, II, 5.\n\n2° Fig. Les antres de la police, de l'inquisition.\n\n3° Terme d'anatomie. Nom donné à certaines cavités des os.\n\nSYNONYME\nANTRE, CAVERNE, GROTTE. Caverne, lieu vide, concave, en forme de voûte,\nest le terme générique. L'antre et la grotte sont des cavernes ; mais\nl'antre est une caverne profonde, obscure, noire ; la grotte est une\ncaverne pittoresque, faite par la nature ou de main d'homme.\n\nÉTYMOLOGIE\nAntrum ; grec ; sanscrit, antara, fente, caverne. Antara signifie\nproprement intervalle et se rattache ainsi à la préposition latine inter\n(voy. ENTRE). Provenç. antre ; espagn. et ital. antro.
antrustionnat	ANTRUSTIONNAT\n an-tru-sti-o-na s. m.\nQualité, fonction d'antrustion.\nNous ne croyons pas qu'on doive assimiler l'antrustionnat à une\ninstitution, FÉLIX ROCQUAIN, les Germains en Gaule, Rev. polit. et\nlittér. 27 mars 1875.\n\nÉTYMOLOGIE\nVoy. ANTRUSTIONS.
antrustions	ANTRUSTIONS\n an-tru-sti-on s. m. plur.\nVolontaires qui, chez les Germains, suivaient les princes dans leurs\nentreprises.\nLes formules de Marculfe désignent ces volontaires par le nom\nd'antrustions, MONTESQ., Esp. XXX, 16.\n\nÉTYMOLOGIE\nBas-lat. antrustio, mot d'origine germanique, de an, en, et trust,\nfidélité.
antécesseur	ANTÉCESSEUR\n an-té-cè-sseur s. m.\nTitre donné autrefois au professeur en droit dans une université.\n\nÉTYMOLOGIE\nAntecessor, qui précède (voy. ANCÊTRES).
antécien ou antoecien	ANTÉCIEN ou ANTOECIEN\n an-té-siin adj. et s. m.\nTerme de géographie ancienne. On nommait ainsi les habitants de la zone\nqui fait face à la nôtre, c'est-à-dire de la zone tempérée, les anciens\nregardant la zone torride comme inhabitable aussi bien que les zones\nglaciales.\n\nÉTYMOLOGIE\nTermes grecs signifiant à l'opposite et maison.
antécédemment	ANTÉCÉDEMMENT\n an-té-sé-da-man adv.\nAntérieurement.\n\nÉTYMOLOGIE\nAntécédent, et le suffixe ment (voy. MENT).
antécédence	ANTÉCÉDENCE\n an-té-sé-dan-s' s. f.\n\n1° Néologisme. État de ce qui est antécédent.\n\n2° En astronomie, se dit de la marche en apparence rétrograde des\nplanètes de l'est à l'ouest.\n\nÉTYMOLOGIE\nAntécédent.\n\nSUPPLÉMENT AU DICTIONNAIRE\nANTÉCÉDENCE. Ajoutez : - REM. On dit qu'une planète se meut en\nantécédence lorsqu'elle paraît aller vers l'occident contre l'ordre des\nsignes. Le texte dit le contraire, parce que l'auteur de l'article a\noublié que l'ordre direct des figures du zodiaque est d'occident en\norient.
antécédent	ANTÉCÉDENT\n an-té-cé-dan s. m.\n\n1° Fait antérieur par rapport à un autre fait. Les antécédents\npermettent de décider cette question.\nLes antécédents d'une personne, les faits principaux de sa vie passée.\nIl a de bons, de mauvais antécédents, c'est-à-dire son passé témoigne\npour lui, contre lui.\n\n2° Terme de grammaire. Tout mot auquel le pronom relatif ou adjectif\nconjonctif qui, lequel, etc. se rapporte.\n\n3° Terme de logique. La première proposition d'un enthymème, dont la\nseconde est appelée conséquent.\n\n4° Terme de mathématiques. Le premier des deux termes d'un rapport ; le\nsecond terme est appelé conséquent.\n\nHISTORIQUE\nXIVe s.\nEt il a reduit soy meisme à l'antecedent, ORESME, Eth. 69.\nXVe s.\nCette consequence appert à tout homme de sain entendement, s'il y veut\nconsiderer, et l'antecedent est le texte de la loi escrite, MONSTRELET,\nI, ch. 39.\nXVIe s.\nLa cause antecedente est celle qui precede la maladie, et ne la fait\nencore actuellement, combien qu'elle en soit sur le point, PARÉ, Introd.\n19.\n\nSUPPLÉMENT AU DICTIONNAIRE\nANTÉCÉDENT. - REM. On dit antécédent à. Un acte antécédent à un autre.
antécédent, ente	ANTÉCÉDENT, ENTE\n an-té-sé-dan, dan-t' adj.\nQui précède dans l'ordre des temps. Des actes antécédents annulent\ncelui-ci.\n\nÉTYMOLOGIE\nAntecedens, de ante, avant (voy. AINS), et cedere, aller (voy. CÉDER) ;\nprovenç. anteceden ; espagn. et ital. antecedente.
antédiluvien, ienne	ANTÉDILUVIEN, IENNE\n an-té-di-lu-viin, vièn' adj.\nQui a existé avant le déluge.\nPour une imagination vigoureuse, c'était pourtant une belle carrière à\nparcourir qu'un monde antédiluvien, CHATEAUB., Génie, II, I, 4.\n\nÉTYMOLOGIE\nAnte, avant (voy. AINS), et diluvium, déluge (voy. DÉLUGE).
antéfixe	ANTÉFIXE\n an-té-fi-ks' s. f.\nTerme d'architecture ancienne. Ornement qui s'appliquait au bord des\ntoits couverts de tuiles creuses pour en masquer les vides.\n\nÉTYMOLOGIE\nAntefixus, de ante, avant (voy. AINS), et fixus, fixé (voy. FIXE).
antégrammatical, ale	ANTÉGRAMMATICAL, ALE\n an-té-gra-mma-ti-kal, ka-l' adj.\nTerme de linguistique. Qui a précédé l'époque de la grammaire.\nLe mot indo-européen est à tort employé par les linguistes en deux sens\ndifférents, et il désigne tour à tour deux périodes fort éloignées l'une\nde l'autre, suivant que nous l'appliquons à l'époque précédant\nimmédiatement la séparation des idiomes, ou aux temps antégrammaticaux,\nBRÉAL, Journ. des sav. oct. 1876, p. 645.
antéhistorique	ANTÉHISTORIQUE\n an-té-i-sto-ri-k' adj.\nSynonyme de préhistorique.
antémoral, ale	ANTÉMORAL, ALE\n an-té-mo-ral, ra-l' adj.\nNéologisme. Qui est avant la naissance de la morale dans l'âme humaine.\nMême avant l'âge où la liberté leur {aux actions} imprime le sceau de la\nmoralité, pourvu que, dans cette période en quelque sorte antémorale de\nla vie, l'âme agisse déjà avec puissance et conformément au bien ou à\nl'ordre, CH. LÉVÊQUE, la Science du beau, t. II, p. 359, Paris, 1861.
anténuptial, ale	ANTÉNUPTIAL, ALE\n an-té-nu-psi-al, a-l' adj.\nQui est antérieur au mariage. Des dons anténuptiaux.\n\nÉTYMOLOGIE\nAnte, avant (voy. AINS), et nuptial.\n\nSUPPLÉMENT AU DICTIONNAIRE\nANTÉNUPTIAL. Ajoutez : - HIST. XVIe s.\nEt n'a telle veufve droict aux heritages cottiers acquis constant leur\nmariage, n'est que par convention antenuptiale fust autrement disposé, ,\nCoust. génér. t. II, p. 907.
antéoccupation	ANTÉOCCUPATION\n an-té-o-ku-pa-sion s. f.\nFigure de rhétorique par laquelle on va au-devant des objections et on y\nrépond d'abord ; c'est la même que la prolepse ou anticipation.\n\nÉTYMOLOGIE\nAnte, avant (voy. AINS), et occupation.
antéprédicament	ANTÉPRÉDICAMENT\n an-té-pré-di-ka-man s. m.\nTerme de logique ancienne. Question préliminaire.\n\nÉTYMOLOGIE\nAnte, avant (voy. AINS), et prédicament.
antépénultième	ANTÉPÉNULTIÈME\n an-té-pé-nul-tiê-m'\n1° Adj. Qui précède le pénultième, c'est-à-dire qui est le troisième à\npartir du dernier.\nCette fameuse réponse se trouve presque mot à mot dans l'antépénultième\nchapitre du Koran, VOLT., Moeurs, 7.\n\n2° S. f. Syllabe qui précède l'avant-dernière syllabe d'un mot.\n\nÉTYMOLOGIE\nAnte, avant (voy. AINS), et pénultième.
antérieur, eure	ANTÉRIEUR, EURE\n an-té-ri-eur, eu-r' adj.\n\n1° Qui précède dans l'ordre des temps. Il fut antérieur à Plaute. Les\ntemps antérieurs.\n\n2° Placé en avant. Les poteaux antérieurs. La partie antérieure d'un\nbâtiment.\nEn ce sens, il ne prend pas la préposition à.\n\n3° En termes de grammaire, passé antérieur, futur antérieur, temps qui\nexprime une action passée antérieurement à une autre action.\n\nREMARQUE\nOn ne dit pas, plus antérieur : Clovis est plus antérieur à saint Louis\nque Charlemagne, est une phrase fautive. La raison en est que antérieur\nemporte par lui-même une idée de comparaison.\n\nSYNONYME\nANTÉRIEUR, ANTÉCÉDENT, PRÉCÉDENT. Antécédent est un terme didactique qui\nse trouve naturellement séparé des deux autres. Antérieur diffère de\nprécédent, d'abord parce qu'il peut recevoir des compléments, ce que ne\npeut précédent : un événement antérieur à un autre ; mon droit est bien\nantérieur au vôtre ; bataille antérieure de plusieurs années ; ensuite,\nparce que précédent spécifie ce qui est arrivé immédiatement avant ce\ndont on parle, et antérieur exprime une priorité vague et indéterminée.\nUn événement antérieur est arrivé auparavant ; l'événement précédent est\nle dernier arrivé avant celui dont il est question.\n\nÉTYMOLOGIE\nAnterior, comparatif formé de la préposition ante, avant (voy. AINS) ;\nmot à mot, plus en avant.
antérieurement	ANTÉRIEUREMENT\n an-té-ri-eu-re-man adv.\nPrécédemment.\nIl se construit avec la préposition à. Antérieurement à ces faits, il\ns'en est passé d'autres.\n\nÉTYMOLOGIE\nAntérieure, et le suffixe ment (voy. MENT).
antériorité	ANTÉRIORITÉ\n an-té-ri-o-ri-té s. f.\nPriorité de temps. L'antériorité est primauté de date et non pas\nprimauté de rang ou d'ordre. Je dois le gain de mon procès à\nl'antériorité de mon titre.\n\nÉTYMOLOGIE\nAntérieur.\n\nSUPPLÉMENT AU DICTIONNAIRE\nANTÉRIORITÉ. Ajoutez :\n\n2° Cas antérieur, précédent.\nQu'aucune des prétendues antériorités signalées par B.... et consorts\nn'est justifiée ; qu'il est, au contraire, démontré par tous les\ndocuments de la cause, que l'invention de M.... est nouvelle, , Gaz. des\nTrib. 4 et 5 juil. 1870.
antéversion	ANTÉVERSION\n an-té-vêr-sion s. f.\nTerme de chirurgie. Inclinaison du fond de l'utérus en avant.\n\nÉTYMOLOGIE\nAnte, avant, et versio, action de tourner (voy. VERSION).
anuer	ANUER\n a-nu-é v. a.\nTerme de chasse. Choisir, quand les perdrix partent, le moment favorable\npour les tirer.
anuiter (s')	ANUITER (S')\n a-nui-té v. réfl.\nÊtre surpris en chemin, par la nuit.\n\nHISTORIQUE\nXIIIe s.\nEnsi s'empartirent, quant il fu anuitié, le petit pas, VILLEH., CXLV.\nQuant ore voit la dame qu'ens au bois lui anuite, , Berte, XXXVII.\nPovre hostel ot la dame, quant vint à l'anuitier, , ib. XXXVIII.\nEt la pierre si clere estoit, Que, maintenant qu'il anuitoit, L'en s'en\nveïst bien au besoing Conduire d'une liue loin, , la Rose, 1107.\nOr disons ainsi, que à l'anuitier revenimes de la perilleuse bataille\ndesus dite, JOINV., 230.\nXIVe s.\nEt tant ala Bertran et avant et arrier, Que le bon duc d'Anjou trouva\nung anuitier, Qui Bertran honnoura et le volt festier, , Guesclin.\n17334.\nXVe s.\nEnviron l'anuiter, ce jeudi au soir vinrent les nouvelles à Bruges de la\ndeconfiture de la bataille, FROISS., II, II, 199.\nXVIe s.\nTe faudroit voir tous ces vieux romans et poetes françois où tu\ntrouveras un anuicter, pour faire nuict.... et mil' autres bons mots,\nque nous avons perdus par nostre negligence, DU BELLAY, I, 29, recto.\nD'une entre-suivante fuyte Il ajourne, et puis enuyte, DU BELLAY, III,\n78, verso.\n.... et quand il anuytoit, Le fier Énée en songe l'agitoit, DU BELLAY,\nIV, 19, verso.\n\nÉTYMOLOGIE\nAnc. franç. anuit, de à et nuit. Anuit, qui signifiait cette nuit, était\nun excellent mot encore conservé dans quelques provinces.
anuité, ée	ANUITÉ, ÉE\n a-nui-té, tée part. passé.\nSurpris par la nuit. Ces voyageurs anuités s'égarèrent.
anurie	ANURIE\n a-nu-rie s. f.\nTerme de médecine. Suppression de la sécrétion urinaire.\n\nÉTYMOLOGIE\nANA ou alpha privatif, et terme grec signifiant urine (voy. URINE).
anus	ANUS\n a-nus' s. m.\n\n1° Orifice du rectum.\n\n2° En zoologie, dépression qu'offre assez souvent, en avant du sommet,\nla partie dorsale de la face externe d'une valve de coquille bivalve,\nquand on l'envisage sur les deux valves à la fois.\n\nHISTORIQUE\nXVIe s.\nLes parties chaudes et humides, comme sont les parties honteuses, la\nbouche, la matrice, l'anus, PARÉ, X, 17.\n\nÉTYMOLOGIE\nLat. anus
anxieux, euse	ANXIEUX, EUSE\n an-ksi-eû, eû-z' adj.\nTerme de médecine. Qui a le caractère de l'anxiété, qui exprime\nl'anxiété. Un regard anxieux.\n\nSUPPLÉMENT AU DICTIONNAIRE\nANXIEUX.\nFig.\nSongez que nous chantions les fleurs et les amours Dans un âge plein\nd'ombre, au mortel bruit des armes, Pour des coeurs anxieux que ce bruit\nrendait sourds, SULLY-PRUDHOMME, Aux poëtes futurs, Rev. des\nDeux-Mondes, 1er avr. 1873, p. 735.
anxiété	ANXIÉTÉ\n an-ksi-é-té s. f.\n\n1° Angoisse d'esprit. Être dans une grande anxiété.\n\n2° En termes de médecine, état de trouble et d'agitation, avec sentiment\nde gêne et de resserrement à la région précordiale. Inquiétude, anxiété\net angoisse sont trois degrés du même état.\n\nÉTYMOLOGIE\nAnxietas, de ango, serrer (voy. ANGINE) ; provenç. anxietat ; ital.\nansietà.\n\nSUPPLÉMENT AU DICTIONNAIRE\nANXIÉTÉ. Ajoutez. - REM. Ce mot semblait étrange à Balzac, qui écrit le\n25 février 1624 (voy. p. 30 du t. I de l'édit. in-f° 1665) : Si, pour\nentendre une langue, il fallait en apprendre deux, et que l'anxiété, la\ndécrépitude et les irritaments du désespoir me fussent des paroles\nfamilières.
anème	ANÈME\n a-nè-m' adj.\nSynonyme d'anémique.\nMaintenant, pas la moindre passion ; l'atonie universelle ; l'art est\ndevenu anème ou anémique, BÜRGER, Salons de 1861 à 1868, t. II, p. 476.
anéanti, ie	ANÉANTI, IE\n a-né-an-ti, tie part. passé.\n\n1° La discipline militaire anéantie. Des livres depuis longtemps\nanéantis. Une nation anéantie.\nLe reste de la terre anéanti pour moi, VOLT., Zaïre, I, 1.\nMais laissez-nous le temps d'éveiller un parti Qui, tout faible qu'il\nest, n'est point anéanti, VOLT., Mérope, V, 3.\nDe notre république à Rome anéantie On y voit refleurir la plus noble\npartie, CORN., Sertor. I, 1.\n\n2° âme anéantie devant Dieu, âme qui s'humilie profondément.\n\n3° Fig. Confondu, stupéfait, exténué. Je suis anéanti.
anéantir	ANÉANTIR\n a-né-an-tir v. a.\n\n1° Faire rentrer dans le néant. Dieu peut anéantir l'univers.\n\n2° Détruire. Les barbares ont anéanti l'empire romain.\nL'homme anéantit plus d'individus vivants que tous les carnassiers n'en\ndévorent, BUFF., Animaux carnassiers.\nÔ ciel ! anéantis ma fatale existence, VOLT., Alz. V, 3.\n\n3° Fig. Jeter dans un accablement profond. J'ai vu des femmes que la\ncrainte de la douleur anéantissait.\n\n4° Fig. Anéantir un acte. Anéantir une coutume.\nAinsi donc un perfide, après tant de miracles, Pourrait anéantir la foi\nde tes oracles ?, RAC., Esth. I, 4.\nSon impiété Voudrait anéantir le Dieu qu'il a quitté, RAC., Athal. I, 1.\nQue peuvent des évêques qui ont anéanti eux-mêmes l'autorité de leur\nchaire et la révérence qu'on doit à la succession, en condamnant\nouvertement leurs prédécesseurs, jusqu'à la source même de leur sacre ?,\nBOSSUET, Reine d'Angl.\n\n5° S'anéantir, v. réfl. Devenir à rien. Que d'empires se sont anéantis !\nCette objection s'anéantit d'elle-même.\n\n6° En termes de dévotion, s'abaisser, s'humilier devant Dieu.\nIl ne sait presque que s'anéantir en la présence de Dieu, MASS., Prière.\nLe sanctuaire devant lequel les princes s'anéantissent, MASS., Resp.\nEn s'anéantissant devant les yeux de sa majesté, PASC., Prov. 4.\nIl s'est anéanti lui-même jusqu'à prendre la forme d'esclave, BOSSUET,\nHist. II, 11.\n\nHISTORIQUE\nXIIIe s.\nCis maus qui si me deffigure, Qui si me vait anientant, , Guill. de\nPalerme.\nCar tous ses cors estoit sechiés De viellece et anoiantis, , la Rose,\n351.\nMoult consenti Dieux le peuple Israel à anienter por leur pechié, ,\nPsautier, f. 96.\nEt quant, toutes ces choses aneanties por bones reisons, li rois loe ce\nque li juge li firent d'endroit le borgois...., , Liv. de just. 36.\nAnienti, , Ass. de Jér. II, 61.\nL'action qu'il avoit de novele dessaizine est anientie, et ne pot mès\npledier fors sor le {la} proprieté, BEAUMANOIR, XXXII, 9.\nLi generax procureres n'est pas por ce anientis, BEAUMANOIR, XXXII, 84.\nLi chanoines est d'autre part Qui au tresor fait grant essart ; Le\ntresor tres anoiantist, RUTEB., 314.\nLors le convient seingner ou prendre medicine ; Ainsi s'anientist et\ndegaste et define, J. DE MEUNG, Test. 172.\nXIVe s.\nBonne vie lui {à Bertran} doint li dignes fruis de vie ! Car France de\nsa mort seroit anientie, , Guesclin. 17469.\nCar tout quanque barat aüne En vingt ans, anientist fortune En une seule\nheure de jour, BRUYANT, dans Ménagier, t. II, p. 28.\nXVe s.\nEt anianty les floz de male fortune, soubz quel subjeccion avoit esté\ndegetté par long espace, CHRIST. DE PISAN, Charles V, I, ch. 23.\nIl n'est chose plus impossible à anientir au monde que est matiere\nescripte en livres, , Bouciq. IV, ch. 15.\nXVIe s.\nNous nous laissons si fort aller sur les bras d'aultruy, que nous\naneantissons nos forces, MONT., I, 144.\nEt pour aneantir Ce desir qui tant dure, Il vous faudroit sentir La\npeine que j'endure, MAROT, II, 357.\nEt jà ne faut laisser aneantir Mes grans combats executés en Tyr, MAROT,\nIV, 129.\n\nÉTYMOLOGIE\nProvenç. anientar ; ital. anientare ; de à et néant, à l'aide de la\nterminaison verbale ir. On disait dans l'ancien français anientir et\nanienter.
anéantissement	ANÉANTISSEMENT\n a-né-an-ti-se-man s. m.\n\n1° Action d'anéantir ; résultat de cette action. L'anéantissement des\nanimaux dont on ne trouve plus que des débris fossiles. L'anéantissement\nde tous les priviléges. L'anéantissement de toutes nos espérances.\nUn peuple qui dépérit tous les jours et qui tend à son anéantissement,\nMONTESQ., Lett. pers. 121.\n\n2° Terme de dévotion. Abaissement devant Dieu. Porter l'humilité jusqu'à\nl'anéantissement de soi-même.\nSaint Paul parlant des anéantissements du Fils de Dieu dans\nl'incarnation, BOURD., Pensées, t. III, p. 268.\n\n3° Abattement, allant jusqu'à la privation momentanée de toute force et\nde l'exercice des facultés.\nSaül succombe au mal qui le possède ; L'anéantissement à ses fureurs\nsuccède, SOUMET, Saül, II, 4.\n\nÉTYMOLOGIE\nAnéantir.
anélectrique	ANÉLECTRIQUE\n a-né-lè-ktri-k' adj.\nTerme de physique. Épithète donnée aux corps conducteurs de\nl'électricité, non qu'on ne puisse développer en eux la propriété\nélectrique, mais seulement parce qu'ils la perdent au moment même où\nelle est produite.\n\nÉTYMOLOGIE\nANA privatif, et électrique.
anémie	ANÉMIE\n a-né-mie s. f.\nTerme de médecine. État opposé à la pléthore, qui consiste non pas,\ncomme le mot l'indique, en une diminution absolue de la masse du sang,\nmais en un abaissement des globules de ce liquide à un nombre\nproportionnel plus ou moins au-dessous de leur nombre normal.\n\nÉTYMOLOGIE\nANA privatif, et terme grec signifiant sang.
anémique	ANÉMIQUE\n a-né-mi-k' adj.\nTerme de médecine. Qui est affecté d'anémie.\n\nÉTYMOLOGIE\nDu grec privatif, et, sang.
anémocorde	ANÉMOCORDE\n a-né-mo-kor-d' s. m.\nTerme de musique. Espèce de clavecin dont les cordes sont mues par le\nvent.\n\nÉTYMOLOGIE\nTerme grec signifiant vent, et corde.
anémographe	ANÉMOGRAPHE\n a-né-mo-gra-f' s. m.\nInstrument qui indique la marche des vents.\nCet anémographe spectral {de M. de Parville} nous semble avantageux, en\nce que l'opérateur peut conserver la trace du vent, H. DE PARVILLE,\nJourn. offic. 26 févr. 1874, p. 1537, 2e col.\n\nÉTYMOLOGIE\nVoy. ANÉMOGRAPHIE.
anémographie	ANÉMOGRAPHIE\n a-né-mo-gra-fie s. f.\nDescription des vents.\n\nÉTYMOLOGIE\nTermes grecs signifiant vent (voy. ANÉMOMÈTRE), et décrire (voy.\nGRAPHIQUE).
anémomètre	ANÉMOMÈTRE\n a-né-mo-mè-tr' s. m.\nInstrument qui sert à mesurer la force du vent.\n\nÉTYMOLOGIE\nTermes grecs signifiant vent et mesure (voy. MÈTRE) ; le terme grec qui\nsignifie vent a le même radical que anima des Latins, âme (voy. ÂME).
anémone	ANÉMONE\n a-né-mo-n' s. f.\n\n1° Terme de botanique. Espèce de renoncule dont la fleur est remarquable\npar l'éclat et la variété des couleurs.\nFlorise parut ce qu'une belle anémone paraîtrait parmi des soucis, FÉN.,\nt. XIX, p. 4.\nLes colibris voltigeaient sur la tige des anémones sauvages, CHATEAUB.,\nNatch. III, 70.\nGriffe ou patte d'anémone, la racine de l'anémone.\n\n2° En zoologie, anémone de mer, nom vulgaire des actinies.\n\nHISTORIQUE\nXVIe s.\nLa bulbe au pousser fait des petites feuilles comme celles de la\npimpernelle, rampans à terre en rond.... la tige porte une belle fleur,\ncolorée d'incarnat esclatant. Mais c'est l'anemone double qui la produit\ntelle, et aussi plus abondante en feuillage que le simple, duquel la\nfleur...., O. DE SERRES, 578.\n\nÉTYMOLOGIE\nTerme grec signifiant vent (voy. ANÉMOMÈTRE), parce que l'anémone\nfleurit quand le vent souffle.\n\nSUPPLÉMENT AU DICTIONNAIRE\nANÉMONE. Ajoutez :\n\n3° Arbre aux anémones, les calycanthus, BAILLON, Dict. de bot. p. 247.
anémoscope	ANÉMOSCOPE\n a-né-mo-sko-p' s. m.\nTerme de physique. Instrument qui fait connaître la direction du vent.\nC'est la même chose que la girouette.\n\nÉTYMOLOGIE\nTermes grecs signifiant vent (voy. ANÉMOMÈTRE), et examiner.
anémotrope	ANÉMOTROPE\n a-né-mo-tro-p' s. m.\nTechnologie. Moteur par le vent.\n\nÉTYMOLOGIE\nTermes grecs signifiant vent et tourner (voy. TROPE).
anépigraphe	ANÉPIGRAPHE\n a-né-pi-gra-f' adj.\nQui est sans inscription, sans titre. Il y a des médailles, des\nbas-reliefs antiques, des psaumes anépigraphes.\n\nÉTYMOLOGIE\nANA privatif, et épigraphe.\n\nSUPPLÉMENT AU DICTIONNAIRE\nANÉPIGRAPHE. Ajoutez : - REM. On trouve aussi anépigraphique :\nBien que deux d'entre elles {des dalles tumulaires} fussent\nanépigraphiques, il n'hésita pas à supposer qu'elles représentaient des\nabbés de Jumiéges du siècle de saint Louis, , Extrait du Nouvelliste de\nRouen, dans Journ. offic. 13 déc. 1874, p. 8260, 1re col.\nMais, en ce sens, anépigraphe est seul correct.
anéroïde	ANÉROÏDE\n a-né-ro-i-d' adj.\nBaromètre anéroïde, baromètre dû à M. Vidi et fondé sur l'élasticité de\nflexion.\n\nÉTYMOLOGIE\n'A privatif, et du grec, humide, mouillé.
anévrismal et mieux anévrysmal, ale	ANÉVRISMAL et mieux ANÉVRYSMAL, ALE\n a-nè-vri-smal, sma-l' adj.\nTerme de médecine. Qui tient de l'anévrysme ou qui a rapport à\nl'anévrysme. Tumeur anévrysmale. Les sacs anévrysmaux.\n\nÉTYMOLOGIE\nAnévrysme.
anévrisme et mieux anévrysme	ANÉVRISME et mieux ANÉVRYSME\n a-nè-vrism' s. m.\nTerme de médecine et de chirurgie. Tumeur produite sur le trajet d'une\nartère par la dilatation des membranes (anévrysme vrai), et aussi tumeur\nformée par le sang épanché hors d'une artère (anévrysme faux).\nBien-aise se rendit célèbre par l'invention de l'opération de\nl'anévrysme et de l'artère piquée, SAINT-SIMON, 7, 93.\nAnévrysme du coeur, dilatation des cavités du coeur.\n\nHISTORIQUE\nXVIe s.\nCouper une artere qui cause une aneurisme, PARÉ, Introd. 2.\n\nÉTYMOLOGIE\nTerme grec signifiant dilatation, de dilater et de large.
anévrysmatique	ANÉVRYSMATIQUE\n a-né-vri-sma-ti-k' adj.\nTerme de médecine. Qui a rapport à l'anévrysme ; qui est affecté\nd'anévrysme. Une artère anévrysmatique.
aoriste	AORISTE\n a-o-ri-st'. L'Académie dit qu'on prononce oriste ; cette prononciation\nn'est pas en usage, et, dans les colléges, on dit a-o-riste s. m.\nTerme de grammaire. Temps de la conjugaison grecque qui répond à notre\npassé défini, je fus, je fis.\nDans la conjugaison française, quelques-uns donnent ce nom au prétérit\nsimple ou défini.\n\nÉTYMOLOGIE\nTerme composé de alpha privatif, et du mot grec signifiant défini,\ndérivé du verbe borner (voy. HORIZON).
aorte	AORTE\n a-or-t' s. f.\nArtère qui sort du ventricule gauche du coeur.\n\nÉTYMOLOGIE\nNom grec employé par Hippocrate pour signifier les bronches. Plus tard\nAristote l'appliqua à la grande artère. Ce nom vient du verbe grec\nsuspendre, et signifie ce qui est suspendu, dénomination qui convient\nassez bien aux bronches. Ce nom tient au verbe grec signifiant lever\n(comparez ARTÈRE).
aortique	AORTIQUE\n a-or-ti-k' adj.\nTerme d'anatomie. Qui tient à l'aorte ; qui a rapport à l'aorte.\nOuverture aortique du diaphragme.
aortite	AORTITE\n a-or-ti-t' s. f.\nTerme de médecine. Inflammation qui affecte la tunique externe de\nl'aorte, la seule qui soit vasculaire.
août	AOÛT\n ou ; l'a ne se prononce pas ; pourtant quelques personnes prononcent\na-ou ; le t ne se lie pas ; la mi-août, dites la mi-ou s. m.\n\n1° Le huitième mois de l'année grégorienne.\nJe consens de bon coeur, pour punir ma folie, Que tous les vins pour moi\ndeviennent vins de Brie, Qu'à Paris le gibier manque tous les hivers, Et\nqu'à peine au mois d'août on mange des pois verts, BOILEAU, Sat. III.\n\n2° La mi-août, le quinze du mois d'août, l'Assomption de la Vierge.\n\n3° L'août, la moisson. L'août n'a pas commencé.\nJe vous paîrai, lui dit-elle, Avant l'août, foi d'animal, LA FONT., Fab.\nI, 1.\nRemuez votre champ dès qu'on aura fait l'août, LA FONT., ib. V, 9.\nOn a promis telle somme à ce valet pour son août, pour son travail\npendant la moisson.\n\nPROVERBES\nEn août et vendanges, il n'y a fêtes ni dimanches.\nAoût donne goût, c'est la température du mois d'août qui fait que le vin\nest bon ou mauvais.\n\nHISTORIQUE\nXIIIe s.\nAprès la mi aoust, {je} ne quiers que vous en mente, , Berte, X.\nEt en cel delai pendant, se blés venoit à meillor marcié par l'aoust qui\nvenroit en cel delai ou par autre coze, BEAUMANOIR, XXXVII, 4.\nXIVe s.\nQui trespassa le lundi à XIII jours d'ahoust, l'an MCCCLXXXI., , Bibl.\ndes Chartes, 2e série, t. II, p. 513.\nEn l'aoust et moisson, DU CANGE, augustus.\nXVe s.\nLe jour de la Notre-Dame en mi-aoust, FROISS., II, III, 6.\nLe pays.... est si chaud que à l'entrée du mois de juin l'aoust y est\npassé, FROISS., II, III, 60.\nCinq gerbes de blé par lui prinses à diverses fois es champs et aoust,\nquant il venoit de labourer et aouster, FROISS., ib.\nLe suppliant aloit en esperance de bailler son aoust à compaignons\ndemeurant illec, FROISS., ib.\nXVIe s.\nQuelle est la saison de l'année quand plus lasche le faits ? - Aoust\n(Fredon ne répond que par monosyllabes), RAB., Pant. V, 18.\nEs parties septentrionales, les bleds ne sont couppés qu'en aoust,\nduquel mois, à telle cause, la cueillette en porte le nom, de lui, en\ntels endroits, dite l'aoust, O. DE SERRES, 129.\nNous avons une diphthongue de a et ou que nous escrivons par aou, comme\nen ce mot, aoust ; c'est en ce seul mot qui se prononce aujourd'hui par\nla simple voyelle oust, et n'est jà besoin pour un mot. de faire une\nregle, RAMUS, dans MÉNAGE.\n\nÉTYMOLOGIE\nBerry, août, en deux syllabes ; picard, eut, moisson ; bourguig. oou ;\nwallon awous', aous', moisson ; génev. ouste ; provenç. agost, aost ;\nespagn. et ital. agosto ; du latin, augustus, mois ainsi nommé d'après\nl'empereur Auguste (voy. AUGUSTE). Au XVIe s. Palsgrave, p. 11 et 15,\ndit qu'on prononçait âô. Mais dès ce temps-là, comme on le voit à\nl'historique, beaucoup le faisaient monosyllabe. Dans les temps\nantérieurs, aoust était de deux syllabes, comme les vers le montrent.
aoûtage	AOÛTAGE\n a-ou-ta-j' s. m.\nLe temps de la moisson.\nAh ! quand reviendra l'aoûtage, Je reverrai mon beau village, A. DE\nVIGNY, .
aoûtement	AOÛTEMENT\n a-ou-te-man s. m.\nAction de s'aoûter. L'aoûtement peut être provoqué et précipité par la\nchaleur, par la ligature ou l'incision annulaire, par l'ablation de\nl'extrémité des rameaux.\n\nÉTYMOLOGIE\nAoûter.
aoûter	AOÛTER\n a-ou-té\n1° V. a. Rendre mûr.\nPeu usité excepté au participe.\n\n2° V. n. ou v. réfl. Devenir mûr. On dit vulgairement que les bourgeons\naoûtent, ou mieux qu'ils s'aoûtent, se fortifient.\n\nHISTORIQUE\nXIIIe s.\nQuand il vendengent et aoustent, Pour ce leur pain rongent et broustent,\nDU CANGE, augustare.\nXIVe s.\nIl s'en estoit alé aouster pour gaigner parmi son labour du blé pour sa\nfemme et enfans, DU CANGE, ib.\nComme le dit Estienne, sa femme et un jeune valeton soiassent\n{sciassent} et aoustassent en une piece de blé, DU CANGE, augustare.\n\nÉTYMOLOGIE\nAoût.
aoûteron	AOÛTERON\n a-ou-te-ron s. m.\nOuvrier loué pour les travaux de la campagne dans le mois d'août.\n\nHISTORIQUE\nXVe s.\nLes autres aousteurs alerent au cri, DU CANGE, augustare.\n\nÉTYMOLOGIE\nAoûter ; picard, éouteux, moissonneur.
aoûté, ée	AOÛTÉ, ÉE\n a-ou-té, tée part. passé.\n\n1° Mûri par la chaleur. Melons aoûtés.\n\n2° En termes de jardinage, se dit des jeunes branches dont le bois s'est\nendurci avant l'hiver.\nLes bourgeons n'étant pas parvenus à ce degré de maturité que les\njardiniers appellent aoûté, BUFF., Exp. sur les végét. 4e mém.
ap- ou apo-	AP- ou APO-\npréfixe\nPréfixe qui indique écartement, séparation, distinction, intervalle, et\nqui nous vient du grec. Le mot grec correspond en latin à la préposition\na ou ab.
apagogie	APAGOGIE\n a-pa-go-jie s. f.\nTerme de rhétorique. Sorte de démonstration par laquelle on fait voir la\nvérité d'une chose en prouvant l'impossibilité ou l'absurdité du\ncontraire.\n\nÉTYMOLOGIE\nEn grec, action d'emmener, séparation, et, conduire (voy. AGIR).
apaisement	APAISEMENT\n a-pê-ze-man s. m.\nAction d'apaiser, état de ce qui est apaisé. L'apaisement des flots, des\nesprits.\nJ'ai mille fois éprouvé, en entrant dans une église, un certain\napaisement des troubles du coeur (pour parler comme nos vieilles\nBibles), CHATEAUBR., Italie, 90.\n\nREMARQUE\nCe mot, qui n'est pas dans le Dictionnaire de l'Académie, est ancien et\nd'un très bon usage.\n\nHISTORIQUE\nXVe s.\nSi envoyerent à Ortais quatre hommes, lesquels estoient chargés du\ndemourant du pays pour faire le apaisement, FROISS., II, III, 58.\nDe toutes ces choses, ces traités et ces apaisemens on ne parloit en\nrien au comte de Flandre, FROISS., II, II, 188.\nQuant ils virent ladite noise, chacun s'employa à l'apaisement d'icelle,\nLOUIS XI, Nouv. LXII.\nTant pour son bien comme pour son appaisement, G. CHASTEL., Chr. des\nducs de Bourg. II, 3.\n\nÉTYMOLOGIE\nApaiser.
apaiser	APAISER\n a-pè-zé v. a.\n\n1° Mettre la paix, faire cesser l'émotion, la colère, en parlant des\npersonnes ou des choses personnifiées. Apaiser un père irrité contre son\nfils. Apaiser le peuple. Apaiser un chien en lui jetant à manger.\nApaiser les mânes, la terre, par des sacrifices.\nPour apaiser mon sang et mon ombre plaintive, RAC., Phèd. V, 6.\nJe m'apaiserais Rome avec votre supplice, CORN., Pomp. III, 2.\n\n2° Faire cesser ; rendre moins violent, moins agité, en parlant des\nchoses. Comment on pourrait apaiser la colère des Dieux. Apaiser une\nsédition. Apaiser des querelles. Apaiser les souffrances, la douleur,\nles chagrins, les regrets. Apaiser la faim, la soif. Apaiser les flots,\nla mer, la tempête, le vent.\nApaisez donc sa crainte, CORN., Polyeucte, I, 1.\nApaise, ma Chimène, apaise ta douleur, CORN., Cid, II, 3.\nApaisez son courroux, CORN., ib. 2.\nDaignez d'un roi terrible apaiser le courroux, RAC., Esth. III, 5.\nS'APAISER, v. réfl.\n\n3° Être en paix, n'être plus en colère ; en parlant des personnes ou des\nchoses personnifiées. Il s'apaisera bientôt. Cette grande colère\ns'apaisera bientôt. Apaise-toi.\nIl ne s'apaise que pour...., LA BRUY., 5.\nJe ne m'apaise point, MOL., l'Étour. III, 5.\nLes dieux vont s'apaiser..., RAC., Iph. III, 3.\nMon coeur court après elle et cherche à s'apaiser, RAC., Andr. II, 5.\n\n4° Devenir moins violent. La douleur physique s'apaise. La douleur\nmorale s'apaise avec le temps. La sédition venant à s'apaiser. Le vent,\nla tempête s'apaise. L'incendie s'apaisa peu à peu.\nCela s'apaise en vingt-quatre heures, SÉV., 81.\n\nREMARQUE\nL'Académie écrit apaiser par un seul p et appauvrir par deux. Il\nfaudrait établir la conséquence, et mettre partout ou un seul p pour\nsimplifier l'orthographe, ou deux p pour témoignage de l'étymologie.\n\nSYNONYME\nAPAISER, CALMER. Apaiser, c'est rendre la paix ; calmer, c'est rendre le\ncalme. Comme calme est d'une signification plus étendue que paix, calmer\nest plus compréhensif que apaiser. On apaise un homme, quand on fait\ndisparaître sa colère ; on le calme non-seulement dans ce cas, mais\naussi quand il est livré à la peur, à l'inquiétude, à l'impatience, à la\ncuriosité. Cette distinction indique la signification de ces deux verbes\ndans les emplois divers qu'ils reçoivent.\n\nHISTORIQUE\nXIIe s.\nPour ce voulons qu'elle soit apasée, , Ronc. p. 23.\nIl et Rolant me firent apaier {faire paix}, , ib. p. 165.\nPor la destroite guerre finer et apaier, , Sax. IV.\nXIIIe s.\nQuand Constance le voit, tous li cuers l'{lui} en apaie {en devient\napaisé, satisfait}, , Berte, LVIII.\nNe vous chaut, dit li rois, bien m'en tien apaiés, , ib. CXX.\nIl en eust esté mal baillis, se la roine Blance ne fust, qui fist tant\nqu'il fu apaisiés à son filz, , Chr. de Rains, 191.\nAvoi, dist il, por le cors dé ; Dangier aviés apaisié, S'aviés le bouton\nbaisié, , la Rose, 7285.\nLa mer n'iert ja si apaisie, Qu'el ne soit troble à poi de vent, , ib.\n3504.\nTon cuer ne porras apaier, Ains iras encor essaier Se tu verras par\naventure Ce dont tu ies en si grant cure, , ib. 1345.\nMais certes qui le voir {vrai} en conte, Moult font fames à Dieu grant\nhonte, Comme foles et desvoiées, Quant ne se tiennent apoiées De la\nbiauté que Diex lor donne, , ib. 9080.\nSe li premiers procureres rent conte au deerrain, tel qu'il se tiengne\napaiés, li sires.... ne l'en pot riens demander, BEAUMANOIR, 85.\nEt ne soies mie apeisiez, sire Dieux, à ceux qui ne se repentent de leur\nmalice, , Psautier, n° 258, f° 101.\nDe ces gens estranges que le roy avoit apaisié {reconcilié}, li disoient\naucuns de son conseil que il ne fesoit pas bien, quant il ne les\nlaissoit guerroier, JOINV., 292.\nDont mainte gent se tindrent mal apayé {mal satisfaits} de ce que le roy\ndeffit les bones coustumes anciennes, JOINV., 217.\nAlez, dit le roy, si vous apaisiés au conte de Bretaingne, et puis si\nferons nostre mariage, JOINV., 289.\nSitost comme le soudanc de Damas fu apaisiés à ceulz d'Egypte, il manda\nsa gent qui estoient à Gadres, JOINV., 272.\nJe ne sais pas comment le serement fu atiré {fait}, mez li amiral se\ntindrent bien apaié du serement le roy et des autres riches homes qui là\nestoient, JOINV., 247.\nQue cil, en tour que li vallés se soit aloués, se tiegne apaié du vallet\net de son service, , Liv. des mét. 172.\nXVe s.\nEt ledit messire Hervey devoit pourchasser d'autre part que ceux de\ndedans seroient apaisés envers messire Charles, quittes et delivres, et\nne perdroient rien de leur avoir, FROISS., I, I, 176.\nForce et povoir puist {qu'il puisse} avoir à son chois, Tant qu'apaisier\npuist son païs et terre, E. DESCH., Du nom du roi Charles.\nXVIe s.\nPar oraisons et sacrifices apaiser l'ire des dieux, MONT., I, 64.\nEt combien que la commune mutinée menast un fort grand bruit, toutefois\nquand elle le veit, elle s'appaisa, et luy donna paisible audience,\nAMYOT, Cor. 61.\nLa tourmente, comme par miracle, s'estoit tout expressement appaisée, et\nestoit demourée la mer fort calme et tranquille, AMYOT, Timol. 28.\n\nÉTYMOLOGIE\nBourguig. époisai ; provenç. apagar, apaguar, apaiar, apaziar ; espagn.\napagar ; ital. appagare ; de ad (voy. à), et pacare, faire paix (voy.\nPAYER).
apaiseur	APAISEUR\n a-pè-zeur s. m.\nCelui qui apaise.\n\nHISTORIQUE\nXIIIe s.\nBenoit soient tuit li apaiseur, JOINV., 292.\n\nÉTYMOLOGIE\nApaiser.
apaisé, ée	APAISÉ, ÉE\n a-pè-zé, zée part. passé.\nOù la paix a été mise. La sédition apaisée. Les flots apaisés peu à peu.\nCoriolan ne put être apaisé que par sa mère, BOSSUET, Hist. I, 8.\nArrêtez-vous, Seigneur, et d'une âme apaisée Souffrez que je vous livre\nune vengeance aisée, CORN., Poly. V, 6.\nJe veux croire après vous que tout est apaisé, CORN., Rodog. III, 4.
apalachine	APALACHINE\n a-pa-la-chi-n' s. f.\nTerme de botanique. Arbrisseau qui croît particulièrement sur les monts\nAppalaches, en Amérique, et dont les feuilles se prennent en infusion\nthéiforme.
apanage	APANAGE\n a-pa-na-j' s. m.\n\n1° Terme de féodalité. Terres ou certaines portions du domaine royal\nqu'on donne aux princes pour leur subsistance, mais qui reviennent à la\ncouronne après l'extinction de leurs descendants mâles.\n\n2° Par analogie.\nL'île fut lors donnée en apanage à Lucifer, LA FONT., Papef.\n\n3° Le droit ou le pouvoir exercé. Dans ce sens on disait avoir apanage\nsur une contrée.\n\n4° Fig. Ce qui est le propre de quelqu'un, de quelque chose. Les\ninfirmités sont l'apanage de la vieillesse.\nLe fanatisme et les contradictions sont l'apanage de la nature humaine,\nVOLT., Moeurs, Inde.\nLe présent seul est de notre apanage, Et l'avenir peut consoler le sage,\nMais ne saurait altérer son repos, VOLT., Épît. XLI, 22.\nLa liberté, la paix, qui font notre apanage, VOLT., Scythes, IV, 2.\nC'est l'apanage de la créature d'être sujette au changement, BOSSUET,\nLettres abb. 72.\nLe duc d'York s'étant persuadé qu'elle {la dame} était de son apanage,\nHAMILT., Gramm. 9.\n\nHISTORIQUE\nXIVe s.\nLe dit Jehan son frere ne devoit, ne ne povoit demander en la dite comté\nde Blois que apanage tant seulement, DU CANGE, apanare.\nXVe s.\nEt depuis le roi leur offrit bailler le païs de Champaigne et Brie, pour\nle dit ampanaige, J. DE TROYES, Chron. 1465.\n\nÉTYMOLOGIE\nForme non latine apanaticum, de ad (voy. à) et panis, pain ; action de\ndonner du pain ; provenç. apanar, nourrir. On trouve apanager dans le\nsens de mettre les pourceaux au gland, mais alors il vient de\npastinagium, pâturage.
