glène	GLÈNE\n glè-n' s. f.\nTerme de pêche. Panier couvert pour mettre le poisson.\nTerme de marine. Disposition d'un cordage ployé en rond et dont les\ntours sont rangés régulièrement.\n\nSUPPLÉMENT AU DICTIONNAIRE\n2. GLÈNE. Ajoutez : - HIST. XVe s.\nPour une glenne {paquet roulé} de verdon {sorte de cordage}, MANTELLIER,\nGlossaire, Paris, 1869, p. 35.\n\nÉTYMOLOGIE\nGlène, au sens de paquet de corde, est le même que glane (voy. ce mot).\nOn disait aussi glenon pour paquet : XVIe s.\nDes aus le glenon, MANTELLIER, ib. p. 36.
glébé, ée	GLÉBÉ, ÉE\n glé-bé, bée adj.\nAncien terme de droit féodal. Qui appartient à la glèbe.\nPour invoquer cet usage {l'usage féodal de prendre les titres de dignité\nattachés aux terres qu'on possédait}, il faudrait prouver qu'il y avait\ndans le diocèse de Saint-Pons une terre de Pardailhan érigée en baronie\nréelle ; or ce titre glébé n'a jamais existé, , Gaz. des Trib. 26 mai\n1870.
gléchome	GLÉCHOME\n glé-ko-m' s. m.\nTerme de botanique. Gléchome hédéracé (labiées), appelé vulgairement\nlierre terrestre, herbe de la St-Jean, terrête, rondelette, glechoma\nhederacea, L.
gléner	GLÉNER\n glé-né v. a.\nTerme de marine. Ployer un cordage en rond sur lui-même.
glénoïdal, ale	GLÉNOÏDAL, ALE\n glé-no-i-dal, da-l' adj.\nTerme d'anatomie. Cavité glénoïdale, cavité qui sert à l'emboîtement\nd'un os dans un autre.\n\nÉTYMOLOGIE\nGlénoïde.
glénoïde	GLÉNOÏDE\n glé-no-i-d' adj.\nTerme d'anatomie. Synonyme de glénoïdal. Fosse glénoïde. La cavité\nglénoïde de l'omoplate.\n\nÉTYMOLOGIE\nDu grec, voire glène 1, et du grec, forme.
glénoïdien, enne	GLÉNOÏDIEN, ENNE\n glé-no-i-diin, diè-n' adj.\nTerme d'anatomie. Qui appartient à une cavité glénoïde. Ligament\nglénoïdien, bourrelet fibro-cartilagineux qui, entourant la cavité\nglénoïde de l'omoplate, en augmente la profondeur.
gmelin	GMELIN\n ghmé-lin, s. m., ou GMELINIE (ghmé-li-nie)\n s. f.\nTerme de botanique. Genre de verbénacées où l'on trouve le gmelin\nasiatique de Linné, et le gmelin à petites fleurs de Roxburg, arbre qui\nest très épineux.\n\nÉTYMOLOGIE\nLat. botanique, gmelina, genre dédié au botaniste allemand Gmelin.
gnacare	GNACARE\n gna-ka-r' s. f.\nSorte de cymbale.\nDouze Égyptiens, dont quatre jouent de la guitare, quatre des\ncastagnettes, quatre des gnacares, MOL., Pastorale comique, sc. 15.\n\nÉTYMOLOGIE\nAncien franç. nacaire (voy. ce mot).
gnathides	GNATHIDES\n ghna-ti-d' s. f. pl.\nBranche de la mandibule des insectes.\n\nÉTYMOLOGIE\nLe grec signifie, mâchoire.
gnathidie	GNATHIDIE\n ghna-ti-die s. f.\nTerme de zoologie. Chacune des branches de la mâchoire inférieure des\noiseaux.\n\nÉTYMOLOGIE\nDiminutif du grec, mâchoire.
gnathodonte	GNATHODONTE\n ghna-to-don-t' adj.\nTerme de zoologie. Dont les dents sont implantées dans l'épaisseur des\nmâchoires.\n\nÉTYMOLOGIE\nDu grec, mâchoire, et, dent.
gnathothèque	GNATHOTHÈQUE\n ghna-to-tè-k' s. f.\nTerme de zoologie. Tégument de la mâchoire inférieure des oiseaux.\n\nÉTYMOLOGIE\nDu grec, mâchoire, et, loge.
gnavelle	GNAVELLE\n ghna-vè-l' s. f.\nPlante du genre scleranthus (scleranthus perennis, L.).
gneiss	GNEISS\n ghnès s. m.\nTerme de minéralogie. Roche composée de feldspath et de mica. Gneiss\ntalqueux ou amphibolique, celui dans lequel le talc ou l'amphibole\nremplace le mica.\n\nÉTYMOLOGIE\nMot d'origine saxonne, qui a passé des mineurs de Saxe dans la\nminéralogie ; mais on n'en sait rien de plus.
gneisseux, euse	GNEISSEUX, EUSE\n ghnè-seû, seû-z' adj.\nQui appartient au gneiss, qui a le caractère du gneiss.\nOn a traversé un gneiss d'abord à schistosité distincte, puis\nindistinctement filandreux et dans lequel se trouvaient des\nintercalations de micaschiste gneisseux avec des filons d'eurite, ,\nJourn. offic. 10 janv. 1875, p. 229, 2e col.
gniaf	GNIAF\n gnaf s. m.\nPopulairement, savetier ambulant, et, par extension, un mauvais\ncordonnier ou bottier.\nFig. C'est un gniaf, c'est un gâcheur, un maladroit.\n\nHISTORIQUE\nXIIIe s.\nQui d'autrui pesance Veult faire bonbance, On en dira gnaf, , Poésies\nmss avant 1300, t. IV, p. 130, dans LACURNE.\n\nÉTYMOLOGIE\nOrigine inconnue.
gnian, gnian	GNIAN, GNIAN\n gnan-gnanSorte d'expression mimologique par laquelle on représente\nl'hésitation d'une personne qui craint de faire ou de dire quelque\nchose.\nChante-t-il ? - Oh ! madame, je suis si tremblant. - Et gnian, gnian,\ngnian, gnian, gnian ; dès que madame le veut, modeste auteur ! je vais\nl'accompagner, BEAUMARCHAIS, Mar. de Fig. I, 4.\nnm et f Un gnian-gnian, une gnian-gnian, personne molle, sans énergie,\nagissant avec peine et se plaignant toujours.\nIl se dit adjectivement. Il est gnian-gnian.\nOn écrit aussi gnan-gnan. Vous avez prouvé au public et à vos camarades\nque vous êtes en état de jouer autre chose que des gnans-gnans, Lett. de\nTalma à Mlle Bourgoing, en sept. 1825. dans LARCHEY, Excentr. du\nlangage.\n\nÉTYMOLOGIE\nRedoublement du vieux mot niant, qui est néant, et qui signifiait rien.
gniole	GNIOLE\n gno-l' s. f.\nTerme d'écoliers.\nÉraflure faite par une toupie en mouvement à une autre toupie, RICHELET,\n.\nUn coup quelconque. Il a reçu une fameuse gniole.\n\nSUPPLÉMENT AU DICTIONNAIRE\nGNIOLE.\nOn dit populairement aussi un gnon, au lieu de gniole. Il s'en est tiré\nsans un gnon. Il a reçu un fameux gnon.
gnognotte	GNOGNOTTE\n gno-gno-t' s. f.\nTerme populaire. Chose de peu de valeur. C'est de la gnognotte.
gnole	GNOLE\n gno-l' s. m.\nPopulairement, mais aujourd'hui inusité, veste. Il {le cardinal collier}\ns'embarrasse du ciel comme de la plus vieille de mes gnoles,... Lett. du\nP. Duchêne, 41e lettre, page 6.\n\nÉTYMOLOGIE\nSerait-ce carmagnole, avec aphérèse ?
gnome	GNOME\n ghnô-m' s. m.\nNom des esprits qui. dans le système des cabalistes, président à\nl'élément de la terre et à tout ce qu'elle renferme dans son sein, comme\nles ondins à l'élément de l'eau, les sylphes à celui de l'air et les\nsalamandres à celui du feu.\n\nÉTYMOLOGIE\nLe mot remonte à Paracelse, sans qu'on sache s'il représente le grec\nsignifiant, intelligence.
gnome	GNOME\n ghnô-m' s. f.\nNom qu'on donne aux sentences des anciens sages et philosophes de la\nGrèce.\n\nÉTYMOLOGIE\nDu grec, sentence, proprement intelligence, du grec, connaître, savoir ;\nlat. gnoscere, noscere ; sanscr. jna.
gnomide	GNOMIDE\n ghno-mi-d' s. f.\nFemelle d'un gnome.\n\nÉTYMOLOGIE\nGnome 1.
gnomique	GNOMIQUE\n ghno-mi-k' adj.\n\n1° Qui contient des maximes, en parlant de poëmes, de vers.\nPoésie gnomique, celle qui s'exerce à composer des maximes ou des\nsentences, c'est-à-dire à réduire en forme poétique les principes et les\ndevoirs de la vie. Les plus célèbres poëtes gnomiques chez les anciens\nsont Théognis et Phocylide.\n\n2° S. m. Les gnomiques, les plus anciens philosophes grecs auteurs de\nsentences.\n\nÉTYMOLOGIE\nDu grec, sentence (voy. GNOME 2).
gnomon	GNOMON\n ghno-mon s. m.\n\n1° Espèce de grand style dont les astronomes se servent pour connaître\nla hauteur du soleil.\nOn dit qu'Anaximandre dressa à Lacédémone un gnomon, par le moyen duquel\nil observa les équinoxes et les solstices, et qu'il détermina\nl'obliquité de l'écliptique plus exactement que l'on n'avait fait\njusqu'alors, ROLLIN, Hist. anc. t. XIII, p. 157, dans POUGENS.\nÉrastosthène, bibliothécaire d'Alexandrie, essaya de mesurer la terre en\ncomparant la distance entre Alexandrie et Syène, ville située sous le\ntropique du Cancer, avec la différence de latitude de ces lieux, qu'il\nconcluait de l'ombre méridienne d'un gnomon, élevé à Alexandrie au\nsolstice d'été, ROLLIN, ib. p. 176.\nLes Péruviens avaient des obélisques, des gnomons réguliers pour marquer\nles points des équinoxes et des solstices, VOLT., Moeurs, 148.\nCe grand observateur {Co-cheouKing} fit construire des instruments\nbeaucoup plus exacts que ceux dont on avait fait usage jusqu'alors ; le\nplus précieux de tous était un gnomon de quarante pieds chinois, terminé\npar une plaque de cuivre verticale et percée par un trou du diamètre\nd'une aiguille, LA PLACE, Expos. V, 3.\n\n2° L'aiguille ou style du cadran solaire.\n\nÉTYMOLOGIE\nLe grec signifie, qui connaît, qui indique, du grec, connaître (voy.\nGNOME 2).
gnomonique	GNOMONIQUE\n ghno-mo-ni-k'\n1° S. f. Art de tracer des cadrans solaires, lunaires ou astraux, mais\nprincipalement des cadrans solaires, sur un plan ou sur la surface d'un\ncorps donné quelconque.\n\n2° Adj. Polyèdre gnomonique, polyèdre sur différentes surfaces duquel on\na tracé des cadrans.\n\nÉTYMOLOGIE\nGnomon.
gnomoniste	GNOMONISTE\n ghno-mo-ni-st' s. m.\nCelui qui s'occupe de la gnomonique, qui écrit sur la gnomonique.
gnose	GNOSE\n ghnô-z' s. f.\n\n1° Terme de théologie. La science religieuse supérieure.\nOn a voulu introduire une fausse gnose à la place de la véritable,\nBOSSUET, Nouv. myst. 2.\n\n2° Doctrine des gnostiques, par laquelle on donnait un sens purement\nspirituel à l'Écriture.\n\n3° Le petit troupeau qui, à la cour de Louis XIV, était sous la\ndirection de Fénelon.\nMme de Mortemart, après la duchesse de Béthune, la grande âme de la\ngnose et la mieux aimée de l'archevêque de Cambrai, SAINT-SIMON, 260,\n238.\n\nÉTYMOLOGIE\nDu grec, connaissance, du grec, connaître (voy. GNOME 2).
gnosimaque	GNOSIMAQUE\n ghno-zi-ma-k' s. m.\nMembre d'une secte du VIIe siècle qui, rejetant toute connaissance\nreligieuse, plaçait la religion dans les bonnes oeuvres.\n\nÉTYMOLOGIE\nDu grec, connaissance, gnose, et, combattre.
gnosticisme	GNOSTICISME\n ghno-sti-si-sm' s. m.\nSystème, hérésie des gnostiques.\n\nÉTYMOLOGIE\nGnostique.
gnostique	GNOSTIQUE\n ghno-sti-k' s. m. et f.\n\n1° Nom d'hérétiques d'Égypte et de Syrie qui suivaient la gnose,\nc'est-à-dire un système mêlant les doctrines orientales et les idées\nchrétiennes.\nCes philosophes prirent le nom de gnostiques, parce qu'ils\ns'attribuaient une connaissance plus sublime et plus étendue de Dieu,\nDIDEROT, Opin. des anc. phil. Philosophie orientale.\nAdj. L'hérésie gnostique.\n\n2° Savant, éclairé, ce qui est le sens propre et s'est dit des parfaits\nchrétiens livrés également à la contemplation et aux bonnes oeuvres.\nIl {saint Clément d'Alexandrie} nous propose ce qui convient aux plus\nparfaits, qu'il appelle les gnostiques, c'est-à-dire, selon le langage\nassez commun de son temps et dérivé de saint Paul, les parfaits et les\nspirituels, BOSSUET, Ét. d'orais. VI, 8.\n\nÉTYMOLOGIE\nDu grec, gnose.
gnou	GNOU\n ghnou s. m.\nMammifère ruminant du genre des antilopes, habitant l'Afrique, dont le\nnom scientifique est antilope gnou.\n\nSUPPLÉMENT AU DICTIONNAIRE\nGNOU. Ajoutez : - ÉTYM. Hottentot, gnu ou nju.
go (tout de)	GO (TOUT DE)\n tou-de-go loc. adv.\nLibrement, sans obstacles. Il est entré tout de go. Cela va tout de go.\nSans façon, sans cérémonie. C'est un homme tout de go.\n\nHISTORIQUE\nXVIe s.\nUne boure {la femelle d'un canard} qui là estoit, le print et l'avala de\ngob, FR. MICHEL, Argot.\nLe print subitement et l'avalla tout de gob, FR. MICHEL, ib.\n....Il l'avala tout de gob sans mascher, etc., FR. MICHEL, ib.\n\nÉTYMOLOGIE\nVoy. GOBER. Ces textes qu'a découverts M. Fr. Michel, lui ont fait aussi\ndécouvrir l'étymologie de go ; il est clair que go ou gob tient à gober,\net que tout de go signifie tout comme en gobant, en avalant.
gobbe	GOBBE\n go-b' s. f.\n\n1° Sorte de bol pour empoisonner les bêtes puantes et aussi les chiens\nerrants.\n\n2° Bol pour engraisser la volaille.\n\n3° Terme de vétérinaire. Nom des concrétions qu'on trouve dans les voies\ndigestives des bêtes à laine et qu'on nomme égagropiles chez les bêtes\nruminantes.\n\nREMARQUE\nOn ne voit pas pourquoi l'Académie écrivant par un seul b gober, gobet,\nen met deux à gobbe.\n\nÉTYMOLOGIE\nVoy. GOBER.
gobbé, ée	GOBBÉ, ÉE\n go-bé, bée adj.\nTerme de vétérinaire. Bête gobbée, bête à laine dans l'estomac de\nlaquelle on trouve une gobbe.\n\nÉTYMOLOGIE\nGobbe.
gobe-dieu	GOBE-DIEU\n go-be-dieu s. m.\nSe dit, par dénigrement, d'une personne dévote qui communie souvent.\nQuel est, dans la capitale des Velches, le porte-Dieu ou le gobe-Dieu\nqui ose dire : c'est moi qu'on a voulu désigner par les prêtres de\nPluton ?, VOLT., Lett. d'Argental, 21 déc. 1768.
gobe-goujons	GOBE-GOUJONS\n go-be-gou-jon s. m.\nMangeur de goujons, c'est-à-dire homme faisant maigre chère.\nMa table sans viande et sans oeufs Est celle d'un anachorète ; Je n'y\nsuis entouré que de gobe-goujons, De mangeurs de lupins, de raves,\nchampignons, CHAUL., A la duchesse du Maine.\nAu plur. Des gobe-goujons.\n\nÉTYMOLOGIE\nGober, et goujon.
gobe-moucherie	GOBE-MOUCHERIE\n go-be-mou-che-rie s. f.\nCaractère du gobe-mouches.
gobe-moucherons	GOBE-MOUCHERONS\n go-be-mou-che-ron s. m.\nNom donné par Buffon (Oiseaux, t. VIII, p. 359) à un oiseau plus petit\nque le gobe-mouches.
gobe-mouches	GOBE-MOUCHES\n go-be-mou-ch' s. m.\n\n1° Oiseau de l'ordre des passereaux, qui se nourrit principalement de\nmouches.\nUne queue assez longue et dont l'aile pliée ne recouvre pas la moitié,\nsont des caractères que portent tous les gobe-mouches, moucherolles et\ntyrans, BUFF., Oiseaux, t. VIII, p. 301.\nPetit lézard des Antilles, qui ressemble au stellion, et qui change,\ncomme le caméléon, de couleur suivant les choses entre lesquelles il\nfait sa demeure.\nIl se dit aussi de quelques plantes dont la tige visqueuse ou certaines\nparties contractiles retiennent les mouches et autres insectes qui\nviennent s'y poser.\nLa plante nouvellement découverte dans l'Amérique anglaise (dionea\nmuscipula, L. droséracées), à laquelle on a donné le plaisant nom de\nvénus gobe-mouches ; c'est une espèce de sensitive épineuse dont les\nfeuilles se replient, et les mouches sont prises dans ces feuilles et y\npérissent plus sûrement que dans une toile d'araignées, VOLT., Dict.\nphil. Polypes.\n\n2° Fig. Terme familier. Celui qui n'a point d'avis à lui et qui paraît\nêtre de l'avis de tout le monde.\nEn contrefaisant cette manière d'opiner qui avait valu à d'Argental le\nnom de gobe-mouches, MARMONTEL, Mém. VI.\nHomme qui croit sans examen toutes les nouvelles débitées.\nJ'allais avec la foule des gobe-mouches attendre sur la place l'arrivée\ndes courriers, et, plus bête que l'âne de la fable, je m'inquiétais\nbeaucoup pour savoir de quel maître j'aurais l'honneur de porter le bât,\nJ. J. ROUSS., Conf. V.\nHomme qui s'occupe niaisement de bagatelles.\nAu plur. Des gobe-mouches.\n\nREMARQUE\nL'Académie écrit gobe-mouches avec s, et chasse-mouche sans s. Il n'y a\naucune raison pour établir une différence d'orthographe entre ces deux\nmots. Il n'y aurait aucune faute à écrire gobe-mouche, mouche étant\nalors pris en un sens collectif.\n\nÉTYMOLOGIE\nGober, et mouches.\n\nSUPPLÉMENT AU DICTIONNAIRE\nGOBE-MOUCHES. - REM. Ajoutez :\n2. On trouve Gobe-mouche comme nom propre, désignant les gens qui n'ont\npoint d'avis à eux. On veut convoquer un chapitre général, faire une\nélection, et il y a, comme dit Gobe-mouche, bien des choses à dire\nlà-dessus, Papiers saisis à Bayreuth, p. 144.
gobe-mouton	GOBE-MOUTON\n go-be-mou-ton s. m.\nNom de certaines pillules empoisonnées qui font mourir les bestiaux.\nAu plur. Des gobe-mouton.\n\nÉTYMOLOGIE\nGober, et mouton, c'est-à-dire : mouton, gobe, prends, avale.
gobelet	GOBELET\n ge-be-lè ; le t ne se lie pas ; au pluriel, l's se lie : des go-be-lè-z\nargentés ; gobelets rime avec traits, succès, paix, etc. s. m.\n\n1° Vase à boire, rond et sans anse, ordinairement sans pied.\nIl me donna pour récompense Un beau gobelet de faïence, Un jeu de\nquilles et son sac, Un gros rouleau de son tabac, SCARR., Virg. VIII.\nIl s'en fallut peu que des Mélitus et des Anitus ne présentassent un\ngobelet de ciguë à votre ami {Helvétius}, VOLT., Lett. Gallitzin, 19\njuin 1773.\nHausser le gobelet, boire beaucoup, vider les pots. Qui se vante de son\ncourage Lorsqu'il hausse le gobelet, Parnasse des Muses, dans LE ROUX,\nDict. comique.\nFig.\nJouer des gobelets, employer le poison, NAUDÉ, Des coups d'État, t. II.\np. 417, dans LACURNE.\nCe que tient un gobelet.\nMlle Duménil aimait le vin, elle avait coutume d'en boire un gobelet\ndans les entr'actes, mais avec assez d'eau pour ne pas s'enivrer,\nMARMONTEL, Mém. IV.\n\n2° Autrefois, dans la maison du roi, office qui avait en charge le\nlinge, le pain, le vin et le fruit qu'on devait servir au roi. Le\ngobelet était le premier des sept offices.\nMilord Taff lui servait {au roi d'Angleterre} d'écuyer de cuisine et de\nchef de gobelet, RETZ, III, 106.\nLe père Tout-à-tous l'introduisit chez la femme d'un officier du\ngobelet, VOLT., Ingénu, XII.\nServez, disais-je, à messieurs de la bouche, Versez, versez, messieurs\ndu gobelet, BÉRANG., Damoclès.\nLe gobelet, les officiers préposés à ce service. Le gobelet a reçu ordre\nde faire telle chose.\n\n3° Sorte de vase à l'usage des escamoteurs, fait ordinairement de\nfer-blanc ; le dessous en est concave ; les gobelets des escamoteurs\nsont coniques ou en troncs de cône, de manière à s'emboîter les uns dans\nles autres.\nSait bien jouer des gobelets, Faire comédie et ballets, SCARRON, Virg.\nI.\nTous les hommes.... ont été contenus de père en fils comme des gobelets\nrenfermés les uns dans les autres, BERN. DE ST-P., Préamb. Ch. ind.\nUn joueur de gobelets, un escamoteur, celui qui sait jouer des gobelets.\nIl y a parmi la mascarade une joueuse de gobelets, qui chante, qui\ndanse, qui fait des tours, DANCOURT, Gal. jardinier, 22.\nQuand elle vit les diableries des joueurs de gobelets, SÉV., 522.\nFig. Un joueur de gobelets, un fourbe, un homme qui ne cherche qu'à\ntromper.\nJe conçois bien que tant de joueurs de gobelets ont voulu se faire payer\nen argent et en honneurs ; on ne tromperait pas, dit-on, s'il n'y avait\nrien à gagner, VOLT., Lett. chin. 4.\nOn dit dans un sens analogue : jouer des gobelets.\n\n4° Terme de pharmacie. Gobelet de gaïac, gobelet fait avec le bois de\ngaïac, dans lequel on laisse pendant une nuit de l'eau froide qui se\ncharge légèrement des principes du bois et qu'on fait boire dans\ndiverses affections chroniques.\nGobelet émétique, vase en forme de gobelet, composé d'antimoine\némétique, et dans lequel on laissait séjourner du vin blanc, qui y\nacquérait une vertu émétique.\n\n5° Terme d'artificier. Enveloppe de fusée.\n\n6° Terme de botanique. Se dit de fleurs qui ont la forme d'un godet.\n\n7° Terme d'horticulture. Disposition des arbres fruitiers qui ne diffère\ndes buissons que parce que le bas est intérieurement aussi large que le\nhaut.\n\nHISTORIQUE\nXIIIe s.\nEl mois de moy {mai} prenez veroine {véronique}, triblez {pilez}, et si\nbevez del jus plein gubulet, , Ms. St Jean.\nXIVe s.\nPour rappareiller un gobelet d'or, pour monseigneur d'Anjou, lequel\ngobelet estoit fait en maniere d'un tonnel et est assis sur un trepié de\ntrois chiennes ; pour y mectre x perles, et IV esmeraudes et ij rubis,\nDE LABORDE, Émaux, p. 331.\nPour un gobelet de cristal, à une anse sur le couvercle, à pierrerie, DE\nLABORDE, ib.\nUne pille de gobelets de fou {hêtre}, où il en a dix en un estuy de\nfust, DE LABORDE, ib. p. 332.\nXVIe s.\nLe gobelet du gland, COTGRAVE, .\nLe gobelet d'une rose, ID., .\nJouer des gobelets {dérober, prendre}, ID., .\n\nÉTYMOLOGIE\nBerry, goubelet : bourguig. gôbelle, petit vase ; provenç. gobelet ;\nespagn. cubilete ; diminutif du bas-latin gubellus, qui lui-même est un\ndiminutif de cupa, tonneau (voy. CUVE).
gobeleterie	GOBELETERIE\n go-be-lè-te-rie s. f.\nFabrication et commerce de gobelets, et, en particulier, de vases en\nverre et bouteilles.\n\nÉTYMOLOGIE\nGobelet.
gobeletier	GOBELETIER\n go-be-lè-tié s. m.\nOuvrier qui travaille en gobeleterie.\nMarchand de gobeleterie.\nAdj. Apprenti gobeletier.
gobelin	GOBELIN\n go-be-lin s. m.\nEsprit follet. De petits amours une bande Dansait auprès la sarabande,\nEt, leur faisant maints tours malins, Riaient comme des gobelins, la\nHenriade travestie, IX, 147.\n\nHISTORIQUE\nXVIe s.\nDemons, cacodemons, incubes, succubes, gobelins, lutins, PARÉ, XIX, 26.\n\nÉTYMOLOGIE\nBas-lat. gobelinus, nom vulgaire, dans Orderic Vital, d'un démon qui\nhantait les environs d'Évreux ; angl. goblin ; du bas-lat. covalus,\ncobalus, qui vient du grec, méchant, malin, satyre, faune. L'allemand\nKobold, lutin, est de même racine.
gobelins	GOBELINS\n go-be-lin s. m. pl.\nManufacture de teinture et de tapisserie à Paris.\n\nHISTORIQUE\nXVIe s.\nEt c'est celui ruisseau {la Bièvre} qui de present passe à St-Victor :\nau quel Gobelin teint l'ecarlate, RABEL., II, 22.\nNy le drap enyvré des eaux du Gobelin, RONS., 801.\n\nÉTYMOLOGIE\nLes Gobelins étaient une famille de teinturiers déjà célèbre au XVe\nsiècle, et dont plusieurs membres furent magistrats et anoblis ; leur\nétablissement fut racheté par Louis XIV et retint leur nom ; le marquis\nde Brinvilliers était Antoine Gobelin de son nom, JAUBERT, Gloss. t. II,\np. 579.
gobelotter	GOBELOTTER\n go-be-lo-té v. n.\nTerme familier. Boire à plusieurs petits coups ; faire une partie de\ntable.\nVous ne me disiez pas que vous aviez gobelotté au cabaret avec M.\nDamilaville ; il me paraît digne de boire et de penser avec vous, VOLT.,\nLett. Thiriot, 19 nov. 1760.\nPlus souvent, terme de mépris ou de dénigrement. Boire dans des cabarets\nde bas étage.\nÀ Clément que Dijon vit naître, Laharpe, homme de haut savoir, Ex\ncathedrâ prononce en maître Que son esprit sent le terroir ; La Seine\nest un bel abreuvoir : Mais de plus d'un rare génie Dijon est aussi la\npatrie ; Pardon Volnay, Beaune et Pomard, Le fin gourmet qui vous\ndécrie, Gobelottait à Vaugirard, PIRON, Contre Laharpe.\n\nÉTYMOLOGIE\nGobelot ou gobelet.
gobelotteur, euse	GOBELOTTEUR, EUSE\n go-be-lo-teur, teû-z' s. m. et f.\nCelui, celle qui aime à gobelotter, qui gobelotte souvent.
gober	GOBER\n go-bé v. a.\n\n1° Terme familier. Avaler sans savourer, sans mâcher.\nLe gober en huître à l'écaille, SCARRON, Virg. III.\nSaisir et avaler.\nUne grue Qui les croque, qui les tue, Qui les gobe à son plaisir, LA\nFONT., Fabl. III, 4.\nNous en savons plus d'un, dit-il en les gobant ; C'est tour de vieille\nguerre...., LA FONT., ib. III, 18.\nL'un jure foi de roi, l'autre foi de hibou, Qu'ils ne se goberaient\nleurs petits, peu ni prou, LA FONT., ib. V, 18.\nQuoi ! toujours il me manquera Quelqu'un de ce peuple imbécile !\nToujours le loup m'en gobera, LA FONT., ib. IX, 19.\nLe brochet gobe assez souvent les oiseaux qui plongent ou frisent en\nvolant la surface de l'eau, BUFF., Ois. t. XIII, p. 352.\nFig. Gober des mouches, du vent, perdre du temps à niaiser, à attendre.\nOn a laissé cet homme à gober les mouches, se dit de quelqu'un qu'on a\nlaissé longtemps attendre en un lieu.\nPopulairement. Tu la gobes, tu es attrapé, puni, malmené.\nFig. Gober le morceau, gober l'hameçon, se laisser facilement tromper.\nMais je ne suis pas homme à gober le morceau, MOL., Éc. des femmes, II,\n1.\nTous deux également sont propres à gober les hameçons qu'on leur veut\ntendre, MOL., Pourc. II, 3.\nFig. Un gobe-affront, un homme qui supporte lâchement les affronts.\nUn courtisan, un gobe-affront Aura l'âme assez mercenaire...., SCARR.,\nVirg. VII.\n\n2° Populairement Faire prisonnier quelqu'un que l'on guette. On l'a gobé\nau sortir de chez lui.\n\n3° Fig. Croire légèrement et sottement.\nAmusez les rois par des songes.... Ils goberont l'appât, vous serez leur\nami, LA FONT., Fabl. VIII, 14.\n{Monseigneur} prince incapable de ne pas gober les absurdités les plus\ngrossières et les plus palpables, SAINT-SIMON, 285, 123.\nVieux-Port goba aisément ce prestige de noblesse, et crut figurer,\nSAINT-SIMON, 464, 42.\nCette belle lettre parvint à M. le duc de Choiseul, qui d'abord goba\ncette sottise, mais qui bientôt après me rendit justice, VOLT., Lett.\nd'Argental, 16 oct. 1767.\n\n4° Terme de fauconnerie. Chasser les perdrix avec l'autour et\nl'épervier.\n\n5° Se gober, v. réfl. Être avalé en gobant. L'huître ne se mâche pas,\nelle se gobe.\n\nHISTORIQUE\nXVe s.\nAu moins, donnez-nous une pesche, Pour faire ung peu gobe quinault, ,\nRec. de farces, etc. p. 302.\n\nÉTYMOLOGIE\nLe radical gob paraît appartenir au celtique : gaélique, gob, gab,\nbouche, irl. gob, bouche, bec ; kimry, gwp, bec. Gob dans un patois\nanglais a le sens de mâchoire et y vient probablement du celtique.\nL'anglais gob, bouchée, vient du français.
goberge	GOBERGE\n go-bèr-j' s. f.\n\n1° Nom d'une perche, ou d'un instrument de bois, qui sert à tenir\nquelque chose en presse, surtout chez les menuisiers ; un des bouts de\nla goberge touche au mur, ou au plancher, et l'autre est fortement\nappuyé sur ce qui doit être pressé.\nPour un millier de goberges réduites à quatre pieds, le millier faisant\ndeux voies, est dû 18 livres, 8 sols, , Décl. 22 oct. 1715, Tarif.\n\n2° Perche dont les ébénistes se servent pour maintenir le placage\nfraîchement collé.\n\n3° Petite planche mince dont les layetiers se servent.\n\n4° Au plur. Nom des petits ais qui soutiennent la paillasse et les\nmatelas sur un bois de lit.\n\nÉTYMOLOGIE\nCe paraît être une corruption de écoperche (voy. ce mot).
goberge	GOBERGE\n go-bèr-j' s. f.\nMorue la plus large et la plus grande de l'océan.\n\nÉTYMOLOGIE\nPeut-être ainsi dite de goberger, parce que c'est un beau poisson qui\nsert à se goberger.\n\nSUPPLÉMENT AU DICTIONNAIRE\nGOBERGE. Ajoutez :\n\n3° Nom d'un ancien navire.\nIl {Gourgues, capitaine protestant, dans le XVIe siècle} vendit son\nbien, emprunta à ses amis et obtint de son frère des avances qui lui\npermirent d'armer deux petits navires en forme de goberges et une\npatache assez semblable aux frégates du Levant, FRÉD. RICHARD, Journ.\noffic. 1er déc. 1876, p. 8886, 3e col.
goberger (se)	GOBERGER (SE)\n go-bèr-jé. Le g prend un e devant a et o : gobergeant, gobergeons v.\nréfl.\nTerme familier.\n\n1° Prendre ses aises. Il se gobergeait dans un bon fauteuil.\n\n2° Se divertir.\nComment il se gobergera, Quand ensuite il égorgera Femme, mari, père,\ngrand-père, SCARRON, Virg. II.\nVous voyez, avec grande joie, Un nouveau Xanthus tous les jours, Et vous\ngobergez dans son cours, SCARRON, ib. III.\n\n3° Se moquer.\nGobergeons-nous ensemble de ce cousin de meunier, DANCOURT, les\nVacances, sc. 1.\nQuoi ! tu peux refuser l'offre d'une couronne ! - Guillot : C'est pour\nse goberger, morgué, qu'il me la donne, LE GRAND, Roi de Cocagne, III,\n7.\n\nHISTORIQUE\nXVe s.\nLe bon sergent en luy print affiance, Et luy livra sans nulle defiance\nSon ocqueton, son enseigne et sa verge, Sans qu'il cognust que Faifeu le\ngauberge, , Faifeu, p. 52, dans LACURNE.\n\nÉTYMOLOGIE\nOn peut conjecturer que se goberger a été dit de la goberge qui sert\ndans plusieurs métiers à rendre le travail plus commode ou plus sûr ; de\nsorte que le sens primitif serait prendre ses aises.
gobet	GOBET\n go-bè ; le t ne se lie pas dans le parler ordinaire ; au pluriel, l's\nse lie : des go-bè-z appétissants ; gobets rime avec traits, succès,\npaix, etc. s. m.\n\n1° Terme familier. Morceau que l'on gobe.\nLaisse-moi faire ; nous en mangerons de bons gobets ensemble,\nHAUTEROCHE, Crispin méd. II, 7.\nFig. et populairement. Prendre un homme au gobet, le prendre, le saisir\nsans qu'il s'y attende.\n\n2° Espèce de cerise. Des gobets à courte queue.\n\n3° Populairement. C'est un bon gobet, se dit d'un homme crédule, qui\ngobe tout ce qu'on dit.\n\n4° Terme de fauconnerie. Chasser au gobet, chasser avec l'autour et\nl'épervier.\n\nÉTYMOLOGIE\nGober.
gobetage	GOBETAGE\n go-be-ta-j' s. m.\nAnciennement, opération qui se pratiquait sur les boissons. Droits de\nmesurage, gobetage, criage de vin et autres breuvages et huiles, Règlem.\n30 août 1662.\n\nÉTYMOLOGIE\nGobet, dans le sens de vase.
gobetage	GOBETAGE\n go-be-ta-j' s. m.\nAction de gobeter.
gobeter	GOBETER\n go-be-té. Le t se double quand la syllabe qui suit est muette : il\ngobette, je gobetterai. L'Académie ne dit rien sur cette conjugaison v.\na.\nTerme de maçonnerie. Jeter du mortier ou du plâtre avec la truelle et\npasser la main, ou le plat de la truelle dessus, pour le faire entrer\ndans les joints.\n\nÉTYMOLOGIE\nGobet, morceau, le plâtre étant jeté comme par morceaux.
gobetis	GOBETIS\n go-be-ti s. m.\nTerme de construction. Plâtre jeté avec une truelle ou un balai, et sur\nlequel on passe la main pour le faire entrer dans les joints.\nLe travail exécuté de cette manière.\n\nÉTYMOLOGIE\nGobeter.
gobeté, ée	GOBETÉ, ÉE\n go-be-té, tée part. passé de gobeter\nUn mur gobeté.
gobeur, euse	GOBEUR, EUSE\n go-beur, beû-z' s. m. et f.\n\n1° Celui, celle qui gobe.\nCelui qui le premier a pu l'apercevoir {l'huître} En sera le gobeur ;\nl'autre le verra faire, LA FONT., Fabl. IX, 9.\nFig. Celui qui croit tout ce qu'on lui dit. Grand gobeur de fausses\nnouvelles.\n\n2° Gobeur, se dit, sur les bords de la Loire, des portefaix qui chargent\net déchargent les bateaux.\n\n3° Gobeur de mouches, oiseau appelé aussi bouvier.\nFig. Homme crédule.\n\nÉTYMOLOGIE\nGober.
gobie	GOBIE\n go-bie s. m.\nGenre de poissons thoraciques.\n\nÉTYMOLOGIE\nLat. gobius, goujon.
gobier	GOBIER\n go-bié s. m.\nNom, dans la Loire-Inférieure, du canal qui sert à faire entrer l'eau\ndans la saline, , les Primes d'honneur, Paris, 1873, p. 138.\n\nÉTYMOLOGIE\nIl est probable que c'est un dérivé de gober.
gobillard	GOBILLARD\n go-bi-llar, ll mouillées s. m.\nTerme de construction. Nom de planches préparées pour faire des douves\nde cuves.
gobille	GOBILLE\n go-bi-ll', ll mouillées s. f.\n\n1° Terme d'écoliers dans quelques contrées. Bille en marbre ou en pierre\ndure avec laquelle on joue.\n\n2° Il se dit, dans les machines, de certaines pièces en forme de boules.\nGobilles de bronze.\n\nÉTYMOLOGIE\nScheler demande si gobille n'est pas pour globille, de globe.
gobin	GOBIN\n go-bin s. m.\nTerme familier et peu usité. Bossu. Un petit gobin.\nAfin d'y recevoir dignement le gobin Villars, SÉV., Lett. de Bussy, 25\nsept. 1677, édit. RÉGNIER.\nMaudit gobin, que le diable t'emporte ! Voilà pour Euphrosine un mari\nbien tourné, BOURSAULT, Fables d'Ésope, V, 2.\n\nHISTORIQUE\nXVIe s.\nLe gobin {nom donné au duc de Mantoue, parce qu'il était fort bossu},\nBRANT., t. VIII, p. 434, édit. FOUCAULT.\n\nÉTYMOLOGIE\nItal. gobbo, du lat. gibbus, bosse, d'après Diez, qui remarque que, dans\nle bas-latin primitif, gibbus s'est écrit et sans doute prononcé gybbus\net qu'un vocabulaire a en effet gupios, bossu, mot où l'u est\nl'équivalent de y ; ce qui explique l'o de l'italien.
gobineau	GOBINEAU\n go-bi-nô s. m.\nTerme de carreleur. Petite partie de carreau que l'on rapporte en\nraccordement le long des murs pour remplir les vides.
gobé, ée	GOBÉ, ÉE\n go-bé-bée part. passé de gober\n\n1° Avalé à la hâte sans mâcher, ou presque sans mâcher. Des cerises\ngobées.\n\n2° Fig. Pris, attrapé, saisi.\nLe grand prieur, gobé comme on l'a marqué en son temps, obtint enfin sa\nliberté, SAINT-SIMON, 302, 209.\n\nÉTYMOLOGIE\nVoy. GOBELET.
gochet	GOCHET\n go-chè s. m.\nNom vulgaire d'une coquille, la natice foudre (univalves).
godage	GODAGE\n go-da-j' s. m.\nFaux pli d'une étoffe qui gode.\nForme défectueuse du papier.\n\nÉTYMOLOGIE\nGoder.
godaille	GODAILLE\n go-dâ-ll', ll mouillées s. f.\nTerme populaire. Débauche de table, grande ribote.\nMauvais vin. Il ne nous a fait boire que de la godaille.\n\nÉTYMOLOGIE\nOrigine incertaine. Diez le tire d'un ancien verbe goder (Rousiaus fins\nrenart tout çou gode, Ren. t. IV, p. 435). On peut songer à une\ndérivation péjorative de gaudir. Enfin il y a l'opinion de ceux qui\nproposent l'ancien français godale, qui est l'anglais good ale ou le\nflamand goud ale, bonne bière :\nVolentiers en beüst {de l'eau}, mais trouble ert com godale, , Berte,\nXXVII. Cette proposition a, contre elle, de manquer d'intermédiaires. On\npeut cependant en trouver un dans Froissart :\nEt l'avoient les vilains Londriens godaillers accueilli en si grand\nhaine, que à peine pouvoient ou vouloient parler à lui, FROISS., III,\nIV, 73. ; godailler veut dire sans doute buveur de godale. La forme est\nainsi trouvée ; et, quant au sens, il n'y a pas loin de buveur de bière\nà godailleur.
godailler	GODAILLER\n go-dâ-llé, ll mouillées, et non go-dâ-yé v. n.\nTerme populaire. Boire avec excès et souvent. Il ne fait que godailler.\n\nÉTYMOLOGIE\nGodaille.
godailler	GODAILLER\n go-dâ-llé, ll mouillés s. m.\nAgaric de couleur fauve clair, dit aussi mousseron d'automne et agaric\nfaux mousseron.
godailleur	GODAILLEUR\n go-dâ-lleur, ll mouillées s. m.\nCelui qui aime à godailler.
godan ou godant	GODAN ou GODANT\n go-dan s. m.\nTerme populaire. Conte, tromperie. Donner dans le godant, se laisser\nabuser.\nC'était bien certainement à eux à qui je devais cet inepte et hardi\ngodant qu'ils avaient donné à monseigneur, SAINT-SIMON, 291, 217.\nOn mit Davisard en liberté {de la Bastille} ; n'est-ce pas un godan,\ndit-il en terme gascon quand il vit la lettre de cachet ? non, dit le\ngouverneur qui la lui portait, c'est tout de bon, STAAL., Mém. t. II, p.\n246.\n\nÉTYMOLOGIE\nDiez le rattache au mot du Hainaut godan, appât.
godard	GODARD\n go-dar s. m.\nNom propre usité dans cette locution proverbiale : Servez Godard, sa\nfemme est en couches. Oudin, qui la rapporte, Curios. franç. p. 142 et\n251, l'explique : Façon de parler pour refuser quelque chose à un\nimpertinent qui se veut faire servir en maître, ou bien à un impatient.\nCette locution se rattache à une vieille et bizarre coutume, trouvée en\nbeaucoup de pays, d'après laquelle le mari d'une femme en couches se\nmettait au lit pour recevoir les visites de ses parents et prenait ainsi\nses aises pendant plusieurs jours.
goddam	GODDAM\n prononcé quelquefois go-ddam', mais plus souvent go-ddèm, l'a anglais\nétant intermédiaire entre un a et un eSorte de jurement anglais.\nDiable ! c'est une belle langue que l'anglais ; il en faut peu pour\naller loin ; avec goddam, en Angleterre, on ne manque de rien.... les\nAnglais, à la vérité, ajoutent par-ci par-là quelques autres mots en\nconversant ; mais il est bien aisé de voir que goddam est le fond de la\nlangue, BEAUMARCHAIS, Mar. de Fig. III, 5.\nS. m. Sobriquet que le peuple donne aux Anglais. Un gros goddam.\n\nÉTYMOLOGIE\nAngl. god damn, Dieu damne.
gode	GODE\n go-d' s. f.\nSorte de mesure étrangère qui contenait environ cinq quarts d'aune de\nParis. Frise blanche appelée de coton, qui se vend à la gode, le cent de\ngodes faisant 125 aunes, Tarif du 18 avril 1667.
gode	GODE\n go-d' s. f.\nNom, sur les côtes de basse Normandie, d'un petit poisson de mer,\nalimentaire, dont le goût rappelle celui du merlan ; la gode est plus\npetite que le merlan.
gode	GODE\n go-d' s. f.\nNom, en Bretagne, d'un oiseau de mer, GOUËZEL, les Oiseaux de mer,\nNantes, 1875, p. 10.
godebert	GODEBERT\n go-de-bêr s. m.\nEspèce de camail qui faisait partie de l'armure au XIIIe siècle.\n\nHISTORIQUE\nXIVe s.\nPour une fourrure de dos de lievre de Norvoie {Norvége} à fourrer un\ngodebert à maistre Jean le Fol, DU CANGE, godebertus.\n\nÉTYMOLOGIE\nBas-lat. godebertus, godbertus, mot qui paraît formé, comme haubert,\navec la finale germanique berc, protection, et peut-être le germanique\ngod, dieu, ou good, bon.
godelle	GODELLE\n go-dè-l' s. f.\nNom qu'on donne, dans les environs de Lyon, à une variété barbue de\nfroment renflé.
godelon	GODELON\n go-de-lon s. m.\nNom, dans l'Aunis, d'une grande scie sans monture que deux hommes font\nmouvoir, Gloss. aunisien, p. 112.\n\nÉTYMOLOGIE\nPoitevin et saintongeois, godelle, couteau, croc d'animaux : Ce sanglier\navait une longue godelle, Gloss. du Poitou, par Favre, Niort, 1868, p.\n175. L'origine de ce mot est inconnue ; mais il faut y rattacher godelle\nqui est ci-dessus et qui signifie un blé barbu. Le nom propre Godelier\n(un médecin de la Rochelle a porté ce nom) est évidemment un dérivé de\ngodelle.
godelureau	GODELUREAU\n go-de-lu-rô s. m.\nFamilièrement et par dénigrement, jeune homme d'une conduite étourdie,\nqui fait le joli coeur auprès des femmes.\nLa chambre des comédiennes était déjà pleine des plus échauffés\ngodelureaux de la ville, SCARRON, Rom. com. I, 6.\nEt je ne puis souffrir que cent godelureaux à ma femme chez moi débitent\nmots nouveaux, HAUTEROCHE, les Appas tromp. I, 10.\nCe sont de beaux morveux, de beaux godelureaux pour donner envie de leur\npeau, MOL., l'Avare, II, 6.\nJ'ai peine, je l'avoue, à demeurer en place, Et de mille soucis mon\nesprit s'embarrasse, Pour pouvoir mettre un ordre et dedans et dehors\nQui du godelureau rompe tous les efforts, MOL., Éc. des femmes, IV, I.\nAh ! le plaisant magot ! que veux-tu ? qui t'amène ? - Une ingrate que\nj'aime et qu'un godelureau Est venu m'enlever presque chez moi, madame,\nRÉGNARD, les Folies amour. Divertiss.\n\nHISTORIQUE\nXVIe s.\nGoguelureau, MONET, Dict.\nMa foy, mon goderuleau, mon amy, tu en parles bien à ton aise, , Contes\nd'Eutrapel, p. 114, dans LACURNE, au mot gaudelureau.\nN'y a si meschant fils de laboureur qui ne veuille faire du galureau,\nporter chausses et habits bigarrez et le grant plumas au chapeau, , Nef\ndes fols, f° 62, dans LACURNE, au mot gaudelureau.\n\nÉTYMOLOGIE\nBourg. gaudelurô, galurô, jeune homme libertin. Ce mot paraît être un\ndiminutif de Vaudelu ou Godelu, nom que le peuple donnait à une copie,\nexposée dans l'église du Saint-Sépulcre à Paris, du saint voult de\nLucques, sanctus vultus de Luca, c'est-à-dire le Christ en croix de\nLucques, sculpture attribuée à Nicodème (DE LABORDE, Émaux, p. 534).\nPar une raison inconnue, cette figure avait donné lieu, dans le XVe\nsiècle, à une acception très voisine de celle de godelureau : Tranche de\nVaudelusque, COQUILLART, p. 172.
godendac ou godendart	GODENDAC ou GODENDART\n go-dan-dak ou godan-dar s. m.\nArme à hampe, dont le fer porte une pointe, un croc et un tranchant.\nLes couteaux de brèche, les godendards, les corsesques, les épieux, les\nespontons, , Journ. offic. 24 nov. 1873, p. 7157, 1re col.\n\nHISTORIQUE\nXIIIe s.\nLes godendaz et les coignies, Mettent à mors es herberjages Chevaliers,\nescuiers et pages, GUIART, dans DU CANGE, godendac.\nXIVe s.\nEn soy defendant fery ledit Cannaux d'un godandart ou pique de Flandres\nun cop seulement dont mort s'ensuy, DU CANGE, godandardus.\nXVe s.\nUn baston que l'on appelle goudendart, qui est à la façon d'une pique de\nFlandres, combien que le fer est un pou plus longuet, DU CANGE, ib.\n\nÉTYMOLOGIE\nBas-lat. godandardus, formé du flamand gooden, bon, et de dac, jour :\nbonjour, nom soldatesque de cette arme avec laquelle les Flamands\ndonnaient le bonjour à l'ennemi (voy. BOUTARIC, Hist. militaire).
godenot	GODENOT\n go-de-no ; le t ne se lie pas ; au pluriel, l's se lie : les go-de-no-z\net.... s. m.\n\n1° Petite figure de bois dont les joueurs de gobelets se servent pour\namuser les spectateurs.\nVous voyez que le Mazarin n'est qu'une manière de godenot qui se cache\naujourd'hui et qui se montrera demain, RETZ, IV, 199.\nLe petit prince habillé comme un godenot, SÉV., 513.\n\n2° Populairement. Petit homme mal fait.\nRagotin, c'était le nom du godenot, SCARRON, Rom. com. I, 8.\nIl n'est vice si bas Que n'ait le godenot que je ne nomme pas,\nBOURSAULT, Fabl. d'És. I, 4.\nOn a forgé archi-godenot.\n....Et de là vient que l'archi-godenot, Depuis trente ans que seul il se\nfait rire, N'a jamais su faire rire qu'un sot, J. B. ROUSS., Épigr. II,\n26.\n\nÉTYMOLOGIE\nOrigine inconnue.
goder	GODER\n go-dè v. n.\nEn parlant d'une étoffe, faire un pli un peu en rond là où l'étoffe doit\nêtre à droit fil. Un vêtement gode lorsque l'étoffe, n'étant pas à plat\nsur la doublure, se soulève, ou que, mal cousu, mal confectionné, il\nfait un pli.\nOn dit aussi en chirurgie qu'une bande roulée autour d'un membre gode ou\nfait des godets quand quelqu'un des tours ne s'y applique pas\nexactement.\nUn papier gode, quand, collé sur un autre, il est soulevé çà et là.\n\nÉTYMOLOGIE\nCe paraît être un verbe fait sur godet.
godet	GODET\n go-dè ; le t ne se lie pas ; au pluriel, l's se lie : des go-dè-z à\ncouleur ; godets rime avec traits, succès, paix, etc. s. m.\n\n1° Petit vase à boire qui n'a ni pied ni anse. Boire dans un godet.\nAnciennement. Porter son chapeau en godet, porter un chapeau à cornes de\ntelle façon que, le derrière étant plus élevé que le devant, le chapeau\nait l'apparence d'une gouttière ou d'un godet. Il sait du coin de\nl'ongle ouvrir sa tabatière, Caresser son petit collet, Tourner son\nchapeau de manière Qu'il fasse toujours le godet, Poëte anonyme, dans LE\nROUX, Dict. comique.\n\n2° Fig. Faux pli d'une étoffe, d'une bande qui gode ; il semble en effet\nformer un petit godet.\n\n3° Petit vase dans lequel les peintres mettent leurs couleurs.\n\n4° Il se dit des vaisseaux qui sont attachés aux cordes des roues\nservant à puiser l'eau. Une roue à godets.\n\n5° Verre recevant l'huile qui tombe d'un quinquet.\nPetit récipient percé par le fond et dans lequel on verse l'huile pour\nle graissage d'essieux ou autres pièces mobiles.\nEspèce d'entonnoir qui sert à introduire de l'huile entre les filets de\nla vis d'une presse.\n\n6° Entonnoir par lequel le métal fondu passe de l'échenal dans les jets.\n\n7° Vaisseau rond avec une queue longue d'environ un tiers de mètre, en\nforme de cuiller à pot ; queue qui est percée pour donner passage à\nl'eau, à l'effet de se laver les mains.\n\n8° Terme de construction. Espèce de petite gouttière qu'on joint aux\nchéneaux pour jeter l'eau lorsqu'il n'y a point de tuyau de descente.\nTerme de maçonnerie. Petite ouverture par où l'on fait couler du mortier\ndans les joints montants.\n\n9° Godet-encrier, godet qui sert dans les transcriptions télégraphiques.\n\n10° Godet de la pipe, synonyme de fourneau.\n\n11° Il se dit, chez les jardiniers et chez les fabricants de fleurs\nartificielles, de la partie de la fleur qui renferme les pétales.\nLe gland de chêne est supporté par une espèce de petit godet appelé\ncupule.\nGodet crottinier, la pezize ponctuée, champignon qui croît sur le\ncrottin de cheval.\n\nHISTORIQUE\nXIIIe s.\nOr faut mesures et hanas {gobelets}, Voires, godes, si ne les as, ,\nChoses qui faillent en ménage.\nXIVe s.\nUng grant godet, appellé aumosniere, de vielle façon, pesant IV marcs,\nDE LABORDE, Émaux, p. 332.\nXVe s.\nJ'en vueil avoir le coeur net ; Versez donc dans ce godet ! Sur ce cidre\nd'excellence J'en vai faire experience, BASSELIN, VII.\nXVIe s.\nAlors que chascun vouloyt recueillir de ceste rosée, et en boyre à plein\nguodet..., RAB., Pant. II, 2.\n\nÉTYMOLOGIE\nDiminutif du latin guttus, vase à boire ; mais cette étymologie n'est\npas absolument sûre, le d ne remplaçant pas facilement deux tt.
godiche	GODICHE\n go-di-ch' adj.\nTerme populaire. Gauche, maladroit, niais. Qu'il est godiche !\nSubstantivement. Quel godiche !\nAu fém. Une grande godiche.\n\nÉTYMOLOGIE\nGodiche est une altération populaire de Claude, qui se dit aussi pour\nnigaud.
godichon, onne	GODICHON, ONNE\n go-di-chon, cho-n' adj.\nDiminutif de godiche.
godille	GODILLE\n go-di-ll, ll mouillées s. f.\n\n1° Aviron qui, placé dans une entaille arrondie sur le derrière d'une\nembarcation, sert à la faire avancer et à la diriger.\n\n2° Partie du télégraphe à cadran.\n\n3° Godille évolueur, nom donné par M. Glotin à un propulseur alternatif\nde son invention, qui est applicable aux navires de petite vitesse et à\npetit tirant d'eau.\n\nÉTYMOLOGIE\nOrigine inconnue.\n\nSUPPLÉMENT AU DICTIONNAIRE\nGODILLE. Ajoutez :\n\n4° Une godille, un bateau à godille.\nGodille japonaise, mesurée en 1867, faite d'après les plans de M. Armand\nParis, lieutenant de vaisseau, , Journ. offic. 23 fév. 1874, p. 1457, 2e\ncol.
godiller	GODILLER\n go-di-llé, ll mouillées v. n.\nTerme de marine. Gouverner un batelet avec la godille.\nGodiller s'est dit autrefois gabarer.
godilleur	GODILLEUR\n go-di-lleur, ll mouillées s. m.\nTerme de marine. Matelot ou batelier qui godille.
godinette	GODINETTE\n go-di-nè-t' s. f.\nAncien mot qui signifiait une grisette et qui s'était conservé jusque\ndans le XVIIe siècle, en cette locution tombée elle-même en désuétude :\nbaiser en godinette, baiser d'une manière tendre, amoureuse.\nOn trouve aussi : en godinet. Je vous embrasse en godinet, Lettres de\nMlle Laurette de Malboissière avec Mme la marquise de la Grange.\n\nHISTORIQUE\nXVe s.\nAvez vous point vu ci entrer Nagueres une godinette Qui vient rire,\nesbattre, danser ?, COQUILLART, Botte de foin.\n\nÉTYMOLOGIE\nGodin, joli, mignon, dans Cotgrave, et godinette semblent venir de\nl'ancien verbe goder (voy. GODAILLE à l'étymologie), que Diez n'ose pas\nrapporter au latin gaudere (gaudere ayant donné jouir, goïr), et qui lui\nsemble appartenir plutôt à un radical celtique : kimry, god, luxure,\nexubérance.
godiveau	GODIVEAU\n go-di-vô s. m.\nTerme de cuisine. Sorte de pâté chaud composé d'andouillettes, de hachis\nde veau, etc. Tourte de godiveau.\n.... Un godiveau tout brûlé par dehors Dont un beurre gluant inondait\ntous les bords, BOILEAU, Sat. III.\n\nHISTORIQUE\nXVIe s.\nMangeans ensemble un boisseau de godiveaus {espèce d'andouillette},\nRABEL., III, 18.\n\nÉTYMOLOGIE\nOrigine inconnue ; à moins que, avec Scheler, on n'y voie un dérivé de\nl'ancien verbe goder (voy. GODINETTE).
godron	GODRON\n go-dron s. m.\n\n1° Terme d'orfévrerie. Moulure ovale qu'on fait aux bords de la\nvaisselle d'argent. Vaisselle à gros godrons.\nEspèce de rayon droit ou tournant, fait à l'échoppe sur le fond d'une\nbague ou d'un cachet.\n\n2° Terme de sculpture et d'architecture. Ornements qu'on taille sur des\nmoulures, les uns fleuronnés, d'autres creusés.\n\n3° Plis ronds qu'on fait aux fraises, aux jabots.\nFer avec lequel on faisait ces plis.\n\nHISTORIQUE\nXVe s.\nUne nef d'argent, goderonnée, l'un des goderons d'argent et l'autre\nblancq, DE LABORDE, Émaux, p. 332.\nXVIe s.\nLes yeux {du cheval} gros, grands, noirs et clairs comme miroirs,\nemboutissant en hors ainsi que goderons, O. DE SERRES, 301.\nGauderon de beau langage {langage apprêté}, COTGRAVE, .\n\nÉTYMOLOGIE\nOrigine inconnue. D'après Génin, Récréat. t. II, p. 93, godron était\ndans l'ancien français le nom de l'amidon ; sans dire où il a trouvé\ncette explication. D'ailleurs le godron ou goderon paraît avoir été\nd'abord une moulure d'orfévrerie. Scheler le tire de goder, où il voit\nun verbe germanique : goth. valtjan, rouler. Roullin le rattache au\nlatin grunda, gouttière.
godronnage	GODRONNAGE\n go-dro-na-j' s. m.\nAction de godronner, et résultat de cette action.\n\nÉTYMOLOGIE\nGodronner.
godronner	GODRONNER\n go-dro-né v. a.\n\n1° Faire des godrons. Godronner de la vaisselle. Godronner du linge.\n\n2° Tourner les têtes des épingles sur les moules à l'aide du rouet.\n\n3° Faire autour de la tête plate d'une vis de petites entailles\nempêchant que la vis ne glisse dans les doigts quand on la serre ou\ndesserre.\n\nHISTORIQUE\nXVe s.\nSix hanaps plains, dorez par dedans et goderonnez par dehors ; laquelle\ngoderoneure estoit dorée et blanche, , Vente des meubles de J. Coeur,\ndans J. Coeur, par CLÉMENT, t. II, p. 179.\nXVIe s.\nIl y en a de grandes {citrouilles}, de petites, de goderonnées,\nressemblantes à citrons et poncires, diversement colorées, O. DE SERRES,\n547.\nLa plus grande finesse qui soit en ce monde est aller rondement en\nbesongne, parler son vrai patois et naturel langage, sans le pourfiler\net damasquiner, comme font nos refraisez et gaudronnez de ce jour, ,\nContes d'Eutrapel, p. 190, dans LACURNE.\nIl avoit une fraise empesée et godronnée à gros godrons, au bout de\nlaquelle il y avoit de belle et grande dentelle, les manchettes estoient\ngodronnées de mesme, DE LABORDE, Émaux, p. 322.\nHeliodorus, ce bon evesque de Tricca, aima mieulx perdre la dignité\nd'une prélature si venerable que de perdre sa fille {un roman, les\nÉthiopiques} ; fille qui dure encores bien gentille, mais à l'adventure\npourtant un peu trop curieusement et mollement goderonnée pour fille\necclesiastique et sacerdotale, MONT., II, 89.\n\nÉTYMOLOGIE\nGodron.
godronneur, euse	GODRONNEUR, EUSE\n go-dro-neur, neû-z' s. m. et f.\nOuvrier, ouvrière qui fait des godrons.
godronnoir	GODRONNOIR\n go-dro-noir s. m.\nSorte de ciselet à l'usage du godronneur.
godronné, ée	GODRONNÉ, ÉE\n go-dro-né, née part. passé de godronner\n\n1° Garni de moulures.\nDe la belle vaisselle toute neuve, toute godronnée, au fruit, SÉV., 595.\nCet argent fin, ciselé, godronné, En plat, en vase, en soucoupe tourné,\nVOLT., Apol. du luxe.\n\n2° Terme de botanique. Feuille godronnée, feuille dont les bords\nprésentent des espèces de festons séparés par des sinuosités profondes.\n\n3° Terme d'anatomie. Canal godronné, espace qui se trouve dans l'oeil\nentre le corps vitré et le corps ciliaire, et qui embrasse toute la\ncirconférence du cristallin.\n\n4° Qui est plissé en godron.\nLes sénateurs de la ville, vêtus de cérémonie avec leurs toques de\nvelours, leurs courtes robes de damas et leurs fraises godronnées,\nvinrent saluer la reine, LE LABOUREUR, Voyage de la reine de Pologne, p.\n103, dans LACURNE, au mot gaudronné.
godure	GODURE\n go-du-r' s. f.\nÉtat de ce qui gode.
goethée	GOETHÉE\n gheu-tée s. f.\nTerme de botanique. Genre de malvacées ayant deux espèces : la goethée\ntoujours fleurie et la goethée cauliflore.\n\nÉTYMOLOGIE\nGoethe, célèbre poëte allemand.
goffe	GOFFE\n go-f' adj.\nTerme familier et vieilli. Mal fait, grossier. Un homme, un habit goffe.\nLettres goffes ou lettres lourdes, nom donné à une sorte de majuscules\ngothiques dans le commencement du XVIe siècle.\n\nHISTORIQUE\nXVIe s.\nJe m'emerveille comme il a osé louer un aussi goffe ouvrier et ouvrage,\nDUVERDIER, dans le Dict. de DOCHEZ.\n\nÉTYMOLOGIE\nPatois limousin, gofe, bouffi ; espag. gofo ; ital. goffo ; patois angl.\ngof, guff. Origine ultérieure inconnue. Isidore a bigera, vestis gufa\nvel villata, où gufa paraît signifier grossier.
gog	GOG\n gogh s. m.\nPersonnification qui, dans l'Écriture, désigne un peuple ennemi\nd'Israël.\n\nSUPPLÉMENT AU DICTIONNAIRE\nGOG. Ajoutez :\nGog et Magog, le plus souvent réunis dans la Bible ; dans Ézéchiel,\nXXXVIII et XXXIX, ils apparaissent tous les deux, mais Gog y est le nom\nd'un prince païen du Nord qui, à la tête d'une cavalerie redoutable,\nattaquera la Terre sainte et sera entièrement détruit par Jéhovah ; dans\nl'Apocalypse, XX, 8, après le règne de mille ans, Gog et Magog\nmarcheront contre la ville sainte, mais seront anéantis par le feu du\nciel.\n\nÉTYMOLOGIE\nD'après le Bibel-Lexicon de Schenkel, 1869-1875, Leipzig, l'étymologie\nla plus probable rattache gog au persan koh, montagne ; en sorte que\nmagog signifierait grand gog (hautes montagnes ou haut plateau), du\nsanscrit maha, grand. Il semble donc que gog et magog étaient un nom\ncollectif des barbares du Nord.
gogaille	GOGAILLE\n go-ghâ-ll', ll mouillées, et non gogâ-ye s. f.\nTerme populaire.\n\n1° Repas joyeux. Faire gogaille. Être en gogaille.\nEnfin on danse, on fait gogaille, SCARRON, Virg. VI.\nJe ne remplirai point sa mangeoire {d'un serin} par dessus les bords,\npour l'exposer à crever de gogaille, BERQUIN, Ami des enfants, Favori.\n\n2° Plaisanterie.\nTu vas te chagriner pour un mot de gogaille, HAUTEROCHE, Soup. mal\napprêté, 5.\n\nÉTYMOLOGIE\nGogue.
gogo (à)	GOGO (À)\n a-go-go loc. adv.\nTerme très familier. Dans l'abondance, à son aise.\nMoi qui, comme Midrac, Sidrac, Abdenago (La rime en sera difficile),\nChantais dans la fournaise, et vivais à gogo Dans les lieux les plus\nchauds, dont j'ai fait mon asile, VOIT., Poésies, Oeuvres, t. II, p.\n184, dans POUGENS.\nEn l'air à gogo suspendue, On la voit pourtant avancer Plus quasi qu'on\nne peut penser, SCARRON, Virg. V.\nOù bien mieux que chez Guénego {Guénegaut}, On a toute chose à gogo,\nSCARRON, ib. VII.\nNe parlons que de joie, et jusqu'au conjungo Laissez-moi, s'il vous\nplaît, m'en donner à gogo, TH. CORN., D. César d'Avalos, I, 4.\n\nHISTORIQUE\nXVe s.\nMieux amassent à gogo Gesir sur molz coussinés, CH. D'ORL., Chanson.\nXVIe s.\nN'ayez pas de religion, mocquez vous à gogo des prestres et des\nsacremens de l'Eglise, et de tout droict diviz et humain, , Sat. Mén. p.\n7.\n{Henri III} Gay comme perot, tellement que vous eussiez jugé à le voir\nqu'il tenoit desjà à gogo son galeux d'Espernon, , Particularités\nconcern. l'assass. du duc de Guyse, Chalons, 1589, p. 37.\n\nÉTYMOLOGIE\nPicard, à gaugau, à coeur joie. Le picard semble indiquer pour\nétymologie gau, radical du latin gaudere, se réjouir. Mais l'orthographe\nancienne est par o, et Diez le rattache à gogue.
gogue	GOGUE\n go-gh' s. f.\n\n1° Terme vieilli. Plaisanterie, divertissement. Être dans les gogues.\n\n2° Sorte d'appât.\nDes bergers de la Brie ont été condamnés à mort pour des maléfices sur\nles animaux, qu'ils faisaient mourir par des gogues empoisonnées qu'ils\nmettaient dans les lieux où ils étaient en pâturage.... on ne pouvait\nremédier à la mortalité.... qu'en changeant le troupeau de lieu et en\nl'éloignant de ces gogues.... quand on pouvait découvrir l'endroit où\nelles étaient placées, il était aisé de la faire cesser ; il n'y avait\nqu'à les lever et à les faire brûler ; mais il était très difficile de\nle savoir, les malfaiteurs prenant toutes sortes de précautions pour les\ncacher, persuadés qu'ils étaient qu'il y allait de leur vie, et que\ncelui qui les avait faites et mises en terre mourait dans le moment\nqu'on les levait, SAINT-ANDRÉ, Lettres au sujet de la magie, p. 285.\nGogue en ce sens est probablement une altération de gobe (voy. ce mot).\n\nHISTORIQUE\nXIVe s.\nN'ot jeu ne riz, feste ne gogues, DU CANGE, gobelinus.\nXVe s.\nEt ne disoit jamais une parole, puisqu'il estoit en gogues, qu'elle\nn'apportast avec elle son ris, LOUIS XI, Nouv. 29.\n\nÉTYMOLOGIE\nOrigine incertaine. Diez incline à y voir un radical gog qui se trouve\ndans le celtique avec un sens un peu différent : bas-bret. gôguéa,\ntromper, se moquer ; kimry, gogan, satire.\n\nSUPPLÉMENT AU DICTIONNAIRE\nGOGUE. Ajoutez :\n\n3° Ancien terme de cuisine. Gogue ou goguette au sang, sorte de mets\npréparé avec un foie de cochon haché menu, des oignons, de fines herbes,\ndélayé avec du sang de cochon, assaisonné, mis dans une terrine, et cuit\navec feu dessus et dessous. Cet emploi de gogue comme sorte de mets\nexplique comment il a servi à désigner des appâts empoisonnés (voy. le\nn° 2, au Dictionnaire).\n\n4° Aujourd'hui, dans le Poitou et la Saintonge, sang des animaux qu'on\nfait cuire dans la poêle avec du lard et des oignons, ou dont on fait de\ngros boudins, Gloss. du Poitou, par Favre, Niort, 1868, p. 176.
gogue	GOGUE\n go-gh' s. f.\nNom, dans l'Aunis, d'une grosse cerise blanchâtre, Gloss. aunisien, p.\n12.
goguenard, arde	GOGUENARD, ARDE\n go-ghe-nar, nar-d' adj.\nQui plaisante en se moquant.\nLe marquis : Et comme c'est un air à demi goguenard, Je l'ai pris sur un\nton entre doux et hagard, BOURSAULT, Merc. gal. V, 4.\nEt toujours avec lui sera Muse goguenarde et caustique, Qui, tandis que\nfat il sera, Sans cesse les chansonnera, CHAULIEU, Au cheval. de Bouill.\nSatirique et goguenard dans ses poésies, HAMILT., Gramm. 8.\nVous allez voir quelle différence il y a d'elle à vos goguenardes de\nfemmes qui ne songent qu'à la bagatelle !, BRUEYS, Grondeur, II, 14.\nElle lui demanda, d'un air fort délibéré, si nous coucherions sur le\nplancher {à la Bastille} ; il répondit sur un ton goguenard assez\ndéplacé et nous laissa, STAAL, Mém. t. II, p. 93.\nCette destinée qui m'a fait tantôt goguenard, tantôt sérieux, VOLT.,\nLett. Cideville, 21 juillet 1762.\nIl devint même railleur, goguenard, J. J. ROUSS., Conf. II.\nSubstantivement.\nRiez donc, beau rieur ; oh ! que cela doit plaire De voir un goguenard\npresque sexagénaire !, MOL., Éc. des maris, I, 3.\nCourbé sur un bâton, le bon petit vieillard Tousse, crache, se mouche,\net fait le goguenard, De contes du vieux temps étourdit Isabelle,\nQUINAULT, Mère coquette, I, 2.\nToutefois n'allez pas, goguenard dangereux, Faire Dieu le sujet d'un\nbadinage affreux, BOILEAU, Art p. II.\nLes goguenards de Basse-Bretagne dirent qu'il ne fallait pas baptiser\nson vin, VOLT., l'Ingénu, 4.\n\nÉTYMOLOGIE\nDérivé de gogue, par le même procédé que le génevois goguinette, et le\nlorain goguenettes.
goguenarder	GOGUENARDER\n go-ghe-nar-dé v. n.\nTerme familier. Faire le goguenard.\nComme on était à table et que chacun mangeait Et bien ou mal\ngoguenardait, SCARR., Oeuv. t. I, p. 310.\nQui, toujours goguenard, prend en goguenardant Ce qu'on dit qu'on\nn'obtient jamais en demandant, TH. CORN., Baron d'Albikrac, I, 3.\nNous ne faisions que goguenarder pendant le voyage, HAMILT., Gramm. 8.\nIl se conjugue avec l'auxiliaire avoir.\n\nÉTYMOLOGIE\nGoguenard.
goguenarderie	GOGUENARDERIE\n go-ghe-nar-de-rie s. f.\nPlaisanterie de goguenard.\nOui, mais je l'enverrais promener avec ses goguenarderies, MOL., Méd. m.\nlui, II, 3.\nLe roi était fort accoutumé à lui {Rose} et à ses goguenarderies,\nSAINT-SIMON, 85, 109.\n\nÉTYMOLOGIE\nGoguenarder.
goguettes	GOGUETTES\n go-ghè-t' s. f. pl.\n\n1° Terme familier. Propos joyeux.\nNe me brouillez pas avec le duc de Choiseul dans vos goguettes, VOLT.,\nLett. roi de Pr. 113.\nQue de goguettes, Que d'amourettes ! Jamais de dettes, Point de noeuds\nconstants, BÉRANG., Cocagne.\nÊtre en goguettes, être en ses goguettes, être en belle humeur.\nIl se dit aussi au singulier.\nMaître Jean à la guinguette à ses amis en goguette Chante son refrain\nchéri, BÉRANG., Ivrogne.\n....On entre à la guinguette ; On sort du cabaret ; l'invalide en\ngoguette Chevrote un gai refrain, STE-BEUVE, Poésies, les Rayons jaunes.\nSe mettre en goguettes, se griser.\nFig. Chanter goguettes à quelqu'un, lui dire des injures, des choses\noffensantes, fâcheuses.\nEt faisant si fort l'entendu, Qu'aux tritons, les divins trompettes, Il\nosait bien chanter goguettes, SCARR., Virg. VI.\nIl se dit aussi au singulier.\nJe dis nescio vos et lui chantai goguette, Disant : allez chercher votre\ndariolette, SCARR., Jodelet ou le maît. val. II, 1.\nCela ne plut pas au valet, Qui, les ayant pris sur le fait, à sa moitié\nchanta goguette, LA FONT., Pâté.\n\n2° Goguette, festin où règne la liberté.\nFaire goguette d'une chose, en faire son profit.\nDes sottises d'autrui le barreau fait goguette, , Théât. italien, dans\nLE ROUX, Dict. comique.\n\n3° Goguette, nom, à Paris, de sociétés chantantes qui se tiennent dans\nles cabarets.\n\nHISTORIQUE\nXVe s.\nUn jour qu'il estoit avec sa dame à goguettes, et qu'ils estoient\nbeaucoup dehaits tous deux, LOUIS XI, Nouv. XLVIII.\nJ'ai appointé un poussin et une belle piece de mouton, dont nous ferons\ngoguettes, LOUIS XI, ib. XCIII.\nXVIe s.\nLe coeur lui dit goguette, COTGRAVE, .\n\nÉTYMOLOGIE\nDiminutif de gogue ; génev. goguinette, propos gaillard ; lorrain,\ngoguenettes.
goignade	GOIGNADE\n go-gna-d' s. f.\nAncienne sorte de danse d'Auvergne.\nOn ne laisse pas de danser encore quelques bourrées et quelques\ngoignades ; ce sont deux danses qui sont d'une même cadence, et qui ne\nsont différentes qu'en figures : la bourrée d'Auvergne est une danse\ngaie, figurée, agréable, où les départs, les rencontres et les\nmouvements font un très bel effet et divertissent fort les spectateurs ;\nmais la goignade, sur le fond de gaieté de la bourrée, ajoute une\nbroderie d'impudence, et l'on peut dire que c'est la danse du monde la\nplus dissolue ; elle se soutient par des pas qui paraissent fort\ndéréglés, et qui ne laissent pas d'être mesurés et justes, et par des\nfigures qui sont très hardies et qui font une agitation universelle de\ntout le corps ; vous voyez partir la dame et le cavalier avec un\nmouvement de tête qui accompagne celui des pieds, et qui est suivi de\ncelui des épaules et de toutes les autres parties du corps, qui se\ndémontent d'une manière très indécente ; ils tournent sur un pied, sur\nles genoux, fort agilement ; ils s'approchent, se rencontrent, se\njoignent l'un l'autre si immodestement, que je ne doute point que ce ne\nsoit une imitation des bacchantes dont on parle tant dans les livres\nanciens, FLÉCHIER, Grands jours d'Auvergne, en 1665, p. 257.\n\nÉTYMOLOGIE\nL'origine de cette goignade serait-elle coignade, les deux danseurs se\nrapprochant dans les figures jusqu'à se coigner ?
goinfrade	GOINFRADE\n goin-fra-d' s. f.\nActe de goinfrer.
goinfre	GOINFRE\n goin-fr' s. m.\nTerme familier. Celui qui mange beaucoup et salement ; c'est toujours un\nmot d'injure.\nC'est un prêtre qui vit en goinfre, fort déréglé et fort dissolu, GUI\nPATIN, Lett. t. II, p. 179.\nS'il faut rire ou chanter au milieu d'un festin, Un docteur est alors au\nbout de son latin : Un goinfre en a toute la gloire, BOILEAU, Poésies\ndiv. I.\nVitellius est gras, mais il ne faut pas voir en lui seulement le goinfre\ninoffensif ; un buste souvent reproduit, admirable d'exécution, mais qui\npeut-être appartient à la renaissance, a fait prévaloir sa réputation de\nsensualité sur le renom de cruauté qu'il méritait aussi bien et que\nd'autres portraits lui restituent, AMPÈRE, Hist. rom. à Rome, Introd. p.\nLI.\nAdj. Qui a rapport à la goinfrerie.\nToujours quelque mot goinfre est dans tous ses discours, SCARR., Jodelet\nmaître et valet, V, 2.\n\nHISTORIQUE\nXVIe s.\nGoimphre et goinfre, COTGRAVE, .\nIl usoit des termes sales de goinfre et de cabaret à sa mode\naccoustumée, SULLY, dans le Dict. de DOCHEZ.\n\nÉTYMOLOGIE\nOrigine inconnue. Diez le rattache au radical god qui est dans godinette\n(voy. ce mot). Il rappelle aussi gouliafre, qui semble avoir de\nl'analogie avec goinfre sans qu'on puisse dire comment (voy. GOULIAFRE).\nScheler demande si goinfre n'est pas une altération de goufre ou de\ngonfler.
goinfrer	GOINFRER\n goin-fré v. n.\nTerme familier. Manger beaucoup, gloutonnement, malproprement.\nIl se conjugue avec l'auxiliaire avoir.\n\nÉTYMOLOGIE\nGoinfre.
goinfrerie	GOINFRERIE\n gom-fre-rie s. f.\nCaractère de goinfre ; acte de goinfre.\nJe tâche de me ressouvenir des importantes leçons de goinfrerie que vous\nm'avez faites, MAINARD, dans RICHELET.\nLa vaisselle d'argent, les cuvettes, les brocs, Les magasins de\nmalvoisie, Les esclaves de bouche, et, pour dire en deux mots,\nL'attirail de la goinfrerie, LA FONT., Fabl. II, 20.\n\nÉTYMOLOGIE\nGoinfrer.
goiran	GOIRAN\n goi-ran s. m.\nLa bondrée, sorte d'oiseau qui a un gros cou.
golem	GOLEM\n go-lèm s. m.\nDans le moyen âge, figure d'argile que l'on consultait ; elle portait\ninscrit au front le mot vérité en caractères hébraïques ; si elle\nmentait, le mot s'effaçait, et il ne restait plus qu'une argile informe,\nCHERBULIEZ, Rev. des Deux-Mondes, 1er avril 1877.\n\nÉTYMOLOGIE\nHébreu, golem, une masse d'argile.
golette	GOLETTE\n go-lè-t' s. f.\nNom donné à la soie qu'on tire de cocons percés.
golfe	GOLFE\n gol-f' s. m.\n\n1° Partie de mer qui rentre dans les terres, et dont l'ouverture du côté\nde la mer est ordinairement fort large. Le golfe de Gascogne. Le golfe\ndu Mexique.\nElle {Carthage} était située dans le fond d'un golfe, environnée de mer\nen forme d'une presqu'île, dont le col c'est-à-dire l'isthme qui la\njoignait au continent, était large d'une lieue et un quart {vingt\nstades}, ROLLIN, Hist. anc. Oeuv. t. I, p. 545, dans POUGENS.\nFig.\nQue ne peut-elle {l'âme}, ô mer, sur tes bords qu'elle envie Trouver,\ncomme ta vague, un golfe dans la vie ?, LAMART., Harm. I, 10.\n\n2° Terme d'anatomie. Golfe de la veine jugulaire, renflement de la\nportion postérieure de la jugulaire interne, s'abouchant avec\nl'extrémité inférieure du sinus latéral de la dure-mère.\n\nHISTORIQUE\nXIIIe s.\nEt cil {la mer Rouge} est un golf de la mer oceane, BRUN. LATINI,\nTrésor, p. 154.\nEt si sist sor un goffre de mer, VILLEHARD., dans DU CANGE, gaufra.\nXVIe s.\nLe vent estant en golfe des voiles, PARÉ, Monstr. app. 1.\nEt passans par le goulfe de Leon, arriverent à Barcelone, M. DU BELLAY,\n123.\n\nÉTYMOLOGIE\nProvenç. golfo ; catal. golf ; espagn. et ital. golfo ; le grec\nsignifie, golfe, sein. Le mot gouffre est le même. On remarquera dans\nParé l'emploi de golfe au sens propre de sein.
golgotha	GOLGOTHA\n gol-go-ta s. m.\nColline, dite aussi Calvaire, près de Jérusalem, où Jésus fut crucifié.\nD'une main elle {la Mort} tient une faux comme un moissonneur ; de\nl'autre elle cache la seule blessure qu'elle ait jamais reçue, et que le\nChrist vainqueur lui porta dans le sein au sommet du Golgotha,\nCHATEAUB., Mart. VI.\n\nSUPPLÉMENT AU DICTIONNAIRE\nGOLGOTHA. Ajoutez :\n\nÉTYMOLOGIE\nEn grec, lieu des crânes (à cause qu'on y trouvait beaucoup de crânes de\nsuppliciés), du chaldaïque goulgatha ( le a de la terminaison est long),\ncrâne.
goliath	GOLIATH\n go-li-at' s. m.\nGéant philistin qui fut tué par David d'un coup de fronde.\nPar extension, homme très grand, espèce de géant. C'est un Goliath.\n\nSUPPLÉMENT AU DICTIONNAIRE\nGOLIATH. Ajoutez :\n\n2° Genre de cétoines, coléoptères, qui est exotique, H. PELLETIER, Petit\ndict. d'entom. p. 38, Blois, 1868.
golille	GOLILLE\n go-li-ll', ll mouillées s. f.\nEspèce de collet porté en Espagne.\nAussitôt que le roi d'Espagne {duc d'Anjou} fut arrivé à Madrid, il prit\nl'habit espagnol et la golille, SAINT-SIMON, 90, 174.\n\nÉTYMOLOGIE\nEspagn. golilla, diminutif de gola, gorge, du latin gula, gosier. Le\nvieux français avait gollée, collet d'un habit.
gomariste	GOMARISTE\n go-ma-ri-st s. m.\nSectaire protestant attaché à la doctrine de la prédestination.\n\nÉTYMOLOGIE\nGomar, théologien calviniste qui vivait en Hollande au XVIIe siècle.
gombaut et mieux gombo	GOMBAUT et mieux GOMBO\n gon-bo s. m.\nTerme de botanique.\nNom vulgaire et spécifique de la ketmie gombo (hibiscus comestible de\ncertains auteurs), dont le fruit, appelé également gombo, se mange aussi\nà Toulon, d'où l'usage pourra s'en étendre dans le reste de la France,\nLEGOARANT, .\n\nSUPPLÉMENT AU DICTIONNAIRE\nGOMBAUT ou GOMBO. Ajoutez :\nM. Landrin transmet des échantillons d'un nouveau papier.... obtenu avec\nles fibres d'un végétal très répandu aux colonies et dans les pays\nchauds, le gombo.... il fournit ensuite des fruits comestibles qui ne\nsont pas à dédaigner ; enfin de sa graine il est facile d'extraire une\nhuile qui, si elle ne peut être employée aux usages culinaires,\ntrouverait au moins une application dans l'industrie. H. DE PARVILLE, ,\nJourn. offic. 20 nov. 1874, p. 7718, 3e col.\nNous n'avons, pour notre compte, aucun entraînement pour le potage au\ngombo ; mais cela n'empêche pas que ce brouet verdâtre et filant ne soit\nen grande réputation en Amérique, et surtout aux Antilles, où la\nketmie-gombo est cultivée comme plante potagère.... elle est aujourd'hui\nacclimatée en Algérie, SACHOT, Rev. Britan. août 1874, p. 540.
gombette	GOMBETTE\n gon-bè-t' adj. f.\nLoi gombette, le code des lois bourguignonnes.\n\nÉTYMOLOGIE\nGondebaud, roi bourguignon.
gombi	GOMBI\n gon-bi s. m.\nSynonyme d'inée (voy. ce mot au Supplément), Acad. des sc. Comptes\nrendus, t. LXXXIV, p. 261.
gommage	GOMMAGE\n go-ma-j' s. m.\n\n1° Action de gommer ; résultat de cette action.\n\n2° Adhérence défectueuse des fils de soie entre eux\n\nÉTYMOLOGIE\nGomme.
gommart	GOMMART\n go-mar s. m.\nTerme de botanique.\nSynonyme du genre bursère (térébinthacées) et nom sous lequel on a\ndésigné, d'après les habitants des Antilles, la bursère gommifère ou\nbursère balsamifère (Haïti) de Jacquin, LEGOARANT, . Le gommart fournit\nune résine aromatique.
gommate	GOMMATE\n go-mma-t' s. m.\nTerme de chimie. Combinaison de l'acide gommique avec un corps jouant le\nrôle de base.
gomme	GOMME\n go-m' s. f.\n\n1° Substance visqueuse et transparente qui découle de certains arbres.\nGomme de cerisier, de prunier.\nLes gommes, nom de beaucoup de substances qui ont cela de commun,\nd'épaissir l'eau en la rendant mucilagineuse, et d'être ensuite\nprécipitées par l'alcool.\nGomme adragant, voy. ADRAGANT.\nGomme-sassa ou gomme pseudoadragante, noms sous lesquels on désigne la\nsorte de gomme fournie par l'acacia gummifera (légumineuses), LEGOARANT.\nGomme arabique, gomme fournie par plusieurs plantes du genre acacia, de\nla famille des légumineuses mimosées.\nGomme de Bassora, gomme qui vient des environs de Bassora, et qu'on doit\nà un végétal encore inconnu qui pourrait être l'acacia leucophloea\n(légumineuses), LEGOARANT.\nGomme lignirode, débris ligneux réunis en masses marronnées qu'on trouve\ndans les gommes du Sénégal, et qui sont des portions d'enveloppes\nprotectrices pétries par des insectes pour leurs larves.\nGomme du pays, celle que sécrètent plusieurs de nos arbres à fruits,\ntels que le cerisier, le merisier, le prunier, l'abricotier.\nGommes du Sénégal, gommes dont on distingue deux sortes, l'une dure,\nl'autre friable.\nGomme de fenouil, liqueur blanche et épaisse que, selon Mathiole, le\nfenouil commun laisse quelquefois échapper de ses rameaux dans les lieux\ntrès chauds et qui se durcit à l'air, LEGOARANT.\n\n2° Gomme-résine, produit végétal qui participe de la nature des gommes\net de celle des résines, et qui est un mélange de ces deux genres de\nsubstances.\nGomme ammoniaque, gomme - résine produite par une plante de la Libye et\nde la Perse, le dorema ammoniacum, DON.\nGomme animée, résine qui découle d'incisions faites au tronc de\nl'hymenaea courbaril, L., et qui entre dans les vernis.\nGomme caragne, substance gommo-résineuse, que l'on attribue à l'icica\ncarana, HUMBOLDT, et BONPLAND, arbre de la Colombie, de la famille des\ntérébinthacées.\nGomme de cèdre, oléorésine, fournie par le cèdre du Liban.\nGomme copal, voy. COPAL.\nGomme-gutte, gomme-résine qui, formant avec l'eau une émulsion d'un beau\njaune, sert à l'aquarelle. La gomme-gutte est aussi un purgatif\ndrastique.\nGomme laque, voy. LAQUE.\nGomme en larmes, nom donné parfois au galbanum.\nGomme de lierre, substance gommo-résineuse, dite aussi hédérine, que\nl'on extrait, dans le Levant, à l'aide d'incisions faites sur des vieux\ntroncs de lierre, LEGOARANT.\nGomme d'Orenbourg, gomme donnée par les branches, le bois et le coeur du\nmélèze.\n\n3° Gomme élastique, voy. CAOUTCHOUC.\nAbsolument, gomme, le morceau de gomme élastique qui sert à effacer le\ncrayon.\n\n4° Terme d'horticulture. Maladie qui vient aux pêchers, aux pruniers,\naux abricotiers, etc. et qui consiste en une plaie de l'écorce avec\nécoulement d'une matière gommeuse.\n\n5° Graisse sèche qui gâte le parchemin.\n\n6° Terme de minéralogie. Gomme des funérailles, l'asphalte ou bitume de\nJudée dont les anciens se servaient pour embaumer les morts.\n\n7° Terme d'alchimie. Gomme des sages, gomme de l'or, le mercure des\nphilosophes ; gomme rouge, le soufre.\n\n8° Terme de chirurgie. Sorte de tumeur qui vient aux os et au périoste,\nordinairement d'origine syphilitique.\n\nSYNONYME\nGOMME, RÉSINE. Les gommes sont des substances contenant un mucilage ;\nles résines, des substances contenant une essence.\n\nHISTORIQUE\nXVe s.\nJe congnois l'arbre à veoir la gomme, VILLON, Ball.\nXVe s.\nBenjoin, gomme arabique...., PARÉ, XXIV, 21.\nDu vinaigre dans lequel auront esté dissoutes des gommes de pecher,\nd'amandier amer, et de pin, O. DE SERRES, 968.\n\nÉTYMOLOGIE\nProvenç. et espagn. goma ; ital. gomma ; du latin gummi ; qui vient du\ngrec , dérivé lui-même de l'égyptien ou copte cama.\n\nSUPPLÉMENT AU DICTIONNAIRE\nGOMME. Ajoutez :\n\n9°\nArbre à la gomme, plusieurs acacias, l'eucalyptus resinifera, BAILLON,\nDict. de botan. p. 247.\n\nHISTORIQUE\nAjoutez :\nXIIe s.\nDes gomes qui dedans alument Bone est l'olors, puisqu'eles fument,\nBENOIT DE STE-MORE, Roman de Troie, V. 14829.\nXVe s.  Ajoutez :\nOr comparons proprement L'ome à l'eaue, et vitement Se verra vil plus\nque gomme, E. DESCH., Poés. mss. f° 82.
gomme-gutte	GOMME-GUTTE\n go-me-gu-t' s. f.\nVoy. GOMME.\nAu plur. Des gommes-guttes.\n\nÉTYMOLOGIE\nLat. gummi guttae, gomme de goutte.\n\nSUPPLÉMENT AU DICTIONNAIRE\nGOMME-GUTTE. - ÉTYM. Ajoutez : D'après M. Devic, Dict. étym., gutte\nn'est pas le lat. guttae : gummi guttae, mais le malais gatah ou ghetah,\nprononcé à l'anglaise, qui signifie gomme.
gomme-résine	GOMME-RÉSINE\n go-me-ré-zi-n' s. f.\nVoy. GOMME.\nAu plur. Des gommes-résines.
gommement	GOMMEMENT\n go-me-man s. m.\nAction de gommer.
gommer	GOMMER\n go-mé v. a.\n\n1° Enduire de gomme. Gommer de la toile.\n\n2° Terme de peinture. Gommer une couleur, y mettre un peu de gomme, pour\nqu'elle ait plus de corps.\n\n3° Gommer du tabac, l'humecter avec de l'eau dans laquelle on fait\nbouillir des côtes de tabac.\n\nHISTORIQUE\nXVIe s.\nUn emplastre de cire gommée, rouge ou verte, O. DE SERRES, 969.\n\nÉTYMOLOGIE\nGomme.
gommeur	GOMMEUR\n go-meur s. m.\nCelui qui opère le gommage.\nGommeur d'étoffes, , Tarif des patentes, 1858.
gommeuse	GOMMEUSE\n go-meû-z' s. f.\nNom, à Bordeaux, des femmes employées au triage des gommes chez les\nnégociants en denrées coloniales, , l'Opinion nationale, 1er mai 1876,\nSupplément, 2e page, 4e col.
gommeux, euse	GOMMEUX, EUSE\n go-meû, meû-z' adj.\n\n1° Qui jette de la gomme. Les arbres gommeux abondent dans le Sénégal.\nQui est de la nature de la gomme, qui contient de la gomme. Matière\ngommeuse.\nOn conserve dans les corps gommeux les essences les plus subtiles et les\nplus spiritueuses, FÉN., Exist. I, 33.\n\n2° Terme de chirurgie. Tumeurs gommeuses, tumeurs d'origine\nsyphilitique, siégeant dans le périoste et ailleurs.\n\nÉTYMOLOGIE\nProvenç. gomos ; espagn. gomoso ; ital. gommoso ; du lat. gummosus, de\ngummi, gomme.\n\nSUPPLÉMENT AU DICTIONNAIRE\nGOMMEUX (go-meû), s. m. Le dernier nom du jeune homme à la mode, de\ncelui qu'on a appelé muscadin, mirliflor, dandy, lion, gandin, petit\ncrevé, etc. N'ai-je pas entendu un jour un beau fils de famille, un\ngommeux, un idiot ayant une raie au milieu de la tête comme une\nfemme..., le Petit journal, 6 avr. 1877, feuilleton.\n\nÉTYMOLOGIE\nL'origine est incertaine. L'Intermédiaire (n° du 10 mars 1877, col. 154)\ndonne deux conjectures : 1° &quot; Ce mot est sans doute un emprunt fait au\nvocabulaire des jardiniers ; la gomme est une maladie des arbres\nfruitiers, dont toute la substance s'épuise à produire une gomme\ninutile ; ils deviennent stériles et meurent bientôt ; 2° Considérez\nl'aspect empésé d'un gommeux, qui semble un bonhomme de bois, habillé de\ncarton, et vous connaîtrez l'origine de ce désagréable, mais très juste\nqualificatif. &quot; La deuxième conjecture est la moins improbable, sans\nêtre certaine le moins du monde.
gommides	GOMMIDES\n go-mi-d' s. f. pl.\nTerme de chimie. Famille de composés ternaires organiques ayant la gomme\npour type.
gommier	GOMMIER\n go-mié ; l'r ne se lie jamais ; au pluriel, l's se lie : les go-mié-z\net les gommes s. m.\nL'acacia des pays chauds qui donne beaucoup de gomme.\nNom de plusieurs légumineuses mimosées.\nGommier blanc, nom vulgaire donné, aux Antilles, à la bursère gommifère\n(térébinthacées), appelée aussi gommier de montagne, et qui produit une\nrésine analogue à l'élémi.\nGommier rouge, un des noms vulgaires de l'acacia vera (légumineuses),\nplante qui donne l'une des sortes de gomme appelées dans le commerce\ngomme arabique, LEGOARANT.\n\nÉTYMOLOGIE\nGomme.\n\nSUPPLÉMENT AU DICTIONNAIRE\nGOMMIER. Ajoutez :\n\n2° Un des noms de l'eucalyptus (eucalyptus resinifera).\nDans les cinquante localités {d'Algérie} qui ont répondu à l'appel de la\nSociété de climatologie d'Alger, les plantations de gommier bleu\natteignent le chiffre d'un million environ, , Journ. offic. 6 avr. 1877,\np. 2685, 3e col.
gommifère	GOMMIFÈRE\n go-mmi-fè-r' adj.\nTerme de botanique. Qui produit de la gomme.\n\nÉTYMOLOGIE\nGomme, et le lat. ferre, porter.
gommique	GOMMIQUE\n go-mmi-k' adj.\nQui se rapporte aux gommes.\nTerme de chimie. Acide gommique, corps qui, uni à des traces de chaux et\nautres bases terreuses, forme les gommes naturelles.
gommite	GOMMITE\n go-mmi-t' s. f.\nTerme de chimie. Nom générique des gommes proprement dites.\n\nÉTYMOLOGIE\nGomme.
gommo-résineux, euse	GOMMO-RÉSINEUX, EUSE\n go-mmo-ré-zi-neû, neû-z' adj.\nTerme de chimie. Qui tient de la gomme-résine.
gommoir	GOMMOIR\n go-moir s. m.\nBaquet contenant la gomme dont se sert le fabricant d'ouate.\n\nÉTYMOLOGIE\nGomme.
gommose	GOMMOSE\n go-mmô-z' s. f.\nNom d'une maladie des arbres.\nL'écoulement de la gomme constitue une véritable maladie, que le savant\nbotaniste {M. Ed. Prillieux} désigne sous le nom de gommose ; la gommose\nconsiste en une transformation en gomme, substance inutile à l'économie,\ndes éléments nécessaires à la formation des nouveaux tissus, H. DE\nPARVILLE, Journ. offic. 14 mai 1874, p. 3257, 2e et 3e col.
gommé, ée	GOMMÉ, ÉE\n go-mé, mée part. passé de gommer\nOù l'on a dissous de la gomme. Eau gommée.\nTaffetas gommé, voy. TAFFETAS.\n\nSUPPLÉMENT AU DICTIONNAIRE\nGOMMÉ. Ajoutez :\nAbsinthe gommée, liqueur d'absinthe où l'on a mêlé du sirop de gomme.
gomor	GOMOR\n go-mor s. m.\nMesure de capacité chez les Hébreux.\nLa capacité en était de 174 pouces cubes qui, réduits en litres, font un\npeu plus de 3 litres un tiers, LEGOARANT, .
gomortègue	GOMORTÈGUE\n go-mor-tè-gh' s. f.\nTerme de botanique.\nNom donné par certains auteurs à la lucume, genre de sapotacées ; on\ntrouve à tort dans Laveaux gomostègue, LEGOARANT, .
gomphose	GOMPHOSE\n gon-fô-z' s. f.\nTerme d'anatomie. Espèce d'articulation immobile où les os sont emboîtés\ncomme une cheville dans un trou. Les dents sont articulées dans les\nmaxillaires par gomphose.\n\nHISTORIQUE\nXVIe s.\nGomphose est faite quand un os est fiché dedans l'autre, en forme d'un\nclou ou d'un gond, PARÉ, IV, 43.\n\nÉTYMOLOGIE\nLe grec se traduit par, clou.
gomène	GOMÈNE\n go-mè-n' s. f.\nCâble qui retient l'ancre d'une galère.\n\nHISTORIQUE\nXVIe s.\nLa carine est au soleil, nos gumenes sont presque tous rouptz, RAB.,\nPant. IV, 18.\n\nÉTYMOLOGIE\nEspagn. et portug. gúmina ; ital. gómona, gómena, gúmina ; de l'arabe\nal-gommal, cordage de navire.
gonagre	GONAGRE\n go-na-gr' s. f.\nTerme de médecine. Goutte au genou.\n\nÉTYMOLOGIE\nDu grec, genou, et, prise.
gonalgie	GONALGIE\n go-nal-jie s. f.\nTerme de médecine. Douleur rhumatismale fixée sur l'articulation du\ngenou.\n\nÉTYMOLOGIE\nDu grec, genou, et, douleur.
gonarthrocace	GONARTHROCACE\n go-nar-tro-ka-s' s. f.\nTerme de médecine. Inflammation ou, plutôt, maladie des surfaces\narticulaires du genou.\n\nÉTYMOLOGIE\nLe grec signifie, genou, articulation, et, maladie.
gond	GOND\n gon ; le d ne se lie pas ; au pluriel, l's se lie : les gon-z et les\nportes s. m.\nMorceau de fer coudé, rond par la partie d'en haut, sur lequel tournent\nles pentures d'une porte. Sceller les gonds d'une porte.\nLes gonds des portes de la maison intérieure du saint des saints, et des\nportes de la maison du temple étaient d'or, SACI, Bible, Rois, III, VII,\n50.\nFig.\nSecoués de leurs gonds antiques, Les empires, les républiques\nS'écroulent en débris épars, LAMART., Méd. I, 19.\nFig. Faire sortir, mettre quelqu'un hors des gonds, exciter sa colère,\nsa crainte, son impatience, au point qu'il ne soit plus maître de lui.\nHa ! je vais sortir hors des gonds, La fureur saisit ma cervelle,\nSCARR., Virg. IV.\nQui ne sait que la vue de chats, de rats, emporte la raison hors des\ngonds ?, PASC., Puiss. tromp. imagin. 1, édit. FAUGÈRE.\nMonsieur, hors des gonds, dit au roi qu'en mariant son fils il lui avait\npromis monts et merveilles, SAINT-SIMON, 93, 220.\nJ'en dirai un trait {de dévotion outrée du duc de Bourgogne} qui, parti\nd'un excellent principe, mit le roi hors des gonds, SAINT-SIMON, 266,\n80.\nOn dit aussi sortir des gonds.\nGonds de pierre, certaines pierres extraordinaires qui se trouvent dans\nla plaine de Salisbury.\n\nHISTORIQUE\nXIVe s.\nIl ont le {la} maistre-porte getée hors du gon, , Baud. de Seb. x, 842.\nXVe s.\nMessire Robert Mareschaut, un chevalier du comte, avoit esté envoyé à la\nporte.... mais il trouva que la porte estoit volée hors des gonds,\nFROISS., II, II, 156.\nXVIe s.\nCe qui est hors les gonds de la coustume, on le croit hors les gonds de\nla raison, MONT., I, 116.\nCe que l'eunuque luy disoit malicieusement, pour le provoquer à parler,\net à se jetter hors des gons, sachant bien qu'il estoit homme leger de\nsa nature, et qui ne sçavoit pas bien tenir sa langue, AMYOT, Artax. 19.\nLes dents sont fichées dans les mandibules.... comme un pau fiché en\nterre, ou un gon dans du bois, PARÉ, IV, 1.\n\nÉTYMOLOGIE\nLorrain, angon ; provenc. gofo, gofon ; espagn. gonce, gozne ; portug.\ngonzo, engonzo. Origine incertaine. Diez voit là trois radicaux : il\nrattache le portugais au latin contus, pieu (mais ni le sens ni la forme\nne vont) ; le provençal au bas-latin gumphus, attache, qui est le grec\nsignifiant, clou ; et le français gond au lorrain angon, où il voit le\nlatin ancon, coude, crochet, en grec. Cela est bien compliqué. Le\nlorrain angon est fait comme le portugais engonzo ; an ou en représente\nla préposition in, en ; il ne diffère donc pas du français gond. Gonzo,\ngonce ou gozne et gond ne paraissent pas séparables. Mais d'où\nviennent-ils ? Très probablement, comme dit du Cange, du bas-latin\ngumphus, mot très usité pour signifier tout ce qui attache, et qui est\nle grec se traduisant par, clou.
gonder	GONDER\n gon-dé v. a.\nTerme d'architecture. Mettre des gonds à une porte. Gonder une porte.\n\nÉTYMOLOGIE\nGond.
gondolage	GONDOLAGE\n gon-do-la-j' s. m.\nAction de gondoler, de se déjeter, de se renfler, en parlant du bois\natteint par l'humidité.
gondole	GONDOLE\n gon-do-l' s. f.\n\n1° Petit bateau long et plat, qui va à l'aide d'une rame placée à\nl'arrière, et qui est fort en usage sur les lagunes et canaux de Venise.\nDes gondoles toujours noires, car le système de l'égalité se porte à\nVenise principalement sur les objets extérieurs, sont conduites par des\nbateliers vêtus de blanc avec des ceintures roses, STAËL, Corinne, XV,\n8.\nPlusieurs {fruits} furent taillés en nacelle, en gondole ; Sur les\nchamps de Thétis les caprices d'Éole Promènent à leur gré ces fruits\nnavigateurs, DELILLE, les Trois règnes, VI.\n\n2° Petite nacelle d'aérostat.\n\n3° Petit vase à boire long et étroit, sans pied ni anse.\nOn porta le hanap, la gondole et la tasse, NOUGUIER, Odyssée à la mode,\np. 146.\n....deux aiguières, Et deux gondoles de laiton, De la valeur d'un\nducaton, SCARR., Virg. v.\n\n4° Petite soucoupe ovale, pour se laver les yeux, dite aussi bassin\noculaire.\n\n5° Se dit de certaines voitures publiques. Gondoles parisiennes.\n\n6° Terme de ponts et chaussées. Rigole pavée.\n\n7° Belle coquille univalve.\n\n8° Adj. Chaise gondole, et, substantivement, gondole, chaise dont le\ndossier affecte une courbure semblable à celle d'une gondole.\n\nHISTORIQUE\nXVIe s.\nNous appelons gondole un certain vaisseau à boire, de la ressemblance\nqu'il a avec les petits bateaux passagers dont on se sert à Venise pour\npasser les canaux, FAUCHÉ, Orig. des cheval. chap. 1.\n\nÉTYMOLOGIE\nBourguign. gondôle, vase à boire ; esp. góndola ; ital. gonda, góndola ;\nd'après Diez, du bas-grec traduit par, vase à boire ; d'après du Cange,\ndu bas-grec signifiant, barque.
gondoler	GONDOLER\n gon-do-lé v. n.\n\n1° Terme de marine. Un bâtiment gondole, quand les extrémités s'en\nrelèvent comme celles des gondoles.\n\n2° Terme de métier. Se gonfler, se déjeter, se bomber, en parlant du\nbois.\n\nÉTYMOLOGIE\nGondole.
gondolerie	GONDOLERIE\n gon-do-le-rie s. f.\nNéologisme Le monde des gondoles et des gondoliers, à Venise.\nToute la gondolerie est déjà au courant de nos affaires, R. TÖPFFER,\nVoyages en zigzag.\n\nÉTYMOLOGIE\nGondolier, comme batellerie de batelier.
gondolier	GONDOLIER\n gon-do-lié ; l'r ne se lie jamais ; au pluriel, l's se lie : les\ngon-do-lié-z et les gondoles s. m.\nBatelier qui, debout à l'arrière, conduit une gondole en godillant avec\nune rame.\nLe doge a ses chagrins, les gondoliers ont les leurs, VOLT., Candide,\n24.\n\nÉTYMOLOGIE\nGondole.
gondolé, ée	GONDOLÉ, ÉE\n gon-do-lé, lée adj.\nTerme de marine. Construit en forme de gondole.\nDu bois gondolé, du bois déjeté.\n\nSUPPLÉMENT AU DICTIONNAIRE\nGONDOLÉ. Ajoutez :\n\n2° Qui est à bords relevés de manière à faire gondole.\nNous restions un instant au bord de ces petits lacs {les flaques d'eau}\nfrissonnant sous la brise, à voir flotter les feuilles gondolées, G.\nDROZ, M. Mme et Bébé, l'automne.\nIl se dit aussi des assiettes ou autres pièces faussées à la cuisson.
gonelle	GONELLE\n go-nè-l' s. f.\nNom, dans l'Aunis, d'un fossé qui longe une digue de marais, Gloss.\naunisien, p. 112.
gonet	GONET\n go-nè s. m.\nNom, dans l'Oise, d'un cépage, , les Primes d'honneur, Paris, 1872, p.\n68.
gonfalon ou gonfanon	GONFALON ou GONFANON\n gon-fa-lon ou gonfa-non s. m.\n\n1° Echarpe ou bandelette terminée en pointe et dont les chevaliers\nornaient leurs lances.\n\n2° Bannière ecclésiastique, composée de plusieurs fanons, c'est-à-dire\nde plusieurs pièces pendantes.\n\n3° Tente ronde qu'on porte à Rome devant les processions en cas de\npluie.\n\n4° Gonfalon, confrérie, voy. CONFALON.\n\nHISTORIQUE\nXIe s.\nDe ceus de France {ils} virent les gunfanuns, , Ch. de Rol. LXVI.\nXIIe s.\nL'escu saisi qui fu à or bendez, Et prent l'espié qui fu bien acerez, Le\nconfanon à cinq clox d'or fermez, , Raoul de C. 24.\nXIIIe s.\nIl estoit tout armés au chief de sa galie, et avoit devant lui le\ngonfanon Saint-Marc, VILLEH., LXXVII.\nEt lors commanda le roy au gonfalon Saint Denis et à ses banieres que\nils se traisissent à main destre vers le flum, JOINV., 226.\nXVIe s.\nOn ne voit que soldats, enseignes, gomphanons, On n'oit que tabourins,\ntrompettes et canons, DU BELLAY, VI, 31, recto.\nDe vif esprit, de constance et sagesse C'en est l'enseigne, et le droit\ngonffanon, MAROT, II, 363.\n\nÉTYMOLOGIE\nGénev. conforon, bannière d'église ; provenç. gonfano, gonfaino,\ngolfaino ; espagn. confalon ; ital. gonfalone ; bas-lat. guntfano ; de\nl'anc. haut-allem. guntfano, de gundja, combat, et fano, drap, bannière.
gonfalonier	GONFALONIER\n gon-fa-lo-nié ; l'r ne se lie jamais ; au pluriel, l's se lie : les\ngon-fa-lo-nié-z et.... s. m.\n\n1° Celui qui porte le gonfalon.\nOfficier qui porte, à Rome, l'étendard de l'Église.\nGonfalonier de l'Église, nom donné aux protecteurs établis par les papes\ndans les villes d'Italie, pendant leur lutte contre les empereurs.\nUn paysan nommé Jocomuzio, qui se fit soldat, et qui changea son nom en\ncelui de Sforza, devint favori de la reine, connétable de Naples,\ngonfalonier de l'Église, VOLT., Moeurs, 74.\n\n2° Titre du chef de plusieurs républiques de l'Italie.\nSa réputation {de Cosme de Médicis} valut à ses descendants la\nprincipale autorité dans la Toscane ; son fils l'administra sous le nom\nde gonfalonier, VOLT., Moeurs, 105.\nOn dit aussi gonfanonier.\n\nHISTORIQUE\nXIe s.\nGefrei d'Anjou, le rei {du roi} gunfanuner, , Ch. de Rol. VIII.\nXIIe s.\nConfenonier, , Ronc. p. 6.\nEn non Dieu, dame, bien seront dix millier ; Del sor Geri ferai\nconfanonier, , Raoul de C. 42.\n\nÉTYMOLOGIE\nGonfalon ; provenç. gomfanonier, gonfaronier ; ital. gonfaloniere.
gonfle	GONFLE\n gon-fl' s. f.\nCavité dans le fil de métal que l'on tire à la filière.\n\nÉTYMOLOGIE\nVoy. GONFLER. Dans plusieurs provinces, gonfle est employé adjectivement\npour signifier gonflé : il a les mains gonfles. C'est un provincialisme\nà éviter.
gonflement	GONFLEMENT\n gon-fle-man s. m.\nÉtat de ce qui est gonflé. Gonflement de rate.\nSynonyme vulgaire de tympanite.\n\nÉTYMOLOGIE\nGonfler.
gonfler	GONFLER\n gon-flé v. a.\n\n1° Rendre plus ample par une distension intérieure. Gonfler une vessie.\nLe pigeon gonfle sa gorge. L'eau a gonflé cette éponge.\nIl {le soleil} gonfle de ses feux les trésors dont l'automne En riant se\ncouronne, C. DELAV., Paria, I, 5.\nPar extension.\nUn orage qui gonfle un torrent, le vent qui dérobe un piége ou une\nembuscade sous des tourbillons de poussière, la foudre qui épouvante les\nchevaux ou qui se confond avec le bruit des canons, RAYNAL, Hist. phil.\nXIII, 49.\nGonfler, se dit aussi des aliments qui produisent des flatuosités, un\nsentiment de distension.\nLes oeufs me gonfleraient, dit la cadette, MARIVAUX, Pays. parv. 1re\npart.\n\n2° Fig. Agir sur l'âme comme ce qui gonfle agit sur le corps. Sa fortune\nl'a gonflé d'orgueil.\n\n3° V. n. Devenir gonflé. Cette pluie fera gonfler le raisin. Cette pâte\ngonfle dans la poêle.\n\n4° Se gonfler, v. réfl. Devenir gonflé. Ses veines se gonflent.\nLe coeur se gonfle quand il devient gros et qu'on a envie de pleurer.\nElle ne boude pas, mais son coeur se gonfle, J. J. ROUSS., Ém. v.\nOn dit aussi que le coeur se gonfle de joie.\nOn doit se ressouvenir qu'au mot seul de comédie, j'avais senti mon\ncoeur se gonfler de joie, MARIVAUX, Pays. parv. 6° part.\nFig. Éprouver un sentiment qui gonfle l'âme comme l'air gonfle un\nballon.\nNous sommes dans un siècle où chacun veut s'enfler ; D'une vanité sotte\non cherche à se gonfler, BOURSAULT, Fables d'Ésope, IV, 2.\nSans ce pauvre garçon j'allais me méconnaître, Et me gonfler d'orgueil\naussi bien que mon maître, DESTOUCHES, Glor. II, 9.\n\nHISTORIQUE\nXVIe s.\nL'uterus gonfle et s'enfle.... L'uterus se gonfle et enfle, PARÉ, XVIII,\n52.\nLe crapaut se confle et enfle, se remplissant d'air, au moyen de quoy il\nresiste aux coups, PARÉ, XXIII, 32.\nLes champignons veneneux gonflent et enflent l'estomach, PARÉ, XXIII,\n44.\n\nÉTYMOLOGIE\nItal. gonfiare, du lat. conflare, souffler avec, et dans les bas temps,\ngonfler (intestina conflata, Coel. aurelianus) ; de cum, avec, et flare,\nsouffler.
gonflé, ée	GONFLÉ, ÉE\n gon-flé, flée part. passé de gonfler\n\n1° Devenu plus ample par une distension intérieure. Ventre gonflé. Un\nballon gonflé de vent.\nLe coeur plein de sanglots, les yeux gonflés de pleurs, DUCIS, Oscar, I,\n2.\nPar extension. Un torrent gonflé par la fonte des neiges.\n\n2° Fig. Il se dit de ce qui semble faire à l'âme ce qu'un gonflement\nfait au corps.\nL'un est plein de respect, l'autre est gonflé d'audace, CORN., Attila,\nIV, 3.\nL'un fier et tout gonflé d'un vieux mépris des rois Semblait pour\ncompliment nous apporter des lois, CORN., Suréna, I, 1.\n....Oh ! quel orgueil extrême ! C'est un homme gonflé de l'amour de\nsoi-même, MOL., Mis. II, 5.\nMais dès qu'il fut monsieur le président, Il fut, ma foi, gonflé\nd'impertinence, VOLT., Enf. prod. I, 1.\nTout homme qui est gonflé de cette fausse science.... trouble le monde,\nVAUVENARGUES., 20, Pasc. expliqué.\nCe coeur chargé d'ennuis et gonflé d'amertume, C. DELAV., Vêp. sicil.\nIII, 2.\nNous avons tout perdu, tout, jusqu'à ce gros rire, Gonflé de gaîté\nfranche et de bonne satire, Ce rire d'autrefois, ce rire des aïeux, Qui\njaillissait du coeur comme un flot de vin vieux, BARBIER, Iambes, le\nRire.
gong ou gong-gong	GONG ou GONG-GONG\n gongh' ou gongh'-gongh' s. m.\nSynonyme de tam-tam.\n\nSUPPLÉMENT AU DICTIONNAIRE\nGONG. Ajoutez : - REM. Le gong n'est pas synonyme de tam-tam. Le gong\nest un instrument de cuivre que l'on frappe, et le tam-tam est recouvert\nd'une peau comme les timbales.\nPrès de lui {du chef de la police à Amboine} le tam-tam et le gong\nmarquaient la cadence d'un chant improvisé, JURIEN DE LA GRAVIÈRE, Voy.\nen Chine, 2e éd. t. I, p. 39. Gong ou agong se trouve dans toutes les\nlangues malaises ; cependant le gong paraît bien provenir de la Chine.
gongonner	GONGONNER\n gon-go-né v. n.\nTerme familier. qui se dit de pièces de vêtements qui font des plis et\nvont mal. Ce fichu gongonne.
gongorisme	GONGORISME\n gon-go-ri-sm' s. m.\nSorte d'affectation de style qui s'introduisit dans la littérature\nespagnole.\n\nÉTYMOLOGIE\nGongora, poëte espagnol, de la fin du XVIe siècle, plein d'affectation.
gongoriste	GONGORISTE\n gon-go-ri-st' s. m.\nCelui qui appartient au gongorisme, imitateur, partisan de Gongora.
gongylaire	GONGYLAIRE\n gon-ji-lê-r' adj.\nTerme de botanique. Reproduction gongylaire, reproduction scissipare ou\ngemmipare.\n\nÉTYMOLOGIE\nGongyle.
gongylange	GONGYLANGE\n gon-ji-lan-j' s. m.\nTerme de botanique. Partie des plantes cryptogames qui renferme les\ncorps reproducteurs.\n\nÉTYMOLOGIE\nGongyle, et du grec, réceptacle.
gongyle	GONGYLE\n gon-ji-l' s. m.\nTerme de botanique. Nom donné aux corpuscules reproducteurs de diverses\nmousses hépatiques.\nNom donné aux corpuscules reproducteurs des algues.\n\nÉTYMOLOGIE\nDu grec, rond.
goniasmomètre	GONIASMOMÈTRE\n go-ni-a-smo-mè-tr' s. m.\nInstrument de topographie employé pour mesurer les angles.\n\nÉTYMOLOGIE\nDU grec, disposition en angle, et, mesure.
gonichon	GONICHON\n go-ni-chon s. m.\nTerme de commerce. Cornet de gros papier qui recouvre la tête d'un pain\nde sucre.\n\nÉTYMOLOGIE\nCe paraît être un dérivé de l'ancien français gone ou gonne, robe.
gonidie	GONIDIE\n go-ni-die s. f.\nTerme de botanique. Cellules vertes, formant, dans les algues et les\nlichens, une couche non interrompue (couche gonimique), dans laquelle\nparaît résider toute la puissance végétative de ces plantes.\n\nÉTYMOLOGIE\nDiminutif du grec signifiant production, semence. Les gonidies sont\nainsi dites, parce qu'en se détachant, elles jouissent de la propriété\nde reproduire la plante à la manière des gemmes prolifères des mousses\net des hépatiques, et des bourgeons de certaines plantes supérieures.
gonidie	GONIDIE\n.... GONIE, suffixe\n.... GONIE, suffixe\nqui signifie production, engendrement.
gonimique	GONIMIQUE\n go-ni-mi-k' adj.\nTerme de botanique. Qui est relatif aux gonidies. Couche gonimique.\n\nÉTYMOLOGIE\nDérivé du grec signifiant, qui engendre.
gonin	GONIN\n go-nin s. m.\nEmployé seulement dans cette locution populaire : maître gonin, homme\nadroit, rusé, fripon.\nIl faut en devinaille {pour deviner} être maître gonin, RÉGNIER, Sat. x.\nIl est bien avéré que Mlle Dubois {une actrice} a joué à la pauvre\nDurancy {autre actrice} un tour de maître gonin {en falsifiant une\nlettre de Voltaire}, VOLT., Lett. Thibouville, 16 déc. 1767.\n\nHISTORIQUE\nXVIe s.\nD'autres disent qu'ayant menagé les deniers du roy, il les a menagez si\nbien et les a fait passer si bien par invisibilium, avec la faveur de\nson petit esprit farfadet, que très subtilement, en disant favorisat,\ncorouzat, comme dit maistre Gonin on son passe passe, il les a fait\nsauter dans ses coffres au lieu de sauter dans ceux du roy, BRANT., Cap.\nfr. t. III, p. 387.\nC'estoit un homme qui entendoit bien les tours de passe passe, non de\nmaistre Gonin, mais de Machiavel, BRANT., ib. t. II, p. 285.\nMais plus belle chose encore eust-il veu, ce dit quelqu'un, si le grand\npere de maistre Gonin eust vescu, qui, par ses inventions, illusion et\nsorcelleries et enchantements, les eust peu representer {les dames de la\ncour} devestues et nues, comme l'on dit qu'il fit une fois en quelque\ncompagnie privée, que le roy François luy commanda ; car il estoit un\nhomme fort expert et subtil en son art ; et son petit fils, que nous\navons veu, n'y entendoit rien au prix de luy, BRANT., Dames gal. p. 387.\nMaistre Gonin est mort, le monde n'est plus grue, LEROUX DE LINCY, Prov.\nt. II, p. 40.\n\nÉTYMOLOGIE\nOn voit par l'historique que Gonin était le nom d'un faiseur de tours.\nL'Académie devrait l'écrire par un G majuscule.
goniocarpe	GONIOCARPE\n go-ni-o-kar-p' s. m.\nTerme de botanique.\nGenre d'haloragées ayant six espèces répandues dans le Japon, la Chine\net l'Australie, LEGOARANT, .\n\nÉTYMOLOGIE\nDu grec, angle, et, fruit.
goniogène	GONIOGÈNE\n go-ni-o-jè-n' adj.\nTerme de minéralogie. Cristal goniogène, cristal produit par des\ndécroissements sur les angles seulement.\n\nÉTYMOLOGIE\nDu grec, angle, et, engendré.
goniomètre	GONIOMÈTRE\n go-ni-o-mè-tr' s. m.\n\n1° Terme de cristallographie. Instrument servant à mesurer l'ouverture\ndes angles des cristaux.\n\n2° Appareil approprié à la mensuration de l'angle facial.\n\nÉTYMOLOGIE\nDu grec, angle, et, mesure.
goniométrie	GONIOMÉTRIE\n go-ni-o-mé-trie s. f.\nTerme de géométrie. Art de mesurer les angles.\nLa mesure des angles dont il faisait une science à part sous le nom de\ngoniométrie...., FONTEN., Lagny.\n\nÉTYMOLOGIE\nVoy. GONIOMÈTRE.
goniométrique	GONIOMÉTRIQUE\n go-ni-o-mé-tri-k' adj.\nQui a rapport au goniomètre. Appareil goniométrique.
goniostome	GONIOSTOME\n go-ni-o-sto-m' adj.\nTerme de zoologie. Qui a l'ouverture anguleuse.\nS. m. pl. Nom d'un genre de mollusques.\n\nÉTYMOLOGIE\nDu grec, angle, et, bouche.
gonne	GONNE\n go-n' s. f.\nSorte d'ancienne futaille. Lesdits visiteurs et contrôleurs de bierres\nprendront lesdits onze sols pour chacune gonne ou feuillette, les deux\nfaisant le muid, Déclar. du roi, 16 fév. 1635.\nTerme de marine. Baril qui contient du goudron.\n\nÉTYMOLOGIE\nGonne paraît être le même que le mot anglais gun, qui signifie tube.\n\nSUPPLÉMENT AU DICTIONNAIRE\nGONNE. Ajoutez : - REM. Le mot gonne est encore usité dans le commerce.\nConsommation du poisson salé, à Paris, en 1854 : saumons, 4 gonnes du\npoids de 170 à 180 kil., A. HUSSON, les Consommations de Paris, p. 266.
gonocèle	GONOCÈLE\n go-no-sè-l' s. f.\nTerme de médecine. Accumulation du sperme dans les vaisseaux\nséminifères.\n\nÉTYMOLOGIE\nDu grec, sperme, et, tumeur.
gonophore	GONOPHORE\n go-no-fo-r' s. m.\nTerme de botanique. Prolongement du réceptacle, différant de\nl'anthophore en ce qu'il porte seulement les étamines et le pistil.\n\nÉTYMOLOGIE\nDu grec, engendrement, et, qui porte.
gonorrhée	GONORRHÉE\n go-nor-rée s. f.\nTerme de médecine. Autrefois, flux de semence, dit aujourd'hui pertes\nséminales.\nAujourd'hui, écoulement muqueux par le canal de l'urèthre.\n\nHISTORIQUE\nXVIe s.\nLa gonorrhée est un flux de semence involontaire, PARÉ, XVI, 16.\n\nÉTYMOLOGIE\nTermes grecs signifiant, semence, et, couler.
gonorrhéique	GONORRHÉIQUE\n go-no-rré-i-k' adj.\nTerme de médecine. Qui appartient à la gonorrhée.
gony	GONY\n go-ni s. m.\nToile de jute.
gonythèque	GONYTHÈQUE\n go-ni-tè-k' s. f.\nTerme de zoologie. Creux de la cuisse des insectes qui loge la base du\ntibia.\n\nÉTYMOLOGIE\nDu grec, genou, et, loge.
gonzale	GONZALE\n gon-za-l' s. f.\nPezize à chapeau plat.
goodéniacées ou goodenoviées	GOODÉNIACÉES ou GOODENOVIÉES\n gou-dé-ni-a-sée ou gou-de-no-vi-ée s. f. pl.\nTerme de botanique. Famille de plantes dicotylédonées, détachée par\nRobert Brown des campanulacées, et dont les espèces, toutes exotiques,\nhabitent pour la plupart la Nouvelle-Hollande.\n\nÉTYMOLOGIE\nGoodenia, nom du genre type qui fut dédié par Smith à Goodenough, évêque\nde Carlisle, grand amateur de botanique.
goorkha	GOORKHA\n gour-ka s. m.\nNom persan de l'onagre.\nViennent ensuite {en Perse} le lièvre, le porc-épic, le mouflon ou\nargali, l'âne sauvage ou goorkha, la chèvre des montagnes, , Journ.\noffic. 11 août 1873, p. 5353, 2e col.
