calandre	CALANDRE\n ka-lan-dr' s. f.\nSorte d'alouette, dite aussi grosse alouette et sentinelle.\n\nHISTORIQUE\nXIIIe s.\nKalendre est uns oiziaus tous blans : li siens poumons garist del\nobscurté des iex, de qui la Bible deffent que nus ne mangust, , Bibl.\ndes Chartes, 4e série, t. V, p. 334.\nLors s'evertue, et lors s'envoise Li papegaus et la kalandre, , la Rose,\n78.\nXIVe s.\nQuant il se treuve as champz dessus l'ample païs, Et il ot la calandre\net le chant des mauvis, , Baud. de Seb. VI, 369.\nXVIe s.\nIncontinent que Viscontin mourut, Son ame entra au corps d'une\ncalendre.... Ores qu'il est calendre devenu, Il contrefait tous les\noyseaux du monde, MAROT, III, 33.\n\nÉTYMOLOGIE\nProvenç. et ital. calandra ; espagn. calandria ; portug. calhandra ;\nprobablement, à cause de la huppe que porte cet oiseau, de caliendrum,\nbonnet, en grec, ornement.
calandre	CALANDRE\n ka-lan-dr' s. f.\nMachine de bois avec laquelle on tabise les taffetas et d'autres étoffes\nde soie.\nJ'étais à l'étendage dans la chambre de la calandre, J. J. ROUSS., Prom.\n4.\n\nÉTYMOLOGIE\nBas-lat. calendra, de cylindrus (voy. CYLINDRE). C a pu garder le son\ndur à cause qu'il se trouvait devant y, comme dans coing de cydonium.
calandrelle	CALANDRELLE\n ka-lan-drè-l' s. f.\nEspèce d'alouette (alouette brachydactyle), dite aussi alouette des\nsables.\n\nÉTYMOLOGIE\nDiminutif de calandre 1.
calandrer	CALANDRER\n ka-lan-dré v. a.\nFaire passer par la calandre, opération qui a pour but de presser et\nlustrer une étoffe.\n\nÉTYMOLOGIE\nCalandre 3.
calandrette	CALANDRETTE\n ka-lan-drè-t' s. f.\nGrive de vigne.\n\nÉTYMOLOGIE\nDiminutif de calandre 1.
calandreur	CALANDREUR\n ka-lan-dreur s. m.\nOuvrier qui calandre.
calandré, ée	CALANDRÉ, ÉE\n ka-lan-dré, drée part. passé.\nPassé à la calandre.
calangue	CALANGUE\n ka-lan-gh' s. f.\nSynonyme de crique ou petite baie dans la Méditerranée.\n\nÉTYMOLOGIE\nItal. calanca.
calanque	CALANQUE\n ka-lan-k' s. f.\nTerme de marine. Petit coin pour assujettir un objet.\n\nÉTYMOLOGIE\nCaler.
calao	CALAO\n ka-la-o s. m.\nNom d'un oiseau (buceros).
calapite	CALAPITE\n ka-la-pi-t' s. f.\nNom de concrétions qui se forment dans les noix de coco.\n\nSUPPLÉMENT AU DICTIONNAIRE\nCALAPITE. Ajoutez : - ÉTYM.\nKalapa ( le 2nd a est long), nom malais et javanais du coco, DEVIC,\nDict. étym.
calathide	CALATHIDE\n ka-la-ti-d' s. f.\nTerme de botanique. Assemblage de petites fleurs portées sur un\nréceptacle commun.\n\nÉTYMOLOGIE\nEn grec, corbeille.
calathiforme	CALATHIFORME\n ka-la-ti-for-m' adj.\nTerme de botanique. Qui est en forme de corbeille.\n\nÉTYMOLOGIE\nCalathus, corbeille, et forme.
calatrava	CALATRAVA\n ka-la-tra-va s. m.\nOrdre militaire très célèbre qui fut fondé en 1158 à Calatrava, sous\nSanche III de Castille, pour défendre cette ville contre les Maures. Les\nchevaliers de cet ordre se mariaient une fois et faisaient voeu de\npauvreté, d'obéissance, de chasteté conjugale, voeu auquel, plus tard en\n1652, ils ajoutèrent celui de soutenir l'immaculée Conception de la\nVierge. Cet ordre était soumis à l'ordre de Cîteaux. Les chevaliers\nportaient en cérémonie un grand manteau blanc, sur lequel il y avait du\ncôté gauche une croix rouge fleurdelisée.
calcaire	CALCAIRE\n kal-kê-r' adj.\n\n1° Qui est de la nature de la chaux, où il y a de la chaux. Terrain\ncalcaire. Matière calcaire.\nPour l'incrédule, les montagnes sont des protubérances de pierres\ncalcaires ou vitrescibles, CHATEAUBR., Gén. III, 45.\n\n2° S. m. Terme de géologie. Roche essentiellement composée de carbonate\nde chaux. On distingue : 1° le calcaire primitif, qui est le marbre,\nd'un grain égal, ne portant aucune empreinte de corps organisés ; 2° le\ncalcaire ancien ou de transition, d'un tissu compacte, et ne contenant\nque peu de corps marins ; 3° le calcaire coquillier, ainsi nommé parce\nqu'il contient beaucoup de coquilles.\n\nÉTYMOLOGIE\nCalcarius, de calx, chaux (voy. CHAUX).
calcanéen, enne	CALCANÉEN, ENNE\n kal-ka-né-in, né-è-n' adj.\nQui se rapporte au calcanéum.
calcanéo-	CALCANÉO-\npréfixe\nPréfixe dont se servent les anatomistes pour indiquer des rapports du\ncalcanéum : calcanéo-scaphoïdien.
calcanéum	CALCANÉUM\n kal-ka-né-om' s. m.\nTerme d'anatomie. Os court, situé à la partie postérieure et inférieure\ndu pied, et faisant partie du tarse.\n\nHISTORIQUE\nXVIe s.\nLe calcaneum est le plus gros d'entre les autres {os du pied}, et sur\nlequel nous marchons, PARÉ, IV, 38.\n\nÉTYMOLOGIE\nCalcaneum, de calcare, fouler au pied.
calcareux, euse	CALCAREUX, EUSE\n kal-ka-reû, reû-z' adj.\nTerme de minéralogie. Qui contient de la chaux ou des pierres calcaires.\n\nÉTYMOLOGIE\nVoy. CALCAIRE. Calcareux est un grossier barbarisme ; calcaire ne\npouvant en aucun cas mener à calcareux.
calcariforme	CALCARIFORME\n kal-ka-ri-for-m' adj.\nTerme didactique.. Qui a la forme d'un éperon.\n\nÉTYMOLOGIE\nCalcar, éperon, et forme.
calcarifère	CALCARIFÈRE\n kal-ka-ri-fê-r' adj.\nTerme d'histoire naturelle. Qui est muni d'un éperon.\n\nÉTYMOLOGIE\nCalcar, éperon, et ferre, porter.
calcaréo-	CALCARÉO-\npréfixe\nPréfixe dont se servent les géologistes pour indiquer que le calcaire\nentre dans certains composés : calcaréo-ferrugineux.
calcet	CALCET\n kal-sè s. m.\nTerme de marine. Pièce de bois placée au haut d'un mât de galère, et\ndans la tête de laquelle sont placées les poulies.\n\nÉTYMOLOGIE\nVieux franç. causse, cosset, cousset ; espagn. calcez, garcez ; ital.\ncalcese ; de carchesium, hune (voy. CARQUOIS).
calcico-	CALCICO-\npréfixe\nPréfixe dont se servent les minéralogistes pour indiquer qu'un composé\ncontient de la chaux : calcico-barytique.
calcicole	CALCICOLE\n kal-si-ko-l' adj.\nQui habite les terrains calcaires.\nPlantes calcicoles, CONTEJEAN, Acad. des sc. Comptes rend. t. LXXXI, p.\n51.\nL'existence d'une flore calcicole sur certains grès de Fontainebleau,\nDUCHARTRE, Acad. des sc. Comptes rendus, t. LXXXII, p. 1168.\n\nÉTYMOLOGIE\nLat. calx, chaux, et colere, habiter.
calcide	CALCIDE\n kal-si-d' s. m.\nTerme de chimie. Nom des métaux analogues au calcium.\n\nÉTYMOLOGIE\nCalcium.
calcification	CALCIFICATION\n kal-si-fi-ka-sion s. f.\nTerme de pathologie. Passage d'un tissu mou à la consistance et\nquelquefois à la couleur de la chaux, par dépôt moléculaire des sels de\nchaux et autres.\n\nÉTYMOLOGIE\nCalcifié.
calcifié, ée	CALCIFIÉ, ÉE\n kal-si-fi-é, ée adj.\nTerme de minéralogie. Qui est converti en carbonate de chaux.\n\nÉTYMOLOGIE\nCalx, chaux, et ficare, fréquentatif, usité en composition, de facere,\nfaire.
calcifuge	CALCIFUGE\n kal-si-fu-j' adj.\nQui fuit les terrains calcaires.\nPlantes calcifuges, CONTEJEAN, Acad. des sc. Comptes rendus, t. LXXXI,\np. 51.\n\nÉTYMOLOGIE\nLat. calx, chaux, et fugere, fuir.
calcifère	CALCIFÈRE\n kal-si-fê-r' adj.\nTerme de minéralogie. Qui contient de la chaux.\n\nÉTYMOLOGIE\nCalx, chaux (voy. CHAUX), et ferre, porter.
calcilithe	CALCILITHE\n kal-si-li-t' s. f.\nTerme de minéralogie. Pierre de chaux compacte.\n\nÉTYMOLOGIE\nCalx, chaux, et du grec, pierre.
calcin	CALCIN\n kal-sin s. m.\nVerre qui provient des rognures de glace.\nVerre réduit en parcelles par la calcination suivie de l'immersion dans\nl'eau froide.\nOn dit aussi casson.\n\nÉTYMOLOGIE\nVoy. CALCINER.\n\nSUPPLÉMENT AU DICTIONNAIRE\nCALCIN. Ajoutez :\n\n2° Sorte de croûte qui se forme à la surface de certaines pierres de\ntaille exposées à l'air.\n\n3°\nSe dit aussi du conglomérat calcaire qui se forme autour des objets qui\nont séjourné plusieurs siècles dans le lit de la Seine, , Bulletins de\nla Soc. d'anthropologie, t. VIII, 11e série, p. 203.
calcinable	CALCINABLE\n kal-si-na-bl' adj.\nQui peut être calciné.\nUne pointe de roche escarpée lui {à Annibal} fermait le passage, il la\nrendit calcinable, VOLT., Sing. 9.\nPierres calcinables ou marbres, BUFF., Théorie de la terre, art. IX.\n\nÉTYMOLOGIE\nCalciner.
calcination	CALCINATION\n kal-si-na-sion s. f.\n\n1° Autrefois réduction des pierres calcaires en chaux par l'action d'un\nfeu violent.\n\n2° Aujourd'hui, opération dans laquelle on soumet à une chaleur très\nélevée une substance infusible, mais sensiblement altérable.\n100 livres de plomb produisent, après la calcination, jusqu'à 110 livres\nde minium, VOLT., Feu, I, 2.\n\nÉTYMOLOGIE\nCalciner.\n\nSUPPLÉMENT AU DICTIONNAIRE\nCALCINATION. Ajoutez : - REM. L'exemple de Voltaire où il s'agit de la\ncalcination du plomb se rapporte au sens ancien (transformation en ce\nqu'on nommait les chaux) et non au sens moderne de calcination.
calcine	CALCINE\n kal-si-n' s. f.\nOxyde métallique en poudre servant à faire les émaux.
calciner	CALCINER\n kal-si-né v. a.\n\n1° Terme de chimie. Réduire par l'action du feu en ce qu'on nommait\nchaux autrefois, ce nom de chaux étant alors donné à tous les oxydes\nmétalliques, et surtout à ceux qui avaient des propriétés alcalines.\n\n2° Soumettre à une forte chaleur. Calciner le salpêtre, le vitriol, les\nmétaux, etc.\n\n3° Se calciner, v. réfl. Cette pierre s'est calcinée dans le feu.\n\nHISTORIQUE\nXVIe s.\nCalciner, se dit de toutes choses qui se rendent en chaux ou en\npoussiere par l'action du feu, PALISSY, 378.\n\nÉTYMOLOGIE\nCalx, chaux (voy. ce mot).
calciné, ée	CALCINÉ, ÉE\n kal-si-né, née part. passé.\n\n1° Réduit en chaux ou oxyde métallique.\n\n2° Très échauffé.\nTous ces rocs calcinés sous un soleil rongeur, Brûlent et font hâter les\npas du voyageur, A. CHÉNIER, 34.\n\n3° Brûlé. Un rôti calciné.\nFig.\nMon sang est calciné, la fièvre me consume, J. J. ROUSS., Lettr. Peyrou,\n6 avril 1765.\nIl a le corps calciné, se dit d'un homme qui fait abus des liqueurs\nalcooliques.
calcique	CALCIQUE\n kal-si-k' adj.\nTerme de chimie. Qui a rapport à la chaux.\n\nÉTYMOLOGIE\nCalx, chaux.
calcitrape	CALCITRAPE\n kal-si-tra-p' s. f.\nTerme de botanique. Voy. CHAUSSE-TRAPE, plante.
calcitrapée	CALCITRAPÉE\n kal-si-tra-pée s. f.\nTerme de botanique. Nom de la famille de plantes dont la chausse-trape\nest le type.
calcium	CALCIUM\n kal-si-om' s. m.\nTerme de chimie. Métal qui, par sa combinaison avec l'oxygène, constitue\nla chaux.\n\nÉTYMOLOGIE\nCalx, chaux.
calcosphérite	CALCOSPHÉRITE\n kal-ko-sfé-ri-t' s. f.\nPetite cristallisation sphéroïdale à base calcaire (carbonate,\nphosphate, etc.) qui se trouve dans un grand nombre de parties animales,\nla coquille de l'oeuf, la coquille des mollusques, etc.\n\nÉTYMOLOGIE\nLat. calx, chaux, et sphère.
calcul	CALCUL\n kal-kul s. m.\n\n1° Terme de médecine. Concrétion pierreuse qui se forme dans certains\norganes. Calculs biliaires, urinaires, etc.\nLa maladie même. Avoir le calcul. Peu usité en cet emploi.\n\n2° Opération par laquelle on trouve le résultat de la combinaison de\nnombres ou de quantités. Calcul exact. Calcul faux. Sauf erreur de\ncalcul.\nDe calcul fait, tout bien compté.\nScapin, elle obéit à sa mère, je suis perdu ; il y a de l'erreur de\ncalcul, REGNARD, la Sérénade, 7.\nAbsolument, le calcul, l'arithmétique. Dans cette école on apprend le\nfrançais, l'histoire et le calcul.\nEn algèbre, le calcul, l'opération arithmétique. L'équation est posée ;\nc'est au calcul à la résoudre, c'est-à-dire il n'y a plus à faire que\nles opérations arithmétiques qui donnent les valeurs de tous les termes\ninconnus.\nCalcul différentiel, partie de l'analyse transcendante dans laquelle on\nconsidère des quantités infiniment petites s'évanouissant dans le\nrésultat et permettant de mettre en équation une foule de conditions\ngéométriques, mécaniques et physiques.\nCalcul intégral, partie de l'analyse qui est au calcul différentiel ce\nqu'est l'extraction des racines à la formation des puissances.\nDans le siècle dernier l'invention des nouveaux calculs avait produit\nune révolution dans les sciences mathématiques, CONDORCET, Bourdelin.\nCalcul aux différences partielles ou finies, calcul qui a pour but de\ntrouver les différences des quantités données et de remonter de ces\ndifférences aux fonctions dont elles dérivent.\nIl dit que D'Alembert a le premier résolu, d'une manière générale, le\nproblème des cordes vibrantes et qu'il a inventé le calcul des\ndifférences partielles, VOLT., Lettre d'Argental, 17 août 1774.\n\n3° Fig. Mesures combinées, dessein prémédité, plan. Il avait fait\nd'avance son calcul. La fortune fit échouer les calculs les plus sages.\n\nPROVERBE\nL'erreur de calcul ne se couvre point, c'est-à-dire on peut toujours\nrevenir sur une erreur de calcul.\n\nHISTORIQUE\nXVe s.\nEt disoit-on que le roy devoit avoir sceu, par calculation des etoiles\nlà haut.... que...., CHASTELAIN, Chr. des ducs de Bourg. 3e partie, ch.\n11.\nXVIe s.\nCeste poudre a grande efficace pour dissiper la matiere du calcul, PARÉ,\nXV, 38.\nSi la preuve du partiteur et du quotiens multipliez l'un par l'aultre et\najoustez à la reste du partir, se reste y a, est egale à celle du nombre\nparti, le calcule est bon, EST. DE LA ROCHE, Arismetique, f° 11, verso.\n\nÉTYMOLOGIE\nCalculus, caillou : parce que l'on comptait avec de petits cailloux,\ncalculus a signifié compte, calcul. Calculus est un diminutif de calx,\nchaux (voy. ce mot). Par cette étymologie on comprend comment calcul\npeut signifier à la fois supputation et petite pierre, et comment le\nsens primitif est caillou.
calculable	CALCULABLE\n kal-ku-la-bl' adj.\nQui peut être calculé.\n\nÉTYMOLOGIE\nCalculer.
calculant, ante	CALCULANT, ANTE\n kal-ku-lan, lan-t' adj.\nQui calcule.\nIl vous aime et vous conjure d'être toujours habile, comptante,\ncalculante et supputante, SÉV., 15 déc. 1675.
calculateur	CALCULATEUR\n kal-ku-la-teur s. m.\n\n1° Celui qui sait calculer. Un bon calculateur.\n\n2° Fig.\nTristes calculateurs des misères humaines, Ne me consolez point, vous\naigrissez mes peines, VOLT., Dés. de Lisbonne.\n\n3° Adjectivement. Esprit calculateur, esprit qui est habile à combiner\nses mesures, ses projets.\n\nÉTYMOLOGIE\nCalculator, de calculare, calculer.
calculatif, ive	CALCULATIF, IVE\n kal-ku-la-tif, ti-v' adj.\nQui sert au calcul.\nLes nombres calculatifs, GIRARD, Princ. de la langue franç. 10e disc.\nQuotité calculative, GIRARD, ib.
calculatoire	CALCULATOIRE\n kal-cu-la-toi-r' adj.\nQui sert à calculer. Machine calculatoire.\n\nÉTYMOLOGIE\nCalculer.
calculer	CALCULER\n kal-ku-lé v. a.\n\n1° Faire une opération de calcul. Calculer les distances des astres. Il\ncalcula combien son argent lui rapporterait. Calculer une éclipse, en\ndéterminer par le calcul l'époque précise et les circonstances.\nAbsolument.\nIl passait les nuits et les jours à compter, calculer, supputer sans\nrelâche ; Calculant, supputant, comptant comme à la tâche ; Car il\ntrouvait toujours du mécompte à son fait, LA FONT., Fabl. XII, 3.\n\n2° Fig. Méditer, combiner. Calculer les avantages de la guerre et de la\npaix. Calculer les événements. Calculez si cela vous sera de quelque\nutilité.\nOn verrait des gens qui passeraient leur vie à calculer des événements,\nMONTESQ., Esp. XIX, 27.\nTrahissez tout, l'amour, le devoir, l'amitié, Mais calculez du moins vos\ndangers, votre perte, COMTE DE GUIBERT, Bourbon, IV, 3.\nFig. C'est un homme habile et qui sait calculer. Calculer odieusement\nsur la mort d'un frère.\n\n3° Se calculer, v. réfl. Être calculé. Cela peut se calculer de tête.\nFig. Être reconnu, déterminé. Les opinions des hommes se calculent\nsouvent d'après leur position et le milieu où ils vivent.\nÊtre combiné. Des mesures qui se calculent longtemps à l'avance.\n\nSYNONYME\nCALCULER, COMPTER, SUPPUTER. Calculer, c'est faire une opération\nd'arithmétique ou d'algèbre. Compter, c'est nombrer : compter un, deux,\ntrois ; c'est aussi faire l'évaluation, en parlant d'affaires d'intérêt,\nd'administration, de finance, etc. supputer, c'est se servir de nombres\nou autres documents pour arriver à un résultat : en comptant les\nbriques, supputer la hauteur d'un mur. Le calcul est une opération\nabstraite qui a pour but de faire connaître le rapport qui existe entre\ndes quantités. Le compte est une opération concrète qui nous apprend\nquelle est la somme. La supputation est une combinaison par laquelle,\ndes données que nous avons, nous tirons une certaine conclusion.\n\nHISTORIQUE\nXVe s.\n.... Pour venir au grant miliaire et sçavoir par ce nombre, en\nquerculant, la revolution des temps, EUST. DESCH., Art de faire chans.\np. 263.\nEt pour conclure et mectre fin en ceste matiere que j'ay calculée et\nesclaircie au mieux qu'il m'a esté possible, O. DE LA MARCHE, Gage de\nbat. f° 29, dans LACURNE.\nJe quiers que, par mon recit, les jeunes et ceux qui ont experimenté\ntelles infortunes, pensent plus d'une fois et calculent ce que leur peut\nadvenir, O. DE LA MARCHE, ib. f° 28.\n\nÉTYMOLOGIE\nCalculare (voy. CALCUL).
calculeux, euse	CALCULEUX, EUSE\n kal-ku-leû, leû-z' adj.\nTerme de médecine.\n\n1° Relatif aux calculs, causé par les calculs. Affection calculeuse.\n\n2° Affecté de calculs. Ce vieillard est calculeux.\nSubstantivement. C'est un pauvre calculeux.\n\nHISTORIQUE\nXVIe s.\nNous avons trouvé à un calculeux jusques à sept veines emulgentes, et\nautant d'arteres, PARÉ, I, 25.\n\nÉTYMOLOGIE\nCalculosus, de calculus, calcul.
calculiforme	CALCULIFORME\n kal-ku-li-for-m' adj.\nQui est en forme de petits cailloux.\nSe dit d'une écriture qui fut usitée dans l'Amérique du Sud avant\nl'arrivée des Européens, , Journ. offic. 26 avr. 1875, p. 3005, 2e col.
calculifrage	CALCULIFRAGE\n kal-ku-li-fra-j' adj.\nTerme de chirurgie. Qui brise les calculs de la vessie.\n\nÉTYMOLOGIE\nCalcul, et frangere, briser.
calculé, ée	CALCULÉ, ÉE\n kal-ku-lé, lée part. passé.\n\n1° Trouvé par le calcul. Les éclipses calculées longtemps à l'avance.\n\n2° Fig. Prémédité. Une méchanceté calculée.\nPrévu, combiné. Tout bien calculé.\nDisposé. L'appareil était calculé pour frapper les imaginations.\nSon régime était soigneusement calculé sur les changements que, selon M.\nMalouin, l'âge produit dans l'économie animale, CONDORCET, Malouin.\nLe divers langage des hôtes du désert nous paraît calculé sur la\ngrandeur ou le charme du lieu où ils vivent, CHATEAUBR., Gén. I, 55.
calcédoine	CALCÉDOINE\n kal-sé-doi-n' s. f.\nPierre précieuse de couleur bleue ou jaunâtre, qu'on met au rang des\nagates, et sur laquelle on grave aisément.\n\nHISTORIQUE\nXIIe s.\nJagonces, saphirs, calcedoines, , Romancero, 59.\nXIVe s.\nCalcidoine est une pierre palle et de couleur obscure, qui est ainsy\ncomme moyenne entre la couleur du beril et de jacinte. Ceste pierre est\nengendrée de la rousée, si comme dient aulcuns, DE LA BORDE, Émaux, p.\n200.\nUn signet d'or à un cassidoine, où est taillie la teste d'une femme, DE\nLA BORDE, ib.\nXVIe s.\nQuant est du calcidoine, PALISSY, 51.\n\nÉTYMOLOGIE\nCalcedonius lapis, pierre calcédonienne, du grec, ville de Bithynie,\nprès de laquelle se trouvait cette pierre.
calcédonieux, euse	CALCÉDONIEUX, EUSE\n kal-sé-do-ni-eû, eû-z' adj.\nMarqué de blanc, en parlant des pierres précieuses.\n\nÉTYMOLOGIE\nCalcédoine.
calcéiforme	CALCÉIFORME\n kal-sé-i-for-m' adj.\nTerme d'histoire naturelle. Qui a la forme d'une pantoufle.\n\nÉTYMOLOGIE\nCalceus, soulier (voy. CHAUSSER), et forme.
calcéolaire	CALCÉOLAIRE\n kal-sé-o-lê-r' s. f.\nPlante cultivée depuis quelque temps pour sa fleur (calceolaria).\n\nÉTYMOLOGIE\nFleur ainsi dite à cause de sa forme, de calceolus, pantoufle, chausson.
calcéole	CALCÉOLE\n kal-sé-o-l' s. f.\nTerme de zoologie. Sorte de coquillage (calceola).\n\nÉTYMOLOGIE\nAinsi dit, à cause de sa forme, de calceolus, chausson, pantoufle.
calcéoliforme	CALCÉOLIFORME\n kal-sé-o-li-for-m' adj.\nTerme d'histoire naturelle. Qui est en forme de pantoufle.\n\nÉTYMOLOGIE\nCalceolus, pantoufle, et forme.
calcéolé	CALCÉOLÉ\n kal-sé-o-lé s. m.\nTerme de zoologie. Nom de la famille des calcéoles.
cale	CALE\n ka-l' s. f.\n\n1° Anciennement, espèce de coiffure de femme, en forme de bonnet plat\npar en haut, couvrant les oreilles et échancré par devant avec une\npetite bordure de velours.\nOn nous a dit entre autres merveilles que beaucoup de Limousines de la\npremière bourgeoisie portent des chaperons de drap rose sèche sur des\ncales de velours noir, LA FONT., Lettres, v.\nUn matin, ma servante à cale Fit entrer dans ma chambre sale Votre\nlaquais vert, jaune ou gris, SCARRON, Rondeau redoublé, à Mme Radigue.\nPar extension, jeune fille, grisette. Même sitôt qu'un valet, Une cale,\nun bavolet Montrait au doigt ce grand homme, Son coeur s'épanouissait,\nLucain travesti, p. 73.\nIl entreprit de prouver que Gombaud, qui se piquait de n'aimer qu'en bon\nlieu, cajolait une petite cale crasseuse, TALLEMANT DES RÉAUX,\nHistoriettes, chap. 147, 3e édit. t. III, p. 249.\n\n2° Anciennement, bonnet d'homme fait en rond et plat, couvrant seulement\nle haut de la tête.\nLes clercs portaient la cale. Des correcteurs de modes qui\nempêcheraient, par exemple, que les formes de chapeaux ne devinssent\nhautes comme des pots à beurre ou plates comme des cales, , Roman\nbourgeois, édit. de Nancy, 1713, p. 409.\n\nHISTORIQUE\nXIVe s.\nLe dit Gilet osta à icellui Maron sa calette ou barette, qu'il avait sur\nla teste, DU CANGE, calestra.\nXVIe s.\nUn gros bonnet blanc que l'on appelle une calle, BRANT., Dames ill. p.\n388 et 389, dans LACURNE.\n\nÉTYMOLOGIE\nOrigine inconnue, à moins qu'on n'y voie le verbe caler, abaisser,\nenfoncer : un bonnet ayant pu être nommé cale parce qu'on y enfonce la\ntête.
cale	CALE\n ka-l' s. f.\n\n1° Fond d'un navire ou partie la plus basse qui entre dans l'eau, et qui\ns'étend de la poupe à la proue.\nLe mousse courait se cacher à fond de cale en poussant des cris,\nCHATEAUB., Génie, I, V, 4.\nFig. Être à fond de cale, n'avoir plus le sou.\n\n2° La partie inclinée d'un port pour le chargement d'un bateau.\nRené, escorté d'un détachement de soldats de marine, débarque à la cale\ndu port, CHATEAUB., Natch. II, 202.\n\n3° Plan incliné vers la mer servant à construire ou à réparer les\nbâtiments. Cale de construction, cale couverte, cale où le navire en\nconstruction est à l'abri.\n\n4° Cale, châtiment de mer, qui consiste à laisser tomber plusieurs fois\nle coupable dans l'eau, par le moyen d'un cordage auquel il est attaché\navec un bâton entre les jambes. La cale sèche est lorsqu'on ne le fait\ntomber que jusqu'à la surface de l'eau sans qu'il en soit mouillé.\nDonner la cale.\n\n5° Anciennement, crique, abri entre deux pointes de terre ou de rocher.\n\n6° Plomb qui fait enfoncer l'hameçon pour la pêche de la morue.\n\nÉTYMOLOGIE\nProvenç. espagn. et ital. cala. On a dit que cale était pour escale,\néchelle, relâche ; et en effet tous les sens de cale peuvent s'entendre\nd'une descente ; mais comme ce sens appartient aussi au verbe caler, il\nest plus naturel de tirer cale de caler 1. Ajoutez que l'italien calata,\nqui vient certainement de calare, exprime cette descente même.
cale	CALE\n ka-l' s. f.\nMorceau de bois, de pierre etc. qu'on place sous un objet pour le mettre\nde niveau ou lui donner de l'assiette.\nTerme de maçonnerie. Petit morceau de bois mince dont on se sert pour\ndéterminer la largeur de lit d'une pierre.\n\nÉTYMOLOGIE\nIl y a dans l'espagnol cala, sonde ; Diez est disposé à y voir le sens\nde ce qu'on enfonce et à y rattacher le français cale, petit morceau de\nbois qu'on enfonce sous quelque chose et qui alors viendrait du verbe\ncaler, dans le sens d'abaisser (voy. CALER 1). Mais ce sens est\ndétourné, et, laissant le mot espagnol pour ce qu'il est, on peut songer\npour cale, morceau de bois, au latin cala, bois, bûche ; Scheler songe à\nl'all. keil, coin.
cale-hauban ou calhauban	CALE-HAUBAN ou CALHAUBAN\n ka-lô-ban s. m.\nTerme de marine. Cordage qui sert à maintenir le mât de hune.\n\nÉTYMOLOGIE\nCaler, hauban.
calebasse	CALEBASSE\n ka-le-ba-s' s. f.\n\n1° Nom du fruit de plusieurs espèces de cucurbitacées, mais en\nparticulier du baobab (malvacées). Les calebasses vidées et séchées\nservent à contenir des liquides.\nLes vases dans lesquels on nous servit le vin étaient tout à fait\nsemblables aux calebasses de Saint-Jacques, RETZ, V, 417.\nIl leur présenta aussitôt un gâteau, des fruits et une grande calebasse,\nBERN. DE S.-P., Paul et Virg.\nIl n'y avait dans ce lieu qu'une calebasse pour puiser de l'eau,\nCHATEAUB., Atala, 261.\nChactas présenta à René la calebasse de l'hospitalité, CHATEAUB., Natch.\nI, 83.\nOn boit dans de grandes calebasses le suc de l'érable, CHATEAUB., Amér.\n41.\n\n2° Les calebasses vidées et séchées ont servi à se soutenir sur l'eau.\nNager à l'aide de calebasses.\nFig.\nNoailles, riche en calebasses de toutes les sortes, nageait partout,\ntâtant tout, reçu honnêtement partout, SAINT-SIMON, 238, 168.\n\n3° Terme de marine. Artifice qui fait partie des artifices d'un brûlot.\n\nÉTYMOLOGIE\nCatal. carabassa ; espagn. calabaza ; portug. cabaza ; sicil. caravazza.\nDiez propose l'arabe kerbah, pluriel kerâbat, outre pour l'eau.\n\nSUPPLÉMENT AU DICTIONNAIRE\nCALEBASSE. Ajoutez :\n\n4° Populairement et fig. Vendre la calebasse, révéler le secret.
calebassier	CALEBASSIER\n ka-le-ba-sié ; l'r ne se lie jamais ; au pluriel l's se lie s. m.\nNom vulgaire du cucurbita lagenaria, arbre d'Amérique, qui produit des\ncalebasses.\n\nÉTYMOLOGIE\nCalebasse.
calebaye	CALEBAYE\n ka-le-bê s. m.\nSorte de chou.\nOn sèmera également les choux d'York, coeur de boeuf, en pain de sucre,\ncelui de la Poméranie, le petit calebaye hâtif, ainsi que les gros choux\nquintal, de Saint-Denis, de Bonneuil, , Journ. offic. 18 août 1872, p.\n5577, 1re col.
calebottin	CALEBOTTIN\n ka-le-bo-tin s. m.\nPanier, fond de chapeau où les cordonniers mettent leur fil.\nOn trouve aussi caillebottin.
calemande	CALEMANDE\n ka-le-man-d' s. f.\nNom, dans le XVIIIe siècle, d'une étoffe commune.\nMaudit soit le précieux vêtement que je révère ! où est mon ancien, mon\nhumble, mon commode lambeau de calemande ?, DIDEROT, Regrets sur ma\nvieille robe de chambre, édit. de J. Assezat, t. IV, p. 7.
calembour	CALEMBOUR\n ka-lan-bour ; au pluriel : des kalan-bour insipides ; d'autres lient\nl's : des ka-lanbour-z insipides s. m.\nJeu de mots fondé sur des mots se ressemblant par le son, différant par\nle sens, comme quand M. de Bièvre disait que le temps était bon à mettre\nen cage, c'est-à-dire serein (serin).\nIl n'est sorte de calembours et de mauvaises plaisanteries qu'on n'ait\nfaits là-dessus, P. L. COUR., Lettr. I, 142.\n\nÉTYMOLOGIE\nD'après Chasles (Études sur l'Allemagne, 1854), l'origine de ce mot est\nle nom de l'abbé de Calemberg, personnage plaisant de contes allemands ;\ncomparez espiègle pour une dérivation semblable. Au XVIe siècle, les\ncalembours se nommaient équivoques (voy. DES ACCORDS, Bigarr. équivoques\nfrançois).\n\nSUPPLÉMENT AU DICTIONNAIRE\nCALEMBOUR. Ajoutez : - REM. Une note que nous communique M. Félix Bovet,\na le mérite de fixer à peu près l'époque où le mot s'est introduit, il y\na tout juste un siècle : Vous ne savez peut-être pas ce que c'est que\ndes calembours, espèce de jeux de mots, sans mérite, selon moi, et que\nl'on se permet pourtant très fréquemment dans nos sociétés ; le marquis\nde Bièvre est surtout fameux pour sa facilité prodigieuse en ce genre,\nLettre du 18 février 1775, dans Correspond. secrète, polit. et litt. ou\nMémoires pour servir à l'histoire des cours, des sociétés de la\nlittérature en France depuis la mort de Louis XIV, t. I, p. 200.\n\nÉTYMOLOGIE\nAjoutez : M. Sardou rattache ce mot au bois de calambour ; voici\ncomment : il a trouvé dans des papiers provenant de Favart un manuscrit\nde Fuzelier contenant les Montgenettes, recueil de chansons composées à\nMontgent par de bons vivants de la société d'autrefois. On improvisait,\nsauf l'abbé Chérier, censeur royal, qui restait court au milieu de ces\nimprovisateurs intrépides. Un jour l'abbé accourt, criant qu'il venait\nd'enfanter une jolie chanson, et il chanta d'abord sur l'air, Plaignons\nle malheur de Lulli, etc.... Pleurons tous en ce jour.... Après ce beau\nvers, sa muse, fatiguée de cet effort spirituel, fit une pause prudente\net nécessaire. La compagnie, charmée d'un si heureux début, le presse\nd'achever. Le poëte léger recommença : Pleurons tous en ce jour.... et\ns'arrêta là une seconde fois.... On le conjura de continuer un ouvrage\nqui promettait tant. Enfin, après avoir invoqué Apollon et remonté sa\nlyre, il entonna pour la troisième fois avec une emphase digne du\nsujet : Pleurons tous en ce jour... Du bois de calambour.... Son Pégase\nessoufflé ne peut faire un pas de plus, il s'arrête court. - Ce poëme\nébauché risquait d'avoir le sort de l'Énéide et de n'être pas achevé, si\nMareuil, osant suivre ce nouveau Virgile, n'avait pas sur-le-champ\nterminé cette importante affaire comme il suit : Pleurons tous en ce\njour Du bois de calambour.... Crioit d'une voix emphatique Un abbé qui\nn'est pas éthique ; Aussitôt en choeur on lui dit : Il a mal à l'esprit.\nEt, après avoir reproduit ces vers de fermier général, Fuzelier ajoute :\n&quot; Ce mot de calambour fut tant répété ce jour-là et depuis par la\nsociété de Montgent, pour signifier comiquement et allégoriquement\nfadaise, baliverne, pauvreté, qu'il a fait fortune et est devenu\nproverbe. &quot; Mareuil d'ailleurs fit incontinent la chanson suivante : Sur\nl'air : Tout cela m'est indifférent : Pour ne jamais demeurer court,\nPrenez gaule de calambour ; Touchez avec cette baguette Le stupide ou\nl'homme d'esprit, Vous verrez que d'une sornette Ainsi que d'un bon mot\nil rit. M. Sardou conclut de là que, franchissant les limites de\nMontgent, et propagée au dehors par les gens de tout rang auxquels\nFuzelier fait allusion, la locution nouvelle s'est insensiblement\ntransformée sur la route ; et que, s'écartant de plus en plus de sa\nsignification première, elle en est venue tout doucement à ne plus\ndésigner seulement une sottise, mais aussi, et par la ressemblance des\ndeux mots, une calembredaine, puis le coq-à-l'âne, l'équivoque, et enfin\nle jeu de mots tout spécial qu'elle caractérise aujourd'hui, et qui,\ndepuis longtemps, attendait une expression qui lui fût propre. - De\ntelle sorte qu'ayant enfin vers 1760 son droit de bourgeoisie, le\ncalembour n'attendait plus que M. de Bièvre pour obtenir de lui ses\ntitres de noblesse (le Temps, 2 fév. 1875). D'un autre côté, M.\nDarmesteter, Formation des mots composés en français, p. 114, pense que\ncalembourdaine, autre forme de calembredaine, donne l'étymologie de\ncalembour, qui se trouve être ainsi la forme masculine de calembredaine\n(calembour, aux environs de Châteaudun, se dit au sens de\ncalembredaine). Cette conjecture a l'avantage de rattacher calembour à\nun mot déjà connu. Toutefois nous inclinons à croire que c'est M.\nChasles qui a raison, et que Calemberg est bien l'origine de ce mot. On\na objecté que, pour l'autoriser, il faudrait que ce personnage de contes\nallemands eût été connu en France ; ce dont on n'a pas de trace. Or des\ntraces de ce genre existent. En effet on trouve, dans un auteur du XVIe\nsiècle, mention de Calemberg à côté d'Eulenspiegel :\nUn filz qui n'estoit si habille que un Ulyspiegel ou un curé de\nKallenberg, BONIVARD, de Noblesse, p. 252. Ce document est important\ndans les discussions que calembour soulève.
calembredaine	CALEMBREDAINE\n ka-lan-bre-dê-n' s. f.\nBourde, vains propos, faux-fuyants. Répondre par des calembredaines. Mot\ntrès familier.\n\nÉTYMOLOGIE\nGénev. calembourdaine ; picard, calemberdaine, cotillon avec corset qui\nenlace la berdaine {ventre}. Mot d'origine inconnue, à moins qu'on n'y\nvoie quelque dérivation de calembour, qui, dans le picard, serait\ndevenue la dénomination plaisante d'un vêtement.\n\nSUPPLÉMENT AU DICTIONNAIRE\nCALEMBREDAINE. - ÉTYM. Ajoutez : M. Darmesteter, Formation des mots\ncomposés en français, p. 115, trouvant en picard bredaine, bourde, voit\ndans calembredaine un composé de calem et berdaine. Berdaine équivaut à\nbourdaine, et est un dérivé de bourde, et calem est la particule\npéjorative cali, avec la nasalisation devant la labiale, fait qui n'est\npas rare dans la phonétique française.
calencar	CALENCAR\n ka-lan-kar s. m.\nToile peinte des Indes.
calence	CALENCE\n ka-lan-s' s. f.\nTerme des ouvriers de Paris. Manque d'ouvrage. Être en calence.\n\nÉTYMOLOGIE\nIl est possible que calence soit une corruption de carence, manque ;\ncarence, qui est ancien dans la langue, et qui n'est plus usité qu'en\ntermes de pratique, serait resté sous une forme altérée dans le langage\npopulaire.
calendaire	CALENDAIRE\n ka-lan-dê-r' s. m.\nRegistre d'église.\n\nÉTYMOLOGIE\nCalendarium, de calenda (voy. CALENDES).
calende	CALENDE\n ka-lan-d' s. f.\nMachine à tirer les pierres des carrières.
calender	CALENDER\n ka-lan-dèr s. m.\nNom d'un outre de derviches.\n\nÉTYMOLOGIE\nPersan, kalandar. On dit que c'est un surnom pris par l'Arabe Iousouf,\nfondateur de cet ordre de derviches.
calendes	CALENDES\n ka-lan-d' s. f. plur.\n\n1° Le premier du mois chez les Romains. Le jour des calendes. Le premier\navant les calendes d'avril, le 31 mars. Les Romains comptaient les jours\nd'un mois à partir des calendes du mois suivant, en rétrogradant\njusqu'aux ides, qui étaient, suivant les mois, le 15 ou le 13.\nVous faites un bel éloge du jour de l'an, mais je vous aime toute\nl'année, et tous les jours sont pour moi les calendes de janvier, VOLT.,\nLettr. Cideville, 4 févr. 1765.\nRenvoyer aux calendes grecques, renvoyer à un temps qui ne viendra\njamais, attraper.\nIl s'éloigne des chiens, les renvoie aux calendes Et leur fait arpenter\nles landes, LA FONT., Fabl., VI, 10.\n\n2° Assemblée de curés de campagne, convoquée par l'évêque. La Fontaine a\nécrit calende : C'était jour de calende, et nombre de confrères Devaient\ndîner chez lui, Cas de consc.\n\nREMARQUE\nRenvoyer aux calendes grecques, c'est renvoyer à ce qui n'existe pas,\npuisque les Grecs n'avaient point les calendes ; mais renvoyer au\ncalendrier grec, ce que disent fautivement quelques-uns, ne signifierait\nrien, les Grecs ayant un calendrier.\n\nHISTORIQUE\nXIIIe s.\nLe premier jor de cascun mois apele tousjours kalendes, , Comput, f° 2.\nXVe s.\nEs calendes grecques, respondit Panurge, lorsque tout le monde sera\ncontent, RABELAIS, dans LACURNE.\n\nÉTYMOLOGIE\nGénev. chalende, le jour de Noël. On le tire de calare, appeler, parce\nque, avant la publication des fastes, un pontife, à Rome, convoquait le\npeuple, le premier jour de chaque mois, pour annoncer les jours fériés.\nPourtant M. Alfred Maury croit que c'est un mot étrusque, de même\nradical du reste que calare.
calendrier	CALENDRIER\n ka-lan-dri-é ; l'r ne se lie jamais ; au pluriel l's se lie : des\nka-lan-dri-é-z utiles s. m.\n\n1° Indication des jours, des mois et des saisons de l'année.\nMoins de dévotion de calendrier, et moins de licence les soirs, aurait\nformé une vie plus unie et plus décente, SAINT-SIMON, 633, 18.\nLa saison ne permettait pas De faire voile vers la France.... Pendant\nces trois mois de tempête, Que faire sans calendrier ? Comment placer\nles jours de fête ? Comment les différencier ?, GRESSET, Carême\nimpromptu.\nVieux calendrier, ou calendrier julien, celui qui est conforme à la\nréforme qui fut faite par les ordres de Jules César, et que l'astronome\ngrec Sosigène calcula d'après la longueur, connue alors, de l'année.\nNouveau calendrier, ou calendrier grégorien, celui qui est conforme à la\nréforme faite par le pape Grégoire XIII et qui ajouta à l'année de cette\nréforme onze jours, erreur entre le temps vrai et le temps du calendrier\nJulien produite par des quantités que n'avait pas connues l'astronome\nSosigène.\nCalendrier républicain, calendrier institué par la République française,\nlequel commençait à l'équinoxe d'automne et avait les mois de 30 jours\nchacun, avec 5 ou 6 jours complémentaires.\nCalendrier perpétuel, série de calendriers comprenant tous les jours où\ntombe la fête de Pâques.\nAu figuré. Il ne figure pas sur votre calendrier, ce n'est pas un des\nsaints de votre calendrier, c'est-à-dire vous ne l'aimez pas.\n\n2° Calendrier de Flore, tableau des époques de l'épanouissement des\nfleurs.\nQuelquefois parterre où sont disposées en ordre des plantes qui,\nfleurissant aux différents mois de l'année, indiquent à quelle époque on\nest.\n\nSYNONYME\nCALENDRIER, ALMANACH. L'indication des mois, des jours, des fêtes, voilà\nl'objet du calendrier. L'almanach y ajoute des observations\nastronomiques, des pronostics sur les diverses conditions de l'air, des\nprédictions, etc.\n\nHISTORIQUE\nXIIIe s.\nJulles Cesar trova le jor de byssexte, et li dona liu certain el\ncalendier, , Comput, f° 1.\n\nÉTYMOLOGIE\nProvenç. calendier ; anc. catal. calender ; espagn. et ital.\ncalendario ; de calendarium, de calendae (voy. CALENDES).\nL'intercalation de l'r dans calendrier est une altération postérieure.
calendulacées	CALENDULACÉES\n ka-lan-du-la-sée s. f. plur.\nTerme de botanique. Nom d'une famille de plantes dont le type est le\nsouci (calendula).
calendule	CALENDULE\n ka-lan-du-l' s. f.\nTerme de botanique. Nom scientifique du souci.
calenduline	CALENDULINE\n ka-lan-du-li-n' s. f.\nTerme de chimie. Substance extraite de la calendula officinalis.
calenture	CALENTURE\n ka-lan-tu-r' s. f.\nTerme de médecine. Espèce de délire furieux auquel les navigateurs sont\nsujets sous la zone torride.\n\nÉTYMOLOGIE\nEspagn. calentura, fièvre, de calere, être chaud (voy. CHAUD).
calepin	CALEPIN\n ka-le-pin s. m.\nRecueil de notes qu'une personne prend pour son usage.\nJaquin.... Qui de ses revenus écrits par alphabet Peut fournir aisément\nun calepin complet, BOILEAU, Sat. I.\n.... Seigneur, excusez le bonhomme, Il a laissé son calepin à Rome,\nCHAULIEU, à Malézieux.\nPour que son nom lui survive Ah ! Prends, Clio, prends ton calepin,\nBÉRANG., Turlupin.\nFig. et ironiquement. Cela n'était pas dans son calepin, il ne\ns'attendait pas à cela.\nMettez cela sur votre calepin, souvenez-vous-en, que cela vous serve de\nleçon.\n\nHISTORIQUE\nXVIe s.\nUne pierre est un corps, mais qui presseroit : et corps qu'est-ce ?\nsubstance ; et substance, quoi ? ainsi de suite acculeroit enfin le\nrespondant au bout de son calepin, MONT., dans LACURNE.\n\nÉTYMOLOGIE\nItal. calepino, nom propre, celui de l'auteur d'un vocabulaire\npolyglotte, Ambroise Calepin ou Calepino, savant italien de l'ordre des\nAugustins, né en 1435, mort en 1511. Ce nom, après avoir passé au\ndictionnaire, en est venu à signifier un agenda.\n\nSUPPLÉMENT AU DICTIONNAIRE\nCALEPIN. Ajoutez :\n\n2° Morceau de peau ou d'étoffe qu'on met sous la balle de la carabine.
caler	CALER\n ka-lé v. a.\n\n1° Terme de marine. Baisser, en parlant des basses vergues, des mâts de\nhune ou de perroquet.\nFig. et familièrement. Caler la voile, rabattre de ses prétentions,\ncéder. Je vous conseille de caler la voile.\nAbsolument et populairement, dans le même sens. Il fut obligé de caler.\nIl calera.\n\n2° V. n. En parlant de l'enfoncement d'un bâtiment dans l'eau. Le navire\ncale trop, ne cale pas assez.\n\n3° Terme de pêche. Enfoncer dans l'eau.\n\nHISTORIQUE\nXIIIe s.\nPlus dolente ert {elle était} de cuer que cil qu'on en mer cale, ,\nBerte.\nXVe s.\nPar Mehain {je} voy justice morte, Quant honneur veult voile caller, CH.\nD'ORL., Rond.\nXVIe s.\nIci donques calleray mes voiles, remettant le reste on livre en ce\nconsommé du tout, RAB., Garg. I, 10.\nMais encore que nous lui callions une chose tant lourde...., CALVIN,\n227.\nSouvent j'ay faict caler, soubs l'interest de leur honneur, le plaisir\nen son plus grand effort, MONT., IV, 217.\nCette superbe vertu eust elle calé au plus fort de sa montre ?, MONT.,\nIII, 377.\nAmour voyant du ciel un pescheur sur la mer Calla son aile bas sur le\nbord du navire, RONS., 182.\nComme un gerfaut qui de roideur se laisse Caler à bas, ouvrant la nuë\nespaisse Dessus un cygne amusé sur le bord, RONS., 620.\nIls emmenerent tous les bateaux pour les percer et caller à fonds à une\nlieue de là, D'AUB., Hist. I, 212.\nLes uns furent d'avis qu'il estoit raisonnable que l'on chalast et\ncedast un petit à ce que les pauvres requeroient, AMYOT, Cor. 7.\nIls ne faudront pas d'estimer que nous leur donnons et concedons cela en\nchalant la voile, pourceque nous les craignons, AMYOT, ib. 22.\nPhilopoemen ne chala point pour cela, ni ne laissa point de faire ce que\nportoit son devoir, AMYOT, Phil. 11.\n\nÉTYMOLOGIE\nProvenç. et espagn. calar ; ital. calare ; du latin chalare, en grec,\nabaisser, lâcher.\n\nSUPPLÉMENT AU DICTIONNAIRE\n1. CALER. Ajoutez :\n\n4° Populairement, reculer, lâcher pied (ce sens était fort usité au XVIe\nsiècle, voy. l'historique).
caler	CALER\n ka-lé v. a.\nMettre une cale, assujettir au moyen d'une cale.\n\nÉTYMOLOGIE\nCale 2.
caleçon	CALEÇON\n ka-le-son ; caneçon est une prononciation vicieuse s. m.\nVêtement de dessous en forme de pantalon qui va de la ceinture aux\ngenoux ou aux mollets.\nCaleçon de bain, caleçon qui ne va guère qu'à mi-cuisse et que mettent\nles nageurs.\n\nHISTORIQUE\nXVIe s.\nAttacher ou monter des calessons à quelqu'un, MONT., I, 17.\nLa richesse des calessons de la signora Livia, MONT., I, 164.\n\nÉTYMOLOGIE\nItal. calzoni, haut-de-chausses ; du bas-latin calcio, chausson (voy.\nCHAUSSE) ; picard, caneçon.
calfait	CALFAIT\n kal-fè s. m.\nTerme de marine. Espèce de ciseau pour calfater.
calfat	CALFAT\n kal-fa ; le t ne se lie pas ; au pluriel l's se lie : des kal-fa-z\nhabiles s. m.\nTerme de marine. Ouvrier qui calfate les bâtiments. Maître calfat.\n\nÉTYMOLOGIE\nVoy. CALFATER. Portug. calafate ; bas-grec.\n\nSUPPLÉMENT AU DICTIONNAIRE\nCALFAT. Ajoutez : - HIST. XIVe s.\nAsselin Grille, maistre des euvres de nostre navire {flotte} et clerc de\nnostre armée de la mer, lequel nous avons commis et ordonné pour nous\nfaire venir certain nombre de calefas et de remolas, pour les\nreparacions de nostre dit navire, , Mandements de Charles V, 1371, p.\n435.
calfatage	CALFATAGE\n kal-fa-ta-j' s. m.\nTravail, ouvrage du calfat.\n\nÉTYMOLOGIE\nCalfater.
calfater	CALFATER\n kal-fa-té v. a.\nTerme de marine. Mettre des étoupes et, par-dessus, du suif, du goudron\ndans les joints, trous et fentes d'un bâtiment.\nLes lois sont faites après coup, comme on calfate des vaisseaux qui ont\nune voie d'eau, VOLT., Lett. à Cather. 45.\n\nHISTORIQUE\nXVIe s.\nLa navire ne reçoipt son pilot que premierement ne soit callafatée et\nchargée, RAB., Garg. I, 3.\nDes navires bien equippées, bien calfatées, bien munies, RAB., Pant. IV,\n1.\nMontagnes calfatées de mousses, de fleurs, d'herbes, d'arbrisseaux, R.\nBELLEAU, Bergeries, t. I, p. 67, verso, dans LACURNE.\n\nÉTYMOLOGIE\nProvenç. calafatar, calefatar ; catal. calfatejar ; anc. espagn. et\nportug. calafetar ; ital calafatare ; napolit. calafetejà ; de l'arabe\nkalafa, introduire de l'étoupe dans les fentes d'un navire.
calfatin	CALFATIN\n kal-fa-tin s. m.\nTerme de marine. Jeune garçon qui sert les calfats.
calfaté, ée	CALFATÉ, ÉE\n kal-fa-té, tée part. passé.\nNavire calfaté.
calfeutrage	CALFEUTRAGE\n kal-feu-tra-j' s. m.\nAction de calfeutrer, ou le résultat de cette action.\n\nÉTYMOLOGIE\nCalfeutrer.
calfeutrer	CALFEUTRER\n kal-feu-tré v. a.\n\n1° Boucher les fentes d'une porte, d'une fenêtre, avec des bourrelets,\navec des lisières, avec du papier collé, etc.\n\n2° Se calfeutrer, v. réfl. S'enfermer bien chaudement ; et figurément,\ncacher sa vie, ses actions.\n\n3° Fig. Se garnir, s'entourer.\nCette aventure se calfeutra avec le temps d'un si grand nombre de\npièces, que les esprits forts du siècle suivant devaient en être fort\nembarrassés, DIDEROT, Pens. phil. 49.\nCette signification n'est plus usitée ; voyez l'historique pour une\nsignification très voisine.\n\nHISTORIQUE\nXVIe s.\nHomere ne pensa oncques es allegories lesquelles de luy ont calefreté\nPlutarche et autres, RAB., Garg. 1, Prol.\nAuquel lieu attendans le vent propice et calefretans leur nef...., RAB.,\nPant. II, 23.\nDes cerveaux mal calfretez, RAB., Chr. philos.\nCeste navire n'estoyt pas si bien calfetrée, quant elle fut premierement\nfaicte, PALSGR., p. 473.\nPrès de cette eau s'élevoit un rocher ridé, caverneux et calfeutré de\nmousse espaisse et delicatte, comme s'il eust esté tapissé de quelque\nfin coton, R. BELLEAU, Bergeries, t. I, p. 29, dans LACURNE.\nUn chacun travailloit l'un après le pressoir, L'autre à bien estouper le\nventre à l'entonnoir, Et d'un fil empaissé avec un peu d'estoupe\nCalfeutrer les bondons...., R. BELLEAU, ib. p. 30.\n\nÉTYMOLOGIE\nLe même que calfater. Régnier, Ép. 2, a dit, en parlant d'un vaisseau :\nS'il est bien calfeutré. Encore aujourd'hui plusieurs personnes disent\ncalfeutrer un vaisseau ; ce qui est devenu une faute. Il est possible\nque feutre ait agi, par assimilation, pour altérer calfater, calfreter,\nen calfeutrer.
calfeutré, ée	CALFEUTRÉ, ÉE\n kal-feu-tré, trée part. passé.\nChambre bien calfeutrée.\nRenfermé. Il se tient bien tranquille, bien calfeutré.
caliborgne ou caliborgnon	CALIBORGNE ou CALIBORGNON\n ka-li-bor-gn' ou ka-li-bor-gnon adj.\nQui y voit mal.\nIl {le fils du régent}.... brèche-dent, caliborgnon, punais,\nDECOURCHAMP, Souven. de la marquise de Créquy, t. III, ch. 5.\n\nÉTYMOLOGIE\nBerry, caliborgne ; Haut-Maine, calorgne ; picard, caliborgnon ; norm.\ncaliborgnettes, des lunettes ; de la préposition péjorative ca ou cal,\nou cali, et borgne. Pour cette préposition (voy. le Dictionnaire à\nCA..., et CAL..., CALI... au Supplément).
calibrage	CALIBRAGE\n ka-li-bra-j' s. m.\n\n1° Terme de poterie. Opération qui consiste à abaisser un calibre sur\nl'ébauche de la pièce faite.\n\n2° Terme de marine. Mesurage des calibres.\n\nÉTYMOLOGIE\nCalibre.
calibre	CALIBRE\n ka-li-br' s. m.\n\n1° Capacité d'un tuyau, d'un tube que l'on mesure par son diamètre.\nTuyau de dix centimètres de calibre. Le calibre de l'aorte était rétréci\npar une tumeur.\n\n2° En particulier, diamètre intérieur des armes à feu. Une pièce de gros\ncalibre.\nM. d'Arci examina quelle différence la longueur des pièces de même\ncalibre, tirées avec des charges égales, produit dans la vitesse du\nboulet, CONDORCET, d'Arci.\nSeize canons d'un calibre tel qu'on n'en avait point encore vu en\nEurope, CHATEAUB., Génie, IV, V, 1.\nIl faudra que vous examiniez si ces canons sont des calibres ordinaires\nde marine qui sont de 36, 24, 18, 12, 8, 6 et 4 livres de balle,\nCOLBERT, dans JAL.\nAbsolument, la dimension adoptée pour les armes de guerre.\nUn fusil de calibre et tout l'équipage d'un fantassin, J. J. ROUSS.,\nPol. 12.\nSe dit de même de la grosseur du projectile. Cette balle est de tel\ncalibre.\nM. le Prince tira d'Agen deux pièces, l'une de dix-huit livres et\nl'autre de douze, avec un petit nombre de boulets de calibre, LAROCH.,\nMém. 218.\n\n3° L'instrument qui sert à déterminer le calibre. Passer des balles au\ncalibre.\n\n4° Terme d'architecture. Volume. Des colonnes de même calibre.\nProfil découpé sur bois ou sur tôle suivant les contours d'une moulure.\n\n5° Mandrin à l'usage du potier de terre.\nEspèce d'équerre du tourneur.\nMoule à briques et à carreaux.\nEspace compris entre les deux platines d'une montre.\n\n6° Fig. et familièrement, la valeur, l'état, etc. d'une personne.\nCela s'entend prix pour prix et sans faire comparaison de deux comédiens\nde campagne à deux Romains de ce calibre-là, SCARR., Rom. com. ch. 16.\n\nHISTORIQUE\nXVIe s.\nDouze canons, de calibre d'empereur, pour la batterie, CARLOIX, VII, 7.\nQuant à nous, qui ne sommes pas de ce calibre {qui ne sommes pas\nprinces}, mais seulement gentilshommes...., CARLOIX, IX, 40.\nAussi la plupart des robes longues de ce qualibre n'ont fréquenté le\nbarreau demie douzaine d'années, qu'ils ne se facent riches à\nmerveilles, FROUMENTEAU, Finances, liv. III, p. 67.\nOn voit par le boulet le calibre de la piece, DES ACCORDS, Bigarr. des\nEntends-trois.\n\nÉTYMOLOGIE\nEspagn. calibre ; ital. calibro ; de l'arabe kalab (1er a long), moule.\n\nSUPPLÉMENT AU DICTIONNAIRE\nCALIBRE.\n\n2° Ajoutez :\nAu XVIe siècle, sous Henri II, les six calibres de France, nom donné aux\nsix bouches à feu qui suivent : 1° le canon, dont le projectile pesait\nde 33 livres 4 onces à 34 livres ; 2° la grande coulevrine, dont le\nprojectile ordinaire de 15 livres 2 onces ne dépassait pas 15 livres 4\nonces ; 3° la coulevrine bâtarde, avec un projectile, en moyenne, de 7\nlivres 2 ou 3 onces ; 4° la coulevrine moyenne, avec un projectile de 2\nlivres ; 5° le faucon, avec un projectile de 1 livre 1 once ; 6° le\nfauconneau, avec un projectile de 14 onces.
calibrer	CALIBRER\n ka-li-bré v. a.\n\n1° Donner le calibre convenable. Calibrer des balles.\n\n2° Mesurer le calibre. Calibrer un mortier.\n\nHISTORIQUE\nXVIe s.\nDedans un fauconneau de bronze il mettoit, sus la poudre de canon\ncurieusement composée, une balote de fer bien qualibrée, RAB., Pant.
calibré, ée	CALIBRÉ, ÉE\n ka-li-bré, brée part. passé.\nDes balles bien calibrées.\n\nSUPPLÉMENT AU DICTIONNAIRE\nCALIBRÉ. Ajoutez :\nUn tube est dit bien calibré quand le diamètre intérieur en est partout\nle même.
calical, ale	CALICAL, ALE\n ka-li-kal, ka-l' adj.\nTerme de botanique. Qui est du calice. Téguments calicaux.\n\nÉTYMOLOGIE\nCalice 2.
calice	CALICE\n ka-li-s' s. m.\nTerme de botanique. Enveloppe extérieure en forme de coupe, le plus\nordinairement de couleur herbacée et qui renferme la corolle et les\norganes sexuels de la fleur.\nPourquoi relevez-vous, ô fleurs, vos pleins calices, Comme un front\nincliné que relève l'amour ?, LAMART., Harm. I, 3.\n\nHISTORIQUE\nXVIe s.\nFeuilles, fleurs, calices, espis, PARÉ, t. III, p. 635.\n\nÉTYMOLOGIE\nCalyx, calice des fleurs, en grec : enveloppe et cacher. Les\ndictionnaires latins distinguent calix, coupe, et calyx, calice de\nfleurs ; de là la distinction en français.\n\nSUPPLÉMENT AU DICTIONNAIRE\n2. CALICE. Ajoutez :\n\n2° Terme de zoologie. Nom donné à la capsule qui contient l'ovule dans\nl'ovaire de la poule.
calice	CALICE\n ka-li-s' s. m.\n\n1° Vase qui sert à la messe pour la consécration du vin. Calice d'or.\nÉlever le calice.\nNos calices avaient cherché leurs noms parmi les plantes, et le lis leur\navait prêté sa forme, CHATEAUB., Génie, IV, I, 2.\nLe calice, objet de la guerre des Hussites dans le XVe siècle qui\ndemandaient que la communion se fît sous les deux espèces, et que le\ncalice fût donné au communiant.\nFerdinand 1er demandait que le calice fût accordé aux laïques, VOLT.,\nMoeurs, 172.\nFamilièrement. Être doré comme un calice, porter des habits chargés de\ngalons d'or.\n\n2° Dans un sens mystique et de dévotion.\nIl avala jusqu'au fond le calice de Jésus-Christ, lorsque, choisi pour\nsauver ce peuple, il lui en fallut supporter les révoltes, BOSSUET,\nHist. II, 3.\nBuvons avec lui le calice de sa passion, BOSSUET, Serm. Quinq. 1.\nIl faut que nous participions à son calice, si nous voulons partager sa\ngloire, MASS., Carême, Mot. de conversion.\nFigurément et dans le langage général, boire le calice, souffrir quelque\nchose de pénible, de douloureux.\nIl faut avaler ce calice, SÉV., 416.\nQuoi ! du calice amer d'un malheur si durable Faut-il boire à longs\ntraits la lie insupportable ?, VOLT., Alz. V, 3.\nSi le Fils de l'homme trouva le calice amer, comment un ange l'eût-il\nporté à ses lèvres ?, CHATEAUB., Génie, I, I, 4.\nSouvent, las d'être esclave et de boire la lie De ce calice amer que\nl'on nomme la vie, A. CHÉNIER, Él. 36.\nMes lèvres à peine ont goûté Le calice amer de la vie, LAMART., Méd. I,\n25.\n\nHISTORIQUE\nXIIe s.\nJe li dorrai {donnerai} le grant tresor de l'arche ; N'i demorra ne\ngalice ne chape, , Li coronemens Looys, 434.\nLe caliz del salvedur receverai, , Liber psalm. p. 178.\n.... E le chalice d'or où li sainz out chanté, , Th. le mart. 182.\nXIIIe s.\nMais sa terre en fut moult grevée et les eglises del regne, car il lor\nconvint mettre jusques as calices, et canterent lonc tans en calisces\nd'estain, , Chr. de Rains, p. 56.\nMes s'aucuns a galisces ou vestemens ou autres chozes por Dieu servir,\nbien les pot prester...., BEAUMANOIR, XXXVIII, 14.\nEs mains tint le calisse et l'oublie a saisie, , Ch. d'Ant. I, 430.\nQue on embleroit nos calices Devant nous à la table Dé {de Dieu},\nFabliaux, BARBAZAN, I, 76.\nCist veissiaus où men sanc meïs, Quant de men cors le requeillis,\nCalices apelez sera, le Roman de St-Graal, DE LABORDE, Émaux, p. 183.\nXIVe s.\nJe donray de Bertran d'argent tout son pesant, Et ne deüst avoir en\nEspaigne la grant Calice sur autel jamais en mon vivant, , Guesclin,\n12146.\nXVIe s.\nEt a la coustume tant gaigné, qu'on n'oseroit quasi comparoistre en\nbonne compagnie, qu'on ne soit doré comme un calice, LANOUE, 161.\n\nÉTYMOLOGIE\nProvenç. calitz ; espagn. caliz ; ital. calice : de calix, du grec, vase\nà boire et cavité. Chateaubriand, dans l'exemple cité au commencement,\nsuppose que calice a été dit du calice des fleurs, c'est une erreur ; il\na été dit de calix, vase.
caliche	CALICHE\n ka-li-ch' s. m.\nNom donné par les ouvriers à un agglomérat de sable et de substances\nsalines qui recouvrent le guano.\n\nSUPPLÉMENT AU DICTIONNAIRE\nCALICHE. Ajoutez :\n\n2° Nom d'une espèce de terre à salpêtre.\nL'analyse de la terre à salpêtre ou caliche {découverte à Arica, Pérou}\na donné des résultats favorables, , Journ. offic. 29 oct. 1872, p. 6712,\n3e col.
caliciflore	CALICIFLORE\n ka-li-si-flo-r' adj.\nTerme de botanique. Dont le calice imite une corolle.\n\nÉTYMOLOGIE\nCalice 2, et fleur.
caliciforme	CALICIFORME\n ka-li-si-for-m' adj.\nTerme de botanique. Qui est en forme de calice.\n\nÉTYMOLOGIE\nCalice 2, et forme.
calicinal, ale	CALICINAL, ALE\n ka-li-si-nal, na-l' adj.\nTerme de botanique. Qui appartient au calice. Folioles calicinales.\nAppendices calicinaux.\n\nÉTYMOLOGIE\nCalice 2.
calicinien, enne	CALICINIEN, ENNE\n ka-li-si-niin, niè-n' adj.\nTerme de botanique. Qui provient de la transformation du calice.\n\nÉTYMOLOGIE\nCalice 2.
calicot	CALICOT\n ka-li-ko ; le t ne se lie pas dans le parler ordinaire s. m.\nEspèce particulière de toile de coton.\nPopulairement et par dénigrement, commis chez les marchands de drap, de\nbonneterie, de nouveautés ; dénomination venue de ce que ces commis,\ndans les premières années de la Restauration, laissant croître leur\nbarbe et affectant des airs militaires, furent tournés en ridicule dans\nune comédie jouée aux Variétés.\n\nÉTYMOLOGIE\nCalicut, ville sur la côte de Malabar, d'où cette étoffe est venue\nd'abord.
caliculaire	CALICULAIRE\n ka-li-cu-lê-r' adj.\nQui est du calicule.\n\nÉTYMOLOGIE\nCalicule.
calicule	CALICULE\n ka-li-ku-l' s. m.\nTerme de botanique. Calice accessoire placé en dehors du vrai calice et\nformé de bractées rapprochées ou soudées.\n\nÉTYMOLOGIE\nDiminutif de calice 2.
caliculé, ée	CALICULÉ, ÉE\n ka-li-ku-lé, lée adj.\nTerme de botanique. Qui est pourvu d'un calicule.
calicé, ée	CALICÉ, ÉE\n ka-li-sé, sée adj.\nTerme de botanique. Entouré d'un calice.\n\nÉTYMOLOGIE\nCalice 2.
calier	CALIER\n ka-lié s. m.\nTerme de marine. Maître ou chef de la cale.\n\nÉTYMOLOGIE\nCale 1.
califat	CALIFAT\n ka-li-fa ; le t ne se lie pas dans le parler ordinaire s. m.\nDignité de calife ; le temps pendant lequel un calife a régné.\n\nÉTYMOLOGIE\nCalife.
calife	CALIFE\n ka-li-f'. Mot dont l'orthographe a varié ; on le trouve parfois écrit\ncaliphe ; et aujourd'hui les orientalistes écrivent de préférence\nkhalife s. m.\nTitre des souverains qui exercèrent après Mahomet le pouvoir temporel et\nspirituel.\nIl jeta les fondements de l'empire des califes, BOSSUET, Hist. I, 11.\nEt malgré toute la puissance des califes, la mesure d'un degré du\nméridien, faite par leur ordre, est le seul monument qui reste de leur\ngrandeur, CONDORCET, Maurepas.\n\nHISTORIQUE\nXIIIe s.\n.... Que le roy des Tartarins avoit pris la cité de Baudas {Bagdad}, et\nl'apostole des Sarrazins qui estoit sire de la ville, lequel en appeloit\nle califre de Baudas, JOINV., 278.\nXIVe s.\nLi peres du calife, qui regna longuement, Ama les crestiens, et Dieu\npremierement, , Baud. de Seb. XI, 615.\n\nÉTYMOLOGIE\nArabe, chalifa, successeur de Mahomet.
californie	CALIFORNIE\n ka-li-for-nie s. f.\nContrée de l'Amérique du Nord où l'on a trouvé de riches mines d'or.\nFig. C'est une Californie, se dit pour exprimer la richesse d'un lieu,\nd'une maison, d'une entreprise.
califourchon (à)	CALIFOURCHON (À)\n ka-li-four-chon loc. adv.\n\n1° Jambe deçà, jambe delà, comme quand on est à cheval. Se mettre à\ncalifourchon.\nM. de Bouillon s'était donné la plate satisfaction de brûler le maréchal\nde Noailles en effigie de paille et de carton à califourchon sur son\npetit château d'Agen, SAINT-SIMON, 205, 9.\n\n2° S. m. Marotte, manie. C'est son califourchon.\n\nHISTORIQUE\nXVIe s.\nS'estant avancé à cafourchons sur les gardes du pont...., D'AUB., Hist.\nI, 336.\n.... ah ! avant que le sort T'eust fait flotter à mes bords demi-mort à\ncalfourchons sur les aiz de ta proue, RONSARD, 946.\n\nÉTYMOLOGIE\nBas-lat. calofurcium, fourches, gibet. On reconnaît fourche dans\nfourchon ; mais le préfixe calo, cali, cal ou ca reste inexpliqué.\n\nSUPPLÉMENT AU DICTIONNAIRE\nCALIFOURCHON. - ÉTYM. M. Fr. Dame, de Bucarest, suggère, pour expliquer\nla première partie du mot, de prendre en considération le roumain cal,\ncheval, calul, le cheval, calare, monter à cheval. Il est certain que ce\ncal, qui vient sans doute de caballus, offre une interprétation de\ncalifourchon. Mais est-il permis d'introduire cette forme néo-latine\norientale dans nos langues néo-latines occidentales, qui ne la\nconnaissent pas ? Le mieux est de considérer califourchon comme composé\nde fourchon et de la particule péjorative cali ou ca (on a dit\ncafourchon, voy. l'historique).
calige	CALIGE\n ka-li-j' s. f.\nSorte de sandale garnie de clous que portaient les soldats romains.\n\nÉTYMOLOGIE\nCaligae, d'où le nom de l'empereur Caligula.
caligineux, euse	CALIGINEUX, EUSE\n ka-li-ji-neû, neû-z' adj.\nTerme didactique.. Qui est de la nature du brouillard.\n\nHISTORIQUE\nXVIe s.\nDe cest humeur s'esleve une fumée chaude et caligineuse, qui ..., PARÉ,\nXX, 18.\n\nÉTYMOLOGIE\nCaliginosus de caligo, brouillard.\n\nSUPPLÉMENT AU DICTIONNAIRE\nCALIGINEUX. Ajoutez :\n\n2° Envahi par le brouillard.\nLe fondement à l'existence de toutes les choses ne vous apparaît plus\nque dans une noire impasse ou un caligineux abîme, tant que vous ne\nfaites pas intervenir l'idée de Dieu, GILARDIN, Disc. sur le surnaturel,\ncité dans Gaz. des Trib. du 4 nov. 1876, p. 1033, 3e col.
caligule	CALIGULE\n ka-li-gu-l' s. f.\nTerme de zoologie. Peau couvrant le tarse des oiseaux.\n\nÉTYMOLOGIE\nCaligula, diminutif de caliga, calige.
calimande	CALIMANDE\n ka-li-man-d' s. f.\nEspèce de sole.\nNom vulgaire d'une espèce de plie.\n\nÉTYMOLOGIE\nCe mot semble formé d'un préfixe ca, d'ailleurs douteux (voy. CA....),\net limande.
calin	CALIN\n ka-lin s. m.\nÉtain de Siam et de Malacca dont on fait des boîtes à thé.\n\nSUPPLÉMENT AU DICTIONNAIRE\nCALIN. Ajoutez :\n\n2° Dans l'Aunis, vase ordinairement de tôle, muni d'un couvercle sur\nlequel on met de la braise, tandis qu'il est placé sur le feu ; sert à\nla cuisine, Gloss. aunisien, p. 82.\n\nÉTYMOLOGIE\nPortug. calaim ; de l'arabe cala'î, qui à son tour vient du malais\nkelang, étain, ou bien de Cala'a, nom d'une ville dans l'Inde d'où l'on\ntirait l'étain (DOZY).
calinage	CALINAGE\n ka-li-na-j' s. m.\nBoîte de calinage, petite boîte de hêtre fermant à crochet.\nP... fabricant de boîtes en hêtre dites de calinage, , Alm.\nDidot-Bottin, 1870.\nCalinage en gros, BOUCHET, ib.
calino	CALINO\n ka-li-no s. m.\nNom moderne de l'ancien jocrisse.\nCe nom est emprunté à une pièce de MM. Barrière et Fauchery, qui\neux-mêmes avaient pris ce personnage à une Voiture de masques, de MM.\nEdmond et Jules de Goncourt. Ceux-ci ont écrit Calinot ; mais toute la\npresse actuelle écrit Calino.
caliorne	CALIORNE\n ka-li-or-n' s. f.\nTerme de marine. Gros cordage dont on se sert avec des poulies, pour\nlever des fardeaux.\n\nÉTYMOLOGIE\nItal. caliorna ; corrompu de carnal, ital. carnale, nom d'un fort palan.
calioun	CALIOUN\n ka-li-oun' s. m.\nPipe à eau ; c'est le nom persan du narguilé.\nQuelques coussins peut-être, un calioun incrusté de rubis et de\nturquoises pour fumer le blond tabac de Cachan, F. CHAULNES, Journ.\noffic. 10 oct. 1873, p. 6294, 2e col.\nOn trouve aussi calian.\n\nÉTYMOLOGIE\nPersan, qalioun ( u long) ou qualian ( le a de la terminaison &quot; lian &quot;\nest long), DEVIC, Dict. étym.
calixtin	CALIXTIN\n ka-li-kstin s. m.\nNom d'une secte hussite qui communiait sous les deux espèces.\nAdjectivement. La secte calixtine.\n\nÉTYMOLOGIE\nCalyx, calice, à cause que ces hussites voulaient que le calice fût\ndonné au communiant (voy. CALICE 1).
callade	CALLADE\n ka-la-d' s. f.\nTerme du jeu du trois-sept, qui se dit quand deux joueurs associés font\nensemble toutes les levées.
callaïde ou callaïs	CALLAÏDE ou CALLAÏS\n kal-la-i-d' ou kal-la-is s. f.\nSorte de pierre précieuse, d'un vert pâle ou d'un bleu pâle.\nOn a trouvé {dans une crypte des plaines d'Arles} une certaine quantité\nde grains percés de turquoise qui rappellent les perles en callaïs des\ndolmens du Morbihan, et dont le gisement est inconnu en Europe, , Journ.\noffic. 11 oct. 1876, p. 7428, 3e col.\n\nÉTYMOLOGIE
calle	CALLE\n ka-l' s. f.\nTerme de botanique. Nom d'un genre de plantes. Calle des marais (calla\npalustris, L.).
calleux, euse	CALLEUX, EUSE\n ka-leû, leû-z' adj.\nOù il y a des callosités.\nNos paysans avec leurs mains calleuses manient le fer chaud comme ils\nveulent, MONTESQ., Espr. XXVIII, 17.\nTerme d'anatomie. Corps calleux (mésolobe, grande commissure cérébrale),\nlongue et large bande médullaire blanche qui réunit les deux hémisphères\ndu cerveau.\nTerme de pathologie. Ulcère calleux, ulcère dont les bords offrent des\nduretés.\nFig. Une conscience calleuse, une conscience endurcie, et sur laquelle\nles bons motifs ne font pas impression.\n\nHISTORIQUE\nXVIe s.\nCeux qui ont la peau calleuse, aspre et dure, PARÉ, Introd. 21.\nSi les levres de la playe estoyent comme calleuses et endurcies, PARÉ,\nVI, 6.\nLa composition des nerfs est, dedans le crane, de la simple substance\ncalleuse du cerveau, PARÉ, III, 8.\n\nÉTYMOLOGIE\nCallosus, de callus (voy. CAL).
callicarpe	CALLICARPE\n kal-li-kar-p' s. f.\nTerme de botanique. Genre de verveines (callicarpa).\n\nÉTYMOLOGIE\nEn grec : beauté et fruit.
callichrome	CALLICHROME\n kal-li-kro-m' s. m.\nTerme de zoologie. Genre de passereaux à belles couleurs.\nGenre de scarabées colorés.\n\nÉTYMOLOGIE\nEn grec : beauté et couleur.
callicoque	CALLICOQUE\n kal-li-ko-k' s. f.\nTerme de botanique. Nom d'une espèce d'ipécacuanha.
calligraphe	CALLIGRAPHE\n kal-li-gra-f' s. m.\nCelui qui s'applique à la calligraphie.\n\nÉTYMOLOGIE\nEn grec : beauté et écrire.
calligraphie	CALLIGRAPHIE\n kal-li-gra-fie s. f.\nL'art de bien former les caractères d'écriture.\n\nÉTYMOLOGIE\nCalligraphe.
calligraphique	CALLIGRAPHIQUE\n kal-li-gra-fi-k' adj.\nQui a rapport à la calligraphie. Exercices calligraphiques.
calligraphiquement	CALLIGRAPHIQUEMENT\n kal-li - gra-fi - keman adv.\nD'une manière calligraphique.\nCe n'est pas seulement l'invention de Gutenberg qui entraîna la\ndécadence de l'art d'écrire calligraphiquement, A. MAURY, Hist. de\nl'écriture, Rev. des Deux-Mondes, 1er sept. 1875, p. 153.
callimorphe	CALLIMORPHE\n kal-li-mor-f' adj.\nTerme de zoologie. Nom d'un genre de papillons.\n\nÉTYMOLOGIE\nEn grec : beauté et forme.
calliomore	CALLIOMORE\n kal-li-o-mo-r' s. m.\nNom d'un poisson.
callionyme	CALLIONYME\n kal-li-o-ni-m' s. m.\nNom d'un poisson.\n\nÉTYMOLOGIE\nTerme grec.
calliope	CALLIOPE\n kal-li-o-p' s. f.\nTerme de mythologie. Une des neuf muses, celle qui préside à l'éloquence\net à la poésie héroïque.\nTerme d'astronomie. Nouvelle petite planète.\n\nHISTORIQUE\nXVIe s.\nÔ qui pourra maintenant racompter comment se porta Pantagruel contre les\ntrois cents géants ? Ô ma muse, ma Calliope, ma Thalie, inspire-moy à\nceste heure, RABEL., Pant. II, 28.\n\nÉTYMOLOGIE\nTerme grec, celle qui a une belle voix, de beauté et voix.
callippique	CALLIPPIQUE\n kal-li-ppi-k' adj.\nPériode callippique, espace de 76 ans à l'expiration duquel les\nnouvelles et les pleines lunes devaient revenir au même jour de l'année\nsolaire ; ce qui est une erreur : car, dans l'espace de trois cent\ncinquante-trois ans, elles reviennent trop tard d'un jour entier.\n\nÉTYMOLOGIE\nCallippe, astronome athénien, qui trouva cette période en multipliant\npar 4 celle de 19 ans trouvée par Méton.
callipyge	CALLIPYGE\n kal-li-pi-j' adj.\nTerme d'antiquité. Vénus callipyge, Vénus aux belles fesses, nom d'une\nstatue de Vénus.\n\nÉTYMOLOGIE\nEn grec : beauté et fesse.
callipédie	CALLIPÉDIE\n kal-li-pé-die s. f.\nEnsemble de conseils donnés aux parents pour qu'ils procréent des\nenfants aussi beaux qu'il leur est possible.\n\nÉTYMOLOGIE\nTerme grec dérivé de beauté, et enfant.
callipédique	CALLIPÉDIQUE\n kal-li-pé-di-k' adj.\nQui a rapport à la callipédie.
callisthénie	CALLISTHÉNIE\n kal-li-sté-nie s. f.\nEnsemble des procédés de gymnastique qui conviennent dans l'éducation\nphysique des jeunes filles.\n\nÉTYMOLOGIE\nEn grec : beauté et force.
callitric	CALLITRIC\n kal-li-trik s. m.\nTerme de botanique. Nom d'un genre de fougères.\n\nÉTYMOLOGIE\nEn grec : beauté et cheveu.
calliépie	CALLIÉPIE\n kal-li-é-pie s. f.\nTerme de grammaire. Style élégant, style académique.\n\nÉTYMOLOGIE\nEn grec : beauté et parole, style (voy. ÉPIQUE).
callosité	CALLOSITÉ\n kal-lô-zi-té s. f.\n\n1° Endurcissement de l'épiderme ou de la peau par suite de frottement.\nTerme de chirurgie. Production dure, indolente, qui se forme sur les\nanciennes plaies, les vieux ulcères.\nTerme de zoologie. Production dure qui se développe naturellement sur\nquelques parties du corps de certains animaux.\nTerme de botanique. Renflement raboteux à la surface de quelques\nplantes.\n\n2° Fig. Callosité morale, endurcissement de la conscience.\n\nHISTORIQUE\nXVIe s.\nLa dureté et callosité de la cicatrice empeschera que les intestins....,\nPARÉ, VI, 16.\n\nÉTYMOLOGIE\nCallositas, de callus, cal.
callot	CALLOT\n ka-lo s. m.\nMasse de pierre qu'on tire brute d'une ardoisière.\nGrosse bille en pierre dont les enfants se servent pour jouer.
callune	CALLUNE\n kal-lu-n' s. f.\nSous-genre détaché du genre erica, et dont la bruyère vulgaire (erica\nvulgaris, etc. calluna vulgaris, Salisb.) est la principale espèce.\n\nÉTYMOLOGIE\nDu grec, embellir, nettoyer, parce qu'on fait des balais avec cette\nplante.
calmande	CALMANDE\n kal-man-d' s. f.\nÉtoffe de laine lustrée d'un côté, comme le satin.\nOù est mon ancien, mon humble, mon commode lambeau de calmande ?,\nDIDER., Regrets sur sa robe de chambre.\n\nÉTYMOLOGIE\nGénev. calamandre. On a écrit aussi calemande. Origine inconnue.
calmant, ante	CALMANT, ANTE\n kal-man, man-t' adj.\n\n1° Terme de médecine. Qui apaise les douleurs. Remède calmant. Potion\ncalmante.\nS. m. Prendre un calmant. L'emploi des calmants.\nLes calmants apaisaient ses douleurs, lui rendaient des forces, et en\nlui donnant la faculté de s'occuper encore, lui ôtaient l'idée de tout\nce qu'il allait perdre et de tout ce qu'il allait laisser, CONDORCET,\nBucquet.\n\n2° Dans le langage général, qui calme et apaise. Des paroles calmantes\net consolatrices. Une vie plus calmante.
calmar	CALMAR\n kal-mar s. m.\n\n1° Étui à plumes pour écrire. Il est vieux dans ce sens.\n\n2° Terme d'histoire naturelle. Genre particulier de mollusques\ncéphalopodes, ayant pour type le calmar vulgaire, dit aussi grand\ncalmar.\n\nHISTORIQUE\nXVIe s.\nLe clerc, ouvrant son escritoire pour signer, laissa tomber deux dés sur\nla table, qui estoient dans le calemard, DESPER., Contes, LIII.\nEscritoire duquel le galemard estoit aussi gros et grand que le gros\npilier d'Enay, RAB., Garg. I, 14.\n\nÉTYMOLOGIE\nCalamarium, étui où l'on mettait les calames ou roseaux qui servaient à\nécrire (voy. CALAME). Le mollusque a été appelé ainsi à cause de sa\nforme.
calme	CALME\n kal-m' adj.\nQui est sans agitation. Une mer calme. Un homme calme. Une humeur calme.\nLa sédition a cessé, la ville est redevenue calme. Le malade est calme,\nil repose. Les affaires sont calmes, il se fait peu d'affaires de\nbourse, de commerce.\n\nHISTORIQUE\nXVe s.\nEt dist Solin que ceste mer qui est entre les dictes deux isles de\nBretaigne et Hibernie n'est point paisible ne carme, mais pleine de\nvagues, , Perceforest, t. I, f° 2, dans LACURNE (carme pour calme est\nfréquent dans Perceforest).\nXVIe s.\nEt c'est sans compter cette bonté et felicité de nature, si bien\nattrempée et assaisonnée, qui nous rend calmes, sereins, exempts et nets\nde passions fortes et mouvements violens, CHARRON, Sagesse, II, 1.\n\nÉTYMOLOGIE\nVoy. CALME, s. m.
calme	CALME\n kal-m' s. m.\n\n1° Cessation complète du vent. Le plus grand calme règne dans les airs.\nCalme plat, calme absolu qui laisse la mer plate, unie.\nElle mande qu'elle vous a mise dans votre bateau par un temps et par un\ncalme admirable, SÉV., 21.\nDans l'Aulide arrêté par un calme soudain, RAC., Iph. I, 3.\nTu reverras le calme après ce faible orage, CORN., Cid, II, 3.\n\n2° Tranquillité, absence d'agitation et de bruit. Le calme des nuits. En\ncette circonstance ayez du calme.\n.... Et rendre un heureux calme à nos divisions, CORN., Sertor. III, 4.\nIl rendra quelque calme à son coeur magnanime, CORN., Nicom. IV, 2.\nNulle paix pour l'impie ; il la cherche, elle fuit ; Et le calme en son\ncoeur ne trouve point de place, RAC., Esth. II, 9.\nMais en vain par ce calme il croit nous éblouir, RAC., Baj. I, 1.\nPar moi Jérusalem goûte un calme profond, RAC., Ath. II, 5.\nLe roi, vous le voyez, flotte encore interdit ; Je sais par quels\nressorts on le pousse, on l'arrête, Et fais, comme il me plaît, le calme\net la tempête, RAC., Esth. III, 5.\nEn ce calme trompeur j'arrivai dans la Grèce, RAC., Andr. I, 1.\nIl a remis le calme dans l'hôtel de Grammont, SÉV., 301.\nRendez le calme, Europe, à votre âme étonnée, J. B. ROUSS., Jup. et\nEurop.\nMais ce calme si doux que le ciel vous renvoie N'est point le calme\noisif d'une indolente joie, J. B. ROUSS., Odes, III, 4.\nÀ ces mots elle demeura dans un calme et dans une joie qu'elle ne\npouvait exprimer, BOSSUET, Anne de Gonz.\nLe calme d'un malade, la tranquillité qu'il éprouve après quelque crise.\n\nHISTORIQUE\nXVIe s.\nAdvenant qu'il feust calme en mer, RAB., Pant. IV, 28.\nUn calme lui ostant tout moien de retraitte, il se trouva engagé au\ncombat, D'AUB., Hist. II, 86.\n\nÉTYMOLOGIE\nEspagn. portug. et ital. calma ; holl. kalm ; angl. calm. Origine\ninconnue. Diez se demande si on peut le tirer : 1° de calare, se\nrelâcher ; à quoi il oppose que ma n'est pas un suffixe roman ; 2° du\nbas-latin cauma, chaleur (calma en espagnol et en portugais signifiant\naussi le chaud du jour), le chaud du jour étant le moment le plus calme\ndu jour. Bien que au se change rarement en al, cette dernière opinion\nn'est pas sans vraisemblance. On croit que calm en hollandais et en\nanglais est emprunté. Le mot français est pris aux langues du midi.
calmement	CALMEMENT\n kal-me-man adv.\nD'une manière calme.\nPersonne, en considérant les choses calmement et sans passion, ne dira\nqu'il a le droit...., , le Temps, 7 mai 1876, p. 2, 2e col.
calmer	CALMER\n kal-mé v. a.\n\n1° Rendre calme, faire cesser l'agitation, au physique et au moral.\nCalmer les flots. Calmer les esprits. Il calma l'émotion populaire. Le\ntemps l'avait calmé.\nIl faut tâcher de calmer et de posséder un peu son âme, SÉV., 192.\nEt du haut d'un balcon, pour calmer la tempête, Sur ses nouveaux sujets\nfaisons voler sa tête, CORN., Nicom. V, 5.\nSemblables à ces voeux dans l'orage formés Qu'efface un prompt oubli\nquand les flots sont calmés, CORN., Rod. II, 1.\nElles calment un peu l'ennui qui me dévore, RAC., Mithr. IV, 1.\nIra-t-il voir Roxane et calmer ses soupçons ?, RAC., Baj. IV, 1.\n.... Son trépas n'a pas calmé la reine, RAC., Phèd. V, 5.\nJ'ai cru que des présents calmeraient son courroux, RAC., Ath. II, 5.\nCalmez, reine, calmez la frayeur qui vous presse, RAC., Esth. II, 7.\nIl ne faut pas que les désirs d'un état devenu impossible vous calment\nsur les dangers de votre état présent, MASS., Orais. fun. 1er serm.\nProf. rel.\nPour éclairer ses yeux, pour calmer son esprit, Il ne faudra qu'un\nmot...., VOLT., Tancr. V, 3.\nReviens de ta patrie en proie à la tristesse Calmer les déplaisirs, J.\nB. ROUSS., Odes, IV, 5.\nAbsolument. Cela n'est pas propre à calmer.\n\n2° Adoucir, rendre moins violent, faire cesser. Calmer la fièvre. Calmer\nles douleurs physiques.\nTes remords te suivront comme autant de furies ; Tu croiras les calmer\npar d'autres barbaries, RAC., Brit. V, 6.\n\n3° Se calmer, v. réfl. Devenir calme. La tempête, la sédition, la\ndouleur s'est calmée.\nVous calmez-vous, pendant la vie, sur vos désordres ?, MASS., Car.\nImpén.\nSalomon n'adora les dieux des femmes étrangères que pour se calmer sur\nses dissolutions, MASS., Car. Vérité de la religion.\nSe calmer, reprendre du sang-froid. Calmez-vous, mon ami.\n\n4° V. n. Terme de marine. Le vent, la mer calme, commence à calmer, a\nbeaucoup calmé.\nN'espérons plus, mon âme, aux promesses du monde ; Sa lumière est un\nverre et sa faveur une onde Que toujours quelque vent empêche de calmer,\nMALH., I, 3.\n\nHISTORIQUE\nXVIe s.\nTristes, voyant celui qui calma la tourmente De l'orage civil,\ns'éloigner de nos yeux, AM. JAMYN, livre I, Entrée du roi de Pologne.\n\nÉTYMOLOGIE\nCalme ; espagn. calmar ; ital. calmare.
calmir	CALMIR\n kal-mir v. n.\nTerme de marine. Devenir calme, en parlant de la mer et des vents.\n\nÉTYMOLOGIE\nAutre forme de calmer.
calmé, ée	CALMÉ, ÉE\n kal-mé, mée part. passé.\nRendu à la tranquillité. Les flots calmés. La douleur calmée par\nl'opium. Quand les haines furent calmées.\nCalmés de ces agitations qui viennent de faire sur notre âme des\nimpressions si violentes, MASS., Carême, 1er serm. Prière.
calobre	CALOBRE\n ka-lo-br' s. m.\nUn sarrau. Vieux mot usité encore dans quelques provinces.\n\nHISTORIQUE\nXVe s.\nUn homme vestu d'une calobe de toile, DU CANGE, colobium.\n\nÉTYMOLOGIE\nColobium, tunique sans manches.
calocéphale	CALOCÉPHALE\n ka-lo-sé-fa-l' adj.\nTerme d'histoire naturelle. Qui a une belle tête.\n\nÉTYMOLOGIE\nEn grec : beau et tête.
caloge	CALOGE\n ka-lo-j' s. f.\n\n1° Nom, à Étretat, d'anciens bateaux côtiers que la mer a mis hors\nd'usage et que les pêcheurs, les installant sur la plage, ont recouverts\nd'un toit de chaume, après avoir percé, dans l'épaisseur de leurs bords,\ndes portes, des fenêtres.\nLes caloges servent de magasins pour les engins de pêche, , le Temps, 18\naoût 1876, 2e page, 3e col.\n\n2°\nEn Normandie, cabane de berger, niche à chiens, à lapins, DELBOULLE,\nGloss. de la vallée d'Yères, p. 60.\n\nÉTYMOLOGIE\nCa, préfixe péjoratif, et loge.
calomel et calomélas	CALOMEL et CALOMÉLAS\n ka-lo-mèl et ka-lomé-las' s. m.\nTerme de chimie. Ancien nom du protochlorure de mercure.\n\nÉTYMOLOGIE\nEn grec, beau et noir : ainsi nommé, dit-on, parce que le chimiste qui\nle découvrit, vit, dans la préparation, se changer une belle poudre\nnoire en une poudre blanche.
calomniateur, trice	CALOMNIATEUR, TRICE\n ka-lo-mni-a-teur, tri-s' s. m. et f.\n\n1° Celui, celle qui calomnie. On le traita de lâche calomniateur. C'est\nune calomniatrice.\nNous ne sommes qu'un sang, et ce sang dans mon coeur A peine à le passer\npour calomniateur, CORN., Nicom. III, 8.\nMeurtrier d'un vieillard et calomniateur, VOLT., Cat. IV, 4.\n\n2° Adjectivement.\nVous faites autant d'honneur aux belles-lettres que tous ces écrivains\nmercenaires et calomniateurs y jettent de honte et d'opprobre, VOLT.,\nLett. Laus de Boissi, 6 avril 1773.\n\nHISTORIQUE\nXIIIe s.\nEt Dieux humiliera le chalongeor, , Psautier, f° 84.\nXVIe s.\nCar mesme la nation des sycophantes, c'est à dire des calomniateurs, est\nde la confrairie des curieux, toutefois encore ces calomniateurs là\nrecherchent s'il y a aucun qui ait commis ou voulu commettre quelque\nmalefice...., AMYOT, de la Curiosité, 28.\nSi par ces termes entendez les calumniateurs de mes escripts, RABEL.,\nPant. Ancien prologue du IVe livre.\n\nÉTYMOLOGIE\nCalumniator, de calumnia, calomnie. Dans l'ancien français, chalengere\nau nominatif, de calumniátor ; chalengeor au régime, de calumniatórem.\nChalengere, chalengeor avaient plus particulièrement le sens de celui\nqui appelle en justice, qui provoque au combat.
calomniation	CALOMNIATION\n ka-lo-mni-a-sion s. f.\nAction de calomnier. Mot qui, exprimant l'acte de calomnier, pourrait\nêtre repris de nos anciens.\n\nHISTORIQUE\nXIVe s.\nPluseurs calumpnacions et mauvais mouvemens en pourroient venir, ORESME,\nThèse de MEUNIER.\n\nÉTYMOLOGIE\nCalomnier.
calomnie	CALOMNIE\n ka-lo-mnie s. f.\n\n1° Imputation que l'on sait fausse, et qui blesse la réputation et\nl'honneur. C'est une noire calomnie. Repousser une calomnie.\nLes calomnies qu'on imposait aux chrétiens, BOSSUET, Hist. I, 10.\nPour vous voir vous laver de cette calomnie, MOL., Mis. V, 4.\n\n2° Absolument, les calomniateurs. Être en butte à la calomnie.\nJ'inventai des ressorts, j'armai la calomnie, RAC., Esth. II, 1.\nRois, chassez la calomnie, RAC., ib. III, 3.\nPour faire une oeuvre grande Qui de la calomnie et du temps se défende,\nRÉGNIER, Sat. IX.\nIl n'est pas mal de couper une tête de l'hydre de la calomnie dès qu'on\nen trouve une qui remue, VOLT., Lett. Damilaville, 8 nov. 1762.\nLa calomnie ! Monsieur, vous ne savez guère ce que vous dédaignez ; j'ai\nvu les plus honnêtes gens près d'en être accablés ; croyez qu'il n'y a\npas de plate méchanceté, pas d'horreurs, pas de conte absurde qu'on ne\nfasse adopter aux oisifs d'une grande ville, en s'y prenant bien....\nD'abord un bruit léger, rasant le sol comme une hirondelle avant\nl'orage.... telle bouche le recueille, et, piano, piano, vous le glisse\nen l'oreille adroitement ; le mal est fait : il germe, il rampe, il\nchemine, et, rinforzando, de bouche en bouche, il va le diable ; puis\ntout à coup, ne sais comment, vous voyez la calomnie se dresser,\nsiffler, s'enfler, grandir à vue d'oeil ; elle s'élance, étend son vol,\ntourbillonne, enveloppe, arrache, entraîne, éclate et tonne, et devient\nun cri général, un crescendo public, un chorus universel de haine et de\nproscription, BEAUMARCHAIS, Barbier de Sév. II, 8.\n\nHISTORIQUE\nXIe s.\nJetez moi {sauvez-moi} hui de mort e de calunge, , Ch. de Rol. CCLXVI.\nXVe s.\nSans aucune fraude ou calomnie de verités, J. LE FEVRE DE ST-REMY, Hist.\nde Charles VI, p. 39, dans LACURNE.\nLiqueur, chere amie, Pour la calomnie, Ne crains point qu'aucunement à\njamais ; je t'oublie, BASSELIN, X.\nXVIe s.\nTant qu'il fust present, il vint toujours au dessus de ses calumniateurs\nautant qu'il voulut, et n'eurent leurs calumnies aucun effet encontre\nluy, sinon pendant qu'il fut absent, AMYOT, Alc. et Cor. comp. 6.\nLorsque le juge aura soupçon que le procureur use de cavillation, il\npourra d'office, en quelque estat que la cause soit, exiger de lui le\nserment de calomnie, de sorte que, si après le dit serment le procureur\nestoit trouvé calomniateur, il seroit puni comme parjure, , Nouveau\ncoustumier général, t. I, p. 721.\n\nÉTYMOLOGIE\nProvenç. calonja, calumpnia ; espagn. calumnia ; ital. calonnia ; de\ncalumnia. Calomnie est un mot refait sur le latin ; l'ancienne forme est\ncalenge, chalenge, reproche, défi (d'où l'anglais challenge, défi,\nprovocation), avec l'accent tonique sur la même syllabe qu'en latin\n(calúmnia).\n\nSUPPLÉMENT AU DICTIONNAIRE\nCALOMNIE. - HIST. XVIe s. Ajoutez :\n.... Que, au prealable.... tu ne sois deuement et canoniquement purgé de\ncalomnie et conseil {purgé de l'imputation d'avoir calomnié et d'avoir\nbesoin d'un conseil judiciaire}, , Oeuvres facétieuses de Noël du Fail,\nParis, 1874, t. II, p. 214.
calomnier	CALOMNIER\n ka-lo-mni-é v. a.\n\n1° Employer la calomnie. On l'a indignement calomnié. On calomniera vos\nintentions.\n.... Justifiez-vous sans le calomnier, CORN., Mort de P. III, 2.\nSi l'on calomniait sa mémoire innocente, Que feriez-vous ?, BRIFFAULT,\nNinus II, I, 1.\nLa reine de Suède disait que la gloire d'un souverain consiste à être\ncalomnié pour avoir fait du bien, VOLT., Lettr. Rochefort, décembre\n1771.\nAbsolument. Il ne parle que pour calomnier.\nFamilièrement. Calomnier à dire d'experts, calomnier sans retenue.\n\n2° Se calomnier, v. réfl. Dire du mal de soi, se faire plus mauvais\nqu'on n'est.\n\nREMARQUE\nCorneille a dit calomnier de :\nEt Sévère aussitôt courant à la vengeance M'irait calomnier de quelque\nintelligence...., CORN., Poly. V, 1. ; Et Molière, calomnier à :\nVous osez sur Célie attacher vos morsures Et lui calomnier la plus rare\nvertu Qui...., MOL., l'Étour. III, 4.\n\nHISTORIQUE\nXVe s.\nOr sçavoit il leur capsieuseté estre telle qu'ils calompnisoient ses\ndits, , Histoire de la toison d'or, t. II, f° 129, dans LACURNE.\nXVIe s.\nServet nous calomnie que nous faisons deux fils de Dieu, en disant\nque...., CALVIN, Inst. 372.\nIl alloit mesdisant d'eux, et calumniant tout ce qu'ilz faisoient,\nenvers Tissaphernes, AMYOT, Alc. 48.\nCeux que l'on s'efforce de calonnier, CONDÉ, Mémoires, p. 640.\n\nÉTYMOLOGIE\nCalumniari, de calumnia (voy. CALOMNIE) ; bourguig. calainge, cailinge,\nréprimande ; wallon, calengî, adresser un défi ; rouchi, calenger ;\nprovenç. calonjar, disputer, calumpniar, réclamer, accuser ; anc. catal.\ncalognar ; anc. espagn. calonjar ; espagn. mod. calumniar ; ital.\ncalognare, calonniare. Calomnier a été refait sur le latin ; l'ancienne\nforme était chalenger, calenger, accuser, provoquer, défier.
calomnieusement	CALOMNIEUSEMENT\n ka-lo-mni-eû-ze-man adv.\nAvec calomnie. Il fut accusé calomnieusement.\n\nHISTORIQUE\nXVIe s.\nIls vendoient à l'encan les biens de ceulx qu'ilz avoient proscripts en\ndefraudant calumnieusement les pauvres veufves et leurs pauvres enfans\norphelins, AMYOT, Ant 24.\n\nÉTYMOLOGIE\nCalomnieuse, et le suffixe ment.
calomnieux, euse	CALOMNIEUX, EUSE\n ka-lo-mni-eû, eû-z' adj.\nQui contient des calomnies. Un langage calomnieux.\n\nHISTORIQUE\nXVIe s.\nCalomnieuses mensonges, TAHUREAU, Dialogues, p. 129, dans LACURNE.\n\nÉTYMOLOGIE\nCalumniosus, de calumnia, calomnie.\n\nSUPPLÉMENT AU DICTIONNAIRE\nCALOMNIEUX. Ajoutez : - REM. Malherbe a employé ce mot au sens de\nrépréhensible :\nUn nombre infini de calomnieuses subtilités, MALH., Lexique, éd. L.\nLalanne. On le trouve dans Charron, XVIe siècle, en un sens analogue :\nL'homme, la plus calomnieuse et miserable chose du monde, CHARRON,\nSagesse, I, 2.
calomniographe	CALOMNIOGRAPHE\ns. m.\nCelui qui écrit des calomnies.\nLes calomniographes, VOLT., t. 81, p. 420.
calomnié, ée	CALOMNIÉ, ÉE\n ka-lo-mni-é, ée part. passé.\nCalomnié par ses ennemis.\nDisciple jeune encor de ces maîtres fameux, Sans gloire et cependant\ncalomnié comme eux, GILBERT, Mon apol.\nSubstantivement.\nIl faut être aussi humble que ces humbles calomniées pour le souffrir\n{un mensonge calomnieux}, PASC., Prov. 16.
calonière	CALONIÈRE\n ka-lo-niê-r' s. f.\n\n1° Voy. CANONNIÈRE, dont calonière est une altération populaire.\n\n2° Terme de graveur. Espèce de tuyau dans lequel sont enchâssés\nplusieurs petits outils que le touret fait marcher.
calophylle	CALOPHYLLE\n ka-lo-fi-l' adj.\nTerme de botanique. Qui a de belles feuilles.\nS. m. Nom d'une plante (calophyllus tacamahaca).\n\nÉTYMOLOGIE\nEn grec : beau et feuille.
caloptère	CALOPTÈRE\n ka-lo-ptê-r' adj.\nTerme de zoologie. Qui a de belles ailes.\n\nÉTYMOLOGIE\nEn grec : beau et aile.
caloricité	CALORICITÉ\n ka-lo-ri-si-té s. f.\nTerme de physiologie. Faculté qu'ont les corps vivants de développer une\ncertaine quantité de calorique.\n\nÉTYMOLOGIE\nCalorique.
calorie	CALORIE\n ka-lo-rie s. f.\nTerme de physique. Quantité de chaleur nécessaire pour élever d'un degré\ncentigrade la température d'un kilogramme d'eau. C'est l'unité\nconventionnelle dont on se sert en calorimétrie.\n\nÉTYMOLOGIE\nVoy. CALORIQUE.
calorifiant, ante	CALORIFIANT, ANTE\n ka-lo-ri-fi-an, an-t' adj.\nQui échauffe.\nL'action calorifiante du soleil, HUMBOLDT, Mém. de la Soc. d'Arcueil, t.\nIII, p. 473.
calorification	CALORIFICATION\n ka-lo-ri-fi-ka-sion s. f.\nTerme de physiologie. Dégagement de calorique qui s'opère dans les corps\norganisés pendant leur vie.\n\nÉTYMOLOGIE\nCalorifique.
calorifique	CALORIFIQUE\n ka-lo-ri-fi-k' adj.\nTerme didactique.. Qui produit la chaleur. Rayons calorifiques.\n\nHISTORIQUE\nXVIe s.\nLa faculté calorifique, PARÉ, XV, 52.\n\nÉTYMOLOGIE\nCalorificus, de calor, chaleur, et ficus, qui fait.
calorifère	CALORIFÈRE\n ka-lo-ri-fê-r' adj.\nQui porte la chaleur. Tuyau calorifère.\nS. m. Appareil pour produire et distribuer la chaleur. Toute la maison\nest chauffée par un seul calorifère.\n\nÉTYMOLOGIE\nCalor, chaleur (voy. ce mot) et ferre, porter.
calorimoteur	CALORIMOTEUR\n ka-lo-ri-mo-teur s. m.\nTerme de physique. Appareil électrique qui développe une très grande\nchaleur.\n\nÉTYMOLOGIE\nCalor, chaleur, et moteur.
calorimètre	CALORIMÈTRE\n ka-lo-ri-mè-tr' s. m.\nInstrument propre à mesurer la quantité de calorique spécifique que\ncontient un corps.\n\nÉTYMOLOGIE\nCalor, chaleur, et mètre, mesure.
calorimétrie	CALORIMÉTRIE\n ka-lo-ri-mé-trie s. f.\nPartie de la physique qui a pour objet la mesure du calorique libre.
calorimétrique	CALORIMÉTRIQUE\n ka-lo-ri-mé-tri-k' adj.\nQui a rapport à la calorimétrie.
calorique	CALORIQUE\n ka-lo-ri-k' s. m.\nTerme de physique. Principe de la chaleur, c'est-à-dire propriété de la\nmatière qui, consistant en une modification moléculaire particulière et\nindéterminée, est communicable par contiguïté, et se fait sentir à\ndistance comme la gravitation, dont elle suit alors les lois\nfondamentales.\nCalorique libre, celui qui est sensible à la main ou au thermomètre.\nCalorique spécifique, quantité relative de chaleur absorbée par les\ncorps qui changent de température. Tous les corps, pour s'élever par\nexemple d'un degré de température, n'exigent pas la même quantité de\nchaleur ou calorique libre.\nCalorique latent, par opposition à calorique libre, celui qui est\nabsorbé par un corps dans son passage de l'état solide à l'état liquide,\nou de l'état liquide à l'état gazeux. Il disparaît entièrement alors et\nc'est pourquoi on le nomme latent, c'est-à-dire caché. Il redevient\nlibre et par conséquent sensible au thermomètre dans le passage de\nl'état gazeux à l'état liquide ou de l'état liquide à l'état solide.\n\nÉTYMOLOGIE\nCalor, chaleur (voy. ce mot).
calosome	CALOSOME\n ka-lo-so-m' s. m.\nTerme de zoologie. Nom de scarabées vivant de proie.\n\nÉTYMOLOGIE\nEn grec : beau et corps.
calot	CALOT\n ka-lo s. m.\nLe haut d'un shako.\n\nÉTYMOLOGIE\nVoy. CALOTTE.
calot	CALOT\n ka-lo s. m.\nMorceau de bois servant à caler.\n\nÉTYMOLOGIE\nCaler.
calot	CALOT\n ka-lo s. m.\nBille de grosse dimension qui sert à certains jeux d'enfants.
calotin	CALOTIN\n ka-lo-tin s. m.\n\n1° Terme populaire et de dénigrement. Celui qui porte la calotte,\necclésiastique.\n\n2° Terme de métier. Pièce de cuivre d'un corps de pompe, dite aussi\ncalotte d'aspiration.\n\nÉTYMOLOGIE\nCalotte.
calotrope	CALOTROPE\n ka-lo-tro-p' s. m.\nTerme de botanique. Nom d'un genre de convolvulacées (calotropium\ngiganteum).\n\nÉTYMOLOGIE\nEn grec : beau et tour.
calotte	CALOTTE\n ka-lo-t' s. f.\n\n1° Sorte de petit bonnet qui ne couvre que le sommet de la tête.\nLes sommets de la plupart de ces collines étaient arrondis en forme de\ncalottes, BERN. DE S.-P., Étud. v.\nCalotte à oreilles, calotte qui peut se rabattre sur les oreilles.\nFig. et populairement, tape sur la tête. Donner, recevoir une calotte,\ndes calottes.\n\n2° Sorte de petite calotte noire que portent les prêtres.\nAbsolument et familièrement. Porter la calotte, être dans les ordres.\nPlus spécialement. Le pape lui a donné la calotte, l'a fait cardinal.\nLe courrier du pape arriva avec la calotte pour l'évêque d'Orléans,\nSAINT-SIMON, 50, 83. On dit aujourd'hui, en ce sens, barrette ou\nchapeau.\nPar dénigrement, la calotte, les prêtres, le clergé. À bas la calotte !\n\n3° Terme de médecine. Emplâtre agglutinatif dont on recouvrait autrefois\ntoute la tête d'un teigneux après l'avoir rasée, et qu'on enlevait\nensuite avec force afin d'arracher les bulbes des cheveux.\n\n4° Calotte du crâne, partie supérieure de la boîte crânienne.\n\n5° Terme de géométrie. Calotte sphérique, une des deux parties en\nlesquelles un plan coupe la sphère, et particulièrement la plus petite\ndes deux. Quand le plan passe par le centre, les deux calottes sont des\nhémisphères.\nTerme d'architecture. Portion de voûte, sphérique ou sphéroïde, qu'on\nélève au milieu des plafonds et des voûtes mêmes.\nSi le dôme est petit, ce n'est plus qu'une ignoble calotte, CHATEAUB.,\nItin. 97.\n\n6° Familièrement. Calotte des cieux, le ciel. On ne trouverait pas son\npareil sous la calotte des cieux.\n\n7° En horlogerie, espèce de boîte qui renferme le mouvement d'une\nmontre.\n\n8° Partie de la garde d'une épée où l'on place le bouton.\nPièce de métal qui forme la couverture d'un bouton.\nPièce d'un corps de pompe.\n\n9° Régiment de la calotte, société de beaux esprits satiriques du XVIIe\net du XVIIIe siècle.\nPamphlet.\nQue dites-vous d'une infâme calotte qu'on a faite contre M. de la\nPoplinière ?, VOLT., Lettr. vers, 87.\n\nHISTORIQUE\nXVIe s.\nLe malade pourra porter, pour cacher son imperfection, un bonnet appellé\ncalotte, PARÉ, VIII, 29.\n\nÉTYMOLOGIE\nDiminutif de cale 3. Du moins on ne voit pas comment calantica ou\ncalautica, sorte de coiffure, aurait donné calotte. Calota se trouve\ndans des textes latins du XIIIe siècle.\n\nSUPPLÉMENT AU DICTIONNAIRE\nCALOTTE. Ajoutez :\n10° Espèce de pâtisserie à confiture.\nVous vous imaginez peut-être qu'il est question de quelques petites\nfriandises dont on nous donnait de nombreuses indigestions durant notre\njeunesse, et qui portaient ce nom si joli, si gracieux, si adorable de\npetites calottes, il y avait là dedans des confitures, , Gaz. des Trib.\n13-14 avr. 1874, p. 359, 1re col.\n11° Pot de confiture, ayant la forme d'une grande calotte, sans anses ni\noreilles.\nLes calottes dont nous nous entretenons sont des pots de confitures, ,\nGaz. des Trib. 13-14 avr. 1874, p. 359, 1re col.\nConfitures de toute espèce logées en calottes ou en boîtes, , Alm.\nDidot-Bottin, 1876, p. 880, 1re col.
calotter	CALOTTER\n ka-lo-té v. a.\nDonner des calottes, frapper, donner des coups sur la tête avec le plat\nde la main.\nTerme populaire.\n\nÉTYMOLOGIE\nCalotte.
calottier	CALOTTIER\n ka-lo-tié s. m.\nUn des noms provinciaux du noyer.
calottine	CALOTTINE\n ka-lo-ti-n' s. f.\nSorte de pièce de vers badine et satirique.\n\nÉTYMOLOGIE\nCalotte.
calou	CALOU\n ka-lou s. m.\nSuc du cocotier.\n\nSUPPLÉMENT AU DICTIONNAIRE\nCALOU. Ajoutez :\n\n2° Nom du vin de palme fait avec la séve du cocotier (voy. PALME 1, n°\n2).
calouasse	CALOUASSE\n ka-lou-a-s' s. f.\nNom vulgaire de la pie-grièche.
