carach	CARACH\n ka-rachVoy. CARATCH.
caraco	CARACO\n ka-ra-ko s. m.\nSorte de vêtement de femme qui est plus ou moins ajusté comme un corsage\net qui est plus ou moins long.\nQuand nos dames reprennent vite Les barbes et le caraco, BÉRANG.,\nRequête.\n\nSUPPLÉMENT AU DICTIONNAIRE\nCARACO. Ajoutez : HIST. XVIe s.\nCaracon, COTGRAVE, .\n\nÉTYMOLOGIE\nCaraco vient de caraque, prononciation parisienne de casaque au XVIe\nsiècle, LIVET, Gram. franç. p. 368.
caracol	CARACOL\n ka-ra-kol s. m.\nEscalier en caracol (voy. CARACOLE).
caracole	CARACOLE\n ka-ra-ko-l' s. f.\n\n1° Terme d'architecture. Escalier en caracole ou caracol, escalier fait\nen rond, à marches gironnées.\n\n2° Terme de manége. Succession de demi-tours à droite et à gauche qu'on\nfait exécuter au cheval, avec ou sans changement de main, mais sans\nsuivre de piste.\n\n3° Terme d'art militaire. Mouvement d'un escadron quand il tourne sur sa\ndroite ou sur sa gauche, par rangs, non par files.\nLe maréchal de Lorge décampa de Roth sur neuf colonnes qui firent la\ncaracole en partant, SAINT-SIMON, 22, 260.\n\n4° Sorte de crochet à tire-bouchon.\n\nREMARQUE\nCorneille (tragédie d'Andromède, III, 3) a dit caracol au masculin :\nPersée revole en haut sur son cheval ailé, et, après avoir fait un\ncaracol admirable au milieu de l'air, tire du même côté qu'on a vu\ndisparaître la princesse.\n\nHISTORIQUE\nXVIe s.\nMonsieur de Bouillon n'ayant fait qu'une fausse charge et un caracol\npour reprendre le chemin de la retraite, SULLY, Mém. t. II, p. 406, dans\nLACURNE.\n\nÉTYMOLOGIE\nEspagn. caracol, limaçon, coquille de mer faite en forme de vis, et par\nsuite espèce de danse où les danseurs font différents mouvements les uns\nderrière les autres ; et, dans le manége, caracole : tous sens dérivés\ndes contours de la coquille ; de l'arabe karkara, tourner.\n\nSUPPLÉMENT AU DICTIONNAIRE\nCARACOLE. - REM. Ajoutez :\n2. Richelieu, qui dit aussi caracol comme Corneille, s'en sert au sens\nfiguré de courses, voyages : Comme je demeurerais cent ans en un lieu\ns'il était besoin, aussi avoué-je que des caracols inutiles ne sont plus\nbons pour un homme de mon âge, qui va droit à ses fins, Lettres, etc. t.\nVI, p. 730 (1640).
caracoler	CARACOLER\n ka-ra-ko-lé v. n.\n\n1° Faire des caracoles. Voyez caracoler ces cavaliers. Un cheval qui\ncaracole.\nFig.\nCorneille en cheveux blancs sur moi {Pégase} caracola, VOLT., Pégase.\n\n2° Par extension, aller de droite et de gauche.\nProgné me vient enlever les morceaux Caracolant, frisant l'air et les\neaux, Elle me prend mes mouches à ma porte, LA FONT., Fab. X, 7.\nJusques là Harlay avait caracolé pour éviter partout M de Chaulnes,\nSAINT-SIMON, 42, 240.\n\nÉTYMOLOGIE\nCaracole.\n\nSUPPLÉMENT AU DICTIONNAIRE\nCARACOLER.\n\n1° Ajoutez :\nIl {Louis XIV} leur montre {à ses soldats} à doubler leurs files et\nleurs rangs, à changer tôt de face aux ordres différents, Tourner à\ndroite, à gauche, attaquer et défendre, Enfoncer, soutenir, caracoler,\nsurprendre, CORN., Lexique, éd. Marty-Laveaux.
caracolle	CARACOLLE\n ka-ra-ko-l' s. f.\nTerme de botanique. Espèce de haricot dont la fleur est contournée en\nspirale.\n\nÉTYMOLOGIE\nCaracole ; ital. Caraco.
caracore	CARACORE\n ka-ra-ko-r' s. f.\nSorte de navire en usage aux îles Philippines.\n\nSUPPLÉMENT AU DICTIONNAIRE\nCARACORE. Ajoutez : - ÉTYM.\nMalais, korakora ( 2nd o long), grande embarcation en usage parmi les\nhabitants de l'archipel Indien, DEVIC, Dict. étym.
caracouler	CARACOULER\n ka-ra-kou-lé v. n.\nTerme d'oiseleur. Roucouler.
caractère	CARACTÈRE\n ka-ra-ktê-r' s. m.\n\n1° Signe tracé ou écrit. Les lettres de l'alphabet, les signes de\nponctuation, les chiffres sont des caractères. Caractères d'écriture.\nLes caractères de l'alphabet. Gravé en gros caractères. Écrit en petits\ncaractères. Il ne forme pas ses caractères. Caractères symboliques,\nhiéroglyphiques. Les caractères de cette inscription sont en partie\neffacés.\nSi vous avez peine à lire cette lettre, pour n'être pas en assez beau\ncaractère, PASC., Prov. 17.\nMadame, dois-je croire un billet de Maurice ? Voyez si c'est sa main, ou\ns'il est contrefait ; Vous en devez connaître encor le caractère, CORN.,\nHéracl. II, 6.\nVoyez ce qu'en mourant me laisse votre mère ; J'en baise en soupirant le\nsacré caractère, CORN., ib. V, 8.\n.... Voici ces sacrés caractères, Les garants trop certains de ces\ncruels mystères, VOLT., Sémir. IV, 2.\nLes sommets brisés des Apalaches se dessinaient comme des caractères\nd'azur, CHATEAUB., René, 168.\nSe dit des types d'imprimerie. Graveur, fondeur en caractères. Ces\ncaractères sont usés. Ce caractère est bon à refondre. L'oeil de ce\ncaractère est trop petit.\nEn algèbre, en astronomie, en chimie, en botanique, en pharmacie,\ncaractère, signe abréviatif dont on se sert pour exprimer quelque chose.\nSigne, marque portée par superstition comme talisman.\nOui, c'est un enchanteur qui porte un caractère Pour ressembler aux\nmaîtres des maisons, MOL., Amph. III, 5.\nOn dit qu'il a un caractère pour se faire aimer de toutes les femmes,\nMOL., Pourc. III, 8. Vieux en ce sens.\n\n2° Fig.\nQuoique cette idée générale de la beauté soit gravée dans le fond de nos\nâmes en caractères ineffaçables, PASC., dans COUSIN.\nC'est sans les oublier qu'on quitte ses parents : L'hymen n'efface point\nces profonds caractères, CORNEILLE, Hor. III, 4.\n\n3° Titre naturel ou légal qui donne qualité de.... Il dépouille le\ncaractère d'ami quand il prend celui de juge. Le caractère royal. Les\ndéputés viennent ici avec un caractère public. Qui est sans caractère\nofficiel. Qui a caractère pour ordonner et pour défendre. Certains\nsacrements impriment un caractère indélébile. Déployer, cacher son\ncaractère, faire connaître, cacher le titre officiel que l'on a.\nLes généraux romains commencèrent à s'attacher leurs soldats, qui ne\nregardaient en eux jusqu'alors que le caractère de l'autorité publique,\nBOSSUET, Hist. III, 7.\nUn père est toujours père ; Rien n'en peut effacer le sacré caractère,\nCORN., Poly. V, 3.\nEt que dois-je être ? - Roi. Reprenez hautement ce noble caractère,\nCORN., Nicom. IV, 3.\nUn agent sans caractère d'un roi suédois réfugié chez les Turcs, VOLT.,\nCharl. XII, 5.\n\n4° Ce qui est le propre d'une chose. Le caractère distinctif de la\nvérité. C'est un des caractères du génie. Je rechercherai les caractères\nde la folie. L'imprévoyance est le caractère de la jeunesse. Donner aux\norigines des villes un caractère plus auguste. Ces trois philosophes\navaient une éloquence d'un caractère différent. Conserver le caractère\ndes différents genres de littérature.\nNous naissons avec un caractère d'amour dans nos coeurs qui se développe\nà mesure que l'esprit se perfectionne, PASC., dans COUSIN.\nLa bonté est le caractère le plus naturel des rois, BOSSUET, Polit.\nElle porte le caractère de la main de Dieu, BOSSUET, Hist. II, 13.\nLe style même porte imprimé le caractère des âges, BOSSUET, ib. II, 1.\nPour garder le caractère du temps, BOSSUET, ib. II, 3.\nFaut-il que sur le front d'un profane adultère Brille de la vertu le\nsacré caractère ?, RAC., Phèd. IV, 2.\nUn caractère de faiblesse et de timidité né avec nous, MASS., Conf. Zèle\ncontre les vices.\nVous êtes marqué du caractère des réprouvés, MASS., Car. Fausse\nconfession.\nIl les marqua sur le front d'un caractère de réprobation, MASS., Car.\nMédis.\nElles sont marquées du caractère des justes, MASS., Avent. Afflict.\nL'Église, sous Julien, fut exposée à une persécution du caractère le\nplus dangereux, CHATEAUB., Génie, I, 1.\nDans les sciences, ensemble de modifications apparentes propres à faire\ndistinguer les objets. Les naturalistes entendent par caractère, les\ntraits les plus saillants, les plus propres à faire reconnaître une\nclasse, un genre ou une espèce. Caractère générique, caractère qui\nappartient à un genre. Caractère spécifique, caractère qui appartient à\nune espèce.\nM. de Linné chercha les caractères fondamentaux de son système dans les\nparties des plantes qui servent à leur reproduction, CONDORCET, Linné.\nEn médecine, caractère s'emploie pour exprimer l'état plus ou moins\ngrave d'une maladie. Pneumonie de mauvais caractère, d'un caractère\nfâcheux. Fièvre d'un caractère bénin.\n\n5° Ce qui distingue, au moral, une personne d'une autre ; nature,\nnaturel, moeurs, sentiments. La différence des caractères. D'un\ncaractère irascible. Dompter ces caractères intraitables. Un mauvais\ncaractère. Un noble caractère. Force de caractère. Suivre son caractère.\nPeinture des caractères.\nJe suis sorti de mon caractère, BOSSUET, Var. Préf.\nIl faudrait des foudres pour des âmes de ce caractère, MASS., Carême,\nConfess.\nDes chevaliers français tel est le caractère, VOLT., Zaïre, II, 3.\nQuelle véhémence dans les sentiments {chez Corneille} ! Quelle dignité,\net en même temps quelle prodigieuse variété dans les caractères !, RAC.,\nDisc. de récept. de Th. Corneille.\nComédie de caractère, celle où l'on présente un caractère dominant qui\nfait proprement le sujet de la pièce. Le Menteur, l'Avare, le Glorieux\nsont des comédies de caractère.\nFamilièrement. C'est un bon caractère d'homme.\nLa personne même qui a le caractère. Les mauvais caractères sont\ntoujours malheureux.\nLes Caractères de tel auteur, l'ouvrage dans lequel un auteur a peint\nles caractères, les moeurs. Les Caractères de Théophraste, de La\nBruyère.\n\n6° Absolument, ensemble des facultés qui se rapportent à l'action,\ndistinct du coeur et de l'esprit. C'est le caractère qui domine en lui.\nLes facultés morales opposées aux facultés intellectuelles.\nGrand de génie et grand de caractère, BÉRANG., Cinq mai.\nFermeté. Il veut montrer du caractère. Comme il convenait à des hommes\nde caractère. Dans cet entretien il fit preuve de caractère. Manquer\nentièrement de caractère. Homme sans caractère. C'est un homme à\ncaractère.\nElle aimait mieux qu'on manquât de sagesse que de caractère, et qu'on\neût le coeur faible que l'esprit impertinent et corrompu, MARIVAUX, Vie\nde Marianne, 4e partie, p. 218.\nCelui, celle qui a dans son moral quelque chose qui se distingue en\ns'accusant. C'est un caractère.\n\n7° Absolument, en un autre sens, expression, air expressif. Il a une\nphysionomie sans caractère. Voilà un beau caractère de tête.\nLa nature a tracé dans ses regards mourants Un si grand caractère et des\ntraits si touchants, VOLT., Mahom. IV, 4.\nDanse de caractère, danse qui représente une petite action.\nOn pria Blanca d'exécuter une de ces danses de caractère où elle\nsurpassait les plus habiles guitanas, CHATEAUB., D. des Abenc. 166.\nDans les oeuvres de littérature et d'art, qualité qui les élève\nau-dessus du commun et du vulgaire ; certaine originalité d'intention et\nde style. Cette comédie, cette musique n'a point de caractère.\nEn musique, demi-caractère se dit de la musique ou de la danse qui tient\nle milieu entre le genre grave et le genre comique.\n\nSYNONYME\nCARACTÈRE, MOEURS. En termes de théâtre, on entend par moeurs ou moeurs\ngénérales les habitudes qui appartiennent à une nation, à une époque, à\ntel ou tel âge, à telle ou telle condition. Le caractère, qu'on appelle\naussi quelquefois les moeurs particulières, est plus spécial à chaque\npersonnage. Dans Iphigénie Achille est ardent, Ulysse est rusé, ce sont\ndeux caractères différents ; mais tous les deux doivent représenter les\nmoeurs grecques ou ce que nous consentons à regarder comme ces moeurs.\n\nHISTORIQUE\nXIIe s.\nL'aveit issi {ainsi} aparilliez, D'arz enchanté e primseignez, E sur lui\ntant caractes fait, Que jà d'armes n'en fust sanc trait, BENOIT, Chron.\nI, 709.\nXIIIe s.\nAprès doivent faire jurer à chascun des champions que il ne porte bref,\nne charei, ne sorcerie, , Ass. de Jérus. ch. 102, dans DU CANGE,\ncaraula.\nXIVe s.\nLe dit Camus usoit et ouvroit de mauvais art, comme de sorceries et\ncaraux, DU CANGE, caraula.\nFait faire par une juifve pluseurs poudres et charays, DU CANGE, ib.\nRaymon mist certains sorceries, charoiz et faitures soubz le sueil de\nl'uys de l'ostel, DU CANGE, ib.\nXVe s.\nFaisant invocation de caracteres, sorcelleries, charmes, superstitions\net malefices, MONSTREL., I, 39.\nXVIe s.\nMes caracteres se trouverent plus veneriens que solaires, MONT., I, 96.\nLe createur a laissé en ces haults ouvrages le charactere de sa\ndivinité, MONT., II, 148.\nLe charactere de la cornardise est indelebile, MONT., III, 347.\nLe premier chapitre traicte des termes et caractes de ceste regle,\nETIENNE DE LA ROCHE, Arismetique, f° 42.\n\nÉTYMOLOGIE\nCharacter, marque, en grec :, graver. L'historique de ce mot se divise\nen deux parties : d'abord, formé d'après l'accentuation latine, comme\nc'est la règle pour l'ancienne langue, il est caracte, caraus, charaie,\ncharoy, et signifie une sorte de sortilége ; plus tard, calqué sur le\nlatin écrit, il change de forme et étend ses acceptions.\n\nSUPPLÉMENT AU DICTIONNAIRE\nCARACTÈRE. Ajoutez :\n\n8° Il s'est dit pour portrait, description, au XVIIe siècle.\nQu'il me soit permis de copier ici tout au long ce que dit Homère du\npouvoir et de l'efficacité des prières sur l'esprit des dieux et de\nl'admirable caractère qu'il en fait, ROLLIN, Traité des Ét. II, De la\nlecture d'Homère, II, III, 4.\nUlysse parla le premier ; on sait le caractère qu'en fait Homère\nailleurs, ROLLIN, ib. I, II, 4.
caractérisant, ante	CARACTÉRISANT, ANTE\n ka-ra-kté-ri-zan, zan-t' adj.\nQui caractérise.\nC'est un fait célèbre et bien caractérisant {la farce du duc du Maine à\nla mort de Louis XIV} qui trouvera son détail en son lieu, SAINT-SIMON,\n326, 18.
caractériser	CARACTÉRISER\n ka-ra-kté-ri-zé v. a.\n\n1° Indiquer, mettre en relief le caractère, la qualité propre. Ce\npeintre n'a pas suffisamment caractérisé ses figures. Ce fait\ncaractérise parfaitement notre homme. Les signes qui caractérisent les\npassions. Ce qui caractérise une maladie.\nFaire honneur à M. de Maurepas de cet esprit de modération, d'indulgence\nmême, qui a constamment caractérisé son ministère, CONDORCET, Maurepas.\n\n2° Se caractériser, v. réfl. La maladie ne s'est pas encore bien\ncaractérisée.\nAutant de fois qu'une femme sort de soi-même pour se caractériser dans\nle coeur des autres, PASC., dans COUSIN.\n\nÉTYMOLOGIE\nBas-lat. characterizare, de character.
caractérisme	CARACTÉRISME\n ka-ra-kté-ri-sm' s. m.\nDans l'ancienne thérapeutique, conformité prétendue des plantes avec\nquelques parties du corps humain.\n\nÉTYMOLOGIE\nCharacterismus (voy. CARACTÈRE).
caractéristique	CARACTÉRISTIQUE\n ka-ra-kté-ri-sti-k' adj.\n\n1° Qui caractérise. Signe, trait, différence caractéristique.\nEn géologie, fossiles caractéristiques, fossiles qui signalent une\nespèce de terrains.\nEn grammaire, lettre caractéristique, lettre qui dénote le temps d'un\nverbe, la formation d'un mot.\nSubstantivement. L's est chez nous la caractéristique du pluriel dans\nles noms.\n{Dans le grec} Il faut considérer la caractéristique, la terminaison,\nl'augment, CHATEAUB., Génie, II, VI, 3.\n\n2° S. f. La caractéristique, ce qui caractérise.\nUne des caractéristiques des siècles de corruption est que la vertu et\nles talents isolés ne conduisent à rien, DIDER., Essai sur Claude.\nTerme de mathématiques. La lettre d est la caractéristique des\ndifférentielles. Le nombre entier qui précède la virgule dans un\nlogarithme et qui exprime des unités entières, est la caractéristique du\nlogarithme.
caractérisé, ée	CARACTÉRISÉ, ÉE\n ka-ra-kté-ri-zé, zée part. passé.\n\n1° Marqué d'un caractère. Les passions si bien caractérisées par\nMolière. Le moyen âge caractérisé par la séparation du pouvoir spirituel\net du pouvoir temporel.\n\n2° Dont le caractère est marqué. Le personnage de cette comédie est\nimparfaitement caractérisé.\nAbsolument. Il n'a pas une physionomie caractérisée. C'est une monomanie\nbien caractérisée.\nCe sont deux physionomies d'amants fort tendres, mais qui n'ont rien de\ncaractérisé ni d'original, DIDER., Lett. à Mme Riccob.\n\n3°\nPlaques caractérisées, plaques marquées de caractères magiques, THIERS,\nSuperstitions, V, 2. Vieux en ce sens.
carafe	CARAFE\n ka-ra-f' s. f.\n\n1° Sorte de bouteille de verre qui se distingue des autres bouteilles\npar la forme et par l'espèce du verre, et dans laquelle on sert l'eau et\nquelquefois le vin et les liqueurs.\n\n2° Le contenu d'une carafe. J'ai bu une carafe d'eau.\n\n3° Fig. et familièrement. C'est une vraie carafe d'orgeat, pour dire un\nhomme que rien n'excite, froid jusqu'à l'apathie.\n\nÉTYMOLOGIE\nEspagn. et portug. garrafa ; ital. caraffa ; napolit. carrafa, sorte de\nmesure des liquides ; sicil. carrabba ; on le tire de l'arabe gerât,\nmesure pour les substances sèches, garafa, puiser.\n\nSUPPLÉMENT AU DICTIONNAIRE\nCARAFE. - ÉTYM. Ajoutez : Carafe, d'après M. Mohl, vient du persan\nkarabet ( 2nd a long), bouteille en verre à gros ventre, destinée à\nlaisser reposer le vin pendant quarante jours. Au contraire, d'après M.\nDozy, il vient de l'arabe garafa, puiser.
carafon	CARAFON\n ka-ra-fon s. m.\n\n1° Petite carafe.\n\n2° Spécialement, une très petite carafe en usage dans les restaurants.\nUn carafon de vin.\nLe contenu, lequel est environ d'un quart de bouteille, c'est-à-dire\ndeux décilitres.\n\n3° Seau de bois ou de liége où l'on met à rafraîchir les boissons.\n\nÉTYMOLOGIE\nCarafe.
caragan	CARAGAN\n ka-ra-gan s. m.\nTerme de botanique. Nom du robinia caragana.
caragne	CARAGNE\n ka-ra-gn' s. f.\nSubstance gommo-résineuse que l'on attribue à un arbre de la famille des\ntérébinthacées, originaire de la Colombie.\nAdj. Gomme caragne.
carague	CARAGUE\n ka-ra-gh' s. m.\nNom d'un animal à bourse du Brésil.
caragueuse	CARAGUEUSE\n ka-ra-gheu-z' s. m.\nPersonnage des marionnettes en Turquie.\nLe héros de la pièce est un infâme nommé Caragueuse qui paraît sur la\nscène avec tout l'équipage du fameux dieu de Lampsaque, POUQUEVILLE,\nVoy. en Grèce, dans la collection Smith, t. XII, p. 345. (voy. KARAGOUZ\nau Supplément).
carambolage	CARAMBOLAGE\n ka-ran-bo-la-j' s. m.\nTerme du jeu de billard. Coup dans lequel la bille du joueur va toucher\ndeux autres billes. Un carambolage difficile ; par finesse, en prenant\nla bille fine ; par effet, en faisant faire un effet à la bille ; par\nbandes, en touchant les bandes. Jouer le carambolage, ne compter de\npoints que pour les carambolages.\nFig. Coup double, ricochet.\n\nÉTYMOLOGIE\nCaramboler.
carambole	CARAMBOLE\n ka-ran-bo-l' s. f.\n\n1° Terme du jeu de billard. La bille rouge, celle qui se place sur la\nmouche.\nPartie qui se joue avec cette bille.\n\n2° Terme de botanique. Fruit du carambolier, arbre des Indes.\n\nÉTYMOLOGIE\nEspagn. carambola, carambole et tromperie. Origine du reste inconnue.
caramboler	CARAMBOLER\n ka-ran-bo-lé v. n.\nTerme du jeu de billard. Faire un carambolage.\nSe dit aussi de la bille. Ce n'est pas votre bille qui a carambolé.\nFaire un coup double, un ricochet.
caramboleur	CARAMBOLEUR\n ka-ran-bo-leur s. m.\nCelui qui fait des carambolages au billard, qui est habile à caramboler.
carambolier	CARAMBOLIER\n ka-ran-bo-lié s. m.\nTerme de botanique. Arbre des Indes du genre averrhoa.
caramel	CARAMEL\n ka-ra-mèl s. m.\nSucre qui, ayant perdu son eau de cristallisation et subi un\ncommencement de décomposition au feu, a acquis une couleur jaune et une\nodeur aromatique.\nNous aperçûmes de loin une île de sucre, avec des rochers de sucre candi\net de caramel, FÉN., XIX, 38.\nAu plur. Des caramels, nom de petits bonbons faits par les confiseurs\npour les enfants.\n\nÉTYMOLOGIE\nEspagn. et portug. caramelo, de l'arabe kora, mochalla, de kora, boule,\net mochalla, chose douce.
caramélique	CARAMÉLIQUE\n ka-ra-mé-li-k' adj.\nQui a rapport au caramel.\nUn produit caramélique insoluble, BERTHELOT, Acad. des sc. Comptes\nrendus, t. LXXXII, p. 1360.
caramélisation	CARAMÉLISATION\n ka-ra-mé-li-za-sion s. f.\nAction de caraméliser ; état de ce qui est caramélisé.\n\nSUPPLÉMENT AU DICTIONNAIRE\nCARAMÉLISATION. Ajoutez :\nLe vesou.... était envoyé dans de grandes chaudières en fonte, chauffées\nà feu nu.... à une température.... qui produisait toujours une\ncaramélisation plus ou moins grande, MORIN, Mém. d'agricult. etc.\n1870-71, p. 208.
caraméliser	CARAMÉLISER\n ka-ra-mé-li-zé v. a.\nRéduire le sucre en caramel.\nAjouter du caramel à une substance.
caramélisé, ée	CARAMÉLISÉ, ÉE\n ka-ra-mé-li-zé, zée part. passé.\nL'eau-de-vie caramélisée.
caramélé, ée	CARAMÉLÉ, ÉE\n ka-ra-mé-lé, lée adj.\nQui a le goût ou l'apparence du caramel. Sauce d'un goût caramélé.
carangue	CARANGUE\n ka-ran-gh' s. f.\n\n1° Poisson des Antilles d'un excellent goût.\n\n2° Terme de marine. Enfoncement, abri pour les caboteurs.
caranguer	CARANGUER\n ka-ran-ghé v. n.\nTerme de marine. Louvoyer à petites voiles pendant plusieurs jours sans\npouvoir gagner au vent.
carapa	CARAPA\n ka-ra-pa s. m.\nHuile de carapa, huile extraite du caraïpé.\n\nSUPPLÉMENT AU DICTIONNAIRE\nCARAPA. Ajoutez :\nLes graines de carapa, si abondantes dans la Guyane qu'elles pourraient\nseules alimenter les savonneries de Marseille, , Journ. offic. 2 juin\n1874, p. 3683, 3e col.
carapace	CARAPACE\n ka-ra-pa-s' s. f.\nTest osseux qui recouvre le corps des tortues et, en général, des\nreptiles chéloniens. C'est le bouclier supérieur ou dorsal de ces\nanimaux ; le bouclier inférieur porte le nom de plastron.\n\nÉTYMOLOGIE\nEspagn. carapacho. Une calebasse se dit en catalan carabassa, en\nsicilien caravazza ; il n'y a pas loin pour passer de là, quant à la\nforme et quant au sens, à carapace.
caraque	CARAQUE\n ka-ra-k' s. f.\n\n1° Terme de marine. Nom qu'on donnait autrefois à de très grands\nnavires.\n\n2° Nom de certains grands bâtiments portugais qui faisaient les voyages\ndu Brésil et des Indes.\n\n3° Porcelaine caraque, nom de la plus fine porcelaine des Hollandais,\nparce que les premières qui sont venues des Indes en Europe, y furent\napportées par des caraques portugaises.\n\nHISTORIQUE\nXIVe s.\nPour attacher les abillements de la grant carraque d'argent, dorée et\nesmaillée, qui a esté portée à Amiens ou voyage que le roy a fait au dit\nlieu pour le traittié de paix, DE LABORDE, Émaux, p. 195.\nXVe s.\nVaisseaux, navires, carraques, galées et barges, FROISS., I, I, 61.\nUne carraque grande et forte assez pour aller par mer par tout le monde,\nFROISS., II, III, 28.\n.... Et prirent les Anglois deux mille combattants avec quarante nefs à\nvoiles et une grosse carraque, MONSTREL., I, 12.\nXVIe s.\nAussi ordonna de vaisseaux ronds, huict ou dix carraques genevoises pour\nrenforcer son armée, M. DU BELLAY, 595.\nNous y perdimes, par le feu, ce monstrueux carragon qui menaçait le\nciel, et faisoit fuir, par son horrible grandeur, les balaines, CARLOIX,\nV, 27.\nMais tirans les ancres du carraquon, qui estoit le plus beau navire de\nla mer de Ponant.... le feu se mit au fougon, M. DU BELLAY, 596.\n\nÉTYMOLOGIE\nEspagn. et portug. carraca ; ital. caracca ; holl. kraeke, sorte de gros\nbâtiment. Origine d'ailleurs inconnue.
caraque	CARAQUE\n ka-ra-k' adj.\nCacao caraque, cacao qui vient de la côte de Caracas (Amérique du Sud).\n\nSUPPLÉMENT AU DICTIONNAIRE\n1 CARAQUE. - ÉTYM. Espagn. et portug. carraca ; ital. caracca ; on\ntrouve aussi bas-lat. caracora ; portug. coracora, sorte de grand\nvaisseau. M. Dozy et M. Defrémery voient dans ces deux formes l'arabe\ncorcor, au pluriel carâquir, sorte de grand vaisseau marchand. M. Devic,\nDict. étym., ajoute que ce mot arabe corcor est le malais korakora ( 2nd\no long ; voy. CARACORE au Dictionnaire et au Supplément).
carassin	CARASSIN\n ka-ra-sin s. m.\nNom du poisson dit cyprinus carassias.
carasson	CARASSON\n ka-ra-son s. m.\nNom de l'échalas pour la vigne, dans quelques départements.\n\nHISTORIQUE\nXVe s.\nLe suppliant s'estoit blessé la main en faisant des charrassons, pour\nmettre es vins, DU CANGE, carratium.\n\nÉTYMOLOGIE\nLe même radical que dans échalas (voy. ce mot).
carat	CARAT\n ka-ra ; le t ne se lie pas s. m.\n\n1° Chaque vingt-quatrième partie d'or pur contenue dans une masse d'or\nque l'on considère comme composée de vingt-quatre vingt-quatrièmes. De\nl'or à vingt-quatre carats serait de l'or pur. De l'or à vingt carats ou\nau vingtième carat.\nSon mors doit être d'or à vingt-trois carats, VOLT., Zadig, 3.\nFig. Sot, ignorant à vingt-trois carats, à vingt-quatre carats, très\nsot, très ignorant.\nEnfin, quoique ignorante à vingt et trois carats, Elle passait pour un\noracle, LA FONT., Fabl. VII, 15.\nSot à trente-six carats, qui se dit quelquefois, n'a pas de sens,\npuisque le carat étant un vingt-quatrième, on ne peut dépasser\nvingt-quatre.\n\n2° Terme de joaillier. Poids de quatre grains. On se sert du carat pour\nles diamants, perles, etc.\nPar extension, nom des petits diamants qui se vendent au poids. Une\nparure de carats, parure où il n'entre que de petits diamants.\nFig. Ce n'est que du carat, se dit de choses qui sont brillantes, sans\navoir pourtant beaucoup de valeur.\n\nHISTORIQUE\nXVe s.\nLes monnoyes tant en or comme en argent, les dragmes, caras,\ndemi-dragmes, E. DESCHAMPS, Art de dictier, p. 263.\nEtant defendu à toute personne de se dire ladre s'il ne l'estoit à\nvingt-quatre carats, à poix de marc, BOUCHET, Serées, liv. III, p. 290,\ndans LACURNE.\nMocqueurs ès touttes races et à tous carats, , Contes d'Eutrapel, p.\n472, dans LACURNE.\n\nÉTYMOLOGIE\nProvenç. carat ; espagn. et portug. quilate ; ital. carato ; de l'arabe\nqîrât, qui vient du grec, en latin ceratium, le tiers d'une obole. En\ngrec, au propre, signifie la silique du caroubier (de là le sens d'un\npoids petit), et dérive du mot grec, corne (voy. CORNE), par\nassimilation de forme du fruit avec une petite corne. Carat est, comme\nabricot, l'exemple d'un mot grec qui est entré dans les langues romanes\npar l'intermédiaire de l'arabe.\n\nSUPPLÉMENT AU DICTIONNAIRE\nCARAT. Ajoutez : - REM.\n1. Carat s'est dit figurément pour exprimer un certain degré de qualité,\nde pureté.\nLa vérité jette, lorsqu'elle est à un certain carat, une manière d'éclat\nauquel l'on ne peut résister, RETZ, Oeuvres, t. III, p. 49, éd. Feillet\net Gourdault.\n2. Sot à trente-six carats, n'a pas en effet de sens, puisque un carat\nest un vingt-quatrième ; mais par cela même, cette locution est une\nexagération plaisante et, à ce titre, disant ce qu'elle veut dire.
caratch	CARATCH\n ka-rach s. m.\nTribut, capitation que payent au Grand Seigneur tous ses sujets non\nmusulmans.\n\nÉTYMOLOGIE\nMot turc.
carature	CARATURE\n ka-ra-tu-r' s. f.\nAlliage d'or et d'argent, ou d'or, d'argent et de cuivre, dont on fait\nles aiguilles d'essai.\n\nÉTYMOLOGIE\nCarat.\n\nSUPPLÉMENT AU DICTIONNAIRE\nCARATURE. Ajoutez : voy. KARATURE.
caravane	CARAVANE\n ka-ra-va-n' s. f.\n\n1° Nom, dans l'Orient et l'Afrique, des troupes de voyageurs qui\ns'assemblent pour traverser les déserts ou les mers avec plus de sûreté.\nLes caravanes moscovites, qui allaient trafiquer à la Chine, mettaient\nune année entière à leur voyage, FONTENELLE, Czar Pierre.\n\n2° Familièrement, troupe de gens allant de compagnie. Nous partirons en\ncaravane.\nTous quatre en chemin ils se mirent.... La caravane enfin rencontre en\nun passage Monseigneur le lion...., LA FONT., Fabl. IV, 12.\n\n3° Les premières courses des jeunes chevaliers de Malte contre les\nTurcs, parce qu'elles avaient souvent pour objet d'enlever les caravanes\nqui vont par mer d'Alexandrie à Constantinople. Le cadet était à Malte\npour faire ses caravanes.\nFig. et familièrement. Faire ses caravanes, mener une vie dissipée et\naventureuse.\n\nHISTORIQUE\nXIIIe s.\nOr vous dirai qu'est carvane : li marcheant Sarazin quant il voelent\naler en marchandise en lointaines terres, si parolent ensemble pour\nfaire carvane, DU CANGE, carvana.\nXVIe s.\nUne famille esgarée, ayant à changer de demeure.... tout cela m'eust\nbeaucoup moins touché, si je n'eusse eu à me ressentir de la peine\nd'aultruy, et servir six mois miserablement de guide à cette caravane,\nMONT., IV, 208.\n\nÉTYMOLOGIE\nPersan, karouan, troupe de voyageurs.\n\nSUPPLÉMENT AU DICTIONNAIRE\nCARAVANE. - HIST. XIIIe s. Ajoutez :\nLi rois Ricars apriès suï, Ki le karavane consui De Sarrasins...., PH.\nMOUSKES, Chronique, V. 19548. (il faut probablement lire karvane, comme\ndans Du Cange ; car consui doit être lu consuï, de trois syllabes).
caravaneur	CARAVANEUR\n ka-ra-va-neur s. m.\nTerme de marine. Vaisseau qui porte des marchandises d'échelle en\néchelle dans le Levant.
caravanier	CARAVANIER\n ca-ra-va-nié s. m.\nConducteur des bêtes de somme d'une caravane.\n\nHISTORIQUE\nXVe s.\nBertrand, sergent et caravanier ou entremetteur des vignes des seigneur\net dame de Chastelledeu, DU CANGE, caravellis.\n\nÉTYMOLOGIE\nCaravane.
caravaniste	CARAVANISTE\n ka-ra-va-ni-st' s. m. et f.\nTerme de commerce. Celui, celle qui fait partie d'une caravane.
caravansérai ou caravansérail	CARAVANSÉRAI ou CARAVANSÉRAIL\n ka-ra-van-sé-rè ou ka-ra-van-sé-rall, ll mouillées s. m.\nDans l'Orient, grand bâtiment au milieu duquel existe une vaste cour et\noù les voyageurs rencontrent, pour eux-mêmes et pour leurs bêtes de\nsomme, tous les approvisionnements désirables.\n\nREMARQUE\nLes orientalistes préfèrent l'orthographe caravanseraï, avec un tréma.\nOn trouve aussi caravansera.\nIl m'arriva l'autre jour de manger un lapin dans un caravansera,\nMONTESQ., Lettres pers. 46.\n\nÉTYMOLOGIE\nPort. caravançara ; du persan karouansarai, de karouan, troupe de\nvoyageurs, caravane, et sarai, maison.
caravelle	CARAVELLE\n ka-ra-vè-l' s. f.\nTerme de marine. Gros vaisseau de guerre turc.\nPetit bâtiment de mer, à voiles latines, dont l'usage est propre aux\nPortugais.\n\nHISTORIQUE\nXVe s.\nLe roy d'Espagne avoit envoyé quelques caravelles en Sicile, COMM.,\nVIII, 1.\n... N'y avoit que demi an, avoit envoyé une kirvelle toute chargée de\nvivres, CHASTEL., Chron. des ducs de B. III, 15.\n\nÉTYMOLOGIE\nEspagn. carabela ; ital. caravella, diminutif de l'espagnol et italien\ncaraba, sorte de navire ; du latin carabus, barque ; en grec, une barque\net un crabe (voy. CRABE).
caravelle	CARAVELLE\n ka-ra-vè-l' s. f.\nEspèce de clou qu'on nomme aussi carvelle.
caraïbe	CARAÏBE\n ka-ra-i-b' s. m. et f.\nNom des populations sauvages qui habitaient les Antilles au moment de\nl'arrivée des Européens.\nLangue caraïbe, ou, substantivement, le caraïbe, la langue parlée par\nces peuples.
caraïpé	CARAÏPÉ\n ka-ra-i-pé s. m.\nTerme de botanique. Nom du xylocarpus carapa.
caraïsme	CARAÏSME\n ka-ra-i-sm' s. m.\nDoctrine des caraïtes.
caraïte	CARAÏTE\n ka-ra-i-t' s. m.\nSecte de Juifs qui, attachée au texte de l'Écriture sainte, et\nn'admettant que les livres de l'ancien canon, rejette la cabale, les\ntraditions et le talmud.\n\nÉTYMOLOGIE\nHébreu, qara, lire.
carbatine	CARBATINE\n kar-ba-ti-n' s. f.\n\n1° Terme d'antiquité. Soulier de paysan fait d'un seul morceau de cuir.\n\n2° Aujourd'hui nom des peaux molles des bêtes avant qu'elles aient été\npréparées ou séchées.\n\nÉTYMOLOGIE\nLat. carbatina.
carbazotate	CARBAZOTATE\n car-ba-zo-ta-t' s. m.\nTerme de chimie. Synonyme de picrate.
carbazotique	CARBAZOTIQUE\n kar-ba-zo-ti-k' adj.\nTerme de chimie. Synonyme de picrique.
carbenet ou carmenet	CARBENET ou CARMENET\n kar-be-nè ou karme-nè s. m.\nCépage assez productif.
carbet	CARBET\n kar-bè s. m.\n\n1° Grande case de sauvages, aux Antilles.\n\n2° Terme de marine. Toiture pour abriter des embarcations.
carbo-azotine	CARBO-AZOTINE\n kar-bo-a-zo-ti-n' s. f.\nTerme de chimie. Substance explosive.\nDes produits à base de nitro-glycérine et une espèce de poudre de mine\nlente, désignée sous le nom de carbo-azotine, sont colportés en\nfraude...., , Lett. commune des contrib. indir. 10 août 1874.
carbogène	CARBOGÈNE\n kar-bo-jè-n' s. m.\nPoudre propre à préparer l'eau de seltz.\nLes poudres employées pendant longtemps ont été l'acide tartrique et le\nbicarbonate de soude ; on vend depuis quelques années une poudre unique\nappelée carbogène, qui est d'un prix moins élevé et produit une eau de\nseltz aussi bonne, P. POIRÉ, Notions de chimie, p. 135, Paris, 1869.\n\nÉTYMOLOGIE\nCarbo pour carbonique (acide), et gène, qui engendre.
carbon	CARBON\n kar-bon s. m.\nNom donné par les Anglais aux diamants noirs du Brésil, Journ. offic. 7\ndéc. 1875, p. 10093, 1re col.
carbonarisme	CARBONARISME\n kar-bo-na-ri-sm' s. m.\nPrincipes des carbonari ; leur association.
carbonaro	CARBONARO\n kar-bo-na-ro s. m.\nMembre d'une société secrète d'Italie qui travaillait au triomphe des\nidées révolutionnaires, et, par extension, membre de sociétés semblables\ndans les autres pays.\nAu plur. Les carbonari.\n\nÉTYMOLOGIE\nItal. carbonaro, charbonnier (voy. ce mot), sobriquet pris par les\naffiliés de la secte.
carbonatation	CARBONATATION\n kar-bo-na-ta-sion s. f.\nTerme de chimie. Action de soumettre à l'action des carbonates.\nFabrique de sucre de betteraves : chaudières à défécation ou bacs de\npremière carbonatation, , Journ. offic. 8 janv. 1874, p. 209, 1re col.
carbonate	CARBONATE\n kar-bo-na-t' s. m.\nTerme de chimie. Nom générique des sels formés par la combinaison de\nl'acide carbonique avec les bases.\n\nÉTYMOLOGIE\nCarbone.
carbonater	CARBONATER\n kar-bo-na-té v. a.\nTerme de chimie. Transformer en un carbonate ; saturer d'acide\ncarbonique.\nSe carbonater, v. réfl. Se changer en carbonate, se saturer d'acide\ncarbonique.\n\nÉTYMOLOGIE\nCarbonate.
carbonaté, ée	CARBONATÉ, ÉE\n kar-bo-na-té, tée part. passé.\nTerme de chimie. Combiné avec l'acide carbonique. Le marbre est de la\nchaux carbonatée.
carbone	CARBONE\n kar-bo-n' s. m.\nTerme de chimie. Un des éléments ou corps qu'on ne peut décomposer,\nabondamment répandu dans la nature, formant, dans le sein de la terre,\ndes masses plus ou moins considérables, et constituant le charbon, le\ndiamant, le bois, la tige et les feuilles des plantes.\n\nÉTYMOLOGIE\nCarbo, charbon (voy. ce mot).
carboneux	CARBONEUX\n kar-bo-neû adj. m.\nTerme de chimie. Acide carboneux, nom donné à l'acide oxalique.\n\nÉTYMOLOGIE\nCarbone.
carbonide	CARBONIDE\n kar-bo-ni-d' s. m.\nTerme de chimie. Nom des substances analogues au carbone.\n\nÉTYMOLOGIE\nCarbone.
carbonifère	CARBONIFÈRE\n kar-bo-ni-fê-r' adj.\nQui porte, qui produit du charbon. Terrains carbonifères.\nQui est destiné au transport du charbon. Chemin de fer carbonifère.\n\nÉTYMOLOGIE\nCarbo, charbon, et ferre, porter.
carbonique	CARBONIQUE\n kar-bo-ni-k' adj.\nTerme de chimie. Acide carbonique, acide formé de carbone et d'oxygène,\ngazeux, très répandu dans la nature et produit par la combustion de\npresque tous les corps et par la respiration des animaux.\n\nÉTYMOLOGIE\nCarbone.
carbonisation	CARBONISATION\n kar-bo-ni-za-sion s. f.\n\n1° Terme de chimie. Action de carboniser, et l'état qui en résulte.\n\n2° Terme de médecine. Brûlure au dernier degré, où la partie est\nentièrement désorganisée et comme réduite en charbon.\n\nÉTYMOLOGIE\nCarboniser.
carboniser	CARBONISER\n kar-bo-ni-zé v. a.\nRéduire en charbon.\nSe carboniser, v. réfl. Être réduit en charbon.
carbonisé, ée	CARBONISÉ, ÉE\n kar-bo-ni-zé, zée part. passé.\nRéduit en charbon. Des os carbonisés.
carbonite	CARBONITE\n kar-bo-ni-t' s. m.\nTerme de chimie. Nom des sels formés par une base et l'acide carboneux.\n\nÉTYMOLOGIE\nCarbone.
carbonnade	CARBONNADE\n kar-bo-na-d' s. f.\nManière de griller les viandes en les mettant sur les charbons.\nLa viande ainsi grillée. On nous servit une carbonnade.\n\nÉTYMOLOGIE\nItal. carbonata (voy. CHARBONNÉE).
carbonométrie	CARBONOMÉTRIE\n kar-bo-no-mé-trie s. f.\nTerme de chimie. Mesure de la quantité d'acide carbonique et, par suite,\nde carbone, rejetée par les poumons dans l'acte de la respiration.\n\nREMARQUE\nIl serait mieux de dire carbonimétrie, puisque le premier élément est\nlatin, et que les mots latins se joignent par la lettre i et non par la\nlettre o.\n\nÉTYMOLOGIE\nCarbone, et en grec, mesure.
carboné, ée	CARBONÉ, ÉE\n kar-bo-né, née adj.\nTerme de chimie. Qui contient du carbone en combinaison. Gaz hydrogène\ncarboné.
carbosulfure	CARBOSULFURE\n kar-bo-sul-fu-r' s. m.\nTerme de chimie. Nom des composés de carbone et de soufre.\n\nÉTYMOLOGIE\nCarbone, et soufre.
carbouille	CARBOUILLE\n kar-bou-ll, ll mouillées s. f.\nCarie du froment.\n\nÉTYMOLOGIE\nForme altérée de carboncle, qui s'est dit autrefois pour charbon des\nplantes et des animaux, et qui vient de carbunculus (voy. ESCARBOUCLE).
carbovinate	CARBOVINATE\n kar-bo-vi-na-t' s. m.\nTerme de chimie. Nom d'un genre de sels peu connus, qui seraient formés\npar une base et un acide carbonique non encore isolé.\n\nÉTYMOLOGIE\nCarbone, et vin.
carburation	CARBURATION\n kar-bu-ra-sion s. f.\nTerme de métallurgie. Opération par laquelle on soumet le fer à l'action\ndu carbone. Carburation du fer.\n\nÉTYMOLOGIE\nCarbure.
carbure	CARBURE\n kar-bu-r' s. m.\nTerme de chimie. Nom générique des composés auxquels le carbone donne\nnaissance en s'unissant aux métalloïdes et aux métaux. Carbure de\nsoufre. Carbure de fer.\n\nÉTYMOLOGIE\nVoy. CARBONE.
carburé, ée	CARBURÉ, ÉE\n kar-bu-ré, ée adj.\nTerme de chimie. Qui contient du carbone en combinaison. Hydrogène\ncarburé.
carcadet	CARCADET\n kar-ka-dé s. m.\nUn des noms vulgaires de la caille.
carcailler	CARCAILLER\n kar-ka-llé, ll mouillées v. n.\nSe dit du cri de la caille.\n\nÉTYMOLOGIE\nOnomatopée.
carcaillot	CARCAILLOT\n kar-ka-llo, ll mouillés s. m.\nUn des noms vulgaires de la caille.
carcaise	CARCAISE\n kar-kè-z' s. f.\nFourneau dans lequel le verrier recuit ses creusets et ses ouvrages.\n\nÉTYMOLOGIE\nAutre forme de carcasse ou plutôt de carquois (voy. ce mot), le fourneau\nétant ainsi dit par assimilation.
carcajou	CARCAJOU\n kar-ka-jou s. m.\nEspèce de blaireau d'Amérique (blaireau labradorique).\nLe carcajou est une espèce de tigre et de grand chat, CHATEAUBR., Amér.\n20.\nLes ours, les carcajous venaient se cacher dans ces retraites,\nCHATEAUBR., Atala, 252.
carcan	CARCAN\n kar-kan s. m.\n\n1° Collier de fer fixé à un poteau pour y attacher un condamné. La peine\ndu carcan a été supprimée en 1832.\nUne femme cria fort haut ; les archers la saisirent et la mirent\nindiscrètement à un carcan voisin, SAINT-SIMON, 244, 2.\nLa mauvaise famille est du Maine et de Caen ; Oui, tous ces forçats-là\nméritent le carcan, REGNARD, Légat. III, 8.\n\n2° Sorte de collier de bois qu'on met aux cochons pour les empêcher de\nse frayer passage à travers les haies.\n\n3° Sorte de collier de pierreries.\nCes riches carcans, ces colliers Et cette pompe enchanteresse Ne valent\npas un des baisers Que tu donnais dans ta jeunesse, VOLT., Épître 28.\nLes méchants portent l'orgueil à leur cou comme un carcan d'or,\nCHATEAUBR., Mart. 92.\n\nHISTORIQUE\nXIIe s.\nCelui qui tient carcan, , Th. le mart. 73.\nUn grant cherchant li ont au col lanciet ; Li enfes pleure, ne se set\nconsellier, , Raoul de C. 307.\nXIIIe s.\nUn grant charchant {il} li fait el col lacier, , Aubery, dans DU CANGE,\ncarcannum.\nEn buies et en grans carcans, , Ren. t. II, p. 192, V. 1739.\nXVe s.\nEt durant la vie du dit duc de Brabant, y eut un nommé Jean Chevalier\nqui voulut mettre à icelui duc un carquant au cou, MONSTRELET, II, 41.\nXVIe s.\nLes capporaulx sont tenus de l'attacher eux-mesmes au carquan ou\ncollier, CARLOIX, IV, 13.\nUn carcan, esmeraudé de perles et de rubis, DE LABORDE, Émaux, p. 195.\n\nÉTYMOLOGIE\nProvenç. carcan ; bas-lat. carcannum ; ital. carcame. Ménage le rattache\nau mot grec qui a la signification de tenailles ; mais on ne voit pas\ncomment il serait venu dans les langues romanes. Raynouard le rattache à\ncarcer, prison, ainsi que le provençal carcol, collier ; mais comment\ncarcer donnerait-il carcan ou carcol ? La vraie étymologie est celle que\ndonne Diez : anc. Haut allem. querca ; anc. scandin. qverk, cou, gosier.\n\nSUPPLÉMENT AU DICTIONNAIRE\nCARCAN. - ÉTYM. Ajoutez : M. Bugge, Romania, n° 10, p. 146, complète\nl'étymologie donnée par Diez, en expliquant la finale an, ant : qverk,\ncou, gosier, et band, lien ; kverkband, jugulaire, mentonnière, se\ntrouve dans la littérature ancienne de l'Islande ; carquebant ou\ncarcbant a passé à carcant.
carcan	CARCAN\n kar-kan s. m.\nTerme d'écurie. Mauvais cheval.\nCette rosse-là a été, comme une demi-douzaine d'autres carcans de son\nespèce, envoyée au roi l'an passé par je ne sais pas quel mamamouchi\nd'un pays du côté des Turcs, E. SUE, Godolphin-Arabian, ch. 2e.
carcasse	CARCASSE\n kar-ka-s' s. f.\n\n1° L'ensemble des os qui forment le tronc, décharnés mais tenant encore\nles uns avec les autres. Des carcasses de chevaux.\nLes forteresses {des Gaulois} à la porte desquelles étaient clouées des\ncarcasses de hiboux, des os de morts, CHATEAUB., Mart. 295.\n\n2° Carcasse de volaille, ce qui reste après qu'on a enlevé les membres.\n\n3° Familièrement, le corps.\nLa vieille Sanguin est morte comme une héroïne, promenant sa carcasse\npar la chambre, se mirant pour voir la mort, SÉV., 510.\nLes médecins à qui je laissais gouverner ma carcasse, J. J. ROUSS.,\nProm. 7.\nPrends garde que je ne te tombe sur la carcasse, prends garde que je ne\nte batte.\n\n4° Fig. Le reste, le débris.\nArmenonville me vint demander instamment de le servir pour obtenir ce\nqui n'était plus qu'une carcasse inanimée de charge, SAINT-SIMON, 435,\n42.\n\n5° Charpente d'un navire en construction, en démolition ou naufragé. Le\nnavire périt corps et biens, on ne put sauver que la carcasse.\n\n6° Monture en laiton, baleine, etc. d'un chapeau de femme.\n\n7° Terme de guerre. Machine à feu composée de deux cercles de fer qui se\ncroisent en ovale, dans laquelle on met une bombe avec des grenades, des\ncanons, des pistolets, des feux d'artifice, etc. revêtus d'une toile\ngoudronnée, et qui se jette comme les bombes.\nUn accident fut cause qu'une carcasse que M. Renau voulut tirer mit le\nfeu à la galiote toute chargée de bombes, FONTEN., Renau.\n\n8° Terme de pêche. Corbeille à poisson.\n\n9° Tout ce qui soutient un ouvrage, en forme la charpente.\nChâssis d'un parquet d'appartement.\n\nHISTORIQUE\nXIVe s.\nLe surplus des escrevices, à savoir coquilles et charquois, , Ménagier,\nII, 5.\nXVIe s.\nIl n'est plus question de nostre religion, mais de nostre servitude, et\nauquel d'entre vous les carcasses de nos os demeureront, , Sat. Ménipp.\n169.\nRien de nous ne reste en la bierre Qu'une vieille carcasse d'os, RONS.,\n.\n\nÉTYMOLOGIE\nBerry, carca, carcas, carcan, carcou, charcois, charcou ; bourguig.\nquarquaisse ; espagn. carcasa ; portug. et ital. carcassa. Aux\nétymologistes, ce mot a paru composé de car, chair, et cassa ou casso,\ncaisse (voy. CAISSE), mot à mot, caisse à chair, tronc du corps ; à la\nvérité, l'italien a aussi carcame, qui indiquerait un radical carc\n(carc-ame), d'où l'on arriverait à carcassa ; mais, asso ou assa n'étant\npas un suffixe italien, il faut voir dans carcame une confusion entre\ncarcassa et arcame, qui veut dire aussi carcasse, qui vient de arca,\ncoffre, et qui avait induit Ménage à tirer carcassa de arca. La\ncomparaison de carcasse et de carquois fait voir que l'étymologie est la\nmême pour ces deux mots et toute différente de celle qui a été jusqu'à\nprésent indiquée. Voy. CARQUOIS.\n\nSUPPLÉMENT AU DICTIONNAIRE\nCARCASSE.\n\n6° Ajoutez : Fabricant de carcasses ou montures de parapluies.\nFabricant de carcasses pour modes, celui qui couvre en soie, en fil ou\nen papier les branches de fil de fer ou de laiton qui servent aux\nmodistes et aux fabricants de fleurs artificielles, , Tarif des\npatentes, 1858.
carcassière	CARCASSIÈRE\n kar-ka-siê-r' s. f.\nTerme de marine. Chaloupe canonnière.\n\nÉTYMOLOGIE\nCarcasse.
carcere-duro	CARCERE-DURO\n kar-tché-ré-dou-ro s. m.\nPrison dure, régime tortionnaire des prisons autrichiennes en Italie.\n\nÉTYMOLOGIE\nItal. carcere, prison (voy. CHARTRE), et duro, dur (voy. DUR).
carcharias	CARCHARIAS\n kar-ka-ri-as' s. m.\nTerme de zoologie. Nom du requin.\n\nÉTYMOLOGIE\nTerme grec .
carchariodonte	CARCHARIODONTE\n kar-ka-ri-o-don-t' s. f.\nDent fossile d'une espèce de requin ou plutôt du requin fossile.\n\nÉTYMOLOGIE\nEn grec :requin et dent.
carchouflier	CARCHOUFLIER\n kar-chou-fli-é s. m.\nUn des noms provinciaux de l'artichaut.\n\nÉTYMOLOGIE\nVoy. ARTICHAUT. Ital. carciofo.
carcinologie	CARCINOLOGIE\n kar-si-no-lo-jie s. f.\nHistoire naturelle des crustacés.\n\nÉTYMOLOGIE\nEn grec :crabe (voy. CANCER) et traité (voy. LOGIQUE).
carcinomateux, euse	CARCINOMATEUX, EUSE\n kar-si-no-ma-teû, teû-z' adj.\nTerme de médecine. Qui est de nature carcinomateuse.\n\nÉTYMOLOGIE\nCarcinome.
carcinome	CARCINOME\n kar-si-no-m' s. m.\nTerme de médecine. Synonyme de cancer.\n\nHISTORIQUE\nXVIe s.\nCeste fievre, de mesme que les carcinomes, demande plustost à estre\nflattée qu'irritée, PARÉ, XX, 29.\n\nÉTYMOLOGIE\nTerme dérivé du mot grec signifiant cancer (voy. ce mot).
carcinoïde	CARCINOÏDE\n kar-si-no-i-d' s. m.\nTerme de zoologie. Nom des animaux analogues aux crabes.\n\nÉTYMOLOGIE\nEn grec :crabe et forme.
carcérulaire	CARCÉRULAIRE\n kar-sé-ru-lê-r' adj.\nTerme de botanique. Qui tient du carcérule. Fruit carcérulaire.
carcérule	CARCÉRULE\n kar-sé-ru-l' s. f.\nTerme de botanique. Tout fruit sec à plusieurs loges et indéhiscent,\ncomme celui du tilleul.\n\nÉTYMOLOGIE\nDiminutif de carcer, prison (voy. CHARTRE).
cardage	CARDAGE\n kar-da-j' s. m.\nEnsemble des opérations par lesquelles on carde la laine.\nDans l'économie domestique, acte de carder les matelas.\n\nÉTYMOLOGIE\nCarder.
cardaine	CARDAINE\n kar-dê-n' s. f.\nTerme de pêche. Espèce de raie.
cardaline	CARDALINE\n kar-da-li-n' s. f.\nUn des noms vulgaires du chardonneret.
cardamine	CARDAMINE\n kar-da-mi-n' s. f.\nTerme de botanique. Plante crucifère à feuilles pinnées, à fleurs d'un\nviolet pâle, dite aussi cresson des prés (cardamine pratensis, L.).\n\nÉTYMOLOGIE\nTerme grec .
cardamome	CARDAMOME\n kar-da-mo-m' s. m.\nNom donné aux fruits de plusieurs espèces du genre amome, en particulier\nà celui de l'amomum cardamomum, L.\n\nHISTORIQUE\nXIIIe s.\nEt cardemoine et nois muscades, , Roi Guill. p. 93, dans DU CANGE,\ngloss. franç.\n\nÉTYMOLOGIE\nTerme grec.
cardasse	CARDASSE\n kar-da-s' s. f.\nNom vulgaire de la plante appelée nopal.
cardasse	CARDASSE\n kar-da-s' s. f.\nTerme de métier. Peigne pour la bourre de soie.\n\nÉTYMOLOGIE\nCarder.
carde	CARDE\n kar-d' s. f.\n\n1° Nervure médiane des feuilles du cardon ou artichaut cardon cultivé\npour servir d'aliment.\nNom donné à la plante elle-même.\n\n2° Côte, bonne à manger, des feuilles de poirée. Une botte de cardes de\npoirée ou de cardes poirées.\n\n3° Tête épineuse de la cardère ou chardon à foulon, qu'on emploie pour\ncarder la laine.\n\n4° Machine garnie de chardons à foulon pour peigner le drap.\n\n5° Peigne de cardeur, formé d'une planchette à manche, laquelle est\ngarnie, d'un côté, de pointes de fil d'archal très fin.\n\nHISTORIQUE\nXVe s.\nGeta contre le dit Georget unes escardes qu'il avoit en sa main, DU\nCANGE, cardi.\nXVIe s.\nNe se pouvans perdre les piquerons de la carde, manifeste clairement ce\nestre une espece de fruit separé, non l'artichau sauvage, O. DE SERRES,\n517.\nPar graine s'edifie la carde ou cardon, O. DE SERRES, 518.\n\nÉTYMOLOGIE\nWallon, gâde ; espagn. carda, chardon et carde à carder ; ital. cardo,\nmême sens ; bas-lat, cardo, instrument à carder ; de carduus, chardon\n(voy. ce mot), employé à carder la laine, et donnant son nom à\nl'instrument. On voit par là comment carde, légume, et carde, outil,\nsont un seul et même mot.\n\nSUPPLÉMENT AU DICTIONNAIRE\nCARDE. - HIST. XVe s. Ajoutez :\nLes maistres et ouvriers dudit mestier seront tenus ouvrer de tous\noutils à usage de aumusserie, c'est à sçavoir de charbon, de chisaille,\nsans mousle, sans guerde et sans forces à tondre drap, excepté que de\nladite guerde l'on pourra brosser tout l'ouvrage après ce qu'il sera\nteint, pour le demesler tant seulement, , Ordonnance, mars 1450.
carder	CARDER\n kar-dé v. a.\nPeigner avec des cardes ou des chardons à foulon. Carder de la laine, du\ndrap, etc.\nSe carder, v. réfl. Être cardé. Le crin se carde difficilement.\n\nHISTORIQUE\nXVe s.\nLe suppliant et ses gens escarderent et fillerent une tresse pour faire\nun drap, DU CANGE, cardi.\nXVIe s.\nCroesus ayant faict prendre un gentilhomme, favori de Pantaleon son\nfrere, le mena en la boutique d'un foullon, où il le feit tant gratter\net carder à coups de cardes et peignes de ce cardeur, qu'il en mourut,\nMONT., III, 121.\nNi Pallas pour avoir monstré l'art de filer, Escarder les toisons, ou\nl'huile distiler, RONS., 694.\n\nÉTYMOLOGIE\nNorm. écarder ; wallon, gâder ; provenç. et espagn. cardar ; ital.\ncardare (voy. CARDE).\n\nSUPPLÉMENT AU DICTIONNAIRE\nCARDER. - HIST. XVe s. Ajoutez :\nGuerder, , Ordonnance, mars 1450.
carderie	CARDERIE\n kar-de-rie s. f.\nFabrique où l'on carde la laine.\n\nÉTYMOLOGIE\nCarder.
cardeur, euse	CARDEUR, EUSE\n kar-deur, deû-z' s. m. et f.\nOuvrier, ouvrière qui carde. Cardeuse de matelas.\nLe Clerc, cardeur de laine, fut le premier pasteur des protestants à\nMeaux, FÉN., II, 6.\n\nHISTORIQUE\nXVe s.\nJehan escardeur de laynes, DU CANGE, cardi.\n\nÉTYMOLOGIE\nCarder ; provenç. cardaire ; espagn. cardador ; ital. cardatore.
cardeuse	CARDEUSE\n kar-deû-z' s. f.\nMachine à carder, , Journ. offic. 24 févr. 1876, p. 1371, 3e col.
cardia	CARDIA\n kar-di-a s. m.\nTerme d'anatomie. Orifice supérieur de l'estomac.\n\nÉTYMOLOGIE\nEn grec :cardia, et coeur (voy. COEUR) ; le cardia fut ainsi nommé à\ncause de son voisinage du coeur et des sensations douloureuses qu'on y\néprouve parfois et que l'on rapportait au coeur.
cardiacé, ée	CARDIACÉ, ÉE\n kar-di-a-sé, sée adj.\nTerme d'histoire naturelle. Qui ressemble à un coeur.\nS. m. Les cardiacés, les animaux à coquille en forme de coeur.\n\nÉTYMOLOGIE\nEn grec, coeur.
cardiagraphie	CARDIAGRAPHIE\nMot mal formé ; voy. CARDIOGRAPHIE.
cardiaire	CARDIAIRE\n kar-di-ê-r' s. f.\nAutre nom de la cardère.
cardiaire	CARDIAIRE\n kar-di-ê-r' adj.\nTerme de zoologie. Ver cardiaire, parasite vivant dans le coeur.\n\nÉTYMOLOGIE\nEn grec, coeur.
cardialgie	CARDIALGIE\n kar-di-al-jie s. f.\nTerme de médecine. Douleur très vive qui se fait sentir à l'épigastre,\nvers l'orifice supérieur de l'estomac.\n\nÉTYMOLOGIE\nTerme venant des mots grecs : coeur (voy. ce mot) et souffrir.
cardialgique	CARDIALGIQUE\n kar-di-al-ji-k' adj.\nQui a rapport à la cardialgie.
cardialogie	CARDIALOGIE\nMot mal formé ; voy. CARDIOLOGIE.
cardiaque	CARDIAQUE\n kar-di-a-k' adj.\n\n1° Terme d'anatomie. Qui appartient au coeur, ou bien qui a rapport au\ncardia. Vaisseaux, nerfs cardiaques. L'orifice cardiaque de l'estomac,\nle cardia ou orifice supérieur, le plus rapproché du coeur.\n\n2° Terme de médecine. Médicaments cardiaques, médicaments toniques et\nstimulants auxquels on attribuait une action spéciale sur le coeur.\nSubstantivement. Un bon cardiaque.\nMaladie cardiaque, maladie qui a régné dans l'antiquité et qui est\naujourd'hui éteinte. Elle était caractérisée par une sueur profuse, des\npalpitations, des défaillances.\n\nHISTORIQUE\nXVIe s.\nOn doit conforter le coeur par remedes cardiaques, PARÉ, V, 29.\nLe vin, lequel est très souverain cardiaque, PARÉ, XX bis, 18.\n\nÉTYMOLOGIE\nTerme dérivé du mot grec signifiant coeur (voy. ce mot).
cardiatomie	CARDIATOMIE\nMot mal formé ; voy. CARDIOTOMIE.
cardiectasie	CARDIECTASIE\n kar-di-è-kta-zie s. f.\nTerme de médecine. Synonyme d'anévrisme du coeur.\n\nÉTYMOLOGIE\nEn grec :coeur et dilatation, de arrêt, position (voy. STASE).
cardier	CARDIER\n kar-dié s. m.\nCelui qui fait ou vend des cardes.\n\nÉTYMOLOGIE\nCarde.
cardinal	CARDINAL\n kar-di-nal s. m.\n\n1° Un des soixante et dix prélats du sacré collége ou conseil du pape,\nqui ont voix active et passive dans le conclave. Le pape fit une\npromotion de cardinaux. Le rouge est la couleur des cardinaux.\nCardinal-évêque. Cardinal-prêtre. Cardinal-diacre. Cardinal in petto,\ncardinal dont la proclamation et l'institution sont réservées. Les\ncardinaux étaient, dans l'origine, des prêtres et des diacres attachés\naux églises métropolitaines.\nDans ce concile il y eut des cardinaux ; on nommait ainsi des prêtres et\ndes diacres qui servaient de conseil aux métropolitains, VOLT., Moeurs,\n31.\n\nPROVERBE\nQui entre pape au conclave, en sort cardinal, c'est-à-dire celui qui,\navant l'ouverture du conclave, semble avoir toutes les chances en sa\nfaveur pour être pape, échoue cependant et n'est pas élu.\n\n2° En histoire naturelle, nom d'oiseaux de différents genres dont la\ncouleur dominante est le rouge.\nLe lendemain je m'éveillai au chant des cardinaux nichés dans les\nacacias, CHATEAUB., Atala, 266.\n\nHISTORIQUE\nXIIe s.\nCar danz Henris de Pise, qui des chardenaux fu, , Th. le mart. 52.\nXIIIe s.\nIl conterent ceste mesaventure au chardonal maistre Pieron de Capes,\nVILLEH., CXLV.\nLi chardonaus, qui de part l'apostole de Rome estoit, en sermona et en\nfist pardon à tous ceus qui en la bataille morroient, VILLEH., CLX.\nEt après i envoia un cardonnal qui est apelés maistre Pieron de Capes,\nVILLEH., I.\nIl n'i a cardonal, tant haut l'espée çaigne, Qui l'alast querre là por\nestre roi d'Espaingne, RUTEB., 237.\nEt diligenment virent l'apostolle et les cardonnaulx ce que en {on} leur\nporta, JOINV., 303.\nXVIe s.\nQuand saint Gregoire parle des cardinaux, il n'entend point les prestres\nde Rome, mais les evesques de quelque lieu que ce soit, tellement que\nprestre cardinal, en somme, ne signifie autre chose en ses escrits\nqu'evesque ; je ne trouve point que ce nom ait esté en usage auparavant,\nen quelque signification que ce soit, CALVIN, Instit. 919.\nLe comte de S. Pol.... enfin fut fait cardinal {décapité, cruelle\nplaisanterie tirée de la couleur rouge du sang} en greve, , Sat. Ménipp.\n91.\n\nÉTYMOLOGIE\nProvenç. et espagn. cardenal ; portug. cardeal ; ital. cardinale ; le\nmême que cardinal, adjectif. La déclinaison dans l'ancien français est\nau nominatif cardenals ou cardenaus, et au régime cardenal ; au pluriel\nc'est l'inverse : nominatif cardenal, régime cardenals ou cardenaus.\n\nSUPPLÉMENT AU DICTIONNAIRE\n2. CARDINAL. Ajoutez :\nCardinal-prêtre, celui dont le titre cardinalice est une des églises de\nRome qui était autrefois administrée par un prêtre ; cardinal-diacre,\ncelui dont le titre est un des diaconats de Rome, ou une des églises\nautrefois administrées par des diacres ; cardinal-évêque, celui dont le\ntitre est un des sept évêchés suburbicaires. Ces titres peuvent être\nportés par des évêques, ou par des prêtres, ou par des diacres ; ils ont\nmême été quelquefois conférés à de simples laïques.
cardinal, ale	CARDINAL, ALE\n kar-di-nal, na-l' adj.\n\n1° Qui appartient au gond sur quoi une chose roule, important, capital.\nIl n'est resté dans l'usage commun que joint à certains substantifs. Les\npoints cardinaux, les quatre points cardinaux de l'horizon, nord, sud,\nest et ouest, auxquels on rapporte tous les autres.\nVents cardinaux, vents qui soufflent des quatre points cardinaux de la\nsphère.\nLes quatre vertus cardinales, justice, prudence, tempérance et force.\nLes quatre vertus cardinales ont disparu avec les temps d'innocence,\nVOLT., Moeurs, 141.\n\n2° Terme de grammaire. Nombre cardinal, celui qui exprime absolument la\nquotité. Un, deux, trois, etc. sont des nombres cardinaux ; et, premier,\nsecond, troisième, etc. des noms de nombre ordinaux. Les nombres\ncardinaux ont été ainsi nommés parce qu'ils sont pour ainsi dire les\ngonds sur lesquels les noms de nombre ordinaux tournent.\nAdjectif cardinal, nom de nombre cardinal, mot par lequel on exprime les\nnombres cardinaux. En français, les noms de nombre cardinaux sont tous\ninvariables, excepté un, vingt et cent.\n\n3° Terme de liturgie. Autel cardinal, autel principal. Messe cardinale\nmesse solennelle.\n\n4° Terme d'histoire naturelle. Au propre, qui fait partie d'une\ncharnière.\n\nHISTORIQUE\nXIVe s.\nL'en peut entendre par ces quatre faces ou par ces quatre angles les\nquatre vertuz cardinaulx : c'est assavoir justice, prudence, fortitude,\nattrempance, ORESME, Eth. 24.\n\nÉTYMOLOGIE\nProvenç. cardenal ; espagn. cardinal ; ital. cardinale ; de cardinalis,\nprincipal, de cardo, gond : ce qui appartient au gond, sur quoi la chose\ntourne.\n\nSUPPLÉMENT AU DICTIONNAIRE\n1. CARDINAL. Ajoutez :\n\n5° Terme d'optique. On appelle points cardinaux d'un système dioptrique\nformé d'un nombre quelconque de milieux réfringents séparés les uns des\nautres par des surfaces sphériques centrées, six points dont la\ndétermination suffit pour calculer ou construire très aisément toutes\nles circonstances relatives à la marche de la lumière à travers le\nsystème, telles que la grandeur et la position des images, etc. Les six\npoints cardinaux sont : deux points principaux ; deux points nodaux ;\ndeux points focaux ou foyers principaux.
cardinalat	CARDINALAT\n kar-di-na-la ; le t ne se lie pas s. m.\nDignité de cardinal.\nLe pape Urbain VIII fit dire au cardinal de la Valette qu'il le\ndépouillerait du cardinalat, VOLT., Louis XIV, 2.\n\nHISTORIQUE\nXVe s.\nOn fut avisé au conseil du roi, qui pourroit tant faire et exploiter que\non fist demettre ce Boniface et ce Benedict hors de leur papalité et\ntous les cardinaux hors de leur cardinalité, FROISS., III, IV, 36.\nXVIe s.\nLe droict de regale est ouvert par la promotion au cardinalat ou\npatriarchat, PITHOU, 66.\n\nÉTYMOLOGIE\nCardinal.
cardinale	CARDINALE\n kar-di-na-l' s. f.\nTerme de botanique. Nom de deux plantes d'Amérique, cultivées dans les\njardins à cause de la beauté de leurs fleurs. Cardinale rouge. Cardinale\nbleue.\n\nÉTYMOLOGIE\nCardinal 2.
cardinalice	CARDINALICE\n kar-di-na-li-s' adj.\nQui mène au cardinalat ; qui est compatible avec le cardinalat. Charge\ncardinalice.\n\nÉTYMOLOGIE\nItal. cardinalizio, de cardinale, cardinal.
cardinaliser	CARDINALISER\n kar-di-na-li-zé v. a.\nFaire cardinal.\nTerme de peinture. Rendre rouge. Peu usité.\n\nHISTORIQUE\nXVIe s.\nLes escrevisses qu'on cardinalise à la cuite, RABEL., liv. I, dans\nLEROUX, Dict. comique.\n\nÉTYMOLOGIE\nCardinal 2.
cardinalisme	CARDINALISME\n kar-di-na-li-sm' s. m.\nParti et opinion des cardinalistes.
cardinaliste	CARDINALISTE\n kar-di-na-li-st' s. m.\nPartisan du gouvernement du cardinal Richelieu ou du cardinal Mazarin.\n\nÉTYMOLOGIE\nCardinal.
cardine	CARDINE\n kar-di-n' s. f.\nTerme de pêche. Espèce de sole.
cardineau	CARDINEAU\n kar-di-nô s. m.\nTerme de pêche. Plie.
cardinifère	CARDINIFÈRE\n kar-di-ni-fê-r' adj.\nTerme de zoologie. Qui porte une charnière.\n\nÉTYMOLOGIE\nCardo, cardinis, gond, et ferre, porter.
cardiographie	CARDIOGRAPHIE\n kar-di-o-gra-fie s. f.\nTerme d'anatomie. Description du coeur.\n\nÉTYMOLOGIE\nEn grec : coeur et décrire.
cardiologie	CARDIOLOGIE\n kar-di-o-lo-jie s. f.\nTerme d'anatomie. Traité du coeur.\n\nÉTYMOLOGIE\nEn grec :coeur et traité.
cardiopathie	CARDIOPATHIE\n kar-di-o-pa-tie s. f.\nTerme de médecine. Maladie du coeur.\n\nÉTYMOLOGIE\nEn grec :coeur et maladie.
cardiophylle	CARDIOPHYLLE\n kar-di-o-fi-l' adj.\nTerme de botanique. Qui a des feuilles en coeur.\n\nÉTYMOLOGIE\nEn grec : coeur et feuille.
cardiotomie	CARDIOTOMIE\n kar-di-o-to-mie s. f.\nDissection du coeur.\n\nÉTYMOLOGIE\nEn grec : coeur et dissection.
carditacé	CARDITACÉ\n kar-di-ta-sé s. m.\nTerme d'histoire naturelle. Nom de moules en forme de coeur.\n\nÉTYMOLOGIE\nCardite 2.
cardite	CARDITE\n kar-di-t' s. f.\nTerme de médecine. Inflammation du coeur.\n\nÉTYMOLOGIE\nEn grec :coeur et le suffixe médical .... ite.
cardite	CARDITE\n kar-di-t' s. f.\nTerme de zoologie. Nom d'un genre de moules.
carditique	CARDITIQUE\n kar-di-ti-k' adj.\nTerme de médecine. Fièvre carditique, variété de l'intermittente\npernicieuse, dans laquelle le malade éprouve des palpitations violentes\net des syncopes.\n\nÉTYMOLOGIE\nEn grec :coeur.
cardon	CARDON\n kar-don s. m.\nEspèce d'artichaut, dont les pétioles des feuilles, larges et épais,\nsont employés comme aliment, après avoir été étiolés (cynara\ncardunculus, L.).\n\nHISTORIQUE\nXVIe s.\nLes fruits sont les artichaux, cardons, melons...., O. DE SERRES, 507.
cardon	CARDON\n kar-don s. m.\nTerme de pêche. Un des noms de la chevrette, sorte de crustacé bon à\nmanger.
cardonette	CARDONETTE\n kar-do-nè-t' s. f.\nVoy. CHARDONNETTE.
carduacé, ée	CARDUACÉ, ÉE\n kar-du-a-sé, sée adj.\nTerme de botanique. Qui ressemble au chardon.\nS. f. Les carduacées, genre de plantes dont le chardon est le type.\n\nÉTYMOLOGIE\nCarduus, chardon (voy. ce mot).
cardère	CARDÈRE\n kar-dê-r' s. f.\nPlante bisannuelle nommée aussi chardon à foulon.\n\nÉTYMOLOGIE\nCarde.
cardé, ée	CARDÉ, ÉE\n kar-dé, dée part. passé.\nLaine cardée.
cardée	CARDÉE\n kar-dée s. f.\nQuantité de laine qu'on peigne à la fois avec deux cardes.
careiche	CAREICHE\n ka-rè-ch' s. f.\nTerme de botanique. Un des noms de la laîche.\n\nÉTYMOLOGIE\nCarex, laîche.
carence	CARENCE\n ka-ran-s' s. f.\nTerme de pratique. Manque absolu. Procès-verbal de carence,\nprocès-verbal qui constate qu'un défunt n'a rien laissé, ou qu'un\ndébiteur est sans ressources.\n\nHISTORIQUE\nXVe s.\nPitié seroit si l'ame en avoit carence par abus en ce monde, CHASTEL.,\nÉloge du bon duc Philippe.\n\nÉTYMOLOGIE\nProvenç. et espagn. carencia ; ital. carenzia ; du latin carere,\nmanquer.
caressant, ante	CARESSANT, ANTE\n ka-rè-san, san-t' adj.\n\n1° Qui caresse, qui aime à caresser. Un enfant, un chien caressant.\nJe n'ai point l'heureux don de ces esprits faciles Pour qui les doctes\nsoeurs, caressantes, dociles, Ouvrent tous leurs trésors, J. B. ROUSS.,\nOdes, III, 1.\n\n2° En parlant des choses. Un ton caressant. De caressantes paroles.\nHélas ! à quels soupirs suis-je donc condamnée ! Moi qui de mes parents\ntoujours abandonnée, Étrangère partout, n'ai pas, même en naissant,\nPeut-être reçu d'eux un regard caressant, RAC., Iphig. II, 3.\n\n3° Fig. Le zéphyr, le flot caressant.\nSans dédain, sans courroux puissé-je être écouté ! Puisse un vers\ncaressant séduire la beauté !, A. CHÉN., Él. 34.
caresse	CARESSE\n ka-rè-s' s. f.\n\n1° Marque extérieure d'affection, qui se donne par la main, par les\nlèvres, et quelquefois aussi par les manières et les paroles. De\nperfides caresses. Faire caresse à quelqu'un.\nIl me fit d'abord mille caresses, car il m'aime toujours, PASC., Prov.\n5.\nTes feux et tes serments cèdent à ses caresses, CORN., Cinna, III, 4.\nCela se passera avec un peu de caresse que vous lui ferez, MOL., G. D.\nII, 12.\nJe vous vois accabler un homme de caresses, MOL., Mis. I, 1.\n.... Os de poulets, os de pigeons ; Sans parler de mainte caresse, LA\nFONT., Fabl. I, 5.\nSes caresses n'ont point effacé cette injure, RAC., Baj. I, 1.\nAh ! si vous aviez vu par combien de caresses Il m'a renouvelé la foi de\nses promesses, RAC., Britann. V, 3.\nDès vos plus jeunes ans, mes soins et mes tendresses N'ont arraché de\nvous que de feintes caresses, RAC., ib.\nCette princesse lui a fait des caresses infinies, SÉV., 418.\nSans songer que mêmes tendresses, Mêmes serments, mêmes caresses\nTrompèrent un autre avant lui, J. B. ROUSS., Odes, II, 15.\n\n2° Fig. Les caresses de la fortune.\nCe doux pays reçoit du haut des cieux De ses rayons {du soleil} les\npremières caresses, C. DELAVIGNE, Paria, I, 5.\n.... N'offrir qu'aux talents de vertus ennoblis Et qu'à l'amitié douce\net qu'aux douces faiblesses, D'un encens libre et pur les honnêtes\ncaresses, A. CHÉN., Él. 16.\n\nHISTORIQUE\nXVIe s.\nEt bien où voulez-vous ailer, Mon miel, ma douceur, ma caresse ?, R.\nBELLEAU, Oeuvres, p. 130, dans LACURNE.\n\nÉTYMOLOGIE\nItal. carezza ; de caro, cher ; du latin carus (voy. CHER).
caresser	CARESSER\n ka-rè-sé v. a.\n\n1° Faire des caresses. Caresser un enfant, un chien.\n.... L'âne de la fable, Qui, pour se rendre plus aimable Et plus cher à\nson maître, alla le caresser, LA FONT., Fabl. IV, 5.\nEt soit frayeur encore ou pour me caresser De ses bras innocents je me\nsentis presser, RAC., Ath. I, 2.\nIl faut nous flatter et nous caresser comme des enfants, pour nous tenir\nen bonne humeur, NICOLE, dans BOUHOURS, Rem.\nQuel avantage a-t-on qu'un homme vous caresse, Vous jure amitié, foi,\nzèle, estime, tendresse, Lorsqu'au premier faquin il court en faire\nautant ?, MOL., Mis. I, 1.\nPoétiquement. Le zéphyr caresse les fleurs. Le flot caressait les flancs\ndu navire.\nIroniquement. Il lui caressa les épaules à coups de bâton.\nCaresser la bouteille, aimer à boire.\nSe dit, particulièrement et dans un langage libre, des caresses\namoureuses.\nLeurs femmes caresser...., RÉGNIER, Sat. IX.\nVos griffes la pourront blesser Quand vous voudrez la caresser, LA\nFONT., Fables, IV, 1.\nBoit son vin, caresse sa fille, LA FONT., ib. IV, 4.\nLes Français chantaient, buvaient, caressaient les filles dans les\ncathédrales, VOLT., Moeurs, 57.\nDe mon vin ils prennent leur part, Ils caressent ma chambrière, BÉRANG.,\nMon enterr.\nTerme d'artiste, étendu aussi aux oeuvres littéraires. Caresser un\nouvrage, le faire avec amour.\n\n2° Fig. Flatter.\nQuoiqu'un peuple l'adore, et qu'un roi le caresse, CORN., Cid, IV, 2.\nIl feint, il me caresse et cache son dessein, RAC., Mith. IV, 2.\nSelon qu'il vous menace ou bien qu'il vous caresse, La cour autour de\nvous ou s'écarte ou s'empresse, RAC., Brit. IV, 1.\nMon fils peut caresser la main qui nous opprime !, C. DELAVIGNE, Vêpres\nsic. I, 1.\n\n3° Entretenir, nourrir. Caresser un amour, un espoir, une idée. Un mal\nque nous caressons.\nQuand de vos ennemis caressant l'insolence, VOLT., Tancr. IV, 6.\nPar des soumissions caresser son orgueil, VOLT., Alz. I, 1.\n\n4° Terme de peinture. Caresser le nu, jeter les draperies de manière à\nfaire apercevoir le nu.\n\n5° Se caresser, v. réfl. Se donner réciproquement des caresses.\n\nSYNONYME\nCARESSER, FAIRE DES CARESSES Ces termes ne sont pas synonymes en tout.\nCaresser un enfant, ou faire des caresses à un enfant, peuvent se dire\nexactement l'un pour l'autre. Mais il n'en serait plus de même dans\ncette phrase-ci : Le roi lui fit beaucoup de caresses, c'est-à-dire le\nreçut avec des marques d'affection toutes particulières ; au lieu que\ncaresser, si on le mettait ici en place de faire des caresses, porterait\nl'esprit vers des caresses effectives.\n\nÉTYMOLOGIE\nCaresse ; ital. carezzare. Ce mot paraît être entré dans la langue au\ncommencement du XVIIe siècle, par l'italien carezzare.
caressé, ée	CARESSÉ, ÉE\n ka-rè-sé, sée part. passé.\nCet enfant caressé par sa mère.\nMon bon ami, que j'aime à être bien voulu et caressé ! il me semble\nalors que je ne suis plus malheureux, J. J. ROUSS., Lettr. Moultou, 21\njuin 1762.\nFig. Un tableau très caressé, tableau d'un grand fini, léché, comme on\ndit aujourd'hui.\n\nSUPPLÉMENT AU DICTIONNAIRE\nCARESSÉ.\nFig. Ajoutez :\nLe tour en {d'ouvrages de sculpture} est heureux et le travail savant,\nfin, caressé, DE CAYLUS, dans Mém. inéd. sur l'Acad. de peinture publiés\npar Dussieux, etc. t. I, p. 458.
caret	CARET\n ka-rè s. m.\nTortue des côtes de l'Amérique, du Mexique, des côtes de la Guinée et de\nla mer des Indes, dont la chair est malsaine ; mais les oeufs en sont\nrecherchés, et on travaille l'écaille.\n\nSUPPLÉMENT AU DICTIONNAIRE\n1. CARET. Ajoutez : - ÉTYM. M. Devic, Dict étym., remarque que la tortue\ncaret se dit en malais karah ( 1er a long) ; c'est sans doute l'origine\nde notre mot.
caret	CARET\n ka-rè s. m.\n\n1° Dévidoir à l'usage des cordiers.\n\n2° Fil de caret, gros fil qui sert à fabriquer les cordages pour la\nmarine.\n\nHISTORIQUE\nXVe s.\nLaquelle femme filoit au tour ou charet, DU CANGE, charetum.\n\nÉTYMOLOGIE\nPrononciation picarde de charet, diminutif de char (voy. ce mot), par\nassimilation d'un dévidoir à un chariot.
carette	CARETTE\n ka-rè-t' s. f.\nCadre faisant partie du métier à tisser les étoffes.\n\nÉTYMOLOGIE\nCaret 2.
carex	CAREX\n ka-rèks s. m.\nTerme de botanique. Genre de plantes appelées communément laîches.
cargaison	CARGAISON\n kar-ghè-zon s. f.\nTerme de marine. Charge d'un vaisseau.\nCharge entière du navire.\nFacture des marchandises chargées.\nTemps propre à charger les diverses marchandises. C'est le temps de la\ncargaison des vins, des huiles, des morues, SAVARY.\n\nÉTYMOLOGIE\nCarguer pour charger (voy. ce mot).
cargue	CARGUE\n kar-gh' s. f.\nTerme de marine. Cordages qui servent à carguer les voiles.\n\nÉTYMOLOGIE\nVoy. CARGUER.
carguer	CARGUER\n kar-ghé\n1° V. a. Terme de marine. Serrer et trousser les voiles contre leurs\nvergues, au moyen des cargues. Carguer les voiles.\n\n2° V. n. Pencher sur le côté en naviguant.\n\nÉTYMOLOGIE\nItal. caricare, charger (voy. CHARGER) : carguer les voiles, en faire\nune charge, un paquet.
cargueur	CARGUEUR\n kar-gheur s. m.\nTerme de marine. Matelot employé à carguer.\nPoulie pour amener et guinder le perroquet.
cargué, ée	CARGUÉ, ÉE\n kar-ghé, ghée part. passé.\nVoiles carguées.
cari	CARI\n ka-ri s. m.\n\n1° Poudre de cari, assaisonnement composé de piment, de curcuma et\nd'autres épices pulvérisées.\n\n2° Volaille ou tout autre mets préparé avec ce condiment. Manger un\ncari.
caria	CARIA\n ka-ri-a s. m.\nTerme de marine. Pou de bois très destructeur.
cariatide	CARIATIDE\n ka-ri-a-ti-d' s. f.\nFigure de femme ou même d'homme, qui supporte une corniche.\nL'histoire lui fournit la matière de la plupart des ornements\nd'architecture, dont il doit savoir rendre raison ; par exemple, si sous\nles mutules et les corniches, au lieu de colonnes, il met des statues de\nmarbre en forme de femmes honnêtement vêtues que l'on appelle\ncariatides, il pourra apprendre à ceux qui ignorent pourquoi cela se\nfait ainsi, que les habitants de Carie, qui est une ville de\nPéloponnèse, se joignirent autrefois avec les Perses, qui faisaient la\nguerre aux autres peuples de la Grèce, et que les Grecs, ayant par leurs\nvictoires glorieusement mis fin à cette guerre, la déclarèrent ensuite\naux Cariates ; que leur ville ayant été prise et ruinée, et tous les\nhommes mis au fil de l'épée, les femmes furent emmenées captives, et\nque, pour les traiter avec le plus d'ignominie, on ne permit pas aux\ndames de quitter leurs robes accoutumées ni aucun de leurs ornements,\nafin que non-seulement elles fussent une fois menées en triomphe, mais\nqu'elles eussent la honte de s'y voir en quelque façon menées toute leur\nvie, paraissant toujours au même état qu'elles étaient le jour du\ntriomphe, et qu'ainsi elles portassent la peine que leur ville avait\nméritée ; or, pour laisser un exemple éternel de la punition que l'on\navait fait souffrir aux Cariates, et pour apprendre à la postérité quel\navait été leur châtiment, les architectes de ce temps-là mirent, au lieu\nde colonnes, ces sortes de statues aux édifices publics, PERRAULT,\nVitruve, I, 1.\nLes cariatides du Pandroseum sont des modèles, CHATEAUB., Itin. 197.\n\nREMARQUE\nOn ne voit pas pourquoi l'Académie n'a pas conservé l'orthographe\nétymologique : caryatide.\n\nÉTYMOLOGIE\nEn grec, les jeunes filles de Caryae.
cariatidique	CARIATIDIQUE\n ka-ri-a-ti-di-k' adj.\nQui se rapporte aux cariatides.
caribari	CARIBARI\n ka-ri-ba-ri s. m.\nNavette volante.\n\nÉTYMOLOGIE\nPeut-être est-ce une forme de charivari (voyez ce mot), à cause du bruit\nque produit la navette.
caribou ou cariboux	CARIBOU ou CARIBOUX\n ca-ri-bou s. m.\nTerme de zoologie. Nom donné au renne par les habitants du Canada.\nLes caribous et les orignaux de l'Amérique septentrionale ont leur temps\nde migrations, CHATEAUB., Génie. I, V, 9.\n\nSUPPLÉMENT AU DICTIONNAIRE\nCARIBOU. Ajoutez :\n\n2° Nom d'une espèce de mousse dans le nord de l'Amérique.\nLà où la végétation n'est pas complétement brûlée {dans le Labrador}, on\nne rencontre qu'une espèce de mousse dite mousse caribou, qui couvre les\nrochers..., , Journ. offic. 20 oct. 1874, p. 7114, 3e col.
caricatural, ale	CARICATURAL, ALE\n ka-ri-ka-tu-ral, ra-l' adj.\nNéologisme. Qui a le caractère de la caricature.\nToutes ces figures {peintes dans une maison de Pompéi} ont des jambes\ngrêles ; le col est mince, la tête grosse, le nez fort, en sorte que\nl'intention caricaturale est évidente, , Journ. offic. 15 janv. 1876, p.\n430, 2e col.
caricature	CARICATURE\n ka-ri-ca-tu-r' s. f.\n\n1° Terme de peinture. Représentation grotesque de personnes,\nd'événements qu'on veut ridiculiser. Une caricature spirituelle. Les\ncaricatures politiques.\n\n2° Imitation dérisoire, charge. Molière a fait le portrait de l'avare,\ndont d'autres n'ont donné que la caricature.\nVotre oiseau {flamant} ressemble assez aux caricatures que M. Hubert a\nfaites de moi, VOLT., Lett. à Cath. 122.\nC'est cette vérité dans la couleur qui distingue le portrait d'avec la\ncaricature, DIDER., Réfl. sur Térence.\nCe ne sont là de la part de nos adversaires que des caricatures\néconomiques qui ne permettent pas les regards sérieux de la raison,\nMIRABEAU, Collection, t. IV, p. 151.\n\n3° Personne ridiculement accoutrée ou dont la figure est grotesque. Avec\nses plumes et sa robe rose, cette vieille femme est une caricature.\n\nÉTYMOLOGIE\nItal. caricatura, charge, de caricare, charger (voy. CHARGER).\n\nSUPPLÉMENT AU DICTIONNAIRE\nCARICATURE.\n\n1° Ajoutez :\nÀ l'école une fois la semaine, les élèves s'assemblent ; un d'eux sert\nde modèle ; son camarade le pose et l'enveloppe ensuite d'une pièce\nd'étoffe blanche, le drapant le mieux qu'il peut ; et c'est là ce qu'on\nappelle faire la caricature, DIDER., Oeuvres compl. 1821, t. IX, p. 16.
caricaturer	CARICATURER\n ka-ri-ka-tu-ré v. a.\nReprésenter en caricature.
caricaturier	CARICATURIER\n ka-ri-ka-tu-rié s. m.\nÉcrivain qui fait des caricatures, des charges, à la différence du\ncaricaturiste, qui est un artiste s'adonnant au genre de la caricature.\nLui {Tallemand des Réaux}, le caricaturier du XVIIe siècle, COUSIN,\nJourn. des sav. déc. 1857.
caricaturiste	CARICATURISTE\n ka-ri-ka-tu-ri-st' s. m.\nArtiste qui s'adonne au genre de la caricature.
caricoïde	CARICOÏDE\n ka-ri-ko-i-d'\n1° Adj. Terme d'histoire naturelle. Qui a la forme d'une figue.\n\n2° S. f. Pierre figurée en figue.\n\nÉTYMOLOGIE\nCarique, et en grec, forme.
caricée	CARICÉE\n ka-ri-sée s. f.\nTerme de botanique. Famille de plantes dont le carex est le type.\n\nÉTYMOLOGIE\nVoy. CAREX.
carie	CARIE\n ka-rie s. f.\n\n1° Terme de médecine. Destruction des os et des dents par voie\nd'ulcération.\n\n2° Terme de botanique. Maladie analogue par ses effets à la carie des\nanimaux. Elle consiste en une altération progressive de la substance\nligneuse des arbres, suivie de ramollissement.\nMaladie des graines céréales dans laquelle la farine est remplacée par\nune poussière qui n'est autre chose que la substance d'un champignon du\ngenre uredo (uredo caries).\n\nHISTORIQUE\nXVIe s.\nLorsqu'il y a carie, c'est à dire pourriture en l'os du talon, ce mal\nest incurable, PARÉ, XIV, 58.\n\nÉTYMOLOGIE\nCaries.
carier	CARIER\n ka-ri-é v. a.\n\n1° Attaquer de carie. Une affection scrofuleuse a carié plusieurs os\nchez ce petit malade.\n\n2° Se carier, v. réfl. Être affecté de carie. Ces blés se carient.\nL'os s'étant carié, la cuisse fut tantôt pourrie et le mal emporta\nCambyse, P. L. COURIER, II, 181.\n\nHISTORIQUE\nXVIe s.\nLes os se corrompent et carient, PARÉ, X, 14.\n\nÉTYMOLOGIE\nCarie.
carieux, euse	CARIEUX, EUSE\n ka-ri-eû, eû-z adj.\nOù est la carie. Os carieux.\nQui est entretenu par la carie. Ulcère carieux.\n\nHISTORIQUE\nXVIe s.\nLorsque l'os est carieux et pourri, PARÉ, VIII, 10.
carignane	CARIGNANE\n ka-ri-gna-n' s. m.\nCépage estimé du midi de la France, d'origine espagnole.
carillon	CARILLON\n ka-ri-llon, ll mouillées, et non cari-yon s. m.\n\n1° Sonnerie de cloches accordées à différents tons.\nLes carillons ont, dit-on, été inventés en Flandres où ils sont fort\ncommuns, NOËL et CARPENTIER, Dict. des origines.\nAir qu'on exécute sur ces cloches ainsi accordées.\nComme on fait plutôt le carillon pour les cloches que les cloches pour\nle carillon, l'on n'y fait entrer qu'autant de sons divers qu'il y a de\ncloches, J. J. ROUSS., Dict. de musique, carillon.\nSpécialement, les airs joués dans des horloges publiques à l'aide d'un\nmécanisme qui produit toujours le même chant. Les carillons de la\nSamaritaine.\nJ'aurais mieux aimé qu'ils {les horlogers} nous eussent envoyé quelques\ncarillons pour Sainte-Sophie, VOLT., Lett. à Cath. 81.\nHorloge, montre, boîte à carillon ou, simplement, carillon, horloge,\nmontre, boîte qui sonne ou joue différents airs. Il a un carillon de\nGenève qui joue dix-huit airs.\n\n2° Battement de cloches à coups précipités et cadencés. Sonner le\ncarillon. Sonner à double carillon.\nLes carillons des cloches semblaient augmenter l'allégresse publique,\nCHATEAUB., Génie, IV, I, 1.\nDu pieux carillon les légères volées Couraient en bondissant à travers\nles vallées, LAMART., Joc. I, 33.\nFig. et familièrement. À double, à triple carillon, très fort,\nexcessivement. Il fut sifflé à double carillon.\nLe jour que naquit Chatillon, On sonna double carillon Par tous les\nclochers de Cythère, VOIT., dans MÉNAGE qui a remarqué qu'on dit non pas\nsonner double carillon, mais sonner à double carillon.\nTerme de physique. Carillon électrique, petit carillon composé de trois\ntimbres que l'électricité met en mouvement.\n\n3° Fig. et familièrement, tapage, crierie. Ces enfants font un carillon\ninsupportable. Sa femme lui fera un beau carillon.\n\n4° Terme de métier. Barre de fer de 18 à 20 millimètres carrés.\n\n5° Anciennement, sorte d'ornement d'un bonnet de femme.\nHabillée du bel air, avec de petits bonnets à double carillon, SÉV.,\n282.\n\n6° Carillon de Dunkerque, air vif, à 2/4, composé de deux reprises,\nchacune de huit mesures, ainsi nommé sans doute parce qu'il y avait à\nDunkerque une horloge qui jouait cet air-là.\nDanse très vive ou plutôt ronde qui se joue sur cet air et par laquelle\non termine souvent les bals bourgeois. Elle commence par un grand rond ;\naprès quoi, les danseurs en place frappent trois fois dans leurs mains,\npuis trois fois du pied à terre ; enfin chaque cavalier fait tourner la\ndame qu'il a à sa gauche, en ayant soin de la déposer à sa droite. On\nrecommence ensuite le grand rond, puis les battements de mains et de\npieds, et les tours de main qui à chaque fois donnent une nouvelle dame\nà chaque cavalier.\n\nHISTORIQUE\nXIIIe s.\nEt les cordes corut saisir, Les sains {cloches} sone de grant aïr à\nglaz, à treble, à carenon, , Ren. 3341.\n\nÉTYMOLOGIE\nMénage, qui écrit carrillon, indique la vraie étymologie : un mot\nbas-latin quadrilio signifiant un quaternaire, à cause que les carillons\nse faisaient autrefois avec quatre cloches ; l'ancien français carenon a\nle même sens, mais vient de quaternio.
carillonnement	CARILLONNEMENT\n ka-ri-llo-ne-man, ll mouillées s. m.\nAction de carillonner.
carillonner	CARILLONNER\n ka-ri-llo-né, ll mouillées, et non ca-ri-yo-né v. n.\n\n1° Sonner le carillon ; exécuter un air sur un carillon.\nPour quelle fête a-t-on carillonné ? Une aiguille montre les heures\npendant que mon corps carillonne, VOLT., Microm. 7.\nC'est donc Rouen !... La ville aux cents clochers carillonnant dans\nl'air, V. HUGO, F. d'aut. 27.\n\n2° Familièrement. J'ai eu beau carillonner à sa porte {c'est-à-dire\nsonner à grand bruit}, on ne m'a pas ouvert.\n\nHISTORIQUE\nXVIe s.\nElle ne sortit des prisons que premierement le bourreau n'eust bien\ncarillonné sur son dos, PARÉ, XIX, 24.\n\nÉTYMOLOGIE\nCarillon.
carillonneur	CARILLONNEUR\n ka-ri-llo-neur, ll mouillées, et non ka-ri-yo-neur s. m.\n\n1° Celui qui carillonne.\n\n2° Espèce de merle.\n\nÉTYMOLOGIE\nCarillonner.
carillonné, ée	CARILLONNÉ, ÉE\n ka-ri-llo-né, née, ll mouillées, et non ca-ri-yo-né part. passé.\nUsité seulement dans cette locution : fête carillonnée, grande fête.
carinal, ale	CARINAL, ALE\n ka-ri-nal, na-l' adj.\nTerme didactique.. Qui a la forme d'une carène.\n\nÉTYMOLOGIE\nCarina, carène.
cariné, ée	CARINÉ, ÉE\n ka-ri-né, née adj.\nTerme de botanique. Se dit d'une feuille dont le milieu est creusé en\ngouttière.\n\nÉTYMOLOGIE\nCarina, carène.
cariopse	CARIOPSE\n ka-ri-op-s' s. m.\nFausse orthographe pour caryopse (voy. ce mot).
carique	CARIQUE\n ka-ri-k' s. f.\nTerme de botanique. Nom donné à une figue sauvage.\n\nÉTYMOLOGIE\nCarica, espèce de figue sèche, dite ainsi parce qu'elle venait de la\nCarie, pays de l'Asie Mineure.
carisel	CARISEL\n ka-ri-zèl s. m.\nSorte de canevas ; grosse toile claire.
caristade	CARISTADE\n ka-ri-sta-d' s. f.\nAumône. Demander, donner la caristade. Il a vieilli.\n\nÉTYMOLOGIE\nEspagn. caristade, aumône ; d'un verbe inusité charistare, donner\ngracieusement, en grec, grâce (on a, dans DU CANGE, charisterium, don\ngracieux).
carive	CARIVE\n ka-ri-v' s. m.\nPiment ou poivre de Guinée.
carié, ée	CARIÉ, ÉE\n ka-ri-é, ée part. passé.\n\n1° Atteint de carie. Os carié. Dent cariée. Arbre carié. Grains cariés.\nFig. Coeur carié, coeur corrompu.\n\n2° Terme de minéralogie. Se dit d'une roche percée de cavités\nirrégulières.
