stannifère	STANNIFÈRE\n sta-nni-fè-r' adj.\nQui contient de l'étain. Les gisements stannifères du Limousin.\nÉmail stannifère, émail composé d'oxyde d'étain, et qui est opaque. La\nfaïence européenne à émail stannifère. .... Ils doivent déterminer le\nclassement des poteries communes ou des faïences stannifères parmi les\narticles taxés, Tarif des douanes, 1869, p. 165.\n\nÉTYMOLOGIE\nLat. stannum, étain, et ferre, porter.
stannine	STANNINE\n sta-nni-n' s. f.\nNom donné par Beudant à une espèce minérale complexe contenant, entre\nautres éléments, du sulfure d'étain et du sulfure de fer. On l'appelle\naussi étain pyriteux.
stannique	STANNIQUE\n sta-nni-k' adj. m.\nTerme de chimie. Qui tient de l'étain.\nSe dit d'un acide qui est le second de ceux de l'étain.\nSulfure stannique, second degré de sulfuration de l'étain.\n\nÉTYMOLOGIE\nLat. stannum, étain.
stannoso-potassique	STANNOSO-POTASSIQUE\n sta-nno-zo-po-ta-ssik' adj. m.\nTerme de chimie. Se dit d'un sel stanneux qui est combiné avec un sel\npotassique.
staphisaigre	STAPHISAIGRE\n sta-fi-sè-gr' s. f.\nPlante, dite aussi herbe aux poux, parce que la semence, pulvérisée et\nincorporée à du beurre, sert à détruire la vermine de la tête,\nDelphinium staphisagria, L. famille des renonculacées.\n\nHISTORIQUE\nXVIe s.\nHerbe aux pouilleux, en latin staphisagria, veut estre en bonne terre\ncultivée et arrousée, non trop soleillée, O. DE SERRES, 616.\n\nÉTYMOLOGIE\nDu grec, raisin, et, sauvage.
staphisain	STAPHISAIN\n sta-fi-zin s. m.\nSubstance jaunâtre contenue dans les semences de staphisaigre avec la\ndelphinine.
staphylier	STAPHYLIER\n sta-fi-lié s. m.\nGenre de plantes dont une espèce, staphylier penné, vulgairement faux\npistachier, nez coupé, est cultivée dans les jardins d'agrément
staphylin	STAPHYLIN\n sta-fi-lin s. m.\nGenre d'insectes coléoptères.\n\nÉTYMOLOGIE\nDu grec, grain de raisin.
staphylin	STAPHYLIN\n sta-fi-lin adj. m.\nTerme d'anatomie. Qui a rapport à la luette. Muscle staphylin.\n\nÉTYMOLOGIE\nDu grec, luette, proprement, grain de raisin.
staphylinides	STAPHYLINIDES\n sta-fi-li-ni-d' s. m. pl.\nFamille d'insectes coléoptères, Journ. offic. 26 avr. 1876, p. 2943, 1re\ncol.\n\nÉTYMOLOGIE\nVoy. STAPHYLIN 1 au Dictionnaire.
staphyloplastie	STAPHYLOPLASTIE\n sta-fi-lo-pla-stie s. f.\nTerme de chirurgie. Opération qui a pour but d'adapter aux pertes de\nsubstance du voile du palais un lambeau taillé sur la voûte palatine.\n\nÉTYMOLOGIE\nDu grec, luette, et, former.
staphylorrhaphie	STAPHYLORRHAPHIE\n sta-fi-lo-ra-fie s. f.\nTerme de chirurgie. Opération par laquelle on remédie à la division\ncongénitale ou accidentelle du voile du palais, à l'aide de points de\nsuture passés dans les deux portions du voile préalablement avivées.\n\nÉTYMOLOGIE\nDu grec, luette, et, coudre.
staphyléacées	STAPHYLÉACÉES\n sta-fi-lé-a-sée s. f. plur.\nTerme de botanique. Famille de plantes séparée des rhamnées, voisine des\ncélastrinées.
staphylôme	STAPHYLÔME\n sta-fi-lô-m' s. m.\nTerme de chirurgie. Convexité très saillante que présente la cornée\ndistendue par l'humeur aqueuse, sans perte de sa transparence.\nAmincissement de la cornée avec adhérence à l'iris, et protrusion de ces\nmembranes par les humeurs de l'oeil.\nSaillie de l'iris à travers une perforation de la cornée, ce qui fait\nune tumeur en grain de raisin.\n\nHISTORIQUE\nXVIe s.\nStaphylome est une tumeur de la cornée de l'oeil avec l'uvée, qui vient\nà cause d'une defluxion ou ulcere faite en l'oeil, PARÉ, XV, 17.\n\nÉTYMOLOGIE\nDu grec, grain de raisin.
stappes	STAPPES\n sta-p' s. f. plur.\nPiliers en minerai laissés dans une couche pour en soutenir le toit.
stapédien, enne	STAPÉDIEN, ENNE\n sta-pé-diin, diè-n' adj.\nTerme d'anatomie. Qui a rapport à l'étrier de l'oreille. Muscle\nstapédien.\n\nÉTYMOLOGIE\nBas-lat. stapedium, étrier, de stare être sur, et pes, pied.
starie	STARIE\n sta-rie s. f.\nTerme du commerce maritime. Temps qui détermine le chargement et le\ndéchargement d'un navire. Lorsque la starie est trop longue, elle reste\naux frais de l'armateur.\nC'est le même que surestarie, qui est au Dictionnaire.
staroste	STAROSTE\n sta-ro-st' s. m.\nGentilhomme polonais jouissant d'une starostie.\n\nÉTYMOLOGIE\nMot polonais.
starostie	STAROSTIE\n sta-ro-stie s. f.\nFief dépendant de la couronne de Pologne que les rois cédaient à des\ngentilshommes pour les aider à soutenir les frais de la guerre.\nIl y a peu de princes en Europe qui aient autant de grâces à distribuer\nqu'un roi de Pologne ; il dispose des biens royaux appelés starosties,\ntenutes, ou advocaties, dont le nombre est très considérable, CONDIL.,\nÉtud. hist. II, 2.
starter	STARTER\n star-tèr s. m.\nTerme de turf. Mot anglais signifiant celui qui est chargé de donner les\ndéparts, au moyen d'un drapeau qu'il tient à la main et qu'il abaisse\ndès que les chevaux sont en ligne.
stase	STASE\n sta-z' s. f.\nTerme de médecine. Séjour du sang ou des humeurs dans quelque partie du\ncorps, à cause de la cessation ou de la lenteur de leur mouvement.\n\nÉTYMOLOGIE\nDu grec, arrêt, de, s'arrêter, être debout (voy. STABLE).
stasimètre	STASIMÈTRE\n sta-zi-mè-tr' s. m.\nNom donné par M. Bétot à un instrument qu'il a inventé pour mesurer la\nrésistance à la pénétration qu'offrent les tissus organiques ; c'est une\nbalance dont un plateau est remplacé par une aiguille qui doit\ns'enfoncer dans le corps à explorer, Journ. offic. 7 avr. 1877, p. 2710,\n1re col.\n\nÉTYMOLOGIE\nLe grec, se traduit par, état fixe, et, mesure.
stater ou statère	STATER ou STATÈRE\n sta-tèr ou sta-tè-r' s. m.\nTerme d'antiquité. Pièce d'argent de quatre drachmes, valant 3 fr. 72 c.\nde notre monnaie.\nStater d'or, pièce d'or valant 20 drachmes d'argent, et équivalant 29\nfr. 70 c. de notre monnaie.\n\nÉTYMOLOGIE\nDu grec, fixé : chose fixée (voy. STABLE).\n\nSUPPLÉMENT AU DICTIONNAIRE\nSTATER (sta-té), v. a. Suspendre, interrompre ; se dit, en Belgique, en\nmatière de travaux publics et en procédure. La cour ordonne de stater\nles travaux.\n\nÉTYMOLOGIE\nMot dérivé du lat. status, état. M. Du Bois, avocat à Gand, qui me\ncommunique cette note, me dit qu'un entrepreneur lui assure que stater\nest employé aussi en français. Un dictionnaire hollandais du XVIIe\nsiècle a stateren, le désignant comme mot bâtard, c'est-à-dire dérivé du\nfrançais, et lui donnant le sens de suspendre ; ce qui prouve que dès\nlors stater était usité en Belgique.
stathmographe	STATHMOGRAPHE\n sta-tmo-gra-f' s. m.\nInstrument destiné à mesurer la vitesse d'un train.\nM. Dato, inspecteur des constructions de chemins de fer, à Cassel, a\ninventé, sous le nom de stathmographe, un appareil destiné à contrôler\nla vitesse des trains.... le stathmographe a été mis à l'épreuve pendant\nun an sur une locomotive de la ligne du Havre et a été reconnu très\npratique, , Journ. offic. 13 oct. 1876, p. 7475, 3e col.\n\nÉTYMOLOGIE\nLe grec signifie, ligne servant à mesurer, et, écrire.
stathmétique	STATHMÉTIQUE\n sta-tmé-ti-k' s. f.\nEmploi des poids et mesures. L'histoire de la stathmétique en France aux\népoques barbare et féodale. Il {M. Barry} fait ressortir l'influence\nsingulière que la stathmétique byzantine a continué à exercer longtemps\naprès la chute de Rome sur la stathmétique des peuples barbares, dont\nles poids sont restés, comme les monnaies, tout byzantins de calibre et\nde type jusqu'à l'époque carlovingienne, Moniteur universel, 24 avril\n1867, p. 490, 2e col.\n\nÉTYMOLOGIE\nEn grec, relatif aux mesures, qui vient du grec, ligne servant à\nmesurer, du grec, proprement chose fixe.
stathouder	STATHOUDER\n sta-tou-dèr s. m.\nChef de l'ancienne république des Provinces-Unies.\nOn l'a reçu à Amsterdam {le prince d'Orange}, et on devait le recevoir\ndans toute la Hollande et la Zélande, hier 4 juillet, stathouder du\npays, c'est-à-dire gouverneur, PELLISSON, Lett. hist. t. I, p. 217.\nLes prérogatives ou droits du stathouder, capitaine et amiral général,\nsont immenses ; il commande également les armées de terre et de mer, et\ndispose de tous les emplois militaires ; il accorde grâce aux criminels,\npréside à toutes les cours de justice, et les sentences y sont rendues\nen son nom, CONDIL., Étud. hist. II, 4.\nCe titre fut d'abord relatif à chacune des Provinces-unies : stathouder\nde Hollande, de Zélande.\n\nÉTYMOLOGIE\nHoll. stat, État, et houder, qui tient, de même radical que l'allem.\nhalten, tenir, et l'angl. to hold.
stathoudérat	STATHOUDÉRAT\n sta-tou-dé-ra s. m.\n\n1° Dignité du stathouder.\nDans un de ces accès de reconnaissance qui ne sont que trop ordinaires\naux peuples libres, les partisans de la maison d'Orange obtinrent, le 2\nfévrier 1674, que le stathoudérat, désormais héréditaire, passerait aux\nenfants mâles et légitimes de Guillaume III ; la loi qui rendait cette\ndignité perpétuelle, n'était pas moins funeste à la république que la\nloi qui l'avait autrefois proscrite pour toujours, CONDIL., Études hist.\nII, 4.\n\n2° Temps pendant lequel elle était exercée.
stathoudérien, ienne	STATHOUDÉRIEN, IENNE\n sta-tou-dé-riin, riè-n' adj.\nQui appartient au stathoudérat.\nSubstantivement. Partisan du stathoudérat.
statice	STATICE\n sta-ti-s' s. f.\nGenre de la famille des plombaginées ; on y distingue le gazon d'Olympe,\ndit gazon parce qu'il pousse en touffes gazonnantes.\n\nÉTYMOLOGIE\nLat. statice, du grec, herbe astringente, du grec, arrêter, lat.\nsistere, stare (voy. STABLE).
station	STATION\n sta-sion ; en vers, de trois syllabes s. f.\n\n1° Terme de physiologie. Action de se tenir debout. La station est plus\npénible à maintenir que la marche.\nPlus généralement, état dans lequel les animaux restent immobiles sur le\nsol, appuyés sur leurs quatre membres, ou sur leurs membres postérieurs\nseulement, suivant l'espèce à laquelle ils appartiennent.\nManière dont un animal se tient. Station bipède.\n\n2° Pause, demeure de peu de durée qu'on fait dans un lieu. J'ai fait une\ngrande station à sa porte. Je ne suis pas resté longtemps dans ce lieu,\nje n'y ai fait qu'une station.\n\n3° Lieu où l'on s'arrête, que l'on visite.\nEnfin, ma chère enfant, vous avez porté votre délicatesse à Marseille,\net M. de Grignan l'a voulu ; je suis persuadée qu'il vous aura menée à\nToulon et à toutes les stations qu'il faut faire voir à Mlles de\nGrignan, SÉV., 22 mars 1680.\nM. Muller.... dit... que ce détroit {de Behring} offre une ou plusieurs\nîles qui servent de routes ou de stations communes aux habitants des\ndeux continents {l'ancien et le nouveau}, BUFF., Not. just. Ép. nat.\nOeuvr. t. XIII, p. 327.\nStations thermales, diverses installations établies près des sources\nthermales à l'effet de permettre d'y séjourner et d'y suivre un\ntraitement en rapport avec la nature des eaux et les conditions\nclimatériques du lieu d'émergence.\nStations d'été, celles qui ne permettent le séjour que pendant les trois\nou six mois de belle saison ; stations d'hiver, celles dans lesquelles\nle climat et les autres dispositions permettent de suivre un traitement\nen hiver comme en été.\n\n4° Lieu où l'on s'arrête, où s'arrêtent les voitures.\nTous les délais sont dangereux, lui ai-je dit ; hâtez-vous d'arriver à\nla première station, d'où vous pourrez lui écrire à votre aise, J. J.\nROUSS., Hél. I, 65.\nEndroit où se tiennent les voitures publiques pour prendre les\nvoyageurs.\nTerme de chemin de fer. Endroit où s'arrête un convoi pour prendre ou\ndéposer des voyageurs. Chef de station.\n\n5° Particulièrement, visite des églises, chapelles et autels désignés\npour y faire certaines prières. Station pour gagner le jubilé.\nNous nous empressions à occuper les meilleures places ; c'était à qui\nserait auprès du bénitier ou à l'entrée de la chapelle de la station,\nLESAGE, Guzm. d'Alf. III, 5.\nCeux-ci adoptaient aveuglément tous les contes qu'on leur débitait, et\nils accomplissaient scrupuleusement toutes les stations qui leur étaient\nindiquées, LEGRAND D'AUSSY, Inst. Mém. sc. mor. et polit. t. v, p. 426.\nFaire ses stations, visiter les églises désignées pour y gagner les\nindulgences.\nS'il faut faire le jubilé à Paris, nous passerons quinze jours à Meudon,\nd'où l'on ira faire ses stations, MAINTENON, Lett. au duc de Noailles,\n11 février 1701.\nAu jubilé, le roi faisait presque toujours ses stations à pied,\nSAINT-SIMON, 417, 18.\nDonner une station à un prédicateur, lui assigner une église pour qu'il\ny prêche pendant l'avent et le carême.\nIls auront le crédit d'avoir une station du jubilé, PASC., Pens. sur les\njés. 35, éd. FAUGÈRE.\nIl {l'abbé Boileau} ne fut pas toujours heureux dans ses stations à\nVersailles, D'ALEMB., Éloges, Ch. Boileau.\nOn dit dans le même sens : Cette église est une bonne station.\nPrière que l'on fait à une station.\nTerme de liturgie. Le jeûne du mercredi et du vendredi, qui ne durait\nque jusqu'à dix heures.\n\n6° Dans les nivellements et opérations de trigonométrie, lieu où l'on se\nplace pour opérer convenablement. On ne saurait mesurer une distance\ninaccessible que par deux stations.\nNous fixâmes notre dernière station dans la partie la plus montueuse de\nl'île, et nous louâmes pour cet objet la maison d'un pauvre paysan,\nBIOT, Inst. Mém. Acad scienc. t. III, p. LXXXI.\nMettre un instrument en station, le disposer pour faire une observation.\n\n7° Terme de marine. Certaine étendue de mer assignée à des vaisseaux\npour y établir leur croisière pendant un temps fixé. Quitter, relever la\nstation. Les bâtiments de la station.\nElles {les îles de l'Archipel} devinrent les stations de tous ces\nvaisseaux génois et vénitiens, CHATEAUBR., Itin. part. 2.\nBâtiments qui sont en station.\n\n8° Terme d'astronomie. Station d'une planète, position par laquelle elle\npasse quand son mouvement change de sens, c'est-à-dire devient de direct\nrétrograde, ou inversement.\nLes stations et rétrogradations sont un corollaire mathématique des\nmouvements autour d'un même foyer, DELAMBRE, Abr. astr. 17e leçon.\n\n9° Terme de botanique. Lieu où croît spontanément et d'une manière\nhabituelle une espèce donnée.\n\nHISTORIQUE\nXIIe s.\nDeus les mist en terre de promissiun, en certaine statiun, , Rois, p. 2.\nXIIIe s.\nÀ peine tient estacions ; Car sovent a tentacions, , Ren. 15193.\nXIVe s.\nIl {les Gaulois} se herbergent sans garde et sans stacions {postes},\nBERCHEURE, f° 113.\nXVIe s.\nQuand ils estoient entrez un peu plus avant, ils ne voyoyent plus que\nciel et mer sans trouver quelque portne station, CALV., Instit. 99.\n.... qu'il les veut veoir en la nef de l'eglise, comme ils se mectent\nquelquefois en station, CARL., VI, 23.\n\nÉTYMOLOGIE\nProvenç. estatio, istacio, statio ; espagn. estacion ; ital. stazione ;\ndu lat. stationem, de stare (voy. STABLE).
stationnaire	STATIONNAIRE\n sta-sio-nê-r' adj.\n\n1° Qui reste dans la même place.\nKaempfer dit que la cigogne demeure dans toute l'année au Japon ; ce\nserait le seul pays où elle serait stationnaire, BUFF., Ois. t. XIII, p.\n389.\nLa mouche exécute toutes sortes de vols, et, quand il lui plaît, elle\ns'arrête en l'air et y devient stationnaire, BERN. DE ST-P., Harm. liv.\nII, Anim.\nChez les Romains, soldats stationnaires, soldats distribués en\ndifférents lieux pour avertir leur chef de ce qui s'y passait.\n\n2° Terme d'astronomie. Planète stationnaire, celle qui fait une station.\nSaturne est stationnaire pendant huit jours ; Jupiter quatre ; Mars\ndeux ; Vénus un jour et demi ; et Mercure la moitié d'un jour.\nOn appelle stationnaire une planète qui, vue de la terre, paraît pendant\nquelque temps ne point changer de place, et répondre toujours au même\npoint du ciel, BRISSON, Traité de phys. t. III, p. 90.\n\n3° Terme de médecine. Maladie stationnaire, maladie qui languit dans sa\nmarche.\nEn un autre sens, maladies stationnaires, maladies qui dépendent d'un\nétat ou d'une constitution particulière de l'atmosphère, et qui règnent\ndans une contrée pendant un certain nombre d'années.\n\n4° Fig. Qui reste au même point, qui ne fait pas de progrès.\nOn verra l'astronomie rester un grand nombre de siècles dans l'enfance ;\nen sortir et s'accroître dans l'école d'Alexandrie ; stationnaire\nensuite jusqu'au temps des Arabes, se perfectionner par leurs travaux ;\nenfin, abandonner l'Afrique et l'Asie où elle avait pris naissance, se\nfixer en Europe et s'élever en moins de trois siècles à la hauteur où\nelle est maintenant parvenue, LAPLACE, Exp. 5, Préface.\nSans doute, du VIe au VIIIe siècle, l'état de la Gaule a changé ; les\nrapports des hommes, les institutions, les moeurs ont été modifiés,\nmoins cependant qu'on ne pourrait être tenté de le croire ; le chaos\nétait extrême, et le chaos est essentiellement stationnaire, GUIZOT,\nHist. de la civil. en France, 8e Leçon.\n\n5° S. m. Stationnaire, employé qui dirige le télégraphe électrique.\n\n6° Terme de marine. Petit bâtiment de guerre mouillé en tête d'une rade\npour exercer une sorte de police.\nTout navire en station.\n\n7° Diacre qui était de semaine, pour chanter l'évangile à la messe que\nle pape disait dans les stations.\n\nHISTORIQUE\nXVIe s.\nStationnaire, COTGRAVE, .\n\nÉTYMOLOGIE\nProvenç. stacionari ; espagn. estacionario ; ital. stazionario ; du lat.\nstationarius, de statio, station.
stationnale	STATIONNALE\n sta-sio-na-l' adj. f.\nÉglises stationnales, celles qui, dans le temps du jubilé ou d'autres\nfêtes ecclésiastiques, sont marquées par les évêques pour les stations,\nc'est-à-dire pour recevoir les visites des fidèles.\n\nÉTYMOLOGIE\nLat. stationalis, de statio, station.
stationnel, elle	STATIONNEL, ELLE\n sta-sio-nèl, nè-l' adj.\nTerme de botanique. Qui appartient à une station, à une région.\nVariétés locales ou stationnelles, JORDAN, dans Journ. des Savants, mars\n1877, p. 158.
stationnement	STATIONNEMENT\n sta-sio-ne-man s. m.\n\n1° Action de demeurer en place. Le stationnement sur la voie publique\nest interdit.\n\n2° En parlant des voitures, action de stationner ; endroit où elles\nstationnent, où elles ont droit de stationner.\n\nÉTYMOLOGIE\nStationner.
stationner	STATIONNER\n sta-sio-né v. n.\nFaire une station, s'arrêter dans un lieu.\nTerme de marine. Tenir une station.\nIl se conjugue avec l'auxiliaire avoir quand on veut marquer l'action :\nLes voitures ont stationné longtemps ; avec l'auxiliaire être, quand on\nveut marquer l'état : Les voitures sont stationnées depuis longtemps.\n\nHISTORIQUE\nStationner, COTGRAVE, .\n\nÉTYMOLOGIE\nStation.
stationné, ée	STATIONNÉ, ÉE\n sta-sio-né, née part. passé de stationner\nQui est en station. Les voitures stationnées sur la place.
statique	STATIQUE\n sta-ti-k' adj.\n\n1° Qui a rapport à l'équilibre. Principe statique Mécanique statique.\n\n2° Terme de physique. Électricité statique, celle qui est développée par\nle frottement dans la machine électrique, par opposition à l'électricité\ndynamique, celle que donne la pile voltaïque.\n\n3° En biologie et en sociologie, statique se dit par opposition à\ndynamique, voy. DYNAMIQUE.\n\n4° S. f. Partie de la mécanique qui considère les rapports que les\nforces doivent avoir entre elles, en grandeur et en direction, pour se\nfaire mutuellement équilibre.\n\n5° Statique chimique, doctrine de l'équilibre des combinaisons\nchimiques ; c'est le titre d'un ouvrage de Berthollet.\n\nÉTYMOLOGIE\nEn grec, qui se tient debout, lat. stare (voy. STABLE).
statiste	STATISTE\n sta-ti-st' s. m.\nHomme d'État (terme inusité).\nUlysse, le premier de tous les statistes, devant revenir en ce monde,\ndemande d'y vivre en homme privé, LA MOTHE LE VAYER, Dial d'Orat.\nTubero, t. II, p. 243.\nQui ne les prend {les Espagnols} aujourd'hui pour les plus grands\nstatistes et les plus raffinés politiques qui vivent ?, LA MOTHE LE\nVAYER, ib. t. II, p. 281.
statisticien, ienne	STATISTICIEN, IENNE\n sta-ti-sti-siin, siè-n' s. m. et f.\nCelui, celle qui étudie la statistique, qui se livre à des recherches de\nstatistique.\nCelui-ci appartenait à la société de statistique, et il voyait des\nstatisticiens partout, REYBAUD, Jér. Paturot, II, 13.
statistique	STATISTIQUE\n sta-ti-sti-k' s. f.\n\n1° Science qui a pour but de faire connaître l'étendue, la population,\nles ressources agricoles et industrielles d'un État. Achenwall, qui\nvivait vers la fin du milieu du XVIIIe siècle, est généralement\nconsidéré comme le premier écrivain systématique sur la statistique, et\non dit que c'est lui qui lui a donné son nom actuel.\nIls {les économistes} ont créé un mot pour désigner la science de cette\npartie de l'économie politique {les dénombrements}, et l'appellent\nstatistique, BACHAUM., Mém. secrets, t. XXIX, p. 123.\nLa statistique, qui expose l'état des productions, des consommations,\ndes ressources d'un État, à une époque donnée, est une science toute\nnouvelle, LETRONNE, Instit. Mém. inscr. et belles lett. t. VI, p. 166.\n\n2° Plus généralement, science des dénombrements et de leurs\nconséquences.\nStatistique médicale, dénombrement de faits se rapportant aux morts,\nnaissances, maladies, épidémies.\n\n3° Description d'un pays relativement à son étendue, à sa population, à\nses ressources agricoles et industrielles, etc. La statistique de la\nFrance.\nCette branche de géographie politique que, d'après les Allemands, nous\nnommons statistique, MALTE-BRUN, Précis de géogr. univer. I, 8.\n\n4° Adj. Qui a pour objet la statistique.\nDes recherches statistiques sur l'état actuel du travail de tous les\nmétaux dans les ateliers français, DE VILLEFOSSE, Instit. Mém. scienc.\nt. IX, p 145.\n\nÉTYMOLOGIE\nDu grec, établir, lat. stare (voy. STABLE).
statu quo (in)	STATU QUO (IN)\n in'-sta-tu-koLocution latine qui signifie : Dans l'état où sont\nactuellement les choses.\nSubstantivement. Maintenir le statu quo.\n\nÉTYMOLOGIE\nLat. in, en, statu, l'état, quo, dans lequel (sous-entendu on était\nauparavant).
statuaire	STATUAIRE\n sta-tu-ê-r' s. m.\n\n1° Artiste qui fait des statues.\nUn bloc de marbre était si beau, Qu'un statuaire en fit l'emplette, LA\nFONT., Fabl. IX, 6.\nIl me semble, mon ami, que les statuaires tiennent plus à l'antique que\nles peintres, DIDER., Salon de 1765, Oeuv. t. XIII, p. 317, dans\nPOUGENS.\n\n2° S. f. Art de faire des statues.\nÀ en juger par la statuaire, les étoffes chez les anciens étaient plus\népaisses que les nôtres, CHATEAUBR., Itin. part. 1.\n\n3° Adj. Qui concerne les statues. Art statuaire.\nMarbre statuaire, marbre qui est propre à faire des statues, qui est\nblanc, et sans aucune tache ni veine.\nColonne statuaire, colonne terminée par une statue.\n\nSYNONYME\nSCULPTEUR, STATUAIRE. Le sculpteur est celui qui se sert du ciseau ;\nstatuaire est plus général et embrasse tous les procédés à l'aide\ndesquels on fait une statue, la fonte par exemple. En latin, statuarius\nne se dit que de celui qui fait des statues en métal ; une même\ndistinction existe pour les Grecs.\nPériclès avait choisi Phidias pour avoir l'intendance sur tous les\ntravaux ; c'était le plus fameux architecte, et en même temps le plus\nhabile sculpteur et statuaire de son temps, ROLLIN, Hist. anc. Oeuv. t.\nXI, 1re part. p. 43, dans POUGENS.\nOn a employé au lieu du mot sculpteur celui de statuaire, parce que ce\ndernier comprend les fondeurs et tous les autres artistes occupés à\nfaire des statues, BARTHÉL., Anach. t. VII, table 5.\n\nHISTORIQUE\nXVIe s.\nLa musique, peinture, statuaire, architecture, DU BELLAY, I, 38.\nPhidias, ou autre excellent statuaire, MONT., II, 92.\n\nÉTYMOLOGIE\nLat. statuarius, de statua, statue.
statue	STATUE\n sta-tue s. f.\nFigure entière et de plein relief, représentant un homme ou une femme,\nune divinité, un animal, un dieu, un cheval, un lion.\nDu plus puissant des dieux nous voyons la statue Par une main impie à\nleurs pieds abattue, CORN., Poly. III, 2.\nQuelques uns ont écrit (mais ce fait est peu sûr) Que chacun d'eux\ndevint statue et marbre dur, LA FONT., Filles de Minée.\nVotre songe était de cette sorte : vous avez vu une statue grande, haute\net terrible qui se tenait debout devant vous ; la tête en était d'or ;\nla poitrine et les bras étaient d'argent ; le ventre et les cuisses\nétaient d'airain, et les jambes étaient de fer et les pieds étaient\nmêlés de fer et de pierres, PASC., Prophéties, 26, édit. FAUGÈRE.\nLes Athéniens affranchis dressent des statues à leurs libérateurs,\nBOSSUET, Hist. I, 8.\nLes statues ont succédé après les colonnes aux masses grossières et\nsolides que les premiers temps érigeaient, BOSSUET, ib. II, 3.\nOn apprend dans le livre des Conversations sur la connaissance de la\npeinture.... que ce fut le duc de Buckingham qui fit acquisition des\nstatues antiques et des tableaux précieux qui formaient le cabinet de\nRubens, GERSAINT, Catalogue raisonné, p. 5.\nLa statue équestre de Henri IV, érigée sur le pont Neuf le 27 août 1624,\nST-FOIX, Ess. Paris, Oeuv. t. III, p. 227, dans POUGENS.\nLe fameux sculpteur M. Pigalle travaillait dans Paris à la statue du\nsolitaire caché dans Ferney, VOLT., Commen. Oeuv. aut. Henr.\nCette aventure {statue érigée à Voltaire}, alors unique, deviendra\nbientôt commune ; on érigera des statues ou du moins des bustes aux\nartistes, comme la mode est venue de crier : l'auteur, l'auteur, dans le\nparterre, VOLT., ib.\nIl ne faut pas qu'il y ait beaucoup de statues dans un jardin.... il\nfaut regarder les statues comme des êtres qui aiment la solitude et qui\nla cherchent, DIDER., Lett. Mlle Voland, 10 mai 1759.\nJe crois qu'il est plus difficile à un homme du monde de bien juger\nd'une statue que d'un tableau, DIDER., Observ. sur la sculpt.\nAvant Dédale, ajoute-t-on, les statues avaient les yeux fermés, les bras\ncollés le long du corps, les pieds joints ; et ce fut lui qui rouvrit\nleur paupière, et détacha leurs pieds et leurs mains, BARTHÉL., Anach.\nch. XXXVII, note 25.\nLes plus belles statues des Grecs n'ont presque jamais indiqué que le\nrepos : le Laocoon et la Niobé sont les seules qui peignent des douleurs\nviolentes, STAËL, Corinne, VIII, 2.\nÀ la lueur des flambeaux, l'ombre plus prononcée amortit la brillante\nuniformité du marbre, et les statues paraissent des figures pâles qui\nont un caractère plus touchant et de grâce et de vie, STAËL, ib. VIII,\n2.\nEn 1638, François Perrin publia un recueil de gravures qui représentent\nles principales statues dont Rome était alors décorée, MONGEZ, Instit.\nMém. litt. et beaux-arts, t. v, p. 151.\nLa première statue dorée fut érigée dans le VIe siècle {de Rome} par\nAcilius Glabrio à son père vainqueur d'Antiochus aux Thermopyles,\nPASTORET, Instit. Mém. hist. et litt. anc. t. III, p. 419.\nDroit comme une statue, très droit.\nTe voilà sur tes pieds, droit comme une statue ; Dégourdis-toi,\ncourage ! allons, qu'on s'évertue, RAC., Plaid. III, 3.\nFig. et familièrement. Personne sans action et sans mouvement. C'est une\nvraie statue.\nCes pâles statues fabriquées par les nonnes, qui ont la tête à la place\ndu coeur, A. DE MUSSET, On ne badine pas avec l'amour, III, 5.\nUne belle statue, une belle femme, mais froide, sans physionomie, sans\nesprit.\nNe pas bouger plus qu'une statue, rester immobile.\nIl ne bouge pas plus qu'une statue, GENLIS, Théât. d'éduc. la Curieuse,\nIV, 8.\nStatue grecque, se dit en général d'une statue entièrement nue ou\nn'ayant qu'un bout de draperie.\nStatue romaine, statue drapée ou armée à la romaine.\nStatue hydraulique, statue qui jette de l'eau.\n\nHISTORIQUE\nXIIe s.\nLes statues des gens argent et or, ovres des mains de humes, , Liber\npsalm. p. 176.\nXVe s.\nLes Escossois.... sans faire semblant d'aider aux François, estoient\ncomme statues de pierre, esbahis de la grande vaillance des François,\nJUVÉNAL DES URSINS, Charles VI, 1385.\n\nÉTYMOLOGIE\nGénev. estatue ; provenç. et espagn. estatua ; ital. statua ; du lat.\nstatua, proprement chose debout ; statua n'est qu'une forme du classique\nstativus (comme nocuus et nocivus), de statum, supin de stare, être\ndebout (voy. STABLE).
statuer	STATUER\n sta-tu-é v. a.\nJe statuais, nous statuions, vous statuiez ; que je statue, que nous\nstatuions, que vous statuiez.\n\n1° Ordonner, régler, déclarer.\nCe parlement {réfugié auprès d'Henri IV, pendant la Ligue} statua des\nrèglements dignes de la liberté de l'Église gallicane, VOLT., Hist.\nparl. 33.\nOn écrit de Genève, du 12 de ce mois, que, ce jour-là même, le livre de\nJean-Jacques Rousseau {l'Émile} avait été arrêté et porté au tribunal de\nla république, pour y être statué sur ce qu'il appartiendrait, BACHAUM.,\nMém. secr. 20 juin 1762.\nIl sera statué définitivement dans les dix jours qui suivront la remise\ndes conclusions du commissaire, , Code civ. art. 293.\n\n2° Absolument.\nJ'appelle faculté de statuer, le droit d'ordonner par soi-même, ou de\ncorriger ce qui a été ordonné par un autre, MONTESQ., Esp. XI, 6.\nCette compilation est un code général qui statue sur toutes les affaires\nciviles, MONTESQ., ib. XXVIII, 37.\n\nHISTORIQUE\nXIIIe s.\nD'age fu mut {moult} e jà veisin Cist seint hermites à sa fin, à\nreceivre les granz soudées {salaires} K'en ciel li furent estuées, ,\nÉdouard le conf. v. 1735.\nXVIe s.\nS'ils y commandent ou statuent quelque chose, les sujets du roi ne sont\ntenus leur obeir, P. PITHOU, 4.\n\nÉTYMOLOGIE\nProv. estatuir, statuir ; esp. estatuir ; ital. statuire ; du lat.\nstatucre, de status, état (voy. ÉTAT).
statuette	STATUETTE\n sta-tu-è-t' s. f.\nPetite statue.\nPar extension, tout petit ouvrage sculpté ou moulé.\n\nÉTYMOLOGIE\nDimin. de statue.
stature	STATURE\n sta-tu-r' s. f.\n\n1° Hauteur de la taille d'une personne. Il est de grande stature, de\nmoyenne stature.\nSur l'arène soudain on voit paraître un homme Dont la stature noble et\nla mâle beauté Alliaient la jeunesse avec la majesté, SAURIN, Spartacus,\nII, 1.\nFig.\nL'effet de ce ministère {ecclésiastique} est d'amener les enfants de\nDieu à la parfaite stature de Jésus-Christ, c'est-à-dire à la perfection\nqui, après les avoir rendus saints, les rendra glorieux en corps et en\nâme, BOSSUET, Réflex. sur un écrit de M. Claude, 9.\n\n2° Il se dit aussi de la hauteur d'un animal.\nOn exposait une peinture Où l'artisan avait tracé Un lion d'immense\nstature Par un seul homme terrassé, LA FONT., Fabl. III, 10.\nCeux-ci {les rats des quais de Paris} sont d'une telle stature qu'ils ne\ntremblent plus devant le plus fier raminagrobis, MERC., Tabl. de Paris,\nch. 529.\n\nHISTORIQUE\nXIIe s.\n{Il} Fiert un paien de moult grant estature, , Ronc. p. 64.\nXIIIe s.\nMiex faite estature pucelle Nen a ne roïne plus bele, , Fl. et Bl. 2891.\nXVe s.\nEn se mirant par grant elacion à sa beauté et plaisante stature Eust en\ndesdaing la povre creature, COQUILLART, Ballade d'Écho.\nXVIe s.\nUn homme {le père de Montaigne} de petite taille, plein de vigueur et\nd'une stature droicte et bien proportionnée, MONT., II, 17.\n\nÉTYMOLOGIE\nLat. statura, de stare, être debout (voy. STABLE).\nAu XVe siècle, on a employé assez singulièrement stature au sens de\nstatue : Il tira son espée.... et en ferit sur la stature qui estoit par\ndevers luy, , Perceforest, t. VI, f° 47.
statut	STATUT\n sta-tu ; le t ne se prononce pas ; au pluriel, l's se lie : les\nsta-tu-z originaux s. m.\n\n1° Loi, règlement, ordonnance (peu usité en ce sens).\nStatuts personnels, les lois qui concernent les personnes.\nStatuts réels, les lois qui sont relatives aux biens-fonds.\nOn dit, au singulier, le statut personnel, réel, pour l'ensemble des\nlois qui régissent les personnes, les choses.\nLes statuts du parlement d'Angleterre, les lois faites par ce parlement.\nAbsolument, le Statut (avec une lettre majuscule), autrefois loi\nconstitutionnelle du royaume de Sardaigne, et maintenant du royaume\nd'Italie.\n\n2° Plus souvent, règle établie pour la conduite d'une compagnie, d'une\ncommunauté, etc.\nNous voulons des statuts dont la dure contrainte L'attache {l'âme} avec\nsévérité, CORN., Imit. I, 16.\nOn employa, depuis le mois de février de l'année 1634 jusqu'à celui de\nl'année suivante 1635, à lui donner {à l'Académie française} la forme\nqu'elle devait avoir, à dresser ses statuts, et à faire sceller l'édit\nde son érection, PELLISSON, Hist. Acad. I.\nIl est dit dans nos statuts {de l'Académie française} qu'un homme obligé\npar sa place de résider toujours en province ne peut être de l'Académie,\nVOLT., Lett. Richelieu, 16 janv. 1771.\n\nHISTORIQUE\nXIVe s.\nLi plebe ha brisié et rompu le statu et le conseil du senat, BERCHEURE,\nf° 58, recto.\nLes prevoz et jurez de la ville de Tournay avoient fait estatut, DU\nCANGE, auditorium.\nXVe s.\nEt fut renouvelé et affermé un jugement et estatut qui avoit esté fait\nen la cour de l'empereur, FROISS., I, I, 76.\nXVIe s.\nL'un {Pompée} dict aux Mamertins, que les statuts n'avoient point de\nmise envers les hommes armez, MONT., III, 253.\n\nÉTYMOLOGIE\nProvenç. statut ; cat. estatut ; espagn. estatuto ; ital. statuto ; du\nlat. statutum ; de statuere, statuer.
statutaire	STATUTAIRE\n sta-tu-tê-r' adj.\nConforme aux statuts. Répartition statutaire d'un dividende.\n\nHISTORIQUE\nXVIe s.\nLe droit commun ou statutaire, , Coust. gén. t. II, p. 981.
statutairement	STATUTAIREMENT\n sta-tu-tê-re-man adv.\nSelon les statuts d'une société. Solde à répartir statutairement.
statué, ée	STATUÉ, ÉE\n sta-tu-é, ée part. passé de statuer\nLes dispositions statuées par la loi.
statère	STATÈRE\n sta-tè-r' s. f.\nNom de la balance, en latin.\nToutes les espèces de statères ou balances romaines, BUFF., Ess. arith.\nmor. Oeuvr. t. x, p. 216.\n\nÉTYMOLOGIE\nLat. statera, du grec (voy. STATER).
staurolithe	STAUROLITHE\n stô-ro-li-t' s. f.\nPierre de croix rapportée par les uns à la staurotide, par d'autres à\nl'harmotome.\n\nÉTYMOLOGIE\nDu grec, croix, et, pierre.
staurolâtre	STAUROLÂTRE\n stô-ro-lâ-tr' s. m.\nNom d'anciens sectaires d'Arménie, qui ne voulaient pas adorer d'autre\nimage que la croix.\nS'est dit ironiquement des catholiques.\n\nÉTYMOLOGIE\nDu grec, croix, et, adoration.
staurophylax	STAUROPHYLAX\n stô-ro-fi-laks' s. m.\nTerme d'antiquité chrétienne. Dignitaire ecclésiastique qui était chargé\nde garder le bois de la vraie croix, à Jérusalem, dans l'église de la\nRésurrection.\n\nÉTYMOLOGIE\nDu grec, croix, et, gardien.
stauroscope	STAUROSCOPE\n stô-ro-sko-p' s. m.\nInstrument dans lequel on place les minéraux transparents à examiner :\nceux qui laissent apercevoir une croix changeant, par la rotation, de\ncouleur, d'aspect, ou disparaissant, possèdent la double réfraction ;\nceux qui, examinés de même et tournés en différents sens, ne changent\npas la croix, n'ont que la simple réfraction.\n\nÉTYMOLOGIE\nDu grec, croix, et, examiner.
staurotide	STAUROTIDE\n stô-ro-ti-d' s. f.\nTerme de minéralogie. Minéral formé de silice, d'alumine et d'oxyde de\nfer.\n\nÉTYMOLOGIE\nDu grec, croix, à cause que les prismes rhomboïdaux en lesquels elle\ncristallise se groupent fréquemment en forme de croix.
steam-boat	STEAM-BOAT\n stim'-bôt' s. m.\nBateau à vapeur.\n\nÉTYMOLOGIE\nAngl. steam, vapeur, et boat, bateau.
steamer	STEAMER\n sti-meur s. m.\nNavire à vapeur. Au lieu de ce mot anglais, il vaut mieux dire : un\nvapeur.\n\nÉTYMOLOGIE\nAngl. steamer, de steam, vapeur.
steeple-chase	STEEPLE-CHASE\n sti-ple-tché-z' s. m.\nCourse au clocher (voy. CLOCHER 1).\n\nÉTYMOLOGIE\nAngl. steeple, clocher, et chase, chasse, course.
stegnose	STEGNOSE\n stègh-nô-z' s. f.\nTerme de médecine. Constriction des pores et des vaisseaux.\nSuppression des évacuations.\n\nÉTYMOLOGIE\nDu grec, resserrement.
stegnotique	STEGNOTIQUE\n stègh-no-ti-k' adj.\nTerme de médecine. Synonyme d'astringent.\n\nÉTYMOLOGIE\nDu grec, resserrant.
steinbock	STEINBOCK\n stin-bok s. m.\nBouc des rochers ; c'est le nom allemand et suisse du bouquetin, capra\nibex, L.\n\nÉTYMOLOGIE\nAllem. Stein, roche, et Bock, bouc.
steinkerke	STEINKERKE\n stin-kèr-k' s. f.\nGrand mouchoir de toile de coton ou de soie que les femmes nouaient\nautour du cou, et dont les deux bouts pendaient, ou étaient entrelacés\npar devant.\nMonsieur le Duc, le prince de Conti, M. de Vendôme et leurs amis\ntrouvaient, en s'en retournant à Versailles après la bataille de\nSteinkerque (1692), les chemins bordés de peuple ; les acclamations et\nla joie allaient jusqu'à la démence ; les hommes portaient alors des\ncravates de dentelle qu'on arrangeait avec assez de peine et de temps ;\nles princes, s'étant habillés avec précipitation pour le combat, avaient\npassé négligemment ces cravates autour du cou : les femmes portaient des\nornements faits sur ce modèle : on les appela des steinkerques, VOLT.,\nLouis XIV, 14.\nOn disait aussi cravate à la steinkerke.
stellaire	STELLAIRE\n stèl-lê-r' adj.\n\n1° Terme d'astronomie. Qui a rapport aux étoiles. L'astronomie\nstellaire.\nJour stellaire, synonyme de jour sidéral, plus usité.\n\n2° Terme de botanique. Qui porte une étoile jaune au centre de ses\nfleurs.\nS. f. Genre de la famille des dianthacées.\n\n3° Terme didactique.. Qui est en forme d'étoile, en rayons.\nClassification stellaire.\n\nÉTYMOLOGIE\nLat. stellaris, de stella (voy. ÉTOILE).
stelliforme	STELLIFORME\n stèl-li-for-m' adj.\nQui a la forme d'une étoile.\n\nÉTYMOLOGIE\nLat. stella, étoile, et forme.
stellifère	STELLIFÈRE\n stèl-li-fè-r' adj.\nQui porte des taches étoilées ou des parties disposées en étoile.\n\nÉTYMOLOGIE\nLat. stella, étoile, et ferre, porter.
stellinervé, ée	STELLINERVÉ, ÉE\n stèl-li-nèr-vé, vée adj.\nTerme de botanique. Dont les nervures sont disposées en étoiles.\n\nÉTYMOLOGIE\nLat. stella, étoile, et nervure.
stellion	STELLION\n stèl-li-on s. m.\nSorte de lézard ou jecko. Les stellions forment, pour Cuvier, un genre\nde la famille des iguaniens.\n\nÉTYMOLOGIE\nLat. stellionem.
stellionat	STELLIONAT\n stèl-li-o-na s. m.\nTerme de jurisprudence.\nIl y a stellionat, lorsqu'on vend ou qu'on hypothèque un immeuble dont\non sait n'être pas propriétaire, lorsqu'on présente comme libres des\nbiens hypothéqués, ou que l'on déclare des hypothèques moindres que\ncelles dont ces biens sont chargés, , Code civ. art. 2059.\nToute la somme à rendre en espèces ; et que le stellionat soit bien dans\nles formes, cela est de conséquence, DANCOURT, les Agiot. III, 9.\nAprès deux petits stellionats faits au sieur Jean-François de la Borde,\nson bienfaiteur, VOLT., Pol. et lég. procès de Claustre.\n\nÉTYMOLOGIE\nLat. stellionatus, de stellio, stellion, et fig. fourbe, parce que le\nstellion change de couleur.
stellionataire	STELLIONATAIRE\n stèl-li-o-na-tê-r' s. m. et f.\nCelui, celle qui est coupable de stellionat.\nLes femmes qui, étant en communauté, se seraient obligées conjointement\nou solidairement avec leur mari, ne pourront être réputées\nstellionataires à raison de ces contrats, , Code civ. art. 2066.\nFig. Qui vend les compagnons {au jeu de boule} est stellionataire,\nFURETIÈRE, le Jeu de boule des procureurs, à la suite du roman\nbourgeois.\n\nÉTYMOLOGIE\nStellionat.
stellite	STELLITE\n stèl-li-t' s. f.\nMinéral d'Écosse, cristallisant en étoiles.\n\nÉTYMOLOGIE\nLat. stella, étoile.
stellule	STELLULE\n stèl-lu-l' s. f.\nTerme de botanique. Petite étoile ou rosette de feuilles qui termine la\ntige de certaines mousses.\n\nÉTYMOLOGIE\nDimin. de stella, étoile.
stemmate	STEMMATE\n stèm-ma-t' s. m.\nSe dit des yeux lisses placés sur la tête des insectes de certains\nordres.\n\nÉTYMOLOGIE\nDu grec, couronne, du grec, couronner.
stentor	STENTOR\n stan-tor s. m.\n\n1° Nom d'un guerrier grec au siége de Troie, dont la voix était si\néclatante qu'elle faisait plus de bruit que celle de cinquante hommes.\nFig. et familièrement. Une voix de stentor, une voix forte et\nretentissante.\nLe roi des animaux se mit un jour en tête De giboyer ; il célébrait sa\nfête.... Pour réussir dans cette affaire, Il se servit du ministère De\nl'âne à la voix de stentor, LA FONT., Fabl. II, 19.\nL'huissier priseur est obligé d'avoir un crieur à gages, un stentor....\nles paix là ! du stentor enroué surmontent à peine le bruit confus de la\nmultitude, MERC., Tabl. de Paris, ch. 454.\n\n2° Un des noms de l'alouate, dit aussi singe hurleur.\n\nREMARQUE\nPourquoi l'Académie n'écrit-elle pas Stentor avec une majuscule, comme\nelle fait dans ces phrases : C'est une Agnès ; C'est un Crésus ; Je ne\nsuis pas un Oedipe ?
stentorophonique	STENTOROPHONIQUE\n stan-to-ro-fo-ni-k' adj.\nTube stentorophonique, tube qui sert à porter la voix fort loin, dit\nvulgairement porte-voix.\n\nÉTYMOLOGIE\nStentor, et du grec, voix.
stentoré, ée	STENTORÉ, ÉE\n stan-to-ré, rée adj.\nÉclatant, fort comme la voix de stentor.\nAvec sa voix bredouilleuse et stentorée, FURETIÈRE, 3e factum, t. I, p.\n313.\nInusité.\n\nHISTORIQUE\nXVIe s.\nIl se leva en colere et cria en voix stentorée, , Sat. Mén. p. 95.
step ou stepp	STEP ou STEPP\n stèp' s. m.\nOrthographe que quelques voyageurs emploient pour steppe.
steppe	STEPPE\n stè-p' s. m.\n\n1° Nom donné en Russie, et par suite en Amérique, à des plaines vastes\net incultes.\nLes steppes de l'Asie septentrionale, LÉVESQUE, Instit. Mém. scienc.\nmor. et pol. t. v, p. 225.\nLes bisons sont si nombreux dans les steppes verdoyants du Missouri,\nque, quand ils émigrent, leur troupe met plusieurs jours à défiler,\nCHATEAUBR., Voy. en Amér. Bison.\nEnfin, après trois jours d'une course insensée, Après avoir franchi\nfleuves à l'eau glacée, Steppes, forêts, déserts...., V. HUGO, Orient.\nXXXIV, Mazeppa.\n\n2° Nom, en Ukraine, des terres laissées en repos pendant un intervalle\nqui varie de cinq à vingt ans, et des terres incultes où la charrue n'a\njamais passé.\nDes voyageurs font ce mot féminin.\n\nÉTYMOLOGIE\nMot russe.\n\nSUPPLÉMENT AU DICTIONNAIRE\nSTEPPE. - ÉTYM. Ajoutez : Le mot russe est féminin.
stepper	STEPPER\n stè-pé v. n.\nMot forgé de l'anglais. Aller activement, en parlant d'un cheval.\nLe limonier de la troïca trotte en steppant droit devant lui ; les deux\nautres galopent et tirent en éventail, F. CHAULNES, Journ. offic. 4 août\n1673, p. 5244, 1re col.\n\nÉTYMOLOGIE\nAngl. to step, marcher ; stepper, cheval qui a de l'entrain.
steppeur	STEPPEUR\n stè-peur s. m.\nMot anglais (stepper) signifiant cheval qui a de l'action.
stercoraire	STERCORAIRE\n stèr-ko-rê-r' adj.\n\n1° Qui a rapport aux excréments.\n\n2° Terme de pathologie. Fistules stercoraires ou stercorales, celles qui\nsont entretenues par le passage continuel des matières fécales, appelées\naussi matières stercorales.\n\n3° Terme d'histoire naturelle. Qui croît sur les excréments, ou qui s'en\nnourrit.\nS. m. pl. Genre d'oiseaux palmipèdes.\nOn y distingue : le stercoraire longicaude, dit vulgairement\nchasse-merde, le stercoraire, le labbe, le parasite, c'est le lestris\nparasitique des auteurs qui ont employé lestris pour terme générique ;\nle stercoraire pomarin, nommé vulgairement le pomarin ; le stercoraire\ncatarrhacte, dit le catarrhacte, décrit par Buffon sous les noms de\nlabbe brun et de goëland brun, ce qui ne doit pas le faire confondre\navec le lare frontal, autre palmipède appelé aussi goëland brun par\nBuffon et que certains navigateurs nomment cordonnier, LEGOARANT, .\n\nÉTYMOLOGIE\nLat. stercorarius, de stercus, excrément.
stercoral, ale	STERCORAL, ALE\n stèr-ko-ral, ra-l' adj.\nQui concerne les excréments.\nFistule stercorale (voy. STERCORAIRE).\n\nHISTORIQUE\nXVIe s.\nLes fientes des loutres sont appelées tercuries ou esprintes, , Modus,\nf° VII.\n\nÉTYMOLOGIE\nLat. stercus, excrément, que les étymologistes rapprochent du grec, et\ndu sanscr. çakrt, excrément.
stercoranisme	STERCORANISME\n stèr-ko-ra-ni-sm' s. m.\nDoctrine des stercoranistes.
stercoraniste ou stercoriste	STERCORANISTE ou STERCORISTE\n stèr-ko-ra-ni-st' ou stèr-ko-ri-st' s. m.\nMembre d'une secte qui croyait que les espèces de l'Eucharistie étaient\ndigérées comme d'autres aliments.\nSe disait aussi de ceux qui pensaient que la communion rompait le jeûne.
stercoration	STERCORATION\n stèr-ko-ra-sion s. f.\n\n1° Usage de fumer les terres, c'est-à-dire d'y mettre du fumier et\ntoutes sortes d'excréments pour les engraisser.\n\n2° Terme de physiologie. Action par laquelle les aliments se changent en\nexcréments\n\nÉTYMOLOGIE\nLat. stercorationem, de stercus, excrement.
stercoriste	STERCORISTE\nVoy. STERCORANISTE.
stercorite	STERCORITE\n stèr-ko-ri-t' s. f.\nSubstance minérale qui est un phosphate d'ammoniaque et de soude se\nformant dans certains bancs de guano.
sterculiacées	STERCULIACÉES\n stèr-ku-li-a-sée s. f. pl.\nTerme de botanique. Famille de plantes séparées des malvacées.
sterculie	STERCULIE\n stèr-ku lie s. f.\nou STERCULIER (stèr-ku-lié), s. m. Genre de sterculiacées, dans lequel\non distingue : la sterculie acuminée, qui croît en Afrique où les nègres\nl'appellent, ainsi que son fruit, kola, en donnant aussi à ce fruit le\nnom de noix de kola ou de cola ; la sterculie ivira, dite vulgairement\ntouroutier ; la sterculie platanifoliée, appelée firmiana par Marsigh et\nculhamie par Forskahl (LEGOARANT).
sterlet	STERLET\n stèr-lè s. f.\nEspèce d'esturgeon qu'on pêche en Russie, acipenser ruthenus,\nchondroptérygiens.\nOn a écrit aussi strelet.
sterling	STERLING\n stèr-lin adj.\ninvar. Il se dit d'une monnaie de compte en Angleterre. La livre\nsterling vaut environ vingt-cinq francs. Cinquante livres sterling. Un\nsou sterling. Un denier sterling.\nOui, oui, continuez {à traduire Homère en vers} ; la nation ne vous\ndonnera pas quinze mille livres sterling, comme les Anglais les ont\ndonnées à Pope {pour la traduction de l'Iliade}, VOLT., Dict. phil.\nScoliaste.\nOn l'a employé quelquefois comme substantif masculin.\nJe vois à ton discours que tu as déjà flairé les sterlings du roi\nd'Angleterre, AUG. THIERRY, Conquête de l'Anglet. X.\n\nHISTORIQUE\nXIIe s.\nDunc enveia li reis à lui ses chevaliers ; Or volt que il li rende ses\nacuntes pleniers De quanqu'ot en baillie, quant fu ses chanceliers, De\ntrente mile livres de sterlins en deniers, , Th. le mart. 43.\nXIIIe s.\nNus orfevres ne puet ouvrer à Paris, d'argent, que il ne soit aussi bons\ncome estelins ou mieudres {meilleur}, , Liv. des mét. 38.\n\nÉTYMOLOGIE\nAngl.\nsterling, nummi easterlingi, monnaie frappée par les Easterling ou\nmarchands de l'est de l'Allemagne (par rapport à l'Angleterre), de east,\nest ; cet est de l'Allemagne était la Hanse, et, en particulier,\nLubeck : Par ce coing sont les Saxons, Estrelins, RAB., Pant. IV, Prol.
sternal, ale	STERNAL, ALE\n stèr-nal, na-l' adj.\nTerme d'anatomie. Qui a rapport au sternum.\nCôtes sternales, celles qui s'articulent directement avec cet os.\n\nÉTYMOLOGIE\nSternum.
sternalgie	STERNALGIE\n stèr-nal-jie s. f.\nTerme de médecine. Angine de poitrine, ainsi appelée à cause de la\ndouleur violente que le malade éprouve sous le sternum.\n\nÉTYMOLOGIE\nSternum, et du grec, douleur.
sterne	STERNE\n stèr-n' s. m.\nOiseau, dit aussi hirondelle de mer, sterna arctica, Temminck, famille\ndes laridés.
sternite	STERNITE\n stèr-ni-t' s. f.\nPièce de l'armure génitale femelle des insectes.
sterno-claviculaire	STERNO-CLAVICULAIRE\n stèr-no-kla-vi-kulè-r' adj.\nTerme d'anatomie. Qui est relatif à la fois au sternum et à la\nclavicule. Articulation sterno-claviculaire.
sterno-clido-mastoïdien	STERNO-CLIDO-MASTOÏDIEN\n stèr-no-kli-doma-sto-i-diin adj. m.\nTerme d'anatomie. Muscle sterno-clido-mastoïdien, ou, substantivement,\nle sterno-clido-mastoïdien, muscle qui s'étend de la ligne courbe\noccipitale supérieure et de l'apophyse mastoïde au sternum et à la face\nsupérieure de la clavicule.
sterno-huméral, ale	STERNO-HUMÉRAL, ALE\n stèr-no-u-mé-ral, ra-l' adj.\nTerme d'anatomie. Qui appartient au sternum et à l'humérus.
sterno-hyoïdien	STERNO-HYOÏDIEN\n stèr-no-i-o-i-diin adj. m.\nTerme d'anatomie. Muscle sterno-hyoïdien, ou, substantivement, le\nsterno-hyoïdien, muscle étendu de la partie inférieure du corps de l'os\nhyoïde à la partie supérieure postérieure du sternum.
sterno-ptérygien, ienne	STERNO-PTÉRYGIEN, IENNE\n stèr-no-pté-rijiin, jiè-n' adj.\nDont les nageoires ventrales sont placées en avant des pectorales.\n\nÉTYMOLOGIE\nSternum, et du grec, nageoire.
sterno-pubien	STERNO-PUBIEN\n stèr-no-pu-biin adj. m.\nTerme d'anatomie. Nom donné au muscle droit de l'abdomen, qui s'étend du\nsternum au pubis.
sternum	STERNUM\n stèr-nom' s. m.\nTerme d'anatomie. Os impair situé, chez l'homme, au devant et au milieu\ndu thorax. Partie analogue chez les animaux.\nLa forme du sternum des oiseaux, en quille de navire, qui est\nindispensable pour l'équilibre de leur vol, leur rendrait l'attitude\naccroupie très pénible, DUPONT DE NEMOURS, Mém. lu à l'Institut, août\n1806.\nLigne médiane de la partie inférieure du tronc des insectes.\n\nHISTORIQUE\nXVIe s.\nDe la fracture ou depression du sternum ou brechet, PARÉ, XIII, 10.\n\nÉTYMOLOGIE\nEn grec, rapporté à, étendre, lat. sternere ; comparez l'all. Stirn,\nfront.
sternutatoire	STERNUTATOIRE\n stèr-nu-ta-toi-r' adj.\n\n1° Qui excite l'éternument. Poudre sternutatoire\n\n2° S m. Médicaments irritants qui, introduits dans les narines,\ndéterminent l'éternument ou l'ébrouement. Le tabac, la bétoine sont des\nsternutatoires.\nIl donne un narcotique à l'Éveillé, un sternutatoire à la Jeunesse,\nBEAUMARCH., Barb. de Sév. 2.\n\nHISTORIQUE\nXVIe s.\nFaire esternuer le malade avec un sternutatoire, PARÉ, Introd. II.\n\nÉTYMOLOGIE\nLat. sternutare (voy. ÉTERNUER).
sternébré, ée	STERNÉBRÉ, ÉE\n stèr-né-bré, brée adj.\nTerme d'anatomie. Synonyme d'annelé pour ceux qui considèrent les\nanneaux des annelés comme dus au développement de pièces sternales\ndevenues autant de pièces annulaires complètes.
sterteur	STERTEUR\n stèr-teur s. f.\nTerme de médecine. Synonyme de ronflement.\n\nÉTYMOLOGIE\nLat. stertere, ronfler.
stertoreux, euse	STERTOREUX, EUSE\n stèr-to-reû, reû-z' adj.\nTerme de médecine. Se dit de la respiration, quand elle fait entendre,\ndans les mouvements d'inspiration et d'expiration, une espèce de son qui\nimite assez bien le bruit de l'eau bouillante.
steréo-	STERÉO-\nMot venant du grec qui signifie solide et qui entre dans la composition\nde différents mots.
sthénie	STHÉNIE\n sté-nie s. f.\nTerme de médecine. Excès de force, exaltation de l'action organique.\n\nÉTYMOLOGIE\nDu grec, force.
sthénique	STHÉNIQUE\n sté-ni-k' adj.\nTerme de pathologie. Qui appartient à la sthénie.
sti	STI\n sti, ou STIGMA (sti-gma)\n s. m.\nDans l'alphabet grec, le caractère sigma, qui vaut sigma et tau.
stibial, ale	STIBIAL, ALE\n sti-bi-al, a-l' adj.\nQui appartient à l'antimoine ; qui administre l'antimoine Jugez de\nquelle capacité est toute cette troupe stibiale, qu'ils n'y peuvent\ntrouver un homme qui défende leur parti, GUI PATIN, Lett. t. II, p. 190.\n\nÉTYMOLOGIE\nVoy. STIBIÉ.
stibiate	STIBIATE\n sti-bi-a-t' s. m.\nSynonyme d'antimoniate.
stibiation	STIBIATION\n sti-bi-a-si-on s. f.\nTerme de médecine. Emploi du tartre stibié à haute dose.
stibine	STIBINE\n sti-bi-n' s. f.\nMinéral qui est un sulfure d'antimoine.
stibiure	STIBIURE\n sti-bi-u-r' s. m.\nSynonyme d'antimoniure.
stibié, ée	STIBIÉ, ÉE\n sti-bi-é, ée adj.\nTerme de pharmacie. Où il est entré de l'antimoine. Tartre stibié.\nPommade stibiée, celle dont le tartre stibié émétique fait la base.\n\nÉTYMOLOGIE\nDu grec, antimoine, mot égyptien, d'après Eustathe sur l'Odyssée.
stichomancie	STICHOMANCIE\n sti-ko-man-sie s. f.\nDivination par les vers. Les anciens écrivaient, sur plusieurs petits\nbillets, des vers dont le sens regardait l'avenir et qu'ils appelaient\nfatidiques ; ils jetaient ces billets dans une urne, et celui qu'ils\ntiraient le premier était pris pour la réponse à leur question.\n\nÉTYMOLOGIE\nDu grec, vers, et, divination.
stichométrie	STICHOMÉTRIE\n sti-ko-mé-trie s. f.\nDivision d'un ouvrage par versets, en mettant chaque phrase ou chaque\ndemi-phrase en alinéa.\n\nÉTYMOLOGIE\nDu grec, vers, et, mesure.\n\nSUPPLÉMENT AU DICTIONNAIRE\nSTICHOMÉTRIE.  Ajoutez :\nThéopompe avait fait le compte des lignes écrites par lui : vingt mille\nlignes d'éloquence démonstrative, plus de cent cinquante mille de prose\nhistorique.... c'est là le plus ancien exemple connu d'un usage général\ndans l'antiquité, et qu'on désigne du nom de stichométrie, H. WEIL, les\nHarangues de Démosthène, introduction, p. XLV.
stichométrique	STICHOMÉTRIQUE\n sti-ko-mé-tri-k' adj.\nQui a rapport à la stichométrie.
stick	STICK\n sti-k' s. m.\nCanne très mince qu'on tient à la main pour se donner un maintien.\nIl me semble, monsieur l'avocat, que tout à l'heure vous m'avez arraché\nmon stick un peu brusquement. - Votre stick ? - Ma canne, si vous\nvoulez, CH. DE BERNARD, Le gentilhomme campagnard, I, 6.\n\nÉTYMOLOGIE\nAngl. stick, bâton.
stictique	STICTIQUE\n sti-kti-k' adj.\nTerme d'histoire naturelle. Marqué de points.\nTerme de chimie. Acide stictique, acide amer qui accompagne la\ncétrarine, mais en est distinct.\n\nÉTYMOLOGIE\nDu grec, ponctué.
stigmataire	STIGMATAIRE\n stigh-ma-tê-r' adj.\nQui est marqué de points, de stigmates.
stigmate	STIGMATE\n stigh-ma-t' s. m.\n\n1° Marque que laisse une plaie. Il porte encore les stigmates de la\npetite vérole.\nLa chair du martyr portera à jamais dans le ciel les stigmates de\nJésus-Christ, FÉN., t. XVII, p. 285.\nOn trouvera sur tous les animaux esclaves les stigmates de leur\ncaptivité et l'empreinte de leurs fers, BUFF., Quadrup. t. VII, p. 201.\n\n2° Marque infligée comme punition.\nL'empereur Théophile ne rougit pas de faire revivre l'affreuse peine des\nstigmates dans la persécution qu'il suscita contre ceux des chrétiens\nqui défendaient la sainteté des images, MONGEZ, Instit. Mém. litt. et\nbeaux-arts, t. I, p. 506.\nLes stigmates de la justice, les marques du fer rouge qu'on imprimait\nautrefois sur les épaules des voleurs.\nFig. et familièrement. Il en porte encore les stigmates, se dit d'un\nhomme qui vient d'essuyer en public quelque déshonneur.\nFig. Un stigmate flétrissant, une note d'infamie.\n\n3° Particulièrement. Les marques des cinq plaies de Notre-Seigneur\nJésus-Christ qu'on prétend avoir été imprimées, par faveur du ciel, sur\nle corps de saint François d'Assise.\n\n4° Chez les anciens, marque faite aux bras des recrues.\n\n5° Terme de botanique. Partie du pistil destinée à recevoir le principe\nfécondant, et à le transmettre à l'ovaire, soit immédiatement si le\nstigmate est sessile, soit par l'intermédiaire d'un support plus ou\nmoins long appelé style.\nLe stigmate est souvent séparé du germe par un long stylet, creux à la\nvérité, mais à travers lequel les poussières de l'étamine, toutes\npetites qu'elles sont, ne pourraient pénétrer, CONDORCET, Linné.\n\n6° Chez les insectes, nom donné à des ouvertures placées sur les côtés\ndu corps, qui sont les orifices des trachées.\nMes expériences sur la respiration des chenilles m'ont paru prouver que\nles deux stigmates antérieurs et les deux postérieurs sont les plus\nimportants, BONNET, Contempl. nat. Oeuv. t. VIII, p. 113, dans POUGENS.\nMalpighi, après avoir découvert les stigmates des insectes, décida\nqu'ils étaient les organes de leur respiration, parce que ces insectes\npérissaient lorsqu'il couvrait d'huile ou de suif ces ouvertures ; mais\nil ne fit pas attention que ces animaux vivaient longtemps sous l'eau et\ndans le vide, SENNEBIER, Art d'observer, t. I, p. 92, dans POUGENS.\nPartie du bord externe de l'aile des hyménoptères qui est plus épaisse\nque le reste.\n\nHISTORIQUE\nXVIe s.\nStigmates, marques qu'on empraint sur aucun soit de fer chaut, cautere\nou autrement, , Celthellenisme de Léon Trippault.\n\nÉTYMOLOGIE\nDu grec, point, du grec, piquer ; comparez l'anc. haut-allem. stechan,\nle goth. stikan, sanscr. tij, pour stig, être pointu, et, dans le latin,\ndi-stinguere, in-stigare et stimulus.
stigmatique	STIGMATIQUE\n stigh-ma-ti-k' adj.\nQui appartient au stigmate d'une plante, qui en fait partie.\n\nSUPPLÉMENT AU DICTIONNAIRE\nSTIGMATIQUE.\n\n2° Terme de médecine. Qui a rapport à la maladie des stigmatisés.\nNévropathie stigmatique, sorte de maladie dans laquelle apparaissent des\nstigmates.\nS'il {le débat académique} n'a pas déchiré tous les voiles, il a du\nmoins fait une place dans la science à la névropathie stigmatique, ,\nLettre du docteur Warlemont, dans l'Indépendance belge du 19 oct. 1875.
stigmatiser	STIGMATISER\n stigh-ma-ti-zé v. a.\n\n1° Marquer avec un fer rouge ou autrement. On stigmatisait autrefois les\nesclaves fugitifs.\n\n2° Fig. Imprimer à quelqu'un un blâme sévère, une flétrissure publique.\nOn l'a cruellement stigmatisé dans ce pamphlet.\n\nHISTORIQUE\nXVIe s.\nJe suis, dict-il {le philosophe Bion}, fils d'un serf, boucher,\nstigmatizé, MONT., IV, 114.\n\nÉTYMOLOGIE\nDu grec, marquer.
stigmatisé, ée	STIGMATISÉ, ÉE\n stigh-ma-ti-zé, zée part. passé de stigmatiser\n\n1° Marqué d'un stigmate.\nMarqué des stigmates de la crucifixion. Saint François stigmatisé.\nSubstantivement. Les stigmatisés, nom donné à certains extatiques qui,\npar une contemplation assidue de la passion de Jésus-Christ, finissent,\ndit-on, par éprouver des douleurs, des manifestations pathologiques, des\nstigmates dans les parties du corps où les clous furent enfoncés et où\nle coup de lance fut porté.\n\n2° Fig. Blâmé d'une manière dure et publique.
stigmatophore	STIGMATOPHORE\n stigh-ma-to-fo-r' adj.\n\n1° Qui porte des trous.\n\n2° S. m. Partie du pistil qui supporte le stigmate.\n\nÉTYMOLOGIE\nDu grec, qui porte.
stigmule	STIGMULE\n stigh-mu-l' s. m.\nTerme de botanique. Chacune des divisions d'un stigmate qui en offre\nplusieurs.
stil de grain	STIL DE GRAIN\n still de grin s. m.\nCouleur jaune verdâtre, obtenue en pulvérisant les baies du nerprun des\nteinturiers avant la maturité et en les préparant avec du carbonate de\nplomb.\n\nÉTYMOLOGIE\nOrigine inconnue.
stilbinées	STILBINÉES\n stil-bi-née s. f. plur.\nTerme de botanique. Famille de plantes dicotylédones, voisine des\nverbénacées.
stilbite	STILBITE\n stil-bi-t' s. f.\nTerme de minéralogie. Silicate alumineux double hydraté, à base calcaire\nou alcaline, à éclat nacré.\n\nÉTYMOLOGIE\nDu grec, brillant.
stillant, ante	STILLANT, ANTE\n stil-lan, lan-t' adj.\nQui tombe goutte à goutte.\nDans les lieux vides, où les eaux stillantes tombent goutte à goutte des\nparois et des voûtes, BUFF., Min. t. VI, p. 293.\n\nÉTYMOLOGIE\nVoy. STILLATION.
stillation	STILLATION\n stil-la-sion s. f.\nChute d'un liquide qui tombe goutte à goutte.\nCe qui semble indiquer que le marbre blanc lui-même est de seconde\nformation, et a été, comme les albâtres, produit par la stillation des\neaux, BUFF., Min. t. II, p. 7.\n\nÉTYMOLOGIE\nLat. stillationem, de stillare, couler goutte à goutte, dénominatif de\nstilla, qui est le diminutif de stira, stiria, goutte.
stillatoire	STILLATOIRE\n stil-la-toi-r' adj.\nQui filtre, qui tombe goutte à goutte.\n\nHISTORIQUE\nXVIe s.\nStillatoire, COTGRAVE, .
stillicide	STILLICIDE\n stil-li-si-d' s. m.\nEau qui tombe goutte à goutte. Aucune servitude de stillicide n'existe\nen faveur de Poyet sur le terrain des demandeurs.\nOn le fait à tort féminin.\n\nÉTYMOLOGIE\nLat. stillicidium, de stilla, goutte, et cadere, tomber.
stillingie	STILLINGIE\n stil-lin-jie s. f.\nGenre d'euphorbiacées dans lequel on distingue la stillingie sébifère,\ndite vulgairement arbre à suif, c'est le croton sébifère de certains\nauteurs, LEGOARANT.
stimulant, ante	STIMULANT, ANTE\n sti-mu-lan, lan-t' adj.\n\n1° Qui stimule, excite.\nÀ ces stimulantes apostrophes, la plus incroyable patience n'abandonne\npas un instant un seul homme dans toute cette multitude, J. J. ROUSS.,\n1er dial.\n\n2° S. m. Ce qui excite, aiguillonne. Il est assez excité par lui-même,\nil n'a pas besoin de stimulants.\n\n3° Terme de médecine. Qui est propre à éveiller, à exciter. Potion\nstimulante.\nS. m. Nom donné aux médicaments qui ont la propriété d'exciter plus ou\nmoins promptement et d'une manière manifeste l'action organique des\ndivers systèmes de l'économie. Employer un stimulant.\nStimulants diffusibles, ceux qui ont une action prompte et de peu de\ndurée ; stimulants persistants, ceux qui ont, en général, une action\nmoins prompte, mais plus durable.\nTerme d'agriculture. Se dit de substances telles que le plâtre, les\ncendres, la suie, etc., qu'on a considérés, à tort, comme ne nourrissant\npas les plantes, mais excitant seulement la végétation.
stimulateur, trice	STIMULATEUR, TRICE\n sti-mu-la-teur, tri-s' adj.\nQui stimule, qui excite. L'air par son oxygène, le fluide électrique, le\ncalorique, la lumière, sont les agents stimulateurs, les causes\nstimulatrices qui entretiennent la vie dans les corps organisés.\n\nHISTORIQUE\nXVIe s.\nStimulateur, COTGRAVE, .\n\nÉTYMOLOGIE\nLat. stimulatorem, de stimulare, stimuler.
stimulation	STIMULATION\n sti-mu-la-sion ; en vers, de cinq syllabes s. f.\n\n1° Action de stimuler. Les stimulations de l'amour-propre.\n\n2° Terme de médecine. Action des stimulants.\n\nHISTORIQUE\nXVe s.\nSi dura ladicte eleccion trop stimulée par stimulation desordonnée,\nCHRIST. DE PISAN, Charles V, III, 51.\n\nÉTYMOLOGIE\nLat. stimulationem, de stimulare, stimuler.
stimule	STIMULE\n sti-mu-l' s. m.\nTerme de botanique. Poil fin et raide dont la piqûre cause des\ndémangeaisons.\n\nÉTYMOLOGIE\nLat. stimulus, aiguillon (voy. STIMULER).
stimuler	STIMULER\n sti-mu-lé v. a.\n\n1° Aiguillonner, exciter. Il a de bonnes intentions, mais il faut le\nstimuler.\n\n2° Terme de médecine. Exciter, animer. Il ne faut stimuler l'estomac\nqu'avec précaution.\nDans l'un et l'autre sexe, la puberté stimule également les glandes et\nle cerveau, CABANIS, Instit. Mém. Sc. mor. et polit. t. II, p 204.\n\nHISTORIQUE\nXIVe s.\nEt comme ainsi fust que uns d'eulz esmeust et stimulast contre les\nRoumains hayne ancienne, BERCHEURE, f° 40, verso.\nLa cause veritable laquelle deus pueples cousins et vesins stimule et\nespoint à fere ceste guerre, BERCHEURE, f° 14, verso.\nXVIe s.\nLe vif argent stimule la vertu expulsive à jeter hors du corps le\nvenin...., PARÉ, XXIV, 32.\n\nÉTYMOLOGIE\nLat. stimulare (voy. STIMULUS).
stimuleux, euse	STIMULEUX, EUSE\n sti-mu-leû, leû-z' adj.\nTerme de botanique. Qui est garni de stimules. Plantes, feuilles\nstimuleuses.
stimulus	STIMULUS\n sti-mu-lus' s. m.\nTerme de médecine. Tout ce qui est de nature à déterminer une excitation\ndans l'économie animale.\n\nHISTORIQUE\nXVIe s.\nPour leur servir d'aiguillon et stimule domestique, pour en suivre et\ninciter les bonnes parties et vertus d'iceux, PARÉ, XXVII, p. 670.\n\nÉTYMOLOGIE\nLat. stimulus, aiguillon. pour stigmulus ; comparez le grec, aiguillon,\n(voy. STIGMATE).
stimulé, ée	STIMULÉ, ÉE\n sti-mu-lé, lée part. passé de stimuler\nStimulé par l'émulation.
stinkal	STINKAL\n stin-kal s. m.\nNom d'un marbre du Boulonais.\nLe marbre de ces carrières est d'un gris sombre et bleuâtre : on le\nnomme stinkal, dénomination tirée de l'anglais, et qui exprime la nature\nde ce marbre, qui, lorsqu'on le frotte, répand une odeur désagréable ;\non l'emploie ordinairement à la décoration intérieure des appartements,\noù il figure très bien, J. F. HENRY, Essai sur l'arrond. de\nBoulogne-sur-Mer, p. 221, Boulogne, 1810.\n\nÉTYMOLOGIE\nAnglais, stinkard, puant.
stipe	STIPE\n sti-p' s. f.\nAnciennement, droit sur les baux. Nous avons résolu d'accorder la\ndécharge.... du droit de stipe, qui est une maille pour livre des sommes\ncontenues dans les contrats et obligations, Édit, avril 1673\n\nÉTYMOLOGIE\nLat. stips, petite pièce de monnaie.
stipe	STIPE\n sti-p' s. m.\nTerme de botanique.\n\n1° Nom donné à la tige ligneuse des plantes monocotylédones\narborescentes, qui se termine par un faisceau de feuilles.\n\n2° Support de la fructification dans les cryptogames, du chapeau dans\nles agarics.\n\nÉTYMOLOGIE\nLat. stipes, souche.
stipe	STIPE\n sti-p' s. f.\nGenre de la famille des graminées. On y distingue la stipe très tenace\nqui sert à faire des sparteries comme le sparte.\n\nÉTYMOLOGIE\nLat. stipa, paille.\n\nSUPPLÉMENT AU DICTIONNAIRE\n2. STIPE. Ajoutez : - REM. La stipe très tenace (stipa tenacissima, L.)\nest l'alfa (écrit anciennement halefa), graminée dont les feuilles\ncylindriques, très tenaces, longues de 50 à 60 centimètres, sont coupées\nou arrachées et servent à faire de la sparterie, des cordes et de la\npâte à papier ; elle croît en Espagne, en Grèce et dans tout le nord de\nl'Afrique.
stipelle	STIPELLE\n sti-pè-l' s. f.\nTerme de botanique. Petite stipule placée à la base des folioles d'une\nfeuille composée.\n\nÉTYMOLOGIE\nDimin. de stipule.
stipellé, ée	STIPELLÉ, ÉE\n sti-pèl-lé, lée adj.\nTerme de botanique. Dont les feuilles sont garnies de stipelles.
stipendiaire	STIPENDIAIRE\n sti-pan-di-ê-r' adj.\nQui est à la solde de quelqu'un. Des troupes stipendiaires.\nSubstantivement.\nCes grandes armées composées d'honnêtes stipendiaires bien élevés, qui\ndécident du destin des États, VOLT., Candide, 4.\nDe nos jours encore, on voit en Suisse les officiers, magistrats et\nautres stipendiaires publics payés avec des denrées, J. J. ROUSS., Gouv.\nPologne, X.\nIl ne se dit guère qu'en mauvaise part.\n\nHISTORIQUE\nXIVe s.\nEn reverence de Dieu et de sainte eglise et contemplacion de nostre\nsaint pere, pour son hostel et ses domestiques, familliers ou\nstipendiers, DU CANGE, stipendiarius.\n\nÉTYMOLOGIE\nLat. stipendiarius, de stipendium (voy. STIPENDIER).
stipendie	STIPENDIE\n sti-pan-die s. f.\nNom d'une ancienne oeuvre d'église. Les ecclésiastiques, bénéficiers,\ngouverneurs et administrateurs des aumôneries, commanderies, prévôtés,\nstipendies et confrairies, marguilliers des fabriques.... Édit, mars\n1672.\n\nÉTYMOLOGIE\nLat. stipendium (voy. STIPENDIER).
stipendier	STIPENDIER\n sti-pan-di-é v. a.\nje stipendiais, nous stipendiions, vous stipendiiez ; que je stipendie,\nque nous stipendiions, que vous stipendiiez. Avoir à sa solde.\nLes alliés faisaient le grand nombre des troupes dans les deux\nrépubliques {Athènes et Sparte}, et ils étaient stipendiés par les\nvilles qui les envoyaient, ROLLIN, Hist. anc. Oeuv. t. IV, p. 562, dans\nPOUGENS.\nIl ne se dit plus guère qu'en mauvaise part. Stipendier des assassins.\n\nHISTORIQUE\nXVIe s.\nIl n'y a cité, ville, bourgade ni chasteau, qui n'ait fait provision\nd'armes et autres munitions de guerre, nourry et stipendié plusieurs\nsoldats, avec grands cousts de deniers, FROUMENTEAU, Finances, liv. III,\np. 386.\n\nÉTYMOLOGIE\nLat. stipendiari, de stipendium, qui vient de stips, petite monnaie\n(voy. STIPE 3), et pendere, payer : stipendium est pour stipipendium. On\na attribué stipendier à Mirabeau ; mais, comme on voit, il est bien plus\nancien.
stipendié, ée	STIPENDIÉ, ÉE\n sti-pan-di-é, ée part. passé de stipendier\nDes militaires largement stipendiés pendant de longues années\nd'oisiveté, RAYNAL, Hist. phil. IV, 18.\nSubstantivement. D'indignes stipendiés.
stipiforme	STIPIFORME\n sti-pi-for-m' adj.\nTerme de botanique. Qui a la forme d'un stipe. Tige stipiforme.\n\nÉTYMOLOGIE\nStipe 1, et forme.
stipité, ée	STIPITÉ, ÉE\n sti-pi-té, tée adj.\nTerme de botanique. Qui est porté sur un support.\n\nÉTYMOLOGIE\nStipe 1.
stipulacé, ée	STIPULACÉ, ÉE\n sti-pu-la-sé, sée adj.\nTerme de botanique. Qui donne naissance à des stipules ; qui a de\ngrandes stipules.
stipulaire	STIPULAIRE\n sti-pu-lê-r' adj.\nTerme de botanique. Qui a rapportou qui appartient aux stipules.\nAgaric stipulaire, agaric à tige capillaire.
stipulant, ante	STIPULANT, ANTE\n sti-pu-lan, lan-t' adj.\nTerme de jurisprudence. Qui stipule. Les parties stipulantes dans ce\ncontrat.
stipulation	STIPULATION\n sti-pu-la-sion ; en vers, de cinq syllabes s. f.\nClause, condition, convention énoncée dans un contrat. Les Romains ont\nété longtemps sans écrire les traités entre particuliers, comme il\nparaît par l'obligation en paroles, qu'ils appelaient stipulation,\nFLEURY, Moeurs des Israél. tit. 25, 2e part. p. 318\n\nHISTORIQUE\nXIIIe s.\nAvons promis et prometons asdiz citiens par solempnée stipulation....,\nCASTAN, ie Siége de Besançon, p. 74.\nXVIe s.\nLa stipulation que Dieu fait en exigeant de nous que nous le servions,\nest enclose sous l'alliance de grace, CALV., Instit. 1012.\n\nÉTYMOLOGIE\nLat. stipulationem, de stipulari, stipuler.
stipule	STIPULE\n sti-pu-l' s. f.\nTerme de botanique. Petites feuilles supplémentaires, réduites le plus\nsouvent à la nervure médiane, et produites par une expansion du pétiole,\nqui s'insèrent de chaque côté de la base de certaines feuilles.\nTerme de zoologie. Plume qui sort de la peau et qui est encore\nenveloppée dans sa gaîne.\n\nÉTYMOLOGIE\nLat. stipula, dimin. de stipa, paille. Stipa, stipes, d'où stipe 2, ont\nmême origine et se rattachent à stare, radical sthâ.
stipuler	STIPULER\n sti-pu-lé v. a.\n\n1° Terme de jurisprudence. Chez les Romains, contracter par la paille.\nIl est curieux de suivre la biographie d'un symbole, de voir par\nexemple.... comment l'herbe, suivant le cours de la végétation\njuridique, devint paille, stipula ; comment, la formule remplaçant le\nsymbole et se perdant elle-même dans une locution vulgaire, le souvenir\nde cette paille nous reste en un mot : stipuler, MICHELET, Orig. du\ndroit franç. Introd. CXII.\nPlus tard, toute trace du symbole s'étant effacée, stipuler c'est\ncontracter, en formant le contrat par l'échange d'une interrogation et\nd'une réponse effectuées dans des formes et avec des paroles\nsolennelles.\n\n2° Aujourd'hui, énoncer expressément dans un acte quelque condition\nobligatoire.\nUn accommodement qui stipulerait notre sûreté sans nous la donner, et\nqui, en terminant la guerre civile, établirait la servitude, RETZ, Mém.\nt. I, liv. II, p. 352, dans POUGENS.\nNous stipulons qu'on ne nous demandera point les mille écus de notre\nvivant, PATRU, Plaidoyer 3.\nOn ne stipula pour eux aucune pension, BOSSUET, Lett. quiét. 67.\nPlus d'un bien de l'Église était regardé comme un bien de famille {sous\nLouis XIII} ; on stipulait une abbaye pour la dot d'une fille ; et un\ncolonel remontait son régiment avec le revenu d'un prieuré, VOLT.,\nMoeurs, 175.\nAbsolument.\nIl {Gélon, imposant aux Carthaginois la condition de ne pas immoler\nleurs enfants} stipulait pour le genre humain, MONTESQ., Esp. X, 5.\n\nÉTYMOLOGIE\nLat. stipulari, de stipula, paille (voy. STIPULE) : Dicta stipulatio a\nstipula ; veteres enim, quando sibi aliquid promittebant, stipulam\ntenentes frangebant ; quam iterum jungentes, sponsiones suas\nagnoscebant, ISID. HISPAL. Orig. v, 24. Rabelais a employé stipuler dans\nle sens de solliciter : Je suis journellement stipulé, requis et\nimportuné pour la continuation des mythologies pantagruelicques, Pant.\nIV, Épistre.
stipuleux, euse	STIPULEUX, EUSE\n sti-pu-leû, leû-z' adj.\nTerme de botanique. Qui est muni de grandes stipules.
stipulifère	STIPULIFÈRE\n sti-pu-li-fè-r' adj.\nQui porte une ou deux stipules. Pétiole stipulifère.\n\nÉTYMOLOGIE\nStipule, et lat. ferre porter.
stipulé, ée	STIPULÉ, ÉE\n sti-pu-lé, lée part. passé de stipuler\nLes conditions stipulées dans l'acte.
stipulé, ée	STIPULÉ, ÉE\n sti-pu-lé, lée adj.\nTerme de botanique. Qui est muni de stipules.\nSe dit des cuisses des insectes, lorsqu'elles offrent, à leur base, une\nlame forte et raide.\n\nÉTYMOLOGIE\nStipule.
stipuléen, enne	STIPULÉEN, ENNE\n sti-pu-lé-in, è-n' adj.\nTerme de botanique. Qui doit son origine à des stipules transformées.
stock	STOCK\n stok s. m.\nTerme de commerce. Quantité d'une marchandise quelconque qui se trouve\nen magasin dans les entrepôts ou sur les marchés d'une place de\ncommerce.\nIl se dit aussi des fonds ou numéraire.\nChaque action de la banque {de Londres} est de 100 livres de stock,\nc'est-à-dire du premier fonds, P. GIRAUDEAU, la Banque rendue facile, p.\n173.\nOn la payait {la France} en numéraire, et son stock métallique\ns'accroissait incessamment, DE WARU, Enquête sur la banque, 1867, p.\n153.\n\nÉTYMOLOGIE\nAngl. stock, provision, proprement souche.
stockfisch	STOCKFISCH\n stok-fich s. m.\nToute sorte de poisson salé et séché, et, plus particulièrement, une\nespèce de morue séchée à l'air.\n\nHISTORIQUE\nXIVe s.\nMorue seichée à l'air et au soleil est nommée stofix, , Ménagier, II, 5.\nXVIe s.\nLestocphis et merlu detrempez et dessalez, PARÉ, XX, 35.\n\nÉTYMOLOGIE\nAngl. stockfish, de stock, bûche (voy. ESTOC), et fish, poisson (voy. ce\nmot).
stoechiologie	STOECHIOLOGIE\n sté-ki-o-lo-jie s. f.\nÉtude des différents états et des diverses actions des éléments.\n\nÉTYMOLOGIE\nDu grec, élément, et, traité.
stoechiométrie	STOECHIOMÉTRIE\n sté-ki-o-mé-trie s. f.\nPartie de la chimie qui traite des proportions dans lesquelles les\ndiverses substances se combinent ensemble.\n\nÉTYMOLOGIE\nDu grec, élément, et, mesure.
stoff	STOFF\n stof s. m.\nÉtoffe de laine non croisée à dessins lisses, de façon que le bouquet ou\nle carreau qui forme le dessin, paraît brillant à l'endroit. Plus tard\non a fait des stoffs unis ; c'était une espèce de toile de laine assez\nbrillante.\n\nÉTYMOLOGIE\nAngl. stuff (voy. ÉTOFFE).
stokfiche	STOKFICHE\ns. m.\nVoy. STOCKFISCH.
stole	STOLE\n sto-l' s. f.\nTerme d'antiquité. Robe des personnages considérables chez les Mèdes et\nles Perses.\nArrien appelle la tunique des rois de Perse adoptée par Alexandre, la\nstole des Mèdes, c'est-à-dire une tunique qui descendait jusqu'aux\npieds, comme l'habillement des Grecques et des Romaines appelé stole,\nMONGEZ, Instit. Mém. litt. et beaux-arts, t. IV, p. 83.\nRobe de toilette des dames romaines.\nLes dames romaines avaient d'abord porté cette toge, que la stole\nremplaça, et qu'elles abandonnèrent à leurs esclaves et aux\ncourtisanes ; la stole fut de pourpre et enrichie d'une bande d'étoffe\nd'or qui l'entourait tout entière, PASTORET, Instit. Mém. hist. et litt.\nanc. t. III, p. 299.\n\nÉTYMOLOGIE\nLat. stola, du grec, robe (voy. ÉTOLE).
stolifère	STOLIFÈRE\n sto-li-fè-r' s. m.\nMot forgé par Voltaire pour désigner les gens qui portent robe, les\necclésiastiques.\nQue vos grands stolifères n'aient jamais moins de dix talents d'or, que\nles très grands stolifères n'en aient jamais moins de mille, VOLT.,\nDial. 25.\n\nÉTYMOLOGIE\nStole, et lat. ferre, porter.
stoliste	STOLISTE\n sto-li-st' s. m.\nTerme d'antiquité. Nom du prêtre égyptien chargé de tout ce qui\nconcernait l'instruction religieuse et le choix des victimes.\n\nÉTYMOLOGIE\nDu grec, robe.
stolon	STOLON\n sto-lon s. m.\n\n1° Terme de botanique. Filet grêle que certaines plantes émettent de\nleurs racines, tiges, ou branches, et qui va prendre terre à une\ncertaine distance, s'y enracine et produit de nouveaux individus. Les\ncoulants des fraisiers sont des stolons.\n\n2° Terme d'anatomie. Stolon prolifère, prolongement du tissu du corps de\ncertains animaux, les ascidies par exemple, sur lequel naissent, par\ngemmation, des bourgeons ou mamelons qui, sans fécondation, se\ndéveloppent en animaux parfaits.\n\nÉTYMOLOGIE\nLat. stolonem, rejeton.
stolonifére	STOLONIFÉRE\n sto-lo-ni-fè-r' adj.\nQui porte ou produit des stolons.\n\nÉTYMOLOGIE\nLat. stolonem, rejeton, et ferre, porter.
stolonomie	STOLONOMIE\n sto-lo-no-mie s. f.\nEquipement des flottes.\n\nHISTORIQUE\nXVIe s.\nStolonomie, traicté contenant la manière de dresser, fournir, equiper et\nentretenir, en tout temps, en bon ordre une armée de mer, , dans JAL,\nAnn. marit. 1842, t. II, p. 23.\n\nÉTYMOLOGIE\nDu grec, flotte, et, règle.
stolzite	STOLZITE\n stol-zi-t' s. f.\nTerme de minéralogie. Tungstate de plomb grisâtre.
stomacace	STOMACACE\n sto-ma-ka-s' s. f.\nTerme de médecine. Ulcération fétide de la bouche.\nNom donné quelquefois au scorbut, à cause de l'état de la bouche dans\ncette maladie.\n\nÉTYMOLOGIE\nDu grec, bouche, et, maladie.
stomacal, ale	STOMACAL, ALE\n sto-ma-kal, ka-l' adj.\nQui fortifie l'estomac. Les bons vins sont stomacaux.\n\nHISTORIQUE\nXVIe s.\nLe nerf stomachal, de chacun costé un, descend attaché et adherent à\nl'oesophague, PARÉ, II, 16.\nDes opiates stomachales, PARÉ, XXI, 3.\n\nÉTYMOLOGIE\nLat. stomachus (voy. ESTOMAC).
stomachique	STOMACHIQUE\n sto-ma-chi-k' adj.\n\n1° Terme d'anatomie. Qui appartient à l'estomac. Veines stomachiques.\nLes anatomistes disent plutôt, en ce sens, gastrique.\n\n2° Particulièrement. Bon à l'estomac.\nToutes les recettes dont j'ai usé d'ailleurs, quoique réputées\nstomachiques ou stomacales, car leur nom n'est pas plus assuré que leur\neffet, m'ont fait plus de mal que de bien, D'ALEMB., Lett. au roi de Pr.\n17 sept. 1764.\nSubstantivement. Un bon stomachique.\n\nREMARQUE\nOn a voulu distinguer stomacal et stomachique, le premier se disant\nsurtout des choses naturelles, et le second, des compositions\nartificielles. Mais l'usage ne distingue pas plus que n'a fait\nd'Alembert ; seulement, il emploie stomachique de préférence.\n\nHISTORIQUE\nXVIe s.\nLe tiers rameau nerveux se nomme stomachique, pour ce qu'il descend à\nl'estomach ou ventricule, PARÉ, II, 16.\n\nÉTYMOLOGIE\nLat. stomachicus de stomachus (voy. ESTOMAC).
stomalgie	STOMALGIE\n sto-mal-jie s. f.\nTerme de médecine. Douleur dans la bouche.\n\nÉTYMOLOGIE\nDu grec, bouche, et, douleur.
stomate	STOMATE\n sto-ma-t' s. m.\nTerme de botanique. Pore microscopique qui se voit dans l'épiderme des\nplantes. Les stomates servent uniquement à la respiration des végétaux.\n\nÉTYMOLOGIE\nDu grec, bouche, orifice.
stomatique	STOMATIQUE\n sto-ma-ti-k' adj.\nTerme de médecine. Médicaments stomatiques, médicaments que l'on emploie\ndans les diverses affections de l'intérieur de la bouche ; tels sont les\ndentifrices, les masticatoires, les gargarismes.\n\nÉTYMOLOGIE\nDu grec, bouche.
stomatite	STOMATITE\n sto-ma-ti-t' s. f.\nTerme de médecine. Inflammation de la membrane muqueuse de la bouche.\n\nÉTYMOLOGIE\nDu grec, bouche, et la finale médicale ite.
stomato-gastrique	STOMATO-GASTRIQUE\n sto-ma-to-ga-stri-k' adj.\nQui appartient à la bouche et à l'estomac.\nGanglion stomato-gastrique, nom d'un des ganglions nerveux des\nmollusques.
stomatoplastie	STOMATOPLASTIE\n sto-ma-to-pla-stie s. f.\nTerme de chirurgie. Restauration, par autoplastie, de la cavité buccale\nperforée ou déformée.\n\nÉTYMOLOGIE\nDu grec, bouche, et, former.
stomatoscope	STOMATOSCOPE\n sto-ma-to-sko-p' s. m.\nTerme de médecine. Instrument employé pour tenir la bouche ouverte, et\npermettre d'en voir l'intérieur ou d'y pratiquer quelque opération.\n\nÉTYMOLOGIE\nDu grec, bouche, et, examiner.
stomide	STOMIDE\n sto-mi-d' s. m.\nGenre d'insectes coléoptères ; on en trouve à Paris une espèce, qui est\nle stomis pumicatus.
stomo-gastrique	STOMO-GASTRIQUE\n sto-mo-ga-stri-k' adj.\nTerme d'anatomie. Artère stomo-gastrique, l'artère coronaire\nstomachique.\n\nÉTYMOLOGIE\nEn grec, orifice de l'estomac, et gastrique.
stomocéphale	STOMOCÉPHALE\n sto-mo-sé-fa-l' adj.\nTerme de tératologie. Monstres stomocéphales, monstres qui ont deux yeux\ncontigus ou un oeil double occupant la ligne médiane, avec un appareil\nnasal atrophié et en forme de trompe, des mâchoires rudimentaires et une\nbouche très imparfaite ou nulle.\n\nÉTYMOLOGIE\nDu grec, bouche, et, tête.
stomocéphalie	STOMOCÉPHALIE\n sto-mo-sé-fa-lie s. f.\nÉtat du monstre stomocéphale.
stomoxe	STOMOXE\n sto-mo-ks' s. m.\nInsecte diptère, stomoxys calcitrans, Geoffroy, qui tourmente les\nanimaux de l'espèce chevaline.\n\nÉTYMOLOGIE\nDu grec, bouche, et, aigu.
stopper	STOPPER\n sto-pé v. a.\nArrêter, en parlant d'un bâtiment à vapeur, d'un train, d'une machine.\nCette fois, le câble était complétement perdu ; il s'était rompu tout à\ncoup à la suite d'un emmêlement produit dans une des cuves, et avait\ndisparu dans la mer avant qu'on eût pu stopper l'appareil de\ndéroulement, BRUMMEL, Journ. officiel, 6 sept. 1869, p. 1191, 5e col.\nNeutralement.\nAu commandement de : un homme à la mer, je fis jeter la bouée, amener la\nbaleinière, et stopper, BOUET-WILLAUMEZ, Rapport au ministre, 1847, dans\nJAL.\nPour commander de stopper, on crie : stop !\n\nÉTYMOLOGIE\nAngl. to stop, arrêter.
stoppeur	STOPPEUR\n sto-peur s. m.\nAppareil mécanique destiné à saisir et arrêter le câble lorsqu'il file,\nl'ancre lorsqu'elle descend au fond de la mer, le moteur d'une machine,\netc.\n\nÉTYMOLOGIE\nAngl. stopper, de to stop, stopper.
stoquer	STOQUER\n sto-ké v. a.\nDans les raffineries de sucre, conduire le feu d'un fourneau, de manière\nà rendre la chaleur égale partout.
stoqueur	STOQUEUR\n sto-keur s. m.\nVerge pour stoquer.
storax ou styrax	STORAX ou STYRAX\n sto-raks' ou sti-raks' s. m.\nBaume de consistance variable, et d'une odeur très agréable, dans\nlaquelle on reconnaît celle de l'acide benzoïque. Le storax provient du\nstyrax officinale.\n\nHISTORIQUE\nXVIe s.\nPour l'alexitere propre à tel venin, c'est la terebenthine, le storax,\nla graine d'ortie, et les fueilles de cyprès, PARÉ, XXIII, 6.\n\nÉTYMOLOGIE
