caloyer, yère	CALOYER, YÈRE\n ka-lo-ié, iè-r' s. m. et f.\nMoine grec, religieuse grecque, de l'ordre de Saint-Basile.\n\nÉTYMOLOGIE\nTermes grecs signifiant beau, honorable, et vieillard (voy. GÉRONTE), le\ngamma dans le grec moderne se prononçant à peu près comme y.
calp	CALP\n kalp' s. m.\nTerme de minéralogie. Sorte de marne noire.
calpe	CALPE\n kal-p' s. f.\nTerme de botanique. Urne des mousses.\n\nÉTYMOLOGIE\nEn grec, urne.
calque	CALQUE\n kal-k' s. m.\nDessin calqué. Prendre un calque.\nFig. Imitation servile d'une oeuvre. Ce poëme n'est qu'un calque.\n\nÉTYMOLOGIE\nItal. calco (voy. CALQUER).\n\nSUPPLÉMENT AU DICTIONNAIRE\nCALQUE. Ajoutez : - REM. Chateaubriand l'a fait féminin, à tort :\nPeut-être aujourd'hui met-on trop de prix à la ressemblance et, pour\nainsi dire, à la calque de la physionomie de chaque époque, Préface des\nÉtudes historiques.
calquer	CALQUER\n kal-ké v. a.\n\n1° Prendre le trait d'un dessin qu'on a appliqué sur un papier et dont\non suit les contours avec une pointe. Calquer une estampe. Calquer à la\nvitre. Calquer une lettre pour en faire le fac-simile.\n\n2° Fig. Imiter servilement.\nIls calquent les modes françaises sur l'habit romain, J. J. ROUSS., Hél.\nII, 17.\nBentivoglio, en Italie, calqua Tite-Live, CHATEAUB., Génie, III, III, 3.\n\n3° Se calquer, v. réfl. Se modeler. Il se calque sur un mauvais modèle.\n\nÉTYMOLOGIE\nItal. calcare, calquer, proprement fouler, du latin calcare, fouler aux\npieds, dont l'ancien français fit caucher (voy. CHAUSSES).
calquoir	CALQUOIR\n kal-koir s. m.\nCrayon de métal servant à calquer.\n\nÉTYMOLOGIE\nCalquer.
calqué, ée	CALQUÉ, ÉE\n kal-ké, kée part. passé.\nUn dessin calqué. Des modes calquées sur les modes parisiennes.
calschiste	CALSCHISTE\n kal-chi-st' s. m.\nTerme de géologie. Schiste argileux contenant des veines calcaires.\n\nÉTYMOLOGIE\nCalx, chaux, et schiste.
calumet	CALUMET\n ka-lu-mè ; le t ne se lie pas dans le parler ordinaire ; au pluriel l's\nse lie : les ka-lu-mèz américains ; calumets rime avec traits, jamais,\nsuccès, paix, etc. s. m.\n\n1° Terme de botanique. Nom populaire donné en Amérique à plusieurs\nplantes dont les tiges servent à faire des tuyaux de pipe.\n\n2° La pipe même en usage chez les sauvages, et qu'ils présentent comme\nun symbole de paix.\nJe viens leur apporter le calumet de la paix, VOLT., Jenni, 7.\nUn Caraïbe faisait fumer, en signe de paix, des matelots dans son\ncalumet, BERN. DE S.-P., Ét. II, Bienf.\nJe fumerai mon calumet de paix sur le berceau de mon fils, CHATEAUB.,\nAtala, 226.\n\nÉTYMOLOGIE\nCalumet ou chalumet, autre forme de chalumeau (voy. ce mot).
calus	CALUS\n ka-lus' s. m.\n\n1° Durillon produit par le frottement.\nLe seul produit de la terre cultivée par des mains laborieuses,\nendurcies de calus et mouillées de larmes, doit des tributs à la\npuissance législatrice et exécutrice, VOLT., l'Homme aux 40 écus,\naventure avec un carme.\nFig. Endurcissement de coeur. Le méchant se fait un calus contre le\nremords.\n\n2° Cal, espèce de soudure qui réunit les fragments d'un os.\n\n3° Terme de botanique. Excroissance arrondie formée après la rupture\nd'une branche, l'incision de l'écorce, etc.\n\nHISTORIQUE\nXVIe s.\nOn voit aux bestes brutes, qui auront quelque jambe ou autre partie\nrompue, le callus estre refait sans aide de nul medicament, PARÉ,\nIntrod. 27.\nCe qui unist les os ensemble, est appellé callus, PARÉ, ib. VII, 4.\n\nÉTYMOLOGIE\nLe même que cal (voy. ce mot).
calvaire	CALVAIRE\n kal-vê-r' s. m.\n\n1° Lieu élevé où Jésus-Christ fut crucifié.\nFig.\nQu'un autre, aux rois déchus donnant un nom sévère, Fasse un vil pilori\nde leur fatal calvaire, V. HUGO, Voix, 2.\nCombien de généreux sang a été répandu avant que ne se levât le jour de\nla victoire ! De combien de stations a été marqué ce douloureux calvaire\nde la liberté !, , Journ. des Débats, 30 nov. 1830.\n\n2° Élévation où l'on a planté une croix pour figurer le calvaire.\nDans les églises, suite de stations qu'on nomme plus ordinairement\nchemin de la croix.\n\nHISTORIQUE\nXIIe s.\nE si cum en calvaire unt Deu crucifié, , Th. le mart. 150.\nXIIIe s.\nCil le batirent tant de poins et de corgie {courroie} ; Puis le\ncrucefierent el mont de Calvairie, , Ch. d'Ant. IV, 814.\n\nÉTYMOLOGIE\nCalvaria, lieu où Jésus-Christ fut crucifié, ainsi dit parce que, les\ncondamnés y étant exécutés et leurs corps y restant, il était garni de\ncrânes, en latin calvaria, lequel vient de calvus, chauve (voy. ce mot),\nà cause de la dénudation de la boîte osseuse.\n\nSUPPLÉMENT AU DICTIONNAIRE\nCALVAIRE. Ajoutez : - REM. Calvaire, quand il désigne le lieu où Jésus\nfut crucifié, prend un grand C, mais un petit c quand il est employé\nfigurément comme un lieu de douleur.
calvanier	CALVANIER\n kal-va-nié s. m.\nTerme d'agriculture. Homme de journée qui engrange les gerbes, charge\nles voitures pendant la moisson, etc.\nEn Normandie on dit calvènier.
calville	CALVILLE\n kal-vi-l' s. m.\nEspèce de pomme. Voilà du beau calville.\n\nÉTYMOLOGIE\nNorm. cadville ; génev. calvine ; langued. calvire, d'après Ménage ;\nital. caravella. Origine inconnue ; pourtant Ménage note qu'il y a, dans\nle voisinage de Lyon, un lieu appelé Calville, d'où la pomme aurait pu\nêtre dénommée ; mais alors, le mot italien, d'où viendrait-il ? Des\nlexicographes font calville du féminin.
calvinien, ienne	CALVINIEN, IENNE\n kal-vi-niin, niè-n' adj.\nQui appartient au calvinisme.\nLes églises calviniennes, BOSSUET, Var. 15.
calvinisme	CALVINISME\n kal-vi-ni-sm' s. m.\nLa doctrine, l'Église de Calvin, qui se distingue surtout par la\nnégation de la présence réelle et par le dogme de la prédestination.\nC'est, selon eux, prêcher un calvinisme horrible, BOILEAU, Sat. XI.\nLouis XIV, qui avait proscrit le calvinisme avec tant de hauteur, fit la\npaix, sous le nom d'amnistie, avec un garçon boulanger {chef des\nprotestants insurgés dans les Cévennes}, VOLT., Louis XIV, 36.\nCelui de ses aïeux qui, ayant embrassé le calvinisme, fut obligé\nd'abandonner sa patrie, était établi dans la ville de Troyes....,\nCONDORCET, Tronchin.\n\nÉTYMOLOGIE\nCalvin ou Chauvin, de la ville de Noyon, fondateur du calvinisme.
calviniste	CALVINISTE\n kal-vi-ni-st' s. m. et f.\nCelui, celle qui suit la doctrine de Calvin.
calvitie	CALVITIE\n kal-vi-sie s. f.\nÉtat d'une tête chauve. Une calvitie précoce.\n\nÉTYMOLOGIE\nCalvities, de calvus, chauve (voy. ce mot). Nos anciens disaient\nchauveté.
calybion	CALYBION\n ka-li-bi-on s. m.\nTerme de botanique. Fruit en capsule, gland.\n\nÉTYMOLOGIE\nEn grec, proprement petite cabane.
calybite	CALYBITE\n ka-li-bi-t' s. m.\nNom de solitaires chrétiens qui habitaient dans des huttes.\n\nÉTYMOLOGIE\nTerme dérivé du mot grec signifiant hutte.
calycandrie	CALYCANDRIE\n ka-li-kan-drie s. f.\nTerme de botanique. Classe de plantes dont les étamines sont insérées au\ncalice.\n\nÉTYMOLOGIE\nEn grec : calice et mâle.
calycanthème	CALYCANTHÈME\n ka-li-kan-tê-m' adj.\nTerme de botanique. Dont le calice a l'apparence d'une corolle.\n\nÉTYMOLOGIE\nEn grec : calice et fleur.
calypso	CALYPSO\n ka-li-pso s. f.\nLa 53e planète télescopique, découverte par Luther.\n\nÉTYMOLOGIE\nEn grec, nymphe, fille d'Atlas.
calyptre	CALYPTRE\n ka-li-ptr' s. f.\nTerme de botanique. Coiffe des mousses.\n\nÉTYMOLOGIE\nEn grec, cacher.
calyptré, ée	CALYPTRÉ, ÉE\n ka-li-ptré, ptrée adj.\nTerme de botanique. Qui est muni d'une coiffe.\n\nÉTYMOLOGIE\nCalyptre.
calyptères	CALYPTÈRES\n ka-li-ptê-r' s. f. plur.\nTerme de zoologie. Petites plumes qui couvrent le bas de la queue des\noiseaux.\n\nÉTYMOLOGIE\nEn grec : ce qui sert à cacher.
calèche	CALÈCHE\n ka-lè-ch' s. f.\n\n1° Voiture à ressort et à quatre roues, fort légère et ordinairement\ndécouverte sur le devant.\nMarquis, allons au Cours faire voir ma calèche, Elle est bien entendue,\net plus d'un duc et pair En fait à mon faiseur faire une de même air,\nMOL., Fâch. I, 1.\n\n2° Coiffure de femme qui se repliait sur elle-même.\n\nÉTYMOLOGIE\nItal. calesse, calesso ; angl. calash ; du slave : bohém. kolesa ;\npolon. kolaska.\n\nSUPPLÉMENT AU DICTIONNAIRE\nCALÈCHE. Ajoutez : - REM.\n1. Il est écrit galeche dans une pièce officielle, datée du 8 janvier\n1661. La permission d'établir, dans notre bonne ville, faubourgs et\nbanlieues de Paris, des galeches, carioles ou petits carrosses à deux\nroues, tirées par un seul cheval, Lettre patente, qui révoque cette\npermission.\n2. &quot; Ce qui s'appelait l'été dernier une calèche (chapeau de femme), cet\nhiver une capote, a repris le nom de calèche depuis que nos dames se\npromènent en voiture découverte ; une calèche a de la blonde ou du tulle\nau bord, comme l'année dernière, mais en plus grande quantité. Quelles\nfleurs ? me direz-vous. Des lilas, vous répondrai-je, des jacinthes, des\nroses, des bluets, &quot; Journal de Paris, du 1er mai 1811
calère	CALÈRE\n ka-lê-r' s. f.\nTerme de pêche. Grand carreau établi à l'avant d'un petit bateau, et\nqu'on relève au moyen d'un contre-poids.
calé, ée	CALÉ, ÉE\n ka-lé, lée, part. passé de caler 1.\nAbaissé. Une voile calée.
calé, ée	CALÉ, ÉE\n ka-lé, lée, part. passé de caler 2.\n\n1° Assujetti avec une cale.\n\n2° Populairement, qui a quelque aisance, qui est en bonne position.
caléchier	CALÉCHIER\n ka-lé-chié s. m.\nLoueur de calèches, de voitures de place.\nCassation, sur le pourvoi du sieur S..., caléchier à Oran, du jugement\nde ce tribunal...., , Gaz. des Trib. 1er-2 mars 1875, p. 214, 2e col.
caléfacteur	CALÉFACTEUR\n ka-lé-fa-kteur s. m.\nAppareil propre à la cuisson des aliments.\n\nÉTYMOLOGIE\nVoy. CALÉFACTION. Caléfacteur a été forgé par le grammairien Lemare, qui\ninventa et vendit cette sorte de marmites.
caléfaction	CALÉFACTION\n ka-lé-fa-ksion s. f.\nTerme didactique.. Action de faire chauffer ; chaleur causée par le feu.\n\nÉTYMOLOGIE\nProvenç. calefactio ; du latin calefactionem, de calere, être chaud\n(voy. CHAUD), et factio, action de faire (voy. FACTION).
caléidophone	CALÉIDOPHONE\n ka-lé-i-do-fo-n' s. m.\nTerme de physique. Instrument qui rend sensibles les vibrations de la\nproduction des sons.\n\nÉTYMOLOGIE\nDu grec , beau, espèce, et voix.
caléidoscopique	CALÉIDOSCOPIQUE\n ka-lé-i-do-sko-pi-k' adj.\nQui a le jeu, l'apparence d'un caléidoscope.
caléïdoscope	CALÉÏDOSCOPE\n ka-lé-i-do-sko-p' s. m.\nInstrument de physique qui, garni de petits fragments de diverses\ncouleurs, montre, à chaque mouvement, des combinaisons toujours variées\net toujours agréables.\nAu figuré, voir les choses avec le caléidoscope de l'espérance.\n\nÉTYMOLOGIE\nDu grec : beau, forme et voir.
camage	CAMAGE\n ka-ma-j' s. m.\nEnsemble des cames. Arbre de camage.
camail	CAMAIL\n ka-mall, ll mouillées s. m.\n\n1° Habillement du clergé en hiver, couvrant la tête, les épaules, et\nallant jusqu'à la ceinture.\n\n2° Petit manteau tombant des épaules à la ceinture, que portent\npar-dessus le rochet les évêques et autres ecclésiastiques privilégiés.\nLes évêques étaient en rochet et camail, BOSSUET, Lett. Quiét. 182.\n\n3° Terme de blason. Espèce de lambrequin servant à couvrir le casque et\nl'écu des chevaliers.\nAu plur. Des camails.\n\nHISTORIQUE\nXIVe s.\nEt voit ses chevaliers bien armés de camail, , Guesclin. dans RAYNOUARD,\nLexique.\nBertrand tenoit l'espée qui le fer eut tranchant, Au camail lui bouta\nfierement en poussant, DU CANGE, camelaucum.\nXVe s.\nTant s'avança le sire de Langurant {au siége de Duras} que de sa vie il\nse mit en grand aventure ; car ceux de dedans par force lui arracherent\nle bassinet de la teste atout le camail, FROISS., II, II, 11.\nUng camail d'argent de l'ordre de monseigneur d'Orleans, pesant sept\nonces trois gros, DE LABORDE, Émaux, p. 192.\nUn camail en façon de treliz, et est ledit camail cintré par-dessus de\nbossetes tant d'or que esmaillées de blanc et de rouge cler, DE LABORDE,\nib.\n\nÉTYMOLOGIE\nProvenç. capmalh, capmail, capmal, camal ; ital. camaglio ; de cap, tête\n(voy. CHEF), et mail, armure (voy. MAILLE) : proprement une armure de\ntête, puis un vêtement de tête.
camaldule	CAMALDULE\n ka-mal-du-l' s. m.\n\n1° Religieux d'un ordre monastique fondé, à la fin du Xe siècle, par\nsaint Romuald ; l'habit est blanc ; la règle est celle de saint Bernard.\nRagotzi s'était retiré aux camaldules de Grosbois, SAINT-SIMON, 469,\n203.\nIl y avait aussi des religieuses camaldules.\n\n2° S. f. Une camaldule, un couvent de camaldules.\n\nÉTYMOLOGIE\nCamaldoli, localité de la Toscane où l'ordre fut d'abord établi.
camanioc	CAMANIOC\n ka-ma-ni-ok s. m.\nEspèce de manioc qu'on cultive à Cayenne et dans les Antilles, dont on\npeut manger la racine cuite, sans préparation préalable, comme les\npommes de terre, tandis que les racines de manioc contiennent un suc\nvénéneux, qu'il faut d'abord extraire.
camarade	CAMARADE\n ka-ma-ra-d' s. m.\n\n1° Nom que se donnent entre eux les militaires. Des camarades de\nrégiment.\nEn avant ! partons, camarades, L'arme au bras, le fusil chargé, BÉRANG.,\nVieux cap.\n\n2° Par extension, substantif des deux genres, celui, celle qui a même\nvie, mêmes habitudes, mêmes occupations que plusieurs autres personnes.\nCamarades d'école, de collége, de chambrée. Des camarades d'enfance, des\npersonnes qui se fréquentent depuis l'enfance. Des camarades de bureau.\nC'est une mauvaise camarade.\nLa taille du maréchal duc de Noailles est assez grande, mais épaisse ;\nsa démarche lourde et forte ; son vêtement, uni ou tout au plus\nd'officier, voudrait montrer la simplicité la plus naturelle ; il la\nsoutient avec le gros de ce que, faute de meilleure expression, on\nentend par apparence de sans façon et de camarade, SAINT-SIMON, 317,\n138.\nEh, mon Dieu ! s'écria-t-il, je crois que c'est là Jeannot ; le petit\nhomme rebondi ne fait qu'un saut et court embrasser son ancien camarade,\nVOLT., Jeannot et Colin.\nCamarade de lit, celui qui couche dans le même lit qu'un autre. Deux\nsoldats qui couchaient dans le même lit étaient camarades de lit.\nFig.\nQue le bon soit toujours camarade du beau, Dès demain je chercherai\nfemme, LA FONT., Fab. VII, 2.\n\n3° Populairement, ami. Ils se sont remis camarades.\nMon camarade, Tiens, bois rasade, BÉRANGER, Troub.\n\n4° Se dit de ceux qui courent même fortune. Nous avons été camarades\nd'aventures, d'infortune. Dans ce désappointement il eut bien des\ncamarades.\n\n5° Familièrement, en s'adressant à des inférieurs, même inconnus. Mon\ncamarade, enseignez-moi, je vous prie, le chemin de....\n\nSYNONYME\nCAMARADE, COMPAGNON. Camarade est d'origine un terme militaire, et\nsignifie de la même chambrée ; de là, figurément, il exprime celui qui a\navec d'autres même genre d'occupations ou d'habitudes. Compagnon, qui\nveut dire d'origine celui qui mange le même pain, n'a point cette\nparticularité de sens ; il n'implique pas qu'on soit de même\noccupation ; il implique qu'on accompagne. Ainsi on dit : des camarades\nde lit, des compagnons de voyage. Vivre d'un même genre de vie pour\ncamarades, s'accompagner pour compagnons, voilà la nuance de sens\nessentielle entre ces deux mots. Nous disons camarades de collége et non\ncompagnons de collége ; mais au féminin compagnes de pension, de\ncouvent ; cette déviation tient à ce que l'oreille a désiré marquer le\nféminin que la désinence ne signale pas dans camarade.\n\nHISTORIQUE\nXVIe s.\nOrdinairement un capitaine {d'infanterie espagnole} en aura cinq ou six\n{soldats choisis} qu'il appelle ses camarades, LANOUE, 296.\nM. de Langey, au lieu qu'il a escrit de la discipline militaire, parle\ndes camarades, qu'il appelle en nostre langue françoise chambrée, et les\nfait de dix soldats, baillant à l'un d'iceux quelque preeminence sur les\nautres, et le nomme chef de chambre, LANOUE, 294.\nComba fut pris en la maison d'une vieille qui blanchissoit le linge de\nsa camarade, qu'il nommoit ainsi à l'hespaignol, CARLOIX, VI, 46.\nComme estant d'une camerade, et participants à toutes ses entreprises,\nCARLOIX, X, 14.\n\nÉTYMOLOGIE\nEspagn. camarada, s. m. ; ital. camerata, s. m. de l'espagnol camara,\nital. camera, chambre (voy. CHAMBRE) : proprement chambrée, puis, au\nmasculin, celui qui demeure dans la même chambre, camarade. Dans les\nexemples cités à l'historique, camarade signifie chambrée, et, par\nextension, homme de chambrée. Camarade est d'origine un terme militaire.\n\nSUPPLÉMENT AU DICTIONNAIRE\nCAMARADE. Ajoutez : - REM. Malherbe disait camerade : Lundi furent\namenés sept des camerades de Montchrestien, Lexique, éd. Lalanne. Cette\nforme est plus voisine de l'étymologie.
camarade	CAMARADE\n ka-ma-ra-d' s. m.\nNom d'un fromage.\nLe fromage de camarade {de chèvre} est assez recherché ; on le fabrique\ndans les montagnes du département de l'Ariége, HEUZÉ, la France\nagricole, carte n° 44.
camaraderie	CAMARADERIE\n ka-ma-ra-de-rie s. f.\n\n1° La familiarité qui existe entre camarades.\nCette camaraderie de vous et de Mlle Duplessis, SÉV., 70.\nLa plupart des liaisons de société, la camaraderie.... tout cela est à\nl'amitié ce que le sigisbéisme est à l'amour, CHAMFORT, dans le Dict. de\nDOCHEZ.\n\n2° Disposition d'esprit qui fait que des écrivains, des artistes qui ont\ndes liaisons entre eux se soutiennent et se prônent mutuellement. Son\nsuccès n'est pas de bon aloi, il est dû à la camaraderie. Le premier\nemploi de camaraderie en ce sens est attribué à H. Delatouche, par\nChasles, J. des Débats, 15 juillet 1860.\n\nÉTYMOLOGIE\nCamarade.
camard, arde	CAMARD, ARDE\n ka-mar, mar-d' ; le d ne se lie pas : ka-mar et bossu ; au pluriel,\nsemblablement, kamar et bossus ; d'autres prononcent ka-mar-z et bossus\n1° nm et f Qui a le nez plat et écrasé. Un camard. Une camarde.\n\n2° Adj. Un nez camard.\nC'était une grosse fille écrasée, brune, laide, camarde, avec de\nl'esprit, SAINT-SIMON, 24, 17.\nL'Égypte.... Dans sa robe de sable enfonce enveloppés Ses colosses\ncamards, à la face frappés Par le pied brutal de Cambyse...., V. HUGO,\nVoix, 4.\nDans le style burlesque, la camarde, la mort.\nIl fut complimenté d'abord Par le Sommeil et par la Mort ; Pour lui\nfaire honneur, la camarde, Contre son humeur, fut gaillarde, SCARRON,\nÉnéide, VI.\n\nHISTORIQUE\nXVIe s.\nMais d'où vient cet orgueil ? on ne void par la ville Un plus rogue\nvilain, qui contreface mieux Depuis un peu de temps le brave et glorieux\nQue ce petit camard...., TABOUROT DES ACCORDS, Bigarr. Descriptions\npathétiques.\n\nÉTYMOLOGIE\nMême radical que camus.
camare	CAMARE\n ka-ma-r' s. m.\nTerme de botanique. Fruit aplati et membraneux composé de deux valves\nsoudées.\n\nÉTYMOLOGIE\nEn grec, voûte.
camarilla	CAMARILLA\n ka-ma-ril-la s. f.\nCoterie de personnes qui approchent du prince le plus près.\n\nÉTYMOLOGIE\nDiminutif de camara, chambre en espagnol (voy. CHAMBRE).
camarin	CAMARIN\n ka-ma-rin s. m.\nEspèce de plongeon.
camaïeu	CAMAÏEU\n ka-ma-ieu s. m.\n\n1° Pierre fine taillée, ayant deux couches de différentes couleurs, dont\nl'une est devenue la figure en relief, et l'autre fait le fonds.\n\n2° Genre de peinture où l'on n'emploie qu'une couleur avec des teintes\nplus sombres et plus claires. Peindre en camaïeu.\nUn camaïeu, un tableau peint en camaïeu.\nPar dénigrement, un camaïeu, un tableau d'une couleur lourde et\nmonotone.\nLe coadjuteur a bien ri des camaïeux de peinture, que vous comparez à\nl'histoire de France en madrigaux, SÉV., 192.\n\n3° Gravure qui est une imitation de la manière en lavis.\n\nHISTORIQUE\nXIVe s.\nBeles chambres qui seront d'or et d'argent et de pierres precieuses,\nc'est à savoir rubiz, esmeraudes, saphyrs, cameuz et marguerites, ,\nLivres de la loi au Sarrasin, p. 133.\nUne autre boiste d'argent où est le triaclier au duc, et un catmahieu, ,\nBibl. des chartes, 4e série, t. V, p. 169.\nUn tableau d'or ouquel il a un grans gamahieu assis sur bois, DE LA\nBORDE, Émaux, p. 185.\nUn lorain {courroie garnie de soie} semé de boutons dorés et de\ncamahieus, DE LA BORDE, ib.\nLe camahieu qui aultrement est appelé oniche, DE LA BORDE, ib.\nUn camahieu, dont le champ est vermeil et a deux figures dessus à une\nbeste assise en une verge toute plaine, DE LA BORDE, ib.\nXVe s.\nUng fuzil entaillé en un camayeu où estoient ses armes, COMM., V, 9.\nXVIe s.\nCet anneau avoit pour sa pierre un cupidon couronné fort mignonnement,\nestant entaillé en un camoïeu d'amatite, YVER, 588.\nChamahieux, PALSGR., p. 102.\n\nÉTYMOLOGIE\nEspagn. camafeo ; bas-lat. camahotus, camahutus ; du bas-lat. camaeus,\nsardoine, onyx (voy. CAMÉE).\n\nSUPPLÉMENT AU DICTIONNAIRE\nCAMAÏEU. Ajoutez :\n\n4° Vêtement qui, comme la peinture en camaïeu, a deux tons.\nDans ce costume, qui est ce qu'on appelle proprement un costume camaïeu,\nl'un des deux tons se distingue de l'autre, et chacun a son écho dans la\ntoilette, CH. BLANC, Journ. offic. 28 oct. 1872, p. 6710, 3e col.\nLa dignité du vêtement, le luxe voilé, la sévérité de l'uni ou des\ncamaïeux sont quelquefois des raffinements, CH. BLANC, ib. p. 6711, 2e\ncol.
cambial, ale	CAMBIAL, ALE\n kan-bi-al, a-l' adj.\nQui a rapport au change.\nLa première section s'occupe du droit privé.... la seconde du droit\ncommercial, cambial et maritime...., , Journ. offic. 7 sept. 1872 p.\n5896, 1re col.\n\nÉTYMOLOGIE\nVoy. CAMBISTE.
cambiature	CAMBIATURE\n kan-bi-a-tu-r' s. f.\nTerme italien. Voiture dans laquelle on voyage en changeant de chevaux à\nchaque poste.\nIl lui offre une place dans sa cambiature, VOLT., Dict. phil. Évêque.\n\nÉTYMOLOGIE\nCambiatura, de cambiare (voy. CHANGER).
cambiste	CAMBISTE\n kam-bi-st' s. m.\nBanquier qui se livre aux opérations de change.\nVieilli. On dit aujourd'hui agent de change.\n\nÉTYMOLOGIE\nItal. cambio, change (voy. CHANGE).
cambium	CAMBIUM\n kan-bi-om' s. m.\n\n1° Terme de botanique. Suc nutritif, élaboré, destiné à fournir les\nmatériaux de l'accroissement des plantes.\n\n2° Terme de jardinage. Nom donné aux tissus en voie de formation et\nétant encore mous et gélatineux.\n\nHISTORIQUE\nXVIe s.\nLa troisieme humeur de nourrissement s'appele cambium, qui est jà changé\net agglutiné et peu s'en faut jà tourné en nourrissement, PARÉ, Introd.\n6.\n\nÉTYMOLOGIE\nBas-lat. cambium, mot qui se trouve dans Arnauld de Villeneuve, XIVe\nsiècle (cambium, humiditas manifeste alterata membri continentis\ncomplexione) ; de cambire, changer (voy. CHANGER).
cambouis	CAMBOUIS\n kan-boui ; l's se lie ; kan-bui est une prononciation vicieuse s. m.\nVieux oing qui, employé pour adoucir les frottements d'une roue sur\nl'essieu, d'une machine, prend le nom de cambouis quand il a été noirci\npar le frottement et le mélange des parties métalliques. L'huile qu'on\nmet aux roues des voitures devient aussi du cambouis par le frottement.\nTerme de vétérinaire. Matière sébacée qui s'accumule souvent en quantité\nconsidérable à l'intérieur du fourreau du cheval.\n\nHISTORIQUE\nXIVe s.\nPrenez camboïs, c'est le limon noir qui est aux deux bouts de l'essieul\nde la charette, , Ménagier, II, 5.\nXVIe s.\nAh très orde vieille truande ! Vous me baillez du cambouys {vous me\ndupez}, , Farce du meunier de qui le diab le emporte l'âme en enfer,\nParis, 1831, p. 19.\n\nÉTYMOLOGIE\nRaynouard le tire du provençal camois, boue, souillure.
cambouisé, ée	CAMBOUISÉ, ÉE\n kan-boui-zé, zée adj.\nCrasseux, en parlant des pièces de la batterie d'un fusil.
cambrai	CAMBRAI\n kan-brè s. m.\nSorte de toile de lin très claire.\nAujourd'hui, dentelle faite à la mécanique et non aux fuseaux ;\nl'imitation, la fausse dentelle.\n\nÉTYMOLOGIE\nCambrai, ville où ce tissu se fabrique.
cambre	CAMBRE\n kan-br' s. f.\nCambrure.
cambrelage	CAMBRELAGE\n kan-bre-la-j' s. m.\nLe même que le chambellage, DENISART, Collection des décisions\nnouvelles, 1775, hoc verbo.\n\nÉTYMOLOGIE\nCambrelage se trouve dans la Coutume du Cambrésis, titre I, art. 46 ;\nc'est une autre forme de chambellage.
cambrement	CAMBREMENT\n kan-bre-man s. m.\nAction de cambrer.
cambrer	CAMBRER\n kan-bré v. a.\n\n1° Arquer légèrement. Cambrer une pièce de bois.\n\n2° Se cambrer, v. réfl. Devenir cambré. Cette poutre commence à se\ncambrer.\n\nHISTORIQUE\nXVIe s.\nDes astelles cambrées, pour mieux se coucher autour de la jambe, PARÉ,\nXIII, 23.\nPar une violence les os des jeunes enfans se courbent et cambrent, PARÉ,\nXV, 1.\nElle se cambre, en marchant, très fort, PALSGR., p. 461.\nVous allez en cambrant comme se ce fust ung qui eust les rayns rompus,\nPALSGR., p. 573.\n\nÉTYMOLOGIE\nCamerare, voûter, de camera, voûte.
cambreur	CAMBREUR\n kam-breur s. m.\nOuvrier qui cambre les cuirs des souliers.
cambrien, ienne	CAMBRIEN, IENNE\n kan-bri-in, iè-n' adj.\nTerme de géologie. Qui est composé de schiste chloreux et argileux,\nreposant sur les micaschistes et les gneiss.\n\nÉTYMOLOGIE\nCambria, nom breton du pays de Galles en Angleterre.
cambrillon	CAMBRILLON\n kan-bri-llon, ll mouillées s. m.\nPartie du talon d'un soulier.\n\nÉTYMOLOGIE\nCambrer.
cambrioleur	CAMBRIOLEUR\n kan-bri-o-leur s. m.\nTerme d'argot. Voleur par effraction dans les chambres, dites en argot\ncambrioles.
cambrique	CAMBRIQUE\n kan-bri-k' adj.\nLangue cambrique, langue parlée dans le pays de Galles et dite aussi le\nkymri.\n\nÉTYMOLOGIE\nCambria, nom breton du pays de Galles.
cambrure	CAMBRURE\n kan-bru-r' s. f.\nÉtat de ce qui est cambré. La cambrure d'un soulier.\n\nÉTYMOLOGIE\nCambrer.
cambré, ée	CAMBRÉ, ÉE\n kan-bré, brée part. passé.\nUne taille cambrée, taille qui présente une concavité en arrière. Jambes\ncambrées, celles dont la courbure naturelle est exagérée, de sorte que\nles genoux sont distants l'un de l'autre quand les talons se touchent.\nOn dit dans le même sens qu'un homme est cambré.
cambrésine	CAMBRÉSINE\n kan-bré-zi-n' s. f.\nToile de lin claire et fine qui se fabriquait à Cambrai.\n\nÉTYMOLOGIE\nCambrai, ville où se fabriquait ce tissu.
cambuse	CAMBUSE\n kan-bu-s' s. f.\nTerme de marine. Endroit où l'on distribue les rations à l'équipage.\nTenir la cambuse.\nTrès populairement, se dit, par dénigrement, d'un cabaret de bas étage\nou d'une maison mal tenue. Quelle cambuse ! C'est une vraie cambuse.\n\nÉTYMOLOGIE\nAngl. caboose ; du hollandais kabuys, cuisine de navire marchand. Ce mot\nparaît ne s'être introduit dans la marine que vers le milieu du XVIIIe\nsiècle. Il y a dans le Berry cambuse, mauvaise hutte.
cambuser	CAMBUSER\n kan-bu-zé v. a.\nTerme de marine. Nettoyer une futaille.
cambusier	CAMBUSIER\n kan-bu-zié ; l'r ne se lie jamais s. m.\nTerme de marine. Celui qui, à bord d'un vaisseau, est chargé de la\ndistribution régulière des vivres à tous les gens de l'équipage.\n\nÉTYMOLOGIE\nCambuse.
came	CAME\n ka-m' s. f.\nVoy. CHAME.
came	CAME\n ka-m' s. f.\nTerme de mécanique. Sorte de dent appliquée à l'arbre d'une machine, ou\ntaillée dans cet arbre pour servir à soulever un pilon.
came	CAME\n ka-m' s. f.\nNom donné, dans le département de la Manche, à des pots de cuivre jaune,\nmais étamés intérieurement, dans lesquels on transporte le lait de\nl'herbage à la ferme, , les Primes d'honneur, Paris, 1873, p. 21.
camelin, ine	CAMELIN, INE\n ka-me-lin, li-n' adj.\nQui appartient au chameau.\nLes produits de la population caprine et cameline de l'Algérie.... la\npopulation cameline de l'Algérie est d'environ 180 000 têtes, , Journ.\noffic. 12 mai 1874, p. 3220, 1re et 2e col.\n\nÉTYMOLOGIE\nLat. camelus, chameau.
cameline	CAMELINE\n ka-me-li-n' s. f.\n\n1° Terme de botanique. Plante crucifère (myagrum sativum, L.), dont les\nsemences fournissent une huile grasse bonne à brûler et dite\nimproprement huile de camomille.\n\n2° Sorte d'ancienne sauce.\n\nHISTORIQUE\nXIVe s.\nAu saussier, une quarte de cameline pour le disner, , Ménagier, II, 4.\nQuiconques s'entremettra de faire sauce appelée cameline, qu'il la fasse\nde bonne cannelle, bon gingembre, bons cloux de girofle, DU CANGE,\ncamelotum.\nXVe s.\nDedans l'amoureuse cuisine.... Saulce ne faut ne cameline Pour jeunes\nappetiz nouveaulx, CH. D'ORL., Rond.\n\nÉTYMOLOGIE\nLa sauce est dite sans doute de la plante, et la plante de quelque\nassimilation au camelin, qui a été un des noms du camelot.
camelle	CAMELLE\n ka-mè-l' s. f.\nPyramide formée dans les marais salants pour laisser égoutter le sel.
camellia	CAMELLIA\n ka-mè-li-a s. m.\nBel arbuste d'ornement, de la famille des théacées (camellia japonica,\nL.).\nAu plur. Des camellias.\n\nÉTYMOLOGIE\nLe P. Camelli, qui l'a introduit du Japon en Europe.
camelot	CAMELOT\n ka-me-lo ; le t ne se lie pas dans le parler ordinaire s. m.\nÉtoffe de poil ou de laine, mêlée quelquefois de soie en chaîne.\n\nPROVERBE\nIl est comme le camelot, il a pris son pli, c'est-à-dire il est\nincorrigible.\n\nHISTORIQUE\nXIIIe s.\n.... De camelin pour la poussiere Avoient clokes {vêtements} paringaus\n{semblables}, , Bl. et Jehan, 5436.\n.... Huit aunes d'un camelin gris, Brunet et groz, d'un pauvre pris,\nRUTEB., II, 74.\nVous estes filz de vilain et de vilaine, et avez lessié l'abit votre\npere et vostre mere, et estes vestu de plus riche camelin que le roy\nn'est, JOINVILLE, 196.\nJe le vi aucune foiz en esté, que, pour delivrer sa gent, il venoit au\njardin de Paris, une cote de chamelot vestue, JOINVILLE, 199.\nXVIe s.\nOn met sous le malade une piece ou de maroquin, ou de camelot, ou de\nbougran, estoffes qui ne retiennent que bien peu la chaleur, PARÉ, XXI,\n2.\nQuant au poil de chevre, peu ou point d'estat n'en est fait de pardeçà,\nestant le propre du Levant et de la Barbarie, que d'en faire des\ncamelots, O. DE SERRES, 328.\n\nÉTYMOLOGIE\nEspagn. camelote ; bas-lat. camelotum, camalaucum, camelinum ; de\ncamelus, chameau (voy. ce mot) : à cause que cette étoffe était faite de\npoil de chameau.\n\nSUPPLÉMENT AU DICTIONNAIRE\nCAMELOT. - ÉTYM. Ajoutez : Il n'est pas sûr, malgré l'apparence, que\ncamelot vienne de camelus, chameau. En effet, d'un côté, Olivier de\nSerres (voy. l'historique) dit que le camelot est fait de poil de\nchèvre ; et, d'un autre côté, le Journal officiel (12 mai 1874, p. 3220,\n1re col.), énumérant &quot; différentes sortes de duvets de qualité\nsupérieure, dont on fait des tapis ou des tissus brillants appelés\ncamelots, &quot; dit que ce nom dérive de seil el kemel, nom de la chèvre\nd'Angora, d'après M. Texier. Il est de fait que le camelot ou, comme on\ndisait plus anciennement, le camelin, était une belle étoffe (voy.\nl'historique).
camelot	CAMELOT\n ka-me-lo s. m.\nTerme populaire. Vendeur de camelotte.\nIls transportaient les marchandises envoyées dans des domiciles\ndifférents, ou les écoulaient immédiatement à bas prix, en les vendant\naux camelots de la rue, à des colporteurs des environs de Paris, et même\nen province, , Gaz. des Trib. 15 fév. 1874, p. 161, 2e col.\nAprès l'insurrection, il disparut ; il s'était fait camelot et vendait\nde la lingerie dans les marchés, , ib. 31 janv. 1875, p. 102, 4e col.
camelote	CAMELOTE\n ka-me-lo-t' s. f.\nOuvrage mal fait ; marchandise de mauvaise qualité. Mot du langage\npopulaire, ainsi dit parce que le camelot était une étoffe de médiocre\nvaleur.\nAdjectivement.\nAh ! sarpejeu ! mon ami, quel mariage camelotte j'allais faire,\nCOGNIARD, frères et BOURDOIS, Le monde camelote, III, 16.\n\nÉTYMOLOGIE\nCamelot.
cameloter	CAMELOTER\n ka-me-lo-té\n1° V. a. Imiter le camelot.\n\n2° V. n. Fabriquer de mauvaises marchandises.\nMarbre cameloté, voy. MARBRE.\n\nHISTORIQUE\nXVIe s.\nLe ventre {chez les femmes après l'accouchement} se camelote et\nride...., BOUCHET, Serées, liv. II, dans LACURNE.\n\nÉTYMOLOGIE\nCamelot et camelote.
camelotier	CAMELOTIER\n ka-me-lo-tié s. m.\nSorte de papier très commun.\n\nSUPPLÉMENT AU DICTIONNAIRE\nCAMELOTIER. Ajoutez :\n\n2° Celui qui vend de la camelote, de mauvaise marchandise, de la\nmarchandise de peu de valeur.
camelotine	CAMELOTINE\n ka-me-lo-ti-n' s. f.\nÉtoffe ondée comme le camelot.
camerlingat	CAMERLINGAT\n ka-mèr-lin-ga s. m.\nDignité de camerlingue.
camerlingue	CAMERLINGUE\n ka-mèr-lin-gh' s. m.\nCardinal qui préside la chambre apostolique, et exerce l'autorité\ntemporelle dans l'intervalle entre la mort d'un pape et l'élection d'un\nautre.\n\nÉTYMOLOGIE\nBas-lat. camerlengus, camarlengus ; ital. camerlingo, camarlingo ; de\ncamera, chambre ; le même que chambellan (voy. ce mot).
camin	CAMIN\n ka-min s. m.\nNom, au Havre, du canot de pêche.
camion	CAMION\n ka-mi-on s. m.\nÉpingle très petite.\nEh ! non, monsieur, je vous dis une grosse épingle, et vous me présentez\nun camion, P. DE KOCK et L. THIBOUST, Une maîtresse bien agréable, sc.\n10.\n\nÉTYMOLOGIE\nOrigine inconnue.
camion	CAMION\n ka-mi-on s. m.\n\n1° Charrette dont les roues ont très peu de hauteur.\n\n2° Vase de terre pour délayer du badigeon.\n\n3° Petite tête de chardon à carder.\n\n4° Sabot d'enfant.\n\nHISTORIQUE\nXIVe s.\nChamion, DU CANGE, campolus.\nXVe s.\nLe suppliant chargeoit la dite terre en un gomion que le filz de Pierre\nfaisoit mener à son cheval, DU CANGE, ib.\n\nÉTYMOLOGIE\nDans le lexique de Corblet il est dit que camion est un mot picard passé\ndans le français. Du reste il est ancien dans la langue et d'origine\ninconnue. Campolus et camuleus, mots du bas-latin qui signifient\nchariot, porteraient à croire que dans ces mots est un radical cam,\npeut-être le latin cama, lit très bas, d'où l'espagnol cama qui a la\nmême signification et de plus celle de fond d'un chariot. À cela se\nrapporterait aussi le chamuleus d'Ammien Marcellin, sorte de traîneau,\nde voiture très basse.
camionnage	CAMIONNAGE\n ka-mi-o-na-j' s. m.\nTransport par camion ; frais de cette opération.\n\nÉTYMOLOGIE\nCamion 2.\n\nSUPPLÉMENT AU DICTIONNAIRE\nCAMIONNAGE. Ajoutez : - REM.\nSous la dénomination de camionnages on entend tous les transports dans\nles villes, y compris leurs faubourgs, , Circulaire des contributions\nindirectes, 15 déc. 1820, n° 33.
camionner	CAMIONNER\n ka-mi-o-né v. a.\nTransporter sur camion.\n\nÉTYMOLOGIE\nCamion 2.\n\nSUPPLÉMENT AU DICTIONNAIRE\nCAMIONNER. Ajoutez :\nLe contrat par lequel une compagnie de chemin de fer s'engage à\ncamionner, au domicile du destinataire, des marchandises adressées en\ngare, , Gaz. des Trib. 20 avril 1873, p. 379, 1re col.
camionneur	CAMIONNEUR\n ka-mi-o-neur s. m.\nCelui qui conduit ou qui traîne un camion.\n\nÉTYMOLOGIE\nCamion 2.\n\nSUPPLÉMENT AU DICTIONNAIRE\nCAMIONNEUR. Ajoutez :\n\n2° Cheval de camion.\nLa première {race} est composée des chevaux de gros trait.... le\ncharretier, le camionneur y dominent, BOCHER, Rapp. à l'Assemb. nat. n°\n1910, p. 65.
camisade	CAMISADE\n ka-mi-za-d' s. f.\nAttaque de nuit, dirigée ordinairement contre une ville ou un lieu\nfortifié.\nIl vieillit.\n\nHISTORIQUE\nXVIe s.\nTout consterné de cette camisade qu'on venoit de donner à ses troupes, ,\nMém. sur du Guesclin, ch. XXX.\nEt combien qu'ordinairement on ne vist gueres donner de camisades aux\narmées, d'autant plus faciles à executer estoyent-elles pource qu'on\ns'en gardoit moins, LANOUE, 567.\nAu siege de Vulpian, en 1555, le baron de Chipy fit mettre en camisade\nses soldats, et à coup perdu se jetta dans le fossé, MONTLUC, Mémoires,\nt. I, p. 535, dans LACURNE.\n\nÉTYMOLOGIE\nCamisa ou camisia, chemise (voy. ce mot), parce que, dans ces sortes\nd'attaques, les assaillants mettaient leurs chemises par-dessus leurs\narmes, pour se reconnaître entre eux, ce que dit Furetière, mais\npeut-être plutôt parce que cette attaque nocturne surprenait en chemise\nles assaillis.
camisard	CAMISARD\n ka-mi-zar ; le d ne se lie pas ; au pluriel l's ne se lie pas : les\nka-mi-zar insurgés ; d'autres la lient : les ka-mi-zar-z insurgés s. m.\nNom donné aux calvinistes insurgés des Cévennes, pendant la persécution\nqui suivit la révocation de l'édit de Nantes.\n\nÉTYMOLOGIE\nCamisa ou camisia, chemise (voy. ce mot), pour une raison semblable à\ncelle qui est donnée au mot camisade.
camisole	CAMISOLE\n ka-mi-zo-l' s. f.\n\n1° Sorte de vêtement à manches et court qui se porte sous ou sur la\nchemise.\n\n2° Camisole de force, camisole garnie de liens et propre à contenir un\nmalade, un aliéné, etc.\n\nHISTORIQUE\nXVIe s.\nPrompt hors du lit ce bon prince sortit, Sa camisole et son pourpoint\nvestit, RONSARD, 600.\n\nÉTYMOLOGIE\nDiminutif de camise, chemise (voy. ce mot) ; espagn. camisola.
camisoler	CAMISOLER\n ka-mi-zo-lé v. a.\nMaintenir par une camisole un fou, un furieux, , le Progrès médical, 17\navr. 1875, p. 208, 1re col.
camme	CAMME\n ka-m' s. f.\nVoy. CAME 2.
camocan	CAMOCAN\n ka-mo-kan s. m.\nSorte d'étoffe précieuse usitée dans le moyen âge.\n\nÉTYMOLOGIE\nEspagn. camocan, camucan ; M. Dozy tire camocan d'un mot arabe, venu\nlui-même d'un mot chinois, kincha ou kimcha, signifiant brocart.
camoiard	CAMOIARD\n ka-mo-iar s. m.\nÉtoffe faite avec le poil de chèvres sauvages.
camomille	CAMOMILLE\n ka-mo-mi-ll', ll mouillées, et non ka-mo-mi-ye s. f.\nTerme de botanique. Genre de plantes de la famille des radiées. 1°\nCamomille romaine (anthemis nobilis, L.), plante vivace ; les fleurs ont\nune odeur aromatique ; on en fait une infusion. 2° Camomille puante\n(anthemis cotula, L.). 3° Camomille pyrèthre (anthemis pyrethrum, L.) ;\nla racine excite la salivation. 4° Camomille ordinaire (matricaria\nchamomilla, L.).\nHuile de camomille, huile préparée en faisant digérer dans de l'huile\ndes fleurs sèches de camomille, et différente de l'huile extraite des\nsemences de cameline, dite improprement huile de camomille.\n\nHISTORIQUE\nXVIe s.\nHuile de camomille, PARÉ, V, 12.\nCamomille, il y a de trois sortes de ceste herbe, differentes en leurs\nfleurs, aucunes les aians blanches, les autres jaunes, purpurées, O. DE\nSERRES, 627.\n\nÉTYMOLOGIE\nGénev. camamile, camomile ; provenç. camomilla ; espagn. camomila ;\nital. camomilla ; par corruption pour chamaemelon, du grec, à terre et\npomme, à cause de l'odeur de pomme des fleurs de l'anthemis.\n\nSUPPLÉMENT AU DICTIONNAIRE\nCAMOMILLE. Ajoutez : - REM. On a dit camamille.\nNavettes, camamilles, olivettes et lins, GIRAUDEAU, la Banque rendue\nfacile, 1769, p. 118.
camouflet	CAMOUFLET\n ka-mou-flè ; le t ne se lie pas dans le parler ordinaire ; au pluriel\nl's se lie : des kamou-flè-z et des rebuffades ; camouflets rime avec\ntraits, jamais, succès, paix, etc. s. m.\n\n1° Fumée épaisse qu'on souffle malicieusement dans le nez de quelqu'un\navec un cornet de papier allumé.\nGuide de mon esprit follet, Qui surtout chéris le burlesque, Souffle-moi\npar un camouflet Un style qui soit bien grotesque, SCARRON, la Foire\nSt-Germain, 25.\nGrand nez digne d'un camouflet, Mâchoire à recevoir soufflet, SCARRON,\ndans RICHELET.\nEt toutes les nuits régulièrement ils me donnaient des camouflets qui\npuaient le soufre, REGNARD, le Retour impr. sc. 13.\n\n2° Fig. et familièrement, affront, mortification.\nLa Briffe se lassa des camouflets que Harlay ne lui épargnait pas,\nSAINT-SIMON, 17, 262.\nVendôme apprit qu'il ne serait plus payé comme général d'armée ; le\ncamouflet fut violent, SAINT-SIMON, 216, 163. Le camouflet des auteurs,\ntitre d'un ouvrage publié dans le XVIIe siècle.\n\n3° Terme d'art militaire. Nom donné, par une plaisanterie militaire, à\nun petit fourneau de mine ou fougasse, dont l'effet est d'enterrer le\nmineur assiégeant dans les déblais et les éboulements dont il est\nsubitement environné.\n\nHISTORIQUE\nXVe s.\nQui dormira, qu'on le resveille, Ou qu'on lui donne un chault moufflet,\nOu hardiement ung grant soufflet, , Mystère, dans Bibliot. des chartes,\n1re série, t. III, p. 459.\n\nÉTYMOLOGIE\nWallon, cafouma ; génev. camouflet, soufflet. Grandgagnage admet un\nverbe wallon kifoumer, kafoumer, de la préposition ka, ki, équivalente\nau préfixe con, et fumée : enfumer ; d'où le français serait venu par\ninversion. Il y a aussi l'italien camuffare, embéguiner, qui se\nprêterait à une étymologie. Mais ni l'un ni l'autre ne s'accommodent à\nchaud moufflet, du XVe siècle, qui semble composé de chaud et d'un\ndiminutif de mufle ou moufle, et dont on a fait ca-mouflet.\n\nSUPPLÉMENT AU DICTIONNAIRE\nCAMOUFLET. Ajoutez : - SYN. CAMOUFLET, FOUGASSE., Le camouflet diffère\nde la fougasse en ce sens que le camouflet est un fourneau sous-chargé.
camourlot	CAMOURLOT\n ka-mour-lo s. m.\nMastic servant à remplir les joints des dalles et des carreaux.
camp	CAMP\n kan ; le p ne se lie pas : le camp ennemi, dites : le kan ennemi ; du\ntemps de Chifflet, XVIIe siècle, ce p se liait, il en fait la remarque ;\nau pluriel l's se lie : les camps ennemis, dites : les kan-z ennemis s.\nm.\n\n1° Espace de terrain où une armée dresse ses tentes. Déterminer\nl'emplacement d'un camp, établir ou asseoir son camp. Il leva le camp\nsans bruit. Forcer le camp ennemi, s'emparer du camp de l'ennemi.\nRome est dans notre camp, et notre camp dans Rome, CORN., Hor. I, 3.\nFamilièrement. Lever le camp, partir, déguerpir.\n\n2° L'armée campée. Le camp prit les armes.\nAbandonner mon camp en est un {crime} capital, CORN., Nicom. II, 2.\nD'un camp prêt à partir vous entendez les cris, RAC., Mithr. III, 5.\nVois comme tout le camp s'oppose à notre fuite, RAC., Iph. V, 1.\nEn son camp on ne connaît pas les vaines terreurs qui fatiguent et\nrebutent plus que les véritables, BOSSUET, Louis de Bourbon.\nMettre l'alarme au camp, donner l'alerte à une troupe campée ; et,\nfigurément, inquiéter un parti, une coterie, etc.\nOh ! dit-il, j'en fais faire autant Qu'on m'en fait faire ! ma présence\nEffraye aussi les gens ! je mets l'alarme au camp ! Et d'où me vient\ncette vaillance ?, LA FONT., Fables, II, 14.\nCamp volant, troupe légère qui tient la campagne pour observer l'ennemi.\nFig. Être en camp volant, n'être pas casé d'une manière définitive.\nCamp de manoeuvre, camp établi pour l'instruction des troupes.\nLit de camp, petit lit qui se démonte et que l'on transporte où l'on\nveut.\nJe reviens aux petites choses, des toilettes, des lits de camp, des\nservices de vaisselle de vermeil doré et d'argent {dons de Louis XIV\npour l'expédition de Jacques II en Irlande}, SÉV., 525.\nEn un autre sens, lit de camp, lit de corps de garde, c'est-à-dire\nplancher élevé et incliné, sur lequel on met des matelas, et où l'on\ncouche l'un à côté de l'autre.\n\n3° Une armée quelconque.\nJ'ai rejoint de mon camp les restes séparés, RAC., Mithr. II, 3.\n\n4° Au plur. Armes, guerre. Homme plus utile dans les camps. La vie des\ncamps.\n\n5° Fig. Parti, faction. Se partager en deux camps. Il avait été dans\nnotre camp. Nous nous sommes jetés dans le camp d'Aristote.\nIl sépare sans balancer sa soeur du camp du Seigneur, MASS., Panég.\nSaint Bernard.\n\n6° Maréchal de camp, anciennement, maréchal des camps et armées du roi,\nofficier du grade immédiatement supérieur à celui de colonel ;\naujourd'hui, maréchal de camp, général de brigade qui commande un\ndépartement.\nAide de camp, officier d'ordonnance attaché à un officier général.\n\n7° Lice, champ clos. Demander le camp. Donner le camp. Juge du camp.\nFamilièrement. Prendre le camp, déguerpir.\n\n8° Dans certaines parties de l'Asie, quartier assigné aux étrangers qui\nviennent faire le commerce.\n\nHISTORIQUE\nXIIe s.\nServez le bien, l'onor dou camp aurez, , Ronc. 41.\nXVIe s.\nUne heure après le camp partit, LANOUE, 567.\nLe camp du roy se mit à le suyvre, LANOUE, 591.\nIl attendit que les fruicts et les raisins y eussent mis la maladie de\ncamp, D'AUB., Hist. I, 236.\nIl lui envoia sur les bras un camp volant...., D'AUB., ib. II, 201.\nQuoi qu'on die, il n'y a pas aultre vaillance sur le pavé, et aultre au\ncamp, MONT., II, 7.\n\nÉTYMOLOGIE\nPrononciation picarde pour champ (voy. ce mot), laquelle a pris dans la\nlangue commune une acception spéciale : ce qui est arrivé souvent.\n\nSUPPLÉMENT AU DICTIONNAIRE\nCAMP.\n1° Ajoutez :\nCamp retranché, camp destiné à protéger une place forte, ou à être\noccupé par une armée chargée de la défense d'une position importante.\n9° Néologisme. Un camp-volant, un homme qui est comme en camp volant,\nsans demeure fixe, un coureur, un vagabond.\nJe vous assure qu'on a heurté à la porte, reprit le jeune homme, qui\ns'était levé. - Sans doute quelque camp-volant qui prend ma maison pour\nune auberge.... sois tranquille, je vais l'expédier, A. THEURIET, Rev.\ndes Deux-Mond. 15 mai 1876, p. 259.\n\nREMARQUE\nLe titre de maréchal de camp n'est plus usité. Il est d'après le texte\ndes lois et règlements remplacé par celui de général de brigade. Le\nmaréchal de camp (de même que le général de brigade qui lui a succédé)\nne commandait pas toujours une brigade ou un département, par exemple\ndans les armes spéciales (état-major, artillerie, génie). C'était, comme\nest le général de brigade, un officier général dont le grade est\nsupérieur à celui de colonel et inférieur à celui de général de\ndivision.
campagnard, arde	CAMPAGNARD, ARDE\n kan-pa-gnar, gnar-d' ; le d ne se lie pas : un kan-pa-gnar et sa\nfemme ; au pluriel l's ne se lie pas : des kan-pa-gnar et leurs femmes ;\ncependant d'autres lient cette s : des kanpa-gnar-z et....\n1° Adj. Qui vit ou demeure à la campagne. Gentilhomme campagnard.\nRustique. Un air campagnard. Des manières campagnardes.\n\n2° nm et f Un campagnard, une campagnarde, un homme, une femme de la\ncampagne. Les moeurs simples des campagnards.\nLà je trouvai d'abord pour toute connaissance Deux nobles campagnards,\ngrands lecteurs de romans, Qui m'ont dit tout Cyrus dans leurs longs\ncompliments, BOILEAU, Sat. III.\nUn bon campagnard, un homme de la campagne qui jouit d'une certaine\naisance.\nDans un sens péjoratif, un campagnard, une campagnarde, homme, femme\ndont les manières sont rustiques, grossières, maladroites. Il a épousé\nune grosse campagnarde.\nQuel campagnard ! Nous déjeunions en hâte avec quelques oeufs frais,\nLorsqu'un franc campagnard avec longue rapière, Montant superbement sa\njument poulinière, Qu'il honorait du nom de sa bonne jument, S'en est\nvenu nous faire un mauvais compliment, MOL., Fâch. II, 7.\n\nÉTYMOLOGIE\nCampagne.
campagne	CAMPAGNE\n kan-pa-gn' s. f.\n\n1° Grande étendue de pays plat. Campagnes immenses. Errer dans la\ncampagne. L'aurore trouve déjà le berger en pleine campagne.\nSacrovir range son armée en bataille dans une rase campagne, PERROT,\nTac. 164.\nEn campagne, en course dans la campagne ou ailleurs.\nAllons, chasseur, vite en campagne, Du cor n'entends-tu pas le son ?,\nBÉRANG., D. chasse.\nIl n'est en campagne de si bon matin que pour visiter quelques postes,\nHAMILT., Gramm. 5.\nLe bruit cesse, on se retire : Rats en campagne aussitôt, LA FONT., Fab.\nI, 9.\nCes pauvres gens attendent le mardi jusqu'à dix heures du soir ; et,\nquand ils sont tous retournés chacun chez eux, nous arrivons\npaisiblement le mercredi, sans songer qu'on eût mis une armée en\ncampagne pour nous recevoir, SÉV., 57.\nFig. et familièrement. En campagne, en train. en mouvement pour\ndécouvrir ou obtenir quelque chose. Son imagination est en campagne, il\ns'inquiète, sa tête travaille.\nIl y a quelque amour en campagne, MOL., le Bourg. III, 7.\nMettons la bravoure en campagne, MOL., l'Étour. III, 5.\nIl met en campagne son expérience et son industrie, HAMILT., Gramm. 8.\nLe dépit se mit en campagne pour désunir les coeurs, HAMILT., ib. 11.\nOn croit qu'il y a quelque ambassade en campagne, SÉV., 430.\nTous les dévots furent en campagne, SÉV., 368.\nJe me mets en campagne, je vais à l'un, je vais à l'autre, SÉV., 196.\nOn met ses amis en campagne, SÉV., 531.\nTous les esprits sont en campagne, SÉV., 281.\nThéramène était riche et avait du mérite ; il a hérité ; il est donc\ntrès riche et a un très grand mérite, voilà toutes les femmes en\ncampagne pour l'avoir pour galant, et toutes les filles pour épouseur,\nLA BRUY., 7.\nPrendre la campagne, s'en aller dans les champs.\nIl se veut battre et monte à cheval, et prend la campagne, SÉV., 174.\nTerme de guerre. Tenir la campagne, résister à l'ennemi sans être\ncontraint de se retrancher.\nDes armées qui tiennent la campagne, LA BRUY., 10.\nPar extension.\nNous nous voyons obligés mon frère et moi à tenir la campagne, MOL.,\nFest. de P. III, 5.\nÊtre maître de la campagne, occuper le pays sans que l'ennemi ose sortir\nde ses places. Quitter la campagne, se réfugier dans les endroits\nfortifiés.\nOù nous forçons les siens de quitter la campagne, CORN., Sert. I, 2.\nAu fig.\nJe vois bien par là que vous êtes les maîtres de la campagne {que vous\navez l'avantage}, PASC., Prov. 5.\nBattre la campagne, la parcourir, pour faire lever le gibier ou pour\néclairer la marche d'une armée.\nAu fig. Battre la campagne, divaguer, s'éloigner de son sujet, chercher\ndes faux-fuyants ; avoir le délire.\nQuel esprit ne bat la campagne ? Qui ne fait châteaux en Espagne ?, LA\nFONT., Fab. VII, 10.\nDes raisons qui ne feront que battre la campagne, MOL., les Fourb. II,\n8.\nAutant vaut employer le babil à des sujets utiles qu'à battre sans\nraison la campagne, J. J. ROUSS., Hél. VI, 11.\nIl se met à battre la campagne et à vous accabler de questions, J. J.\nROUSS., Ém. III.\nIvre de champagne, Je bats la campagne, BÉRANG., Cocag.\n\n2° Les champs en général. Ils vantaient les richesses de leurs\ncampagnes. Dévaster les campagnes. La campagne est couverte de neige.\nMes fenêtres donnent sur la campagne.\nFig. et poétiquement. Les campagnes de l'air, l'air ou les airs.\nPuis comment pénétrer jusques à notre monde ? Comment percer des airs la\ncampagne profonde ?, LA FONT., Fab. VIII, 16.\n\n3° La campagne, par opposition à la ville. Les gens de la campagne. Les\ntravaux de la campagne. Biens de campagne. Petite maison de campagne.\nAller à la campagne. Être à la campagne.\nJe veux élever Émile à la campagne, loin de la canaille des valets, J.\nJ. ROUSS., Ém. II.\nOui, Lamoignon, je fuis les chagrins de la ville, Et contre eux la\ncampagne est mon unique asile, BOILEAU, Ép. VI.\nJe suis venu à la campagne, me dit-il, pour faire plaisir à la maîtresse\nde la maison, avec la quelle je ne suis pas mal, MONTESQ., Lett. pers.\n48.\nFaire une partie de campagne, aller par partie de plaisir dans la\ncampagne.\nCuré, gentilhomme, médecin de campagne, curé, gentilhomme, médecin qui\nrésident à la campagne.\nHabit de campagne, habit que l'on porte quand on est à la campagne.\nAvoir osé se montrer à la cour en habit de campagne, HAMILT., Gramm. 4.\nComédiens de campagne, comédiens qui ne jouent qu'en province.\nCela s'entend prix pour prix et sans faire comparaison de deux comédiens\nde campagne à deux Romains de ce calibre-là, SCARRON, Rom. com. ch. 16.\n\n4° Mouvements de troupes qui commencent et poursuivent des opérations de\nguerre. Arrêter un plan de campagne. Ouvrir la campagne. Il a fait la\ncampagne d'Égypte.\nDès cette première campagne, après la prise de Thionville, digne prix de\nla victoire de Rocroy, il passa pour un capitaine également redoutable\ndans les siéges et dans les batailles, BOSSUET, Louis de Bourbon.\nCroyez-vous que la reine pût être en repos dans ces fameuses campagnes\nqui nous apportaient coup sur coup tant de surprenantes nouvelles ?,\nBOSSUET, Marie-Thér.\nPièces de campagne, artillerie assez légère pour suivre une armée en\ncampagne. Les canons de campagne. On dit de même : four, forge de\ncampagne.\n\n5° Le temps que, dans l'année, dure une expédition militaire. La\ncampagne sera longue cette année. C'est ma première campagne. Ce fut la\ntroisième bataille de cette campagne. Il y a eu deux campagnes cette\nannée.\nEncore une campagne, et nos seuls escadrons Aux aigles de Sylla font\nrepasser les monts, CORN., Sertor. II, 2.\nIl n'est pas aisé de comprendre qu'avec tant d'incommodités il puisse\nfaire une campagne, SÉV., 548.\nAvec la satisfaction d'avoir fait la plus heureuse campagne qui fut\njamais, SÉV., 485.\nFig.\nM. de Coulange a fini sa campagne, SÉV., 368.\nVous avez fait une rude campagne dans l'Iliade, et vous nous en avez\nparlé fort plaisamment, SÉV., 345.\nFamilièrement et ironiquement. Il a fait une belle campagne, il a fait\nune belle équipée, ou ses démarches ont été inutiles.\n\n6° Terme de jeu. À la bassette et au Pharaon, paroli de campagne, paroli\nmarqué par tricherie ; au trictrac, case de campagne, case qu'on n'avait\npas le droit de faire.\n\n7° Saison des travaux de certains états. Cette maison sera bâtie dans\ntrois campagnes.\nLe beau temps a remis tous mes ouvriers en campagne, SÉV., 62.\n\n8° Voyage sur mer.\nVous me confirmez dans la résolution que j'ai prise de m'appliquer\nfortement, cette campagne, à la conversion des matelots, D'ESTRÉES, à\nSeignelay, dans JAL.\n\nREMARQUE\nAujourd'hui on dit : je suis à la campagne, et non je suis en campagne ;\nje vais à la campagne, et non je vais en campagne. On réserve en\ncampagne pour exprimer un mouvement soit physique soit moral, et,\nparticulièrement, un mouvement de troupes ; autrefois cette distinction\nn'existait pas ; les meilleurs écrivains disaient en campagne ce que\nnous disons à la campagne.\nUne petite maison qu'il avait en campagne, HAMILT., Gramm. 4.\nSe trouve-t-il en campagne, LA BRUY., 11.\nLe printemps n'est pas si agréable en campagne que tu penses, J. J.\nROUSS., Hél. I, 7.\nPromenez-vous en campagne avec ces deux sortes d'hommes, J. J. ROUSS.,\nib. 4.\n\nHISTORIQUE\nXIIe s.\nSi 's {il les} jeta en champaigne del flum Jurdan, , Rois, 257.\nE dist li reis qu'il se tapireit as champaignes del desert, , ib. 176.\nXIIIe s.\nLors fist les batailles ordener parmi la champaigne, VILLEH., LXXX.\nDe dras d'or et de soie la champaigne resplent, , Berte, CXXXIII.\nPar ci trespasse une compaingne {compagnie} Qui vient parmi ceste\nchampaingne, , Ren. 2456.\nXVe s.\nOn trouva aucuns hamelets ars, et aucunes champagnes où il avoit blés et\nprés, FROISS., I, I, 40.\nXVIe s.\nL'artillerie de campagne seroit de vingt canons, LANOUE, 422.\nCeste armée estant ainsi disposée, à mon avis pourroit, en campagne\nrase, se presenter devant la puissance des Turcs, LANOUE, 427.\nLe temps de se mettre en campagne estant venu, l'armée...., LANOUE, 437.\nCeux qui s'y adonnent ont aussi une spatieuse campagne pour y promener\nleurs esprits, LANOUE, 538.\nNos chefs vouloyent faire marcher après deux cens chevaux pour se rendre\nmaistres de ceste campagnette {petite plaine}, par laquelle il falloit\npasser avant qu'arriver aux maisons, LANOUE, 682.\nLe peuple de Berne avait tant d'aversion pour les fortifications, et\nestoit tellement infatué de ses forces de campagne, que...., D'AUB.,\nVie, CXLII.\n\nÉTYMOLOGIE\nBourguig. campeigne ; Saintonge, champagne, pays de plaine ; espagn.\ncampaña ; ital. campagna ; de campus, champ (voy. ce mot). Campagne est\nla prononciation picarde de champagne, qui, comme on voit, veut dire\nplaine.
campagnol	CAMPAGNOL\n kan-pa-gnol s. m.\n\n1° Terme d'histoire naturelle. Petit rat des champs (mus arvalis, L.) à\npelage d'un jaune brun.\n\n2° Campagnol volant, espèce de chauve-souris.\n\nÉTYMOLOGIE\nCampagne.
campagnoule	CAMPAGNOULE\n kan-pa-gnou-l' s. f.\nNom vulgaire de plusieurs espèces d'agarics.\n\nÉTYMOLOGIE\nCe mot semble une autre forme de champignon.
campan	CAMPAN\n kan-pan s. m.\nNom d'un marbre des Pyrénées qui se trouve dans la vallée de Campan,\nprès de Bagnères de Bigorre.
campanacé, ée	CAMPANACÉ, ÉE\n kam-pa-na-sé, sée adj.\nTerme d'histoire naturelle. Qui a la forme d'une cloche.\n\nÉTYMOLOGIE\nCampana, cloche (voy. CAMPANE).
campanaire	CAMPANAIRE\n kan-pa-nê-r' adj.\nQui a rapport aux cloches. Échelle campanaire.\n\nÉTYMOLOGIE\nLat. campana, cloche (voy. CAMPANE au Dictionnaire, à l'étymologie).
campane	CAMPANE\n kan-pa-n' s. f.\n\n1° Tenture de soie, d'argent filé, etc. ornée de petites cloches de même\nmatière. Campane de lit, de carrosse.\n\n2° Terme d'architecture. Ornement de sculpture à houppes en forme de\nclochettes. Une campane pour un dais d'autel.\nLe corps, en forme de cloche renversée, des chapiteaux corinthien et\ncomposite.\nOrnement de plomb chantourné, placé au bas du faîte ou du brisis d'un\ncomble.\n\n3° Chaudière pour cuire le savon, ainsi dite de sa forme.\n\n4° Terme de vétérinaire. Tumeur arrondie qui se développe au jarret du\ncheval.\n\nHISTORIQUE\nXIIIe s.\nQuand il out le convers oï, Durement furent esbahi Qu'il n'orent oï\nsoner cloche Ne champenelle, ne reloge {horloge}, RUTEB., 315.\nXIVe s.\nLes cloches furent premiers trouvées en la region de Campanie, en\nfrançois nommée Champaigne, en la cité de Nole, et pour ce aucuns les\nclaiment campanes, DE LABORDE, Émaux, p. 193.\nXVe s.\nOn sonne au matin la campane du consistoire, FROISS., III, IV, 67.\nAssis de brodures avecques multitude de campanettes d'argent qui moult\ndonnoient du bruit, CHASTELAIN, Chr. des ducs de Bourgogne, 1re part.\nch. 4.\nXVIe s.\nL'ennemy meit toutes les campanes des mullets dans les coffres, et sans\nsonner trompette ni tabourin deslogea, M. DU BELL., 144.\n\nÉTYMOLOGIE\nProvenç. espagn. et ital. campana, cloche ; d'après les étymologistes,\nde la ville de Nola en Campanie, où l'usage des cloches s'établit\nd'abord (la Campanie fut ainsi appelée à cause de ses plaines ou\ncampagnes ; voy. ce mot). Mais la plus ancienne mention de campana est\ndans Isidore, avec le sens de plateau de balance, et avec la note que la\ncampane est un genre de balance inventé en Campanie ; de sorte que,\nvraisemblablement, le plateau de balance est ce qui, par assimilation\nd'ustensile métallique, a donné le nom à la cloche.
campanelle	CAMPANELLE\n kan-pa-nè-l' s. f.\nUn des noms du liseron et du narcisse.\n\nÉTYMOLOGIE\nDiminutif de campana, clochette.
campanelé, ée	CAMPANELÉ, ÉE\n kan-pa-ne-lé, lée adj.\nTerme didactique.. Qui a la forme d'une petite cloche.\n\nÉTYMOLOGIE\nCampanelle, diminutif de campane, cloche (voy. CAMPANE).
campanette	CAMPANETTE\n kan-pa-nè-t' s. f.\nVoy. CAMPANELLE.
campaniflore	CAMPANIFLORE\n kan-pa-ni-flo-r' adj.\nTerme de botanique. Qui a des fleurs en cloche.\n\nÉTYMOLOGIE\nCampane et fleur.
campaniforme	CAMPANIFORME\n kan-pa-ni-for-m' adj.\nTerme didactique.. Qui est en forme de cloche.\n\nÉTYMOLOGIE\nCampane et forme.
campanile	CAMPANILE\n kan-pa-ni-l', s. m. et selon quelques-uns CAMPANILLE (kan-pa-ni-ll', ll\nmouillées)\ns. f.\nClocher à jour ; petite tour ouverte et légère, souvent isolée, servant\nde clocher. Le campanile de Florence. Le campanile de S.-Marc à Venise.\n\nÉTYMOLOGIE\nBas-lat. campanile ou campanillum, de campana, cloche (voy. CAMPANE).
campanne	CAMPANNE\n kan-pa-n' s. f.\nSorte de dentelle.\nLa bisette, la gueuse, la mignonnette, la campanne, formaient\nprimitivement des dentelles en fil de lin pur ou plus ou moins fin, ,\nExtr. de l'Économiste français, dans Journ. offic. 7 janv. 1876, p. 172,\n2e col.
campanulacé, ée	CAMPANULACÉ, ÉE\n kan-pa-nu-la-sé, sée adj.\nTerme de botanique. Qui a la forme d'une clochette.\nS. f. Campanulacées, nom d'une famille de plantes dont la campanule est\nle type.
campanulaire	CAMPANULAIRE\n kan-pa-nu-lê-r' adj.\nMême sens que campanulacé.
campanule	CAMPANULE\n kan-pa-nu-l' s. f.\nTerme de botanique. Genre très nombreux de plantes de la famille des\ncampanulacées, ainsi nommées parce qu'elles ont la fleur en forme de\nclochette.\n\nHISTORIQUE\nXVIe s.\nLa campanula, ainsi ditte en italien, florit tous les jours, chascun\nproduisant abondance de fleurs nouvelles, de couleur bleue, O. DE\nSERRES, 562.\nPlusieurs racines d'herbes medicinales, comme buglosse, cichorée,\nangelica, campane, se laissent manger appareillées en confiture, O. DE\nSERRES, 868.\n\nÉTYMOLOGIE\nDiminutif de campana, cloche (voy. CAMPANE).
campanuliflore	CAMPANULIFLORE\n kan-pa-nu-li-flo-r' adj.\nTerme de botanique. Qui a la fleur en forme de clochette.\n\nÉTYMOLOGIE\nCampanule, et flos, fleur.
campanulé, ée	CAMPANULÉ, ÉE\n kan-pa-nu-lé, lée adj.\nTerme de botanique. Qui est en forme de clochette. Corolle campanulée.\n\nÉTYMOLOGIE\nCampanule.
campas	CAMPAS\n kan-pâ s. m.\nNom, dans le Sud-Ouest, de terrains non cultivés.\nLes campas ne sont que ce qu'on appelle en français des landes, ou de\npetites portions de terrain qui ne sont pas cultivées, CAPPEAU, De la\ncompagnie des Alpines, etc. 1817, p. 346.\n\nÉTYMOLOGIE\nDérivé du lat. campus, champ.
campe	CAMPE\n kan-p' s. f.\nSorte de droguet en façon de drap.
campement	CAMPEMENT\n kan-pe-man s. m.\n\n1° Action de camper. L'art des campements. Effets de campement, les\nobjets qui sont nécessaires à une troupe qui campe.\nLe prince, par son campement, avait mis en sûreté non-seulement toute\nnotre frontière mais encore tous nos soldats, BOSSUET, Louis de Bourbon.\nLes campements de César firent son étude ; je me souviens qu'il nous\nravissait en nous racontant comme en Catalogne, dans les lieux où ce\nfameux capitaine, par l'avantage des postes, contraignit cinq légions\nromaines et deux chefs expérimentés à poser les armes sans combats....,\nBOSSUET, ib.\n\n2° Journée de marche au bout de laquelle on campe. L'ennemi, que rien\nn'arrêtait, n'était plus qu'à deux campements de la ville.\n\n3° Détachement chargé de préparer le campement.\n\nHISTORIQUE\nXVIe s.\nLe roi voulant voir de plus près le campement du duc, D'AUB., Hist. III,\n266.\n\nÉTYMOLOGIE\nCamper.\n\nSUPPLÉMENT AU DICTIONNAIRE\nCAMPEMENT. Ajoutez :\n\n4° Hache de campement, hache qui fait partie de l'équipement des troupes\nà cheval, pour certains travaux de campement.
camper	CAMPER\n kan-pé v. n.\n\n1° Être établi dans un camp. L'armée campait aux portes de la ville.\nBien camper, bien choisir à chacun son emploi, CORN., Sert. III, 2.\n\n2° Fig. Séjourner temporairement.\nMes gens sont occupés à déménager ; j'ai campé dans ma chambre, SÉV.,\n368.\nFamilièrement. Il campe, c'est-à-dire il n'a pas de domicile, il déloge\nsouvent.\n\n3° V. a. Établir dans un camp.\nPrès de la Mehaigne, et vers les sources de la petite Ghette, le\nmaréchal de Villeroi avait campé son armée, VOLT., Louis XIV, 20.\n\n4° Familièrement, placer, mettre. Il campa son chapeau sur sa tête, et\npartit.\nQuelqu'un n'a-t-il point vu Comme on dessine sur nature ? On vous campe\nune créature, Une ève ou quelque Adam...., LA FONT., Cas de consc.\nFamilièrement. Camper là quelqu'un, l'abandonner, le laisser dans\nl'embarras.\n\n5° Donner, attribuer. Vous me la campez belle.\nIl m'a fallu livrer bataille, sans cela on me campait sur le dos la\nperte des douze canons, P. L. COUR., Lett. I, 125.\n\n6° Se camper, v. réfl. S'établir en un camp. Aussitôt qu'Alexandre s'y\nfut campé.\nLes Philistins se campèrent à Machmus, à l'orient de Betharen, VOLT.,\nPhil. IV, 297.\nIci nos gens se campèrent ; Et l'espace que voilà Nos ennemis\nl'occupèrent, MOL., Amph. I, 1.\n\n7° Très familièrement, se placer, s'installer, se tenir. Il se campa\ndans un fauteuil. Il se campa droit devant moi.\nEt chacun se campant qui de çà, qui de là, RÉGNIER, Sat. VI.\nLe jeune homme Se campe en une église, LA FONT., Cand.\nMais, ma mignonne, dites-moi, Vous campez-vous jamais sur la tête d'un\nroi, D'un empereur ou d'une belle ?, LA FONT., Fabl. IV, 3.\nL'aragne cependant se campe en un lambris, LA FONT., ib. III, 8.\nPrendre une certaine posture. Il se campe bien.\n\nREMARQUE\nCamper se conjugue avec l'auxiliaire avoir quand on veut indiquer le\nfait même du campement : l'armée a campé hier pour la première fois sur\nle territoire ennemi ; avec l'auxiliaire être quand on veut indiquer\nl'état : l'armée est campée depuis dix jours sous les murs de cette\nplace.\n\nHISTORIQUE\nXVIe s.\nIls camperent le long d'une petite riviere, AMYOT, Cam. 32.\nVous, dis-je, enorgueilli de forces animées, Auprès de Montcontour\ncampastes vos armées, RONSARD, 666.\n\nÉTYMOLOGIE\nCamp ; bourguig. champai, jeter. Dans le XVIe siècle, on trouve\nd'ordinaire campeger, de l'italien campeggiare.
camperche	CAMPERCHE\n kan-pèr-ch' s. f.\nBarre de bois placée à travers le métier des ouvriers en basse-lisse.
camphine	CAMPHINE\n kan-fi-n' s. f.\nTerme de chimie. Carbure d'hydrogène liquide obtenu par distillation\nd'un mélange d'iode et de camphre.\n\nÉTYMOLOGIE\nCamphre. Pourquoi les chimistes n'ont-ils pas dit camphrine ?
camphogène	CAMPHOGÈNE\n kan-fo-jê-n' s. m.\nTerme de chimie. Nom d'un carbure d'hydrogène.\n\nÉTYMOLOGIE\nCamphre, et en grec, engendré : engendré du camphre, parce que cette\nsubstance s'obtient en distillant un mélange de camphre et d'acide\nphosphorique anhydre.
camphorate	CAMPHORATE\n kan-fo-ra-t' s. m.\nTerme de chimie. Genre de sels formés par l'acide camphorique combiné\naux bases.
camphorides	CAMPHORIDES\n kan-fo-ri-d' s. f. plur.\nTerme de chimie. Substances analogues au camphre.\n\nÉTYMOLOGIE\nCamphora, camphre.
camphorifère	CAMPHORIFÈRE\n kan-fo-ri-fê-r' adj.\nTerme de botanique. Qui produit du camphre.\n\nÉTYMOLOGIE\nCamphora, camphre, et ferre, porter.
camphorine	CAMPHORINE\n kan-fo-ri-n' s. f.\nTerme de chimie. Combinaison neutre obtenue en combinant l'acide\ncamphorique avec la glycérine.
camphorique	CAMPHORIQUE\n kan-fo-ri-k' adj.\nTerme de chimie. Acide camphorique, produit de la distillation de\nl'acide azotique sur le camphre.\n\nÉTYMOLOGIE\nCamphora (voy. CAMPHRE).
camphoroïde	CAMPHOROÏDE\n kan-fo-ro-i-d' adj.\nTerme de chimie. Qui est semblable au camphre.\n\nÉTYMOLOGIE\nCamphora, et en grec, forme.
camphovinique	CAMPHOVINIQUE\n kan-fo-vi-ni-k' adj.\nTerme de chimie. Acide camphovinique, acide que l'acide camphorique\ndonne avec l'alcool mêlé à l'acide sulfurique ou chlorhydrique.\n\nÉTYMOLOGIE\nCamphre et vin.
camphre	CAMPHRE\n kan-fr' s. m.\n\n1° Substance blanche transparente, d'une saveur amère, chaude et\npiquante, et d'une odeur vive et pénétrante. Le camphre, très employé en\nmédecine comme antispasmodique, provient du camphrier.\n\n2° Terme de chimie. Camphres, nom donné à des composés neutres, solides\nà la température ordinaire, volatils, odorants, aromatiques, analogues\nau camphre proprement dit.\n\nHISTORIQUE\nXVIe s.\nLe sang qui flue par le nés, sera estanché par le camfre, meslé avec la\ngraine d'ortie morte, O. DE SERRES, 900.\nLe verger de m'amie est de plantes exquises ; C'est un vrai paradis de\npommes, de cerises, En tout temps florissant de tous arbres fruitiers,\nD'orangers, grenadiers, de canfres, de figuiers, R. BELLEAU, Poésies, t.\nI, p. 103, dans LACURNE.\n\nÉTYMOLOGIE\nProvenç. camphora ; espagn. alcanfor ; ital. canfora ; de l'arabe kafur,\nqui paraît venir du sanscrit carpoûra.
camphrer	CAMPHRER\n kan-fré v. a.\nTerme didactique.. Imprégner de camphre.\n\nÉTYMOLOGIE\nCamphre.
camphrier	CAMPHRIER\n kan-fri-é s. m.\nTerme de botanique. Arbre de la Chine et du Japon (laurus camphora, L.)\ndont on retire le camphre par distillation.
camphrone	CAMPHRONE\n kan-fro-n' s. f.\nTerme de chimie. Produit volatil qu'on obtient en faisant passer de la\nvapeur de camphre sur de la chaux chauffée au rouge.
camphré, ée	CAMPHRÉ, ÉE\n kan-fré, frée adj.\nQui contient du camphre. Eau-de-vie camphrée.
camphrée	CAMPHRÉE\n kan-frée s. f.\nTerme de botanique. Plante qui sent le camphre (camphorosma monspeliaca,\nL.).\n\nÉTYMOLOGIE\nCamphre.
camphène	CAMPHÈNE\n kan-fê-n' s. m.\nTerme de chimie. Nom donné au radical supposé du camphre.\n\nÉTYMOLOGIE\nCamphre ; formation irrégulière ; pourquoi les chimistes n'ont-ils pas\ndit camphrène ?
campicole	CAMPICOLE\n kan-pi-ko-l' adj.\nTerme d'histoire naturelle. Qui vit dans les champs.\n\nÉTYMOLOGIE\nCampus, champ, et cola, habitant.
campine	CAMPINE\n kan-pi-n' s. f.\nTerme de cuisine. Petite poularde fine.\n\nÉTYMOLOGIE\nCampine, nom d'un district de la Flandre qui a donné son nom à ces\npoulardes.\n\nSUPPLÉMENT AU DICTIONNAIRE\nCAMPINE. Ajoutez : Prix moyen de la volaille et du gibier vendus au\ndétail, pendant le carême de 1771 et 1772 : Espèces : Poulet gras, 2 l.\n15 s. en 1771, 3 l. 5 s. en 1772 ; Pluvier doré, 1 l. 10 s. en 1771, 1\nl. 15 s. en 1772 ; Campines, 5 l. en 1771, 2 l. en 1772 ; Dindonneau, 7\nl. en 1771, 7 l. en 1772, A. HUSSON, les Consommations de Paris, p. 250\n(le texte porte fautivement compine).
campos	CAMPOS\n kan-pô s. m.\n\n1° Congé donné aux écoliers. Aujourd'hui les écoliers ont campos. Le\nmaître a donné campos à sa classe.\n\n2° En général, repos, délassement. Prenez campos pour aujourd'hui.\nTerme familier.\n\nHISTORIQUE\nXVIe s.\nEt demande au petit Roger, Si ceux que l'on fit desloger Hors des\nvilles, croyoient campos, MAROT, II, 139.\nAvoir campos, pour estre libre, H. EST., Nouveau lang. fr. p. 616.\n\nÉTYMOLOGIE\nAccusatif pluriel de campus, champ : c'est-à-dire vous avez les champs,\nla liberté d'aller vous promener.
campyloptère	CAMPYLOPTÈRE\n kan-pi-lo-ptê-r' adj.\nTerme d'ornithologie. Qui est pourvu de plumes d'essor recourbées en\nforme de sabre.\n\nÉTYMOLOGIE\nEn grec :courbé et aile.
campylosome	CAMPYLOSOME\n kan-pi-lo-so-m' s. m.\nTerme de zoologie. Nom des cirripèdes à corps flexible.\n\nÉTYMOLOGIE\nEn grec :courbé et corps.
campène	CAMPÈNE\n kan-pè-n' s. f.\nNom, dans la Suisse romande, de la clochette qu'on met au cou du bétail.\nDeux armaillis {bergers} précédaient la troupe {des contrebandiers},\nporteurs l'un d'une campène ou clochette de bétail..., TOUBIN, les\nContrebandiers du Noirmont, scène de la vie jurassienne.\n\nÉTYMOLOGIE\nLat. campana, cloche (voy. CAMPANE au Dictionnaire, à l'étymologie).
campé, ée	CAMPÉ, ÉE\n kan-pé, pée part. passé.\n\n1° Armée campée sur le bord du fleuve.\n\n2° Fig. et familièrement. Bien campé sur ses jambes, ou simplement bien\ncampé, qui se tient bien, qui est bien bâti.\nUn homme bien campé, un homme qui est dans une bonne position de\nfortune, de réputation, etc.\nTerme de manége. Cheval campé, cheval qui se tient de façon que le\nbipède antérieur ou postérieur, ou les deux à la fois s'éloignent du\ncentre de gravité.
campéphage	CAMPÉPHAGE\n kan-pè-fa-j' s. m.\nTerme de zoologie. Autre nom des échenilleurs ou oiseaux qui mangent les\nchenilles.\n\nÉTYMOLOGIE\nEn grec : chenille et manger.
campêche	CAMPÊCHE\n kan-pê-ch' s. m.\nArbre d'Amérique dont le bois fournit une belle teinture rouge.\nLes Anglais coupaient du bois de campêche dans les forêts du roi\nd'Espagne aux Indes, SAINT-SIMON, 451, 68.\n\nÉTYMOLOGIE\nLa baie de Campêche, au Mexique.
camus, camuse	CAMUS, CAMUSE\n ka-mu, ka-mu-z' ; l's ne se lie pas dans la conversation adj.\n\n1° Qui a le nez court et plat.\nPour toi, Socrate, tu n'étais qu'un pauvre homme, laid, camus, chauve,\nFÉN., XIX, 187.\nIls déclarent qu'on ne peut être camus sans avoir de nez, VOLT., Phil.\nII, 169.\nUn nez camus, un nez court et plat.\nIl {mon nez} n'est ni camus, ni aquilin, ni gros, LA ROCH., Portrait.\nSe dit aussi de certains animaux. Un chien camus. Cheval camus, cheval\ndont le chanfrein offre une espèce d'enfoncement.\n\n2° Fig. et familièrement, embarrassé, interdit.\n....Et n'est Nostramus Qui l'astrolabe en main ne demeurât camus,\nRÉGNIER, Sat. X.\nOui, Charlotte, je veux que Monsieur vous rende un peu camuse, MOL., Don\nJuan, II, 5.\nA côté de demeurer camus, on dit aujourd'hui avoir un pied de nez ; de\nsorte que des images toutes contraires peuvent cependant exprimer la\nmême pensée ; l'idée fondamentale est toujours celle d'une disproportion\nridicule dans l'endroit le plus apparent du visage.\nCamus en chien d'Artois, camus comme un chien de Boulogne, cela se\ndisait de quelqu'un fort interdit de se voir trompé dans son attente. Le\nchien d'Artois, le chien de Boulogne est une variété de carlin.\nMadame votre fille est pleurante en un coin ; Monsieur votre neveu\ngrommelle sur du foin, Camus en chien d'Artois d'avoir compté sans hôte,\nLA FONT., Je vous prends sans vert, 14.\n\n3° Substantivement. Un camus, une camuse, une personne qui a le nez\ncamus.\n\n4° Un des noms du dauphin (poisson).\n\nHISTORIQUE\nXIIIe s.\nD'entre les sorcix {sourcils}, à compas, Muet {meut, sort} ses nes trop\nhaut ne trop bas ; N'est pas camuse ne bekue, , Bl. et Jehan, 265.\nTrop grans mamieles font les enfans camus devenir, quant par deseur le\nnes les metent, ALEBRANT, f° 30.\nXIVe s.\nUne paire de cousteaulx camus, à deux virolles d'argent, DE LABORDE,\nÉmaux, p. 231.\nJe croi qu'il n'ot si laid de Resnes à Disnant ; Camus estoit et noir,\nmalostru et nuisant, , Guesclin, V. 55.\nXVe s.\nSi en furent camus les conseilleurs, mès aultres y cuiderent ruer qui y\nfaillirent, CHASTELAIN, Chr. des d. de B. 2e p. ch. 8.\nXVIe s.\nVoilà une belle response, ce me semble, et des harangueurs bien camus,\nMONT., I, 189.\nIl est demeuré tout camus, pour dire que quelqu'un est demeuré tout\nhonteux, H. EST., du Nouv. lang. fr. p. 475.\nVoulez-vous en françois braver un homme, vous dites que vous le ferez\nbien camus, ou que vous lui rendrez le nez aussi plat comme une\nandouille, PASQUIER, Recherches, liv. VIII, p. 694, dans LACURNE.\nLa ligue se trouvant camuse, Et les ligueurs fort etonnés Se sont avisés\nd'une ruse ; C'est de se faire un roi sans nez {Sur l'élection du duc de\nGuise qui était camus}, , Sat. Ménippée.\n\nÉTYMOLOGIE\nProvenç. camus, gamus, niais, sot ; ital. camuso, camoscio. Origine\nincertaine. On a indiqué le celtique cam, courbé ; mais, comme le\nremarque Diez, un suffixe us n'existe pas dans les langues romanes ; dès\nlors il est porté à y voir un mot composé ca-mus, où mus se rapporte à\nl'italien muso, français museau, et où il y aura un préfixe ca,\npeut-être péjoratif (voy. CA préfixe). D'autres l'ont rapproché de\nl'italien camoscio, espagnol camusa, chamois ; le chamois, comme la\nchèvre, pouvant être dit camus ; la forme des mots parle pour cette\ndernière étymologie.
camuserie	CAMUSERIE\n ka-mu-ze-rie s. f.\nÉtat de celui qui est camus ou d'un nez qui est camus.\n\nHISTORIQUE\nXVIe s.\nEntre les Mores, la camuserie et la couleur noire, et avoir les cheveux\nrecoquillez et frisez, leur est d'autant d'estime et de beauté, que\nnostre grand nez, nostre couleur blanche et nos cheveux longs, BOUCHET,\nSerées, liv. III, dans LACURNE.\n\nÉTYMOLOGIE\nCamus.
camuset, ette	CAMUSET, ETTE\n ka-mu-zè, zè-t' adj.\nUn peu camus\n\nHISTORIQUE\nXIIIe s.\nPuis la gorgete, en avalant Tout premier au pis {sein} camuset, , Anc.\npoés. fr. Vatican, dans LACURNE.\nXVIe s.\nLes bergiers, avec leurs musettes, Gardant leurs brebis camusettes, DU\nBELLAY, VII, 45, verso.
camuson	CAMUSON\n ca-mu-zon s. f.\nJeune femme camuse.\nJe lui dis des choses admirables de sa petite camuson, SÉV., 379.
camée	CAMÉE\n ka-mée s. m.\nPierre ou, par abus, coquille (car il y a des camées en coquillage) qui,\ncomposée de différentes couches, est sculptée en relief. Un camée monté\nen bague.\nTerme de peinture. Grisaille imitant le camée.\n\nÉTYMOLOGIE\nItal. cameo ; bas-lat. camaeus ; du bas-grec, oeuvre, travail,\ntravailler, ouvrage fait à la main, orné de pierreries, atelier\nd'ouvrier en fer, du grec classique , se donner de la peine. Camée,\nsignifiant en général chose faite par la main, a pris, ce qui arrive\nsouvent aux mots généraux, un sens particulier.
camélia	CAMÉLIA\n ka-mé-li-a s. m.\nVoy. CAMELLIA, meilleure orthographe.
camélides	CAMÉLIDES\n ka-mé-li-d' s. m. pl.\nNom donné au groupe des animaux appartenant au genre chameau.\n\nÉTYMOLOGIE\nLat. camelus, chameau.
camélien	CAMÉLIEN\n ka-mé-liin s. m.\nNom des ruminants semblables au chameau.\n\nÉTYMOLOGIE\nCamelus, chameau.
camélopard	CAMÉLOPARD\n ka-mé-lo-par s. m.\nGirafe. Vieux.\n\nÉTYMOLOGIE\nEn grec, chameau (voy. ce mot) et panthère : parce que la girafe est\ntachetée comme la panthère.
camélornithe	CAMÉLORNITHE\n ka-mé-lor-ni-t' s. m.\nTerme de zoologie. Nom des oiseaux semblables à l'autruche.\n\nÉTYMOLOGIE\nEn grec, chameau et oiseau.
camélée	CAMÉLÉE\n ka-mé-lée s. f.\nPetit arbrisseau du midi de l'Europe regardé à tort comme un purgatif\ndrastique (cneorum tricoccum, L.).\n\nÉTYMOLOGIE\nEn grec, à terre et olivier.
caméléon	CAMÉLÉON\n ka-mé-lé-on s. m.\n\n1° Espèce de lézard auquel on attribuait la faculté de changer de\ncouleur selon les objets qui l'entouraient. Mais jugez la querelle Sur\nle caméléon ; sa couleur, quelle est-elle ? Monsieur veut qu'il soit\nvert ; moi je dis qu'il est bleu.\nSoyez d'accord, il n'est ni l'un ni l'autre, Dit le grave arbitre, il\nest noir : à la chandelle hier au soir Je l'examinai bien, je l'ai pris,\nil est nôtre, Et je le tiens encor dans mon mouchoir.... Il ouvre le\nmouchoir, et l'animal sort blanc, LA MOTTE, Fabl. II, 9.\nFig. Celui qui change indifféremment pour complaire à qui peut servir\nses intérêts. Des caméléons politiques.\nJe définis la cour un pays où les gens, Tristes, gais, prêts à tout, à\ntout indifférents, Sont ce qu'il plaît au prince, et, s'ils ne peuvent\nl'être, Tâchent au moins de le paraître ; Peuple caméléon, peuple singe\ndu maître, LA FONT., Fab. VIII, 13.\n\n2° Terme de chimie. Caméléon minéral, permanganate de potasse, composé\nqui prend différentes nuances, suivant qu'on le traite par l'eau, les\nacides, etc.\n\nHISTORIQUE\nXIVe s.\nEt seroit ainsi un homme beneuré semblable, quant à ce, à une beste\nappellée cameleon, ORESME, Éth. 23.\n\nÉTYMOLOGIE\nEn grec, à terre et lion : lion terrestre.
caméléonien	CAMÉLÉONIEN\n ka-mé-lé-o-niin s. m.\nTerme de zoologie. Nom d'une famille de lézards dont le caméléon est le\ntype.
caméléopard	CAMÉLÉOPARD\n ka-mé-lé-o-par s. m.\nVoy. CAMÉLOPARD. Caméléopard est une corruption du mot.
caméra-lucida	CAMÉRA-LUCIDA\n ka-mé-ra-lu-si-da s. f.\nTerme de physique. Instrument d'optique, dit aussi chambre claire, qui,\nservant à dessiner, permet de voir en même temps les objets et le\npapier.\n\nÉTYMOLOGIE\nCamera, chambre, et lucida, lucide, claire.
caméral, ale	CAMÉRAL, ALE\n ka-mé-ral, ra-l' adj.\nQui a rapport aux finances publiques (mot usité en Allemagne).\nL'économie politique y a été rangée {en Allemagne} parmi les sciences\ncamérales, c'est-à-dire qui ont l'État pour objet, E. DE LAVELEYE, Rev.\ndes Deux-Mondes, 16 juill. 1875, p. 451.\nLes étudiants se répartissaient comme suit d'après les diverses\nfacultés : théologie, sciences camérales...., , Journ. offic. 8 sept.\n1872, p. 5911, 2e col.\n\nÉTYMOLOGIE\nBas-lat. cameralis, de camera, chambre, au sens d'institution\nfinancière.
camérier	CAMÉRIER\n ka-mé-rié s. m.\nOfficier de la chambre du pape ou d'un cardinal.\nLe cardinal de Janson arriva le 8 septembre à Versailles, et avec lui\nl'abbé de Barrière, camérier du pape, SAINT-SIMON, 50, 83.\nOn fut bien étonné de voir un camérier du pape qui ordonna à Charles\nVIII de retirer ses troupes, VOLT., Moeurs. 107.\n\nÉTYMOLOGIE\nItal. cameriere, de camera, chambre (voy. ce mot) ; provenç. camarier.
camérisier	CAMÉRISIER\n ka-mé-ri-zié s. m.\nNom d'un arbrisseau (lonicera biflora, L.).
camériste	CAMÉRISTE\n ka-mé-ri-st' s. f.\nDame de chambre d'une princesse ou d'une femme titrée.\n\nREMARQUE\nBeaumarchais écrit camariste selon le mot espagnol camarista :\nIl vous manquait de vous adresser, sans respect pour votre marraine, à\nsa première camariste, BEAUMARCHAIS, Le mar. de Fig. I, 9.\n\nHISTORIQUE\nXVIe s.\nIls se mirent avec d'autres patrias {compatriotes} cameristes {camarades\nde chambre} près du Boeuf couronné, DESPER., Contes, LXXIII.\n\nÉTYMOLOGIE\nItal. camerista, de camera, chambre (voy. ce mot).
camérière	CAMÉRIÈRE\n ka-mé-riê-r' s. f.\nVoy. CAMÉRISTE.
caméronien, ienne	CAMÉRONIEN, IENNE\n ka-mé-ro-niin, niè-n' s. m. et f.\nMembre d'une secte protestante fort rigide, en Écosse.\n\nÉTYMOLOGIE\nCameron, nom propre.
camérule	CAMÉRULE\n ka-mé-ru-l' s. f.\nTerme de botanique. Petite loge.\n\nÉTYMOLOGIE\nDiminutif de camera (voy. CHAMBRE).
can ou cant	CAN ou CANT\n kan s. m.\nTerme de charpenterie. La face la moins large d'une pièce de bois.\n\nÉTYMOLOGIE\nLe même que chant, côté, écrit à tort champ dans la locution de champ\n(voy. CHAMP, dans cette locution).
canac	CANAC\n ka-nak s. m.\nNom, à Belle-Ile, Morbihan, du fou, oiseau de mer, dit aussi sergent\ngoulu, GOUËZEL, les Oiseaux de mer, Nantes, 1875, p. 12.
canaille	CANAILLE\n ca-nâ-ll', ll mouillées, et non kana-ye s. f.\n\n1° Vile populace.\nEh bien ! manger moutons, canaille, sotte espèce, Est-ce un péché ?, LA\nFONT., Fabl. VII, 1.\nTravailler est le fait de la canaille, LA FONT., Papef.\nOù Rabelais est mauvais, il passe bien au delà du pire ; c'est le charme\nde la canaille, LA BRUY., 1.\nLes Vaudois furent appelés par Maimbourg une canaille révoltée, VOLT.,\nMoeurs, 138.\nCeux qui daignaient acheter les suffrages de la canaille qui composait\nles tribus, J. J. ROUSS., Contr. IV, 2.\nSpectateur dédaigneux des misères de la canaille, J. J. ROUSS., Ém. IV.\nSénèque, qui connaissait l'esprit de la cour, de la ville et de la\ncanaille, DIDEROT, Claude et Néron.\nRepoussé des hommes de son rang, il se livra aux vices de la canaille,\nDIDEROT, Essai sur Claude.\n\n2° Par extension, gens, quelle que soit leur condition, dignes de\nmépris ; en ce sens le pluriel est usité. Ces canailles-là.\nQuoi ! vous continuez, canailles infidèles !, CORN., Médée, V, 3.\nLa canaille littéraire est ce que je connais de plus abject au monde,\nVOLT., Lett. Damilaville, 24 sept. 1766.\nJe sais que, dès qu'on a donné un ouvrage passable, la canaille de la\nlittérature jette les hauts cris, VOLT., ib. 17 déc. 1766.\nJe veux élever Émile à la campagne, loin de la canaille des valets, J.\nJ. ROUSS., Ém. II.\nC'était {MM. les chambellans}, vous disais-je, une canaille qu'il\nfallait laisser aboyer, P. L. COUR., I, 57.\nM. de Monaco se commit fort mal à propos en personne avec des canailles,\nSAINT-SIMON, 84, 92.\nPar antiphrase.\nJe crois qu'il se contentera d'aller en paradis, et qu'il ne quittera\npoint ces canailles chrétiennes, SÉV., 583.\n\n3° Par badinerie, en parlant d'enfants importuns. Faites taire cette\npetite canaille.\n.... Ah ! le petit babouin ! Voyez, dit-il, où l'a mis sa sottise ! Et\npuis prenez de tels fripons le soin ! Que les parents sont malheureux,\nqu'il faille Toujours veiller à semblable canaille !, LA FONT., Fabl. I,\n19.\n\n4° Populairement, il se prend comme adjectif indéclinable : des manières\ncanaille, un propos canaille. Populairement aussi, on dit, en parlant\nd'un seul homme : c'est une canaille.\n\nHISTORIQUE\nXIIIe s.\nDu mal que nos feisons à ceste chiennaille ne prendra jà garde cil qu'il\napelent Seigneur, , Psautier, f° 114.\nXVIe s.\nLa reigle et police de bien vivre n'a jamais si bien esté ordonnée aux\nmonasteres, qu'il n'y eust tousjours quelques canailles meslez parmi les\nbons, CALVIN, Instit. 1021.\nLes rois aux chiens flatteurs donnent le premier lieu, Et de cette\ncanaille endormis au milieu...., D'AUB., Tragiques, II, p. 57.\nArriere mastins, hors de la quarrière ; hors de mon soleil, canaille au\ndiable, RAB., Pant. Prol. du IIIe livre.\n\nÉTYMOLOGIE\nWallon, chinêie ; Berry, chienaille ; ital. canaglia ; de cane, chien\n(voy. CHIEN). Canaille est italien ; chienaille était le mot français.
canaillerie	CANAILLERIE\n ka-nâ-lle-rie, ll mouillées s. f.\nTerme populaire. Acte de canaille, acte grossièrement malhonnête. C'est\nune canaillerie.
canaillocratie	CANAILLOCRATIE\n ka-na-llo-kra-cie, ll mouillées s. f.\nDomination de la canaille.\nDu temps de la canaillocratie, je pouvais, à mes risques et périls, dire\nleurs vérités à ces inconcevables souverains, JOSEPH DE MAISTRE, dans\nSAINTE-BEUVE, Portraits littéraires, t. II, article Joseph de Maistre.\n\nÉTYMOLOGIE\nMot hybride, de canaille, et du grec, commander.
canal	CANAL\n ka-nal s. m.\n\n1° Conduit qui amène de l'eau. Les canaux de la fontaine. On amène de\nloin les eaux de la rivière par des canaux.\n\n2° Voie naturelle par laquelle les liquides ou les gaz cheminent dans la\nterre. Les eaux du puits artésien de Paris arrivent de Bourgogne par de\nsecrets canaux.\n\n3° Par extension, toute espèce de voie pour le passage des liquides.\nL'impétueuse ardeur de ses transports nouveaux à son sang prisonnier\nouvre autant de canaux, CORN., Att. V, 6.\n\n4° En anatomie, nom de différentes parties configurées comme des canaux.\nLe canal médullaire des os, cavité des os qui contient la moelle. Le\ncanal vertébral, trajet formé par la cavité du corps des vertèbres et où\nest enfermée la moelle épinière. Le canal intestinal, portion de\nl'appareil digestif qui s'étend de l'estomac à l'anus. Le canal de\nl'urèthre, conduit qui mène l'urine au dehors de la vessie.\nEn général, les canaux, les voies qui sont dans le corps pour le passage\ndes substances et la circulation des liquides.\nLe voyage, l'exercice des eaux qui lavent le sang et qui débouchent les\ncanaux rétablissent presque toujours la machine, VOLT., Lett.\nDamilaville, 2 avril 1764.\nEn botanique, les canaux de la séve. Le sureau a un large canal\nmédullaire.\n\n5° Lit d'une rivière.\nLe fleuve offre partout un canal tranquille Semblable à ces fleuves qui\nse creusent un nouveau canal...., FLÉCH., Lam.\nSi l'on veut trouver dans un canal horizontal la vitesse moyenne de\nl'eau entre celle du fond qui est la plus grande et celle de la\nsuperficie qui est la plus petite, on voit que cette vitesse est\ntoujours placée aux 4/9 de la hauteur du canal divisé du haut en bas,\nFONTEN., Guglielmini.\n\n6° Rivière creusée de main d'homme. Canal de navigation. Un pays coupé\nde canaux.\nMenzikoff flatta le Czar de l'idée de percer un canal du Holstein dans\nla mer Baltique, VOLT., Russie, II, 4.\nPlusieurs rivières entre lesquelles on peut tirer des canaux qui\nserviraient de lit aux inondations, VOLT., ib. I, 1.\nCanal latéral, canal qui longe un fleuve.\nCanal de dérivation, canal qui sert à détourner des eaux.\nCanal d'irrigation, canal qui distribue des eaux dans la campagne.\nCanal de desséchement, canal qui évacue les eaux stagnantes.\n\n7° Pièce d'eau étroite et longue pour l'ornement des jardins. Creuser,\nnettoyer un canal.\nMais un canal formé par une source pure, Se trouve en ces lieux écartés,\nLA FONT., Fabl. I, 11.\nIl y a eu canal à Fontainebleau, c'est-à-dire la cour a fait une partie\nde canal ou de bateau ; locution des gens de cour, d'après DE\nCAILLIÈRES, 1690.\n\n8° Terme de géographie. Nom de certains détroits. Le canal de\nMozambique.\n\n9° Terme de marine. Sur la Méditerranée, faire canal, traverser un\ngolfe, un espace entre deux îles, etc. ou naviguer hors de vue de la\nterre.\n\n10° Fig. Intermédiaire, moyen.\nLe coeur affligé Par le canal des yeux vidant son amertume, MALHERBE,\nVI, 18.\nCela ne passera pas en d'autres mains que celles que vous avez choisies\npour nous servir de canal, BOSSUET, Projet.\nJe suis un canal par où passent les instructions, BOSSUET, Lett. abb.\n199.\nIls accablent ceux qui entreprennent d'aller à eux {les rois} par un\nautre canal que le leur, FÉN., Tél. XI.\nLa prière, le canal des grâces, MASS., Tiéd. 2.\nLes charges, les emplois, et le bien et le mal Passent par cette main,\ncoulent par ce canal, TRISTAN, Mort de Chrispe, IV, 11.\n\n11° Terme d'architecture. Refouillement droit ou courbe, simple ou\nmultiple.\n\n12° Creux où se met la baguette d'un fusil.\nMorceau de bois qui garantit des pointes d'aiguilles l'ouvrier en\nvelours ciselé.\nCannelure du métier à drap.\n\nHISTORIQUE\nXIIe s.\nL'eve ist de la citet ; si s'en vait par les plaines, Reentre en son\ncanal ; les rives en sont pleines, , Voy. de Charlemagne, 792.\nXIIIe s.\nDel Nil qui chiet en mer par quatre mestres channiex, , Hist. occid. des\ncroisades, t. II, p. 571.\nEn milieu sort une fontaine, En un prael, et clere et saine ; En quarrel\nest fais li canal, , Fl. et Bl. V. 2041.\nXVIe s.\nLe coulement et laps de la fontaine estoyt par troys tubules et canalz,\nfaictz de marguarites fines, RAB., Pant. V, 42.\nMarius luy feit caver une grande tranchée et canal, dedans laquelle il\ndestourna bonne partie de l'eau de la riviere, AMYOT, Marius, 25.\nLeur rugissement faisoit retentir les montagnes d'alenviron, et le canal\nde la riviere, AMYOT, ib. 35.\nLe canal ouvert, dont l'on se sert generalement en toutes sortes\nd'aqueducts, O. DE SERRES, 754.\n\nÉTYMOLOGIE\nBourg. caineau ; provenç. et espagn. canal ; ital. canale ; du latin\ncanalis.\n\nSUPPLÉMENT AU DICTIONNAIRE\nCANAL. Ajoutez :\n\n13° Terme de géométrie. Canal, surface canal, enveloppe de toutes les\npositions d'une sphère de rayon constant dont le centre se meut sur une\ncourbe donnée.
canalet	CANALET\n ka-na-lè s. m.\nBranche du canal du Midi.\nLe passage de l'Orb aura lieu sur un pont aqueduc se raccordant avec\nl'écluse de Fouserannes et le canalet dit du Pont-Rouge, à Sauclières,\nE. GRANGEZ, Voies navigables de la France, p. 408, Paris, 1855.\nLa navigation {de l'Hérault}.... se trouve interceptée.... par d'autres\nmoulins qui ne permettent de communication entre la partie supérieure et\nla partie inférieure qu'au moyen de deux branches du canal du Midi,\ndites canalet bas et canalet haut, E. GRANGEZ, ib. p. 270.\n\nÉTYMOLOGIE\nDiminutif de canal.
canaliculaire	CANALICULAIRE\n ka-na-li-ku-lê-r' adj.\nTerme didactique.. Qui est en forme de canalicule.\nQui vit dans les conduites d'eau. Conferves canaliculaires.\n\nÉTYMOLOGIE\nCanalicule.
canalicule	CANALICULE\n ka-na-li-ku-l' s. m.\nTerme didactique.. Petit canal ou tuyau. Les canalicules des os.\n\nÉTYMOLOGIE\nDiminutif de canal.
canaliculé, ée	CANALICULÉ, ÉE\n ka-na-li-ku-lé, lée adj.\nTerme d'histoire naturelle. Creusé longitudinalement en gouttière.
canaliforme	CANALIFORME\n ka-na-li-for-m' adj.\nTerme d'entomologie. Qui est en forme de canal.\n\nÉTYMOLOGIE\nCanal, et forme.
canalifère	CANALIFÈRE\n ka-na-li-fê-r' adj.\nTerme de zoologie. Qui est muni de canaux, de vaisseaux.\nS. m. Les canalifères, nom donné aux mollusques pourvus d'un long canal\npour l'eau.\n\nÉTYMOLOGIE\nCanal, et ferre, porter.
canalisable	CANALISABLE\n ka-na-li-za-bl' adj.\nTerme de ponts et chaussées. Qui peut être canalisé.\n\nÉTYMOLOGIE\nCanaliser.
canalisateur	CANALISATEUR\n ka-na-li-za-teur s. m.\nCelui qui canalise, qui fait des canaux.\nM. Ferdinand de Lesseps, le hardi canalisateur de l'isthme de Suez, ,\nRev. Britann. févr. 1875, p. 506.
canalisation	CANALISATION\n ka-na-li-za-sion s. f.\nTerme de ponts et chaussées. Action de canaliser un fleuve en le rendant\nnavigable, une contrée en la perçant de canaux.
canaliser	CANALISER\n ka-na-li-zé v. a.\nTerme de ponts et chaussées. Établir des canaux ; rendre navigable.\nCanaliser un pays. Canaliser un cours d'eau.\n\nÉTYMOLOGIE\nCanal.
canalisé, ée	CANALISÉ, ÉE\n ka-na-li-zé, zée part. passé.\nRivière canalisée. Pays canalisé, pays percé de canaux.
canamelle	CANAMELLE\n ka-na-mè-l' s. f.\nTerme de botanique. Nom de la canne à sucre.\n\nÉTYMOLOGIE\nBas-lat. cannamella, de canna, canne (voy. ce mot), roseau, et de mel,\nmiel (voy. ce mot) : canne à miel.
canapsa	CANAPSA\n ka-na-psa s. m.\n\n1° Havre-sac.\n\n2° L'homme même qui le porte. Un pauvre canapsa.\nCe mot a vieilli.\n\nHISTORIQUE\nXVIe s.\nUn canapsa, un petit pot cassé demi plein de beurre fort...., D'AUB.,\nFaen. III, 3.\n\nÉTYMOLOGIE\nAllem. Schnappsack, sac, de schnappen, rechercher, pourchasser, et Sack,\nsac.
canapé	CANAPÉ\n ka-na-pé s. m.\n\n1° Grand siége à dossier où plusieurs personnes peuvent s'asseoir et qui\npeut aussi servir de lit de repos.\n.... Un fauteuil m'embarrasse ; Un homme là dedans est tout enveloppé ;\nJe ne me trouve bien que dans un canapé, REGNARD, Distrait, III, 2.\nLe roi donna l'exemple : il se priva de toutes ces tables d'argent, de\nces candélabres, de ces grands canapés d'argent, qui étaient des\nchefs-d'oeuvre de ciselure des mains de Ballin, VOLT., Louis XIV, 30.\nSous la Restauration, le canapé, nom que l'on donnait aux doctrinaires,\nà cause que l'on disait qu'ils formaient une coterie si peu nombreuse\nqu'elle tenait sur un canapé.\n\n2° Chaise de bois à l'usage du raffineur de sucre.\n\nHISTORIQUE\nXVIe s.\nEntre les precieux conopées, entre les courtines dorées, RAB., Pant.\nIII, 15.\n\nÉTYMOLOGIE\nBas-lat. canapeum, par corruption du grec signifiant lit garni de\nrideaux pour écarter les coussins, de coussin.
canard	CANARD\n ka-nar ; le d ne se lie pas : le ka-nar et l'oie ; au pluriel l's ne se\nlie pas : les ka-nar et les oies ; d'autres lient cette s : les ka-nar-z\net les oies s. m.\n\n1° Oiseau palmipède, lamellirostre, vivant à l'état sauvage et\ndomestique, recherché pour sa chair.\nCanard musqué, oiseau d'Amérique, nommé à tort canard de Barbarie.\nFamilièrement. Mouillé, trempé comme un canard, très mouillé.\nIl vint ici mouillé comme un canard, SÉV., 163.\nPlonger comme un canard, très bien plonger ; et figurément, s'esquiver,\nse soustraire à un danger.\nFamilièrement. C'est un canard privé, c'est-à-dire c'est un homme qui\njoue le rôle du canard privé, qui par son cri attire dans le piège les\ncanards sauvages.\n\n2° Populairement, conte absurde et par lequel on veut se moquer de la\ncrédulité des auditeurs. Cette nouvelle n'était qu'un canard.\nJe suis fâché de ne vous avoir pas traité comme mon enfant ; vous le\nméritiez mieux que ce donneur de canard à moitié qui nous promettait\ntant de châteaux en Espagne, , la Comédie des proverbes, III, 7.\nVous serez mis en cage ; vous êtes un bailleur de canards, , Recueil des\nplus excellents ballets, p. 19, 1612.\n\n3° Petit imprimé contenant le récit d'un événement du jour et dont on\ncrie la vente à Paris.\nSe dit ironiquement de faits, de nouvelles, de bruits plus ou moins\nsuspects qui se mettent dans les journaux. Cette nouvelle n'est qu'un\ncanard. Quel canard !\n\n4° Note fausse tirée d'un instrument à anche à sons éclatants. Cette\nclarinette fait des canards.\n\n5° Petit morceau de sucre trempé dans de l'eau-de-vie ou dans le café\n(comme le canard dans l'eau).\n\n6° Sorte d'artifice lancé dans l'eau.\n\n7° Espèce de filet soutenu par des roseaux.\n\n8° S. m. plur. Conduits d'air dans des galeries souterraines de mines.\n\n9° Adj. Chiens canards, chiens à poil épais et frisé qu'on dresse à\naller chercher dans l'eau les canards atteints par le chasseur ; et,\nsubstantivement, un canard.\nBois canards, morceaux de bois flotté qui vont à fond ou s'arrêtent sur\nles bords.\nTerme de marine. Bâtiment canard, barque canarde, etc. qui tangue\nbeaucoup et embarque de l'eau par l'avant.\n\nHISTORIQUE\nXVIe s.\nEt en sort une troisiesme et bastarde race, quand le canard d'Inde et la\ncane commune s'accouplent ensemble, O. DE SERRES, 346.\nLa charge d'un canard est de huit ou dix canes, O. DE SERRES, 377.\nVendre ou donner un canard à moitié, mentir, en donner à garder, en\nfaire accroire, COTGRAVE, .\nIl baissait la teste comme un canard {il était honteux}, , Nuits de\nStraparole, t. I, p. 92, dans LACURNE.\n\nÉTYMOLOGIE\nVoy. CANE. Bourguig. cainar ; bas-lat. canardus, sorte de navire. Un\ncanard, pour une billevesée, vient de l'ancienne locution : vendre un\ncanard à moitié ; locution dans laquelle on a supprimé à moitié. Il est\nclair que vendre un canard à moitié, ce n'est pas le vendre du tout ; de\nlà le sens de attraper, moquer.
canardeau	CANARDEAU\n ka-nar-dô s. m.\nJeune canard. Des canardeaux.
canarder	CANARDER\n ka-nar-dé\n1° V. a. Faire feu d'un lieu où l'on est à couvert. Les soldats\nembusqués canardaient les assaillants.\n\n2° V. n. Tirer du hautbois ou de la clarinette un son rauque ou\nnasillard comme le cri du canard.\n\n3° Terme de marine. En parlant d'un bâtiment, plonger par l'avant dans\nla mer.\n\nHISTORIQUE\nXVIe s.\nIl passa la riviere malgré ces arquebusiers qui le canardoient dans\nl'eau, D'AUBIG., Vie, XVIII.\n\nÉTYMOLOGIE\nCanard, d'après la manière dont on tire le canard au marais.
canardière	CANARDIÈRE\n ka-nar-diê-r' s. f.\n\n1° Place disposée avec art dans des lieux marécageux, pour y prendre ou\ntuer des canards sauvages.\n\n2° Guérite, lieu couvert, pour tirer à l'abri.\n\n3° Long fusil à grande portée pour la chasse des canards sauvages.\n\n4° Pièce d'eau pour les canards dans un parc.\n\nÉTYMOLOGIE\nCanard.
canardé, ée	CANARDÉ, ÉE\n ka-nar-dé dée part. passé.\nLes soldats canardés des fenêtres de chaque maison.
canari	CANARI\n ka-na-ri s. m.\nArbre de l'Archipel indien.\nLe canari oléifère produit une huile résineuse, BOSC, Dict. d'hist. nat.\nt. V, p. 185.\n\nÉTYMOLOGIE\nMalais, kanari ( le 2nd a est long), DEVIC, Dict. étym.
canari	CANARI\n ka-na-ri s. m.\nSerin des îles Canaries. On écrivait jadis étymologiquement canaries :\nfaire couver des canaries, LA BRUY., 13.\n\nÉTYMOLOGIE\nIles Canaries, en latin canariae, parce qu'on prétendait y avoir vu\nbeaucoup de chiens, canes (voy. CHIEN).\n\nSUPPLÉMENT AU DICTIONNAIRE\n1. CANARI (ka-na-ri), s. m. Nom d'un caractère dont les Indiens se\nservent.\nInscriptions en canari, , Journ. offic. 29 févr. 1876, p. 1450, 3e col.
