hydromel	HYDROMEL\n i-dro-mèl s. m.\nBreuvage fait d'eau et de miel ; on fait fondre le miel dans dix ou\ndouze fois son poids d'eau ; cette solution, n'étant pas susceptible de\nse conserver, se prépare au moment d'être bue.\nHydromel vineux, hydromel qui a éprouvé une espèce de fermentation.\nTerme de pharmacie. Liquide sirupeux formé d'eau et de miel : 32 grammes\npour 500 grammes de liquide.\n\nÉTYMOLOGIE\nTerme grec dérivé de deux mots traduits par eau et miel.
hydromellé	HYDROMELLÉ\n i-dro-mèl-lé s. m.\nTerme de pharmacie. Nom générique des médicaments formés d'hydromel et\nde parties extractives.
hydrominéral, ale	HYDROMINÉRAL, ALE\n i-dro-mi-né-ral, ra-l' adj.\nQui appartient à une eau minérale. Le traitement hydrominéral.\n\nÉTYMOLOGIE\nHydro...., et minéral.
hydromphale	HYDROMPHALE\n i-dron-fa-l' s. f.\nTumeur qui se forme à l'ombilic chez quelques ascitiques.\nTumeur formée par un amas de sérosité, dans le sac d'une hernie\nombilicale.\n\nÉTYMOLOGIE\nHydr...., et terme grec signifiant nombril.
hydromye	HYDROMYE\n i-dro-mie s. f.\nTerme d'entomologie. Nom de certains diptères, dont les larves vivent\ndans l'eau.\n\nÉTYMOLOGIE\nHydro...., et terme grec signifiant mouche.
hydromètre	HYDROMÈTRE\n i-dro-mè-tr' s. m.\nInstrument propre à mesurer l'épaisseur de la couche d'eau qui tombe\nchaque année sur la surface de la terre en un lieu donné.\n\nÉTYMOLOGIE\nHydro...., et terme grec signifiant mesure.
hydromètre	HYDROMÈTRE\n i-dro-mè-tr' s. f.\nTerme de médecine. Hydropisie de la matrice, collection d'un liquide\nséreux dans l'utérus.\n\nÉTYMOLOGIE\nHydro...., et terme grec signifiant matrice.
hydromécanique	HYDROMÉCANIQUE\n i-dro-mé-ka-ni-k' adj.\nOù l'eau est employée comme moyen de transmettre la puissance. Presse\nhydromécanique.\n\nÉTYMOLOGIE\nHydro...., et mécanique.
hydrométrie	HYDROMÉTRIE\n i-dro-mé-trie s. f.\nScience qui apprend à mesurer la densité, la vitesse, la force des\nliquides, et, particulièrement, de l'eau.\nBologne fonda dans son université, en 1694, une chaire de professeur\nd'hydrométrie qu'elle lui donna ; le nom d'hydrométrie était nouveau\naussi bien que la place, et l'un et l'autre rappelleront toujours la\nmémoire de celui qui en a rendu l'établissement nécessaire, FONTEN.,\nGuglielmini.\n\nÉTYMOLOGIE\nHydromètre 1.
hydrométrique	HYDROMÉTRIQUE\n i-dro-mé-tri-k' adj.\nQui appartient à l'hydrométrie.
hydrométéore	HYDROMÉTÉORE\n i-dro-mé-té-o-r' s. m.\nTerme de météorologie. Météore produit par l'eau à l'état de vapeur, de\nliquide ou de glace. On dit aussi météore aqueux.\n\nÉTYMOLOGIE\nHydro...., et météore.
hydronéphrose	HYDRONÉPHROSE\n i-dro-né-frô-z' s. f.\nTerme de médecine. Distension lente du bassinet du rein, par une\naccumulation d'urine, qui résulte de l'interception de l'uretère.\n\nÉTYMOLOGIE\nHydro...., et terme grec signifiant rein.
hydroophorie	HYDROOPHORIE\n i-dro-o-fo-rie s. f.\nTerme de médecine. Synonyme d'hydroarion.\n\nÉTYMOLOGIE\nHydr...., termes grecs signifiant oeuf et qui porte (oophore, l'ovaire).
hydropathe	HYDROPATHE\n i-dro-pa-t' s. m.\nTerme vulgaire et de plaisanterie. Celui qui traite les maladies par\nl'hydrothérapie.\nVoici les hydropathes, nouvelle invention, école de Priessnitz\nl'allemand, REYBAUD, Jérôme Paturot, I, 11.
hydropathie	HYDROPATHIE\n i-dro-pa-tie s. f.\nTerme non employé en médecine, mal fait ; il signifierait les maladies\nde l'eau ; on l'emploie vulgairement pour désigner le traitement dans\nlequel on combat certaines maladies par l'usage de l'eau ; on dit, en\nmédecine, hydrothérapeutique ou hydrothérapie\nEn tombant du haut d'une montagne, mon brave Priessnitz se brise trois\ncôtes et il invente l'hydropathie, c'est-à-dire l'art de guérir les\nhumains avec de l'eau claire, REYBAUD, Jérôme Paturot, I, 11.\n\nÉTYMOLOGIE\nHydro...., et terme grec signifiant maladie.
hydrophane	HYDROPHANE\n i-dro-fa-n' adj.\nTerme de minéralogie. Qui est translucide dans l'eau. Pierre hydrophane.\nS. f. Nom d'une pierre siliceuse qui est translucide lorsqu'elle est\nimbibée d'eau. C'est l'opale hydrophane, variété d'opale.\n\nÉTYMOLOGIE\nHydro...., et terme grec signifiant briller.
hydrophide	HYDROPHIDE\n i-dro-fi-d' s. m.\nTerme de zoologie. Nom des serpents qui vivent dans l'eau.\n\nÉTYMOLOGIE\nHydr...., et terme grec signifiant serpent.
hydrophile	HYDROPHILE\n i-dro-fi-l' adj.\nTerme didactique.. Qui aime l'eau.\n\nÉTYMOLOGIE\nHydro...., et terme grec signifiant ami.\n\nSUPPLÉMENT AU DICTIONNAIRE\nHYDROPHILE. Ajoutez :\nS. m. Nom d'une famille de coléoptères aquatiques, dont l'espèce la plus\ngrande est l'hydrophilus piceus.
hydrophiliens	HYDROPHILIENS\n i-dro-fi-liin s. m. pl.\nTribu de coléoptères, à laquelle appartient l'hydrophile.
hydrophobe	HYDROPHOBE\n i-dro-fo-b' s. m. et f.\nTerme de médecine. Celui, celle qui a les liquides en horreur ; et, par\nextension, comme l'horreur des liquides est un symptôme de la rage,\nenragé.\nAdjectivement. Un malade hydrophobe.\n\nÉTYMOLOGIE\nTerme grec dérivé de deux mots traduits par eau et craindre.
hydrophobie	HYDROPHOBIE\n i-dro-fo-bie s. f.\nTerme de médecine. Horreur de l'eau et des autres liquides, affection\nqui se rencontre dans des cas qui n'ont rien de commun avec la rage.\nAbusivement, la rage même.\n\nHISTORIQUE\nXVIe s.\nCeux qui estant mords de chiens enragés tombent en hydrophobie, PARÉ,\nXXII, 10.\n\nÉTYMOLOGIE\nEn grec (voy. HYDROPHOBE).
hydrophobique	HYDROPHOBIQUE\n i-dro-fo-bi-k' adj.\nQui a rapport à l'hydrophobie. Les accidents hydrophobiques.
hydrophore	HYDROPHORE\n i-dro-fo-r' adj.\nTerme didactique.. Qui charrie de l'eau ou de la sérosité. Vaisseaux\nhydrophores, les trachées des plantes.\n\nÉTYMOLOGIE\nHydro...., et terme grec signifiant qui porte.
hydrophosphate	HYDROPHOSPHATE\n i-dro-fo-sfa-t' s. m.\nTerme de minéralogie. Phosphate combiné avec de l'eau.\n\nÉTYMOLOGIE\nHydro...., et phosphate.
hydrophosphure	HYDROPHOSPHURE\n i-dro-fo-sfu-r' s. m.\nTerme de chimie. Combinaison d'hydrogène phosphoré avec une base.\n\nÉTYMOLOGIE\nHydro...., et phosphure.
hydrophractique	HYDROPHRACTIQUE\n i-dro-fra-kti-k' adj.\nTerme didactique.. Imperméable à l'eau.\n\nÉTYMOLOGIE\nHydro...., et terme grec signifiant qui empêche, fait obstacle à.
hydrophthalmie	HYDROPHTHALMIE\n i-dro-ftal-mie s. f.\nTerme de médecine. Hydropisie de l'oeil.\n\nÉTYMOLOGIE\nHydr...., et terme grec signifiant oeil.
hydrophthorique	HYDROPHTHORIQUE\n i-dro-fto-ri-k' adj.\nTerme de chimie. Synonyme de fluorhydrique.\n\nÉTYMOLOGIE\nHydro...., et phthore.
hydrophyllées	HYDROPHYLLÉES\n i-dro-fil-lée s. f. pl.\nNom d'une famille de plantes détachée des borraginées.
hydrophysocèle	HYDROPHYSOCÈLE\n i-dro-fi-zo-sè-l' s. f.\nTerme de chirurgie. Hernie qui contient de l'eau et du gaz.\n\nHISTORIQUE\nXVIe s.\nS'il y a du vent et de l'eau ensemble {dans la hernie des bourses}, elle\nprendra le nom des deux, et se nommera hydrophysocele, PARÉ, VI, 14.\n\nÉTYMOLOGIE\nHydro...., termes grecs signifiant vent et hernie.
hydrophyte	HYDROPHYTE\n i-dro-fi-t' s. f.\nPlante qui vit dans l'eau. Cette plante est une hydrophyte.\nAlgues qui se montrent dans les eaux douces ou salées, ou dans les lieux\ninondés.\nAdjectivement. Plantes hydrophytes.\n\nÉTYMOLOGIE\nHydro...., et terme grec signifiant plante.\n\nSUPPLÉMENT AU DICTIONNAIRE\nHYDROPHYTE. Ajoutez :\n\n2° Terme de minéralogie. Silicate magnésien hydraté.
hydrophytographie	HYDROPHYTOGRAPHIE\n i-dro-fi-to-gra-fie s. f.\nDescription des hydrophytes.\n\nÉTYMOLOGIE\nHydrophyte, et terme grec signifiant décrire.
hydrophytologie	HYDROPHYTOLOGIE\n i-dro-fi-to-lo-jie s. f.\nHistoire des hydrophytes.\n\nÉTYMOLOGIE\nHydrophyte, et terme grec signifiant traité.
hydropiper	HYDROPIPER\n i-dro-pi-pèr s. m.\nTerme de botanique. Plante nommée aussi poivre d'eau et curage,\npolygonum hydropiper, L.\n\nÉTYMOLOGIE\nHydro...., et le lat. piper, poivre, à cause du goût très poivré de\ncette plante dès qu'on en a mâché une feuille, ou simplement dès qu'on\nporte à sa bouche un doigt qui en a touché.
hydropique	HYDROPIQUE\n i-dro-pi-k' adj.\nTerme de médecine. Qui est malade d'hydropisie.\nSubstantivement. Un hydropique. Une hydropique.\n\nHISTORIQUE\nXIIIe s.\nCar lecherie si les pique, Qu'il en sunt tretuit ydropique, , la Rose,\n6022.\nXVe s.\nAdvisez vous, toutes gens de pratique, Marchans d'argent, exigeurs de\nfinance ; Qui en estes devenus ydropiques, Purger vous fault, vivre par\nordonnance, E. DESCH., Poésies mss. f° 331.\n\nÉTYMOLOGIE\nTerme dérivé du mot grec traduit par hydropisie, et qui est formé du mot\ngrec eau (voy. HYDR....).
hydropisie	HYDROPISIE\n i-dro-pi-zie s. f.\nTerme de médecine. Accumulation de sérosité dans une partie du corps\n(cavité ou tissu cellulaire).\n{Vous tomberez} de la dyssenterie dans l'hydropisie .... et de\nl'hydropisie dans la privation de la vie, MOL., Mal. imag. III, 6.\nHydropisie articulaire, voy. HYDARTHROSE.\nHydropisie enkystée, espèce d'hydropisie où les eaux sont renfermées\ndans une poche ou sac particulier.\nHydropisie de la trompe, oblitération d'une ou des deux trompes\nutérines, avec distension par le mucus qu'elles continuent à sécréter.\nHydropisie ventriculaire, production de sérosité en quantité trop grande\ndans les ventricules cérébraux.\nParticulièrement, dans le langage ordinaire, l'ascite.\nFig. et vulgairement. Une hydropisie de neuf mois, une grossesse.\n\nHISTORIQUE\nXIIe s.\nUn des convers as monies {moines}, ne le m'unt pas nummé, Out mult esté\ngrevé de grant enfermeté, E out d'idropisie le ventre mult enflé, , Th.\nle mart. 94.\nXIIIe s.\nBiau conpere, venez avant, Et si veez ma maladie ; Je sui touz plains\nd'idropisie, , Ren. 19936.\nXIVe s.\nLequel Rolant, qui estoit infers {malade} d'une maladie nommée ytropice,\nDU CANGE, morbus S. Eutropii.\nXVIe s.\nLa royne d'Angleterre estoit decedée de sa maladie incurable, qui estoit\nhydropesie formée, CARLOIX, VII, 20.\nHydropisie humide du ventre ou ascites.... seiche ou tympanites....\ngenerale ou anasarca ou leucophlegmasia, PARÉ, VI, 11.\n\nÉTYMOLOGIE\nDu grec, hydropisie, même sens, qui vient du grec, eau.
hydropisine	HYDROPISINE\n i-dro-pi-zi-n' s. f.\nTerme de chimie. Substance organique qui doit être rangée dans les\nmatières albuminoïdes, et qu'on trouve dans les épanchements morbides de\nla plèvre et du péritoine, et dans la sérosité normale de ces membranes.\n\nÉTYMOLOGIE\nHydropisie, et la finale ine, qui indique un principe.
hydropneumatique	HYDROPNEUMATIQUE\n i-dro-pneu-ma-ti-k' adj.\nTerme de chimie. Cuve hydropneumatique, appareil qui sert à recueillir,\nsur une cuve d'eau, les gaz insolubles dans l'eau.\n\nÉTYMOLOGIE\nHydro...., et pneumatique.\n\nSUPPLÉMENT AU DICTIONNAIRE\nHYDROPNEUMATIQUE. Ajoutez :\nTerme de mécanique. Turbine hydropneumatique, turbine qui marche sous\nune cloche pleine d'air comprimé.
hydropneumothorax	HYDROPNEUMOTHORAX\n i-dro-pneu-mo-toraks' s. m.\nTerme de médecine. Pneumothorax compliqué d'un épanchement de liquide\ndans la plèvre.\n\nÉTYMOLOGIE\nHydro...., et pneumothorax.
hydropote	HYDROPOTE\n i-dro-po-t' s. m.\nBuveur d'eau, celui qui ne boit que de l'eau.\n\nÉTYMOLOGIE\nTerme grec dérivé de deux mots traduits par eau et buveur, ce dernier\nprovenant du verbe grec signifiant boire.
hydroptéridées	HYDROPTÉRIDÉES\n i-dro-pté-ri-dée s. f. pl.\nTerme de botanique. Synonyme de rhizocarpées.\n\nÉTYMOLOGIE\nHydro...., et terme grec signifiant fougère.
hydropyrique	HYDROPYRIQUE\n i-dro-pi-ri-k' adj.\nTerme de géologie. Volcans hydropyriques, volcans qui lancent de l'eau\net du feu.\n\nÉTYMOLOGIE\nHydro...., et terme grec signifiant feu.
hydropédèse	HYDROPÉDÈSE\n i-dro-pé-dè-z' s. f.\nTerme de médecine. Sueur excessive.\n\nÉTYMOLOGIE\nHydro...., et terme grec signifiant jaillissement.
hydropéricarde	HYDROPÉRICARDE\n i-dro-pé-ri-kar-d' s. m.\nTerme de médecine. Hydropisie du péricarde.\n\nÉTYMOLOGIE\nHydro...., et péricarde.
hydroquinone	HYDROQUINONE\n i-dro-ki-no-n' s. f.\nTerme de chimie. Corps obtenu par distillation sèche de l'acide\nquinique.\n\nÉTYMOLOGIE\nHydro...., et quinone.
hydrorachis	HYDRORACHIS\n i-dro-ra-chis' s. m.\nTerme de médecine. Hydropisie du canal rachidien.\n\nÉTYMOLOGIE\nHydro...., et rachis.
hydrorrhée	HYDRORRHÉE\n i-dro-rrée s. f.\nTerme de médecine. Tout écoulement lent et chronique d'un liquide\naqueux.\nPremier état de l'ophthalmie égyptienne, dans lequel il y a un\nécoulement de larmes.\n\nÉTYMOLOGIE\nHydro...., et terme grec signifiant couler.
hydroscope	HYDROSCOPE\n i-dro-sko-p' s. m.\n\n1° Celui qui pratique l'art de rechercher les sources, les eaux\nsouterraines.\n\n2° Particulièrement. Celui que l'on suppose avoir la faculté de sentir\nles émanations des eaux souterraines.\n\nÉTYMOLOGIE\nTerme dérivé de deux mots grecs traduits par eau et examiner.
hydroscopie	HYDROSCOPIE\n i-dro-sko-pie s. f.\n\n1° Art de rechercher les sources, les eaux souterraines.\n\n2° Particulièrement. Faculté que certaines gens prétendent avoir de\nsentir les émanations des eaux souterraines.\n\n3° Art de pronostiquer les météores aqueux, d'après l'expérience,\nsurtout en mer.\n\nÉTYMOLOGIE\nHydroscope.
hydrosilicate	HYDROSILICATE\n i-dro-si-li-ka-t' s. m.\nTerme de minéralogie. Silicate qui contient de l'eau à l'état de\ncombinaison.\n\nÉTYMOLOGIE\nHydro...., et silicate.
hydrosiliceux, euse	HYDROSILICEUX, EUSE\n i-dro-si-li-seû, seûz' adj.\nTerme de minéralogie. Qui contient de l'eau et de la silice.\n\nÉTYMOLOGIE\nHydro...., et siliceux.
hydrospirolique	HYDROSPIROLIQUE\n i-dro-spi-ro-li-k' adj.\nTerme de chimie. Acide hydrospirolique, nom donné à l'huile volatile\nextraite des fleurs de la spirée ulmaire.
hydrostatique	HYDROSTATIQUE\n i-dro-sta-ti-k' s. f.\n\n1° Partie de la mécanique qui traite de l'équilibre des liquides, des\nconditions de leur équilibre et des pressions qu'ils exercent sur les\nparois des vases ; elle est opposée à l'hydrodynamique.\nTous les corps vivants sont composés de leviers, de poulies qui agissent\nsuivant les lois de la mécanique, de liqueurs que les lois de\nl'hydrostatique font perpétuellement circuler, VOLT., Dial. XXIV, 17.\n\n2° Adj. Qui a rapport à l'hydrostatique.\nVraie machine hydrostatique, le poisson fait voir mille phénomènes au\nmoyen d'une simple vessie, CHATEAUBR., Génie, I, V, 3.\nBalance hydrostatique, voy. BALANCE.\nLampe hydrostatique, voy. LAMPE.\n\nÉTYMOLOGIE\nHydro...., et statique.
hydrosulfate ou hydrosulfure ou hydrosulfurique	HYDROSULFATE ou HYDROSULFURE ou HYDROSULFURIQUE\nHYDROSULFATE, HYDROSULFURE, HYDROSULFURIQUE, voy. SULFHYDRATE,\nSULFHYDRIQUE.
hydroséléniate et hydrosélénique	HYDROSÉLÉNIATE et HYDROSÉLÉNIQUE\nVoy. SÉLENHYDRATE, SÉLENHYDRIQUE.
hydrotachymètre	HYDROTACHYMÈTRE\n i-dro-ta-ki-mè-tr' s. m.\nTerme de physique. Instrument pour mesurer la vitesse de l'eau.\n\nÉTYMOLOGIE\nHydro...., termes grecs signifiant vite et mesure.
hydrotechnique	HYDROTECHNIQUE\n i-dro-tè-kni-k' s. f.\nPartie de la mécanique qui a pour objet la direction et la conduite de\nl'eau.\n\nÉTYMOLOGIE\nHydro...., et terme grec signifiant art.
hydrothermal, ale	HYDROTHERMAL, ALE\n i-dro-tèr-mal, ma-l' adj.\nQui appartient aux sources d'eau thermale.\nLe tableau complet et fidèle des richesses hydrothermales que la France\npossède, , Journal offic. 13 mars 1877, p. 1882, 3° col.\n\nÉTYMOLOGIE\nHydro..., et thermal.
hydrothermique	HYDROTHERMIQUE\n i-dro-tèr-mi-k' adj.\nQui a rapport à l'eau et à la chaleur. L'origine hydrothermique de\ncertaines roches.\n\nÉTYMOLOGIE\nHydro...., et terme grec signifiant chaleur.
hydrothioneux	HYDROTHIONEUX\n i-dro-ti-o-neû adj. m.\nTerme de chimie. Acide hydrothioneux, acide où il y a moins d'hydrogène\nque dans l'acide hydrothionique.\n\nÉTYMOLOGIE\nVoy. HYDROTHIONIQUE.
hydrothionique	HYDROTHIONIQUE\n i-dro-ti-o-ni-k' adj. m.\nTerme de chimie. Acide hydrothionique, acide produit par la combinaison\nde l'hydrogène et du soufre.\n\nÉTYMOLOGIE\nHydro.... pour hydrogène, et terme grec signifiant soufre.
hydrothorax	HYDROTHORAX\n i-dro-to-raks' s. m.\nTerme de médecine. Hydropisie de poitrine, collection de sérosité dans\nla cavité de l'une des plèvres ou dans les deux cavités des plèvres.\n\nÉTYMOLOGIE\nHydro...., et thorax.
hydrothérapeutique ou hydrothérapie	HYDROTHÉRAPEUTIQUE ou HYDROTHÉRAPIE\n i-dro-té-ra-peu-ti-k' ou i-dro-té-ra-pie s. f.\nTerme de médecine. Mode de traitement des maladies, spécialement de\ncertaines maladies chroniques, par l'usage de l'eau froide en\napplications extérieures diversement modifiées.\n\nÉTYMOLOGIE\nHydro...., et thérapeutique ou thérapie.\n\nSUPPLÉMENT AU DICTIONNAIRE\nHYDROTHÉRAPEUTIQUE. Ajoutez : - HIST. XVIe s.\nHydrotherapeutique des fonctions medicinales nouvellement decouvertes\naux environs de Rouen, très et très profitables à un chacun, par noble\nhomme M. Jacques du Val, à Rouen, , dans Journ. offic. 11 oct. 1872, p.\n6439, 3e col.
hydrotimètre	HYDROTIMÈTRE\n i-dro-ti-mè-tr' s. m.\nInstrument servant à l'hydrotimétrie, et consistant en un flacon gradué\nde telle sorte qu'on y puisse mesurer exactement le volume de l'eau\nsoumise à l'expérience, et en une burette tubulaire, également graduée,\ncontenant une solution d'un décigramme de savon par un litre d'eau\ndistillée.\n\nÉTYMOLOGIE\nMot si mal fait qu'on n'en peut déterminer les éléments ; il faut\npeut-être y voir les termes grecs signifiant humidité et mesure.\n\nSUPPLÉMENT AU DICTIONNAIRE\nHYDROTIMÈTRE. Ajoutez :\nIl importait de constater avec soin quelles quantités de sels de chaux,\net spécialement de sulfate ou de carbonate, renferment les sources du\nbassin de la Seine.... l'emploi d'un appareil ingénieux, récemment\ninventé par MM. Boutron et Boudet, et nommé par eux hydrotimètre, a\nsingulièrement facilité ces recherches, Documents relatifs aux eaux de\nParis, , Paris, 1861, petit in-8°, p. 125.
hydrotimétrie	HYDROTIMÉTRIE\n i-dro-ti-mé-trie s. f.\nEmploi de l'hydrotimètre pour déterminer la quantité des sels calcaires\nou terreux contenus dans l'eau ; emploi qui se fonde sur ce fait que\nl'eau blanchit lorsqu'on y verse de l'eau de savon sans produire la\nmousse du blanchissage, tant que le savon n'a pas précipité la totalité\ndes sels calcaires en dissolution.
hydrotimétrique	HYDROTIMÉTRIQUE\n i-dro-ti-mè-tri-k' adj.\nQui a rapport à l'hydrotimétrie. Degrés hydrotimétriques.
hydrotique	HYDROTIQUE\n i-dro-ti-k' adj.\nTerme de médecine. Synonyme d'hydragogue.\n\nÉTYMOLOGIE\nMot barbare et qui mérite d'être effacé. On trouve hydroticus dans\nLibavius, auteur de traités chimiques, qui paraît avoir forgé et très\nmal forgé ce mot.
hydrotite	HYDROTITE\n i-dro-ti-t' s. f.\nTerme de médecine. Hydropisie de l'oreille moyenne ou cavité du tympan.\n\nÉTYMOLOGIE\nHydr...., et terme grec signifiant oreille.
hydrotomie	HYDROTOMIE\n i-dro-to-mie s. f.\nTerme d'anatomie. Procédé par lequel, poussant dans les artères de l'eau\nqui transsude par pression, on infiltre les tissus, on écarte les\nfibres, et on sépare les divers organes les uns des autres.\n\nÉTYMOLOGIE\nHydro...., et terme grec signifiant dissection.
hydrotomiser	HYDROTOMISER\n i-dro-to-mi-zé v. a.\nPratiquer l'hydrotomie. Un foie hydrotomisé.
hydroxyde	HYDROXYDE\n i-dro-ksi-d' s. m.\nTerme de chimie. Combinaison d'eau et d'un oxyde métallique.\n\nÉTYMOLOGIE\nHydr...., et oxyde.
hydroélectrique	HYDROÉLECTRIQUE\n i-dro-é-lè-ktri-k' adj.\nTerme de physique. Courants électriques obtenus à l'aide de piles à eau\nou à liquides, en opposition avec les courants thermo-électriques.\nChaînes hydro-électriques, piles portatives d'une grande énergie et\nutiles pour l'usage médical.\n\nÉTYMOLOGIE\nHydro...., et électrique.
hydroïde	HYDROÏDE\n i-dro-i-d' adj.\nQui a une apparence d'eau.\nD'ordinaire, les polypes hydroïdes sont de gracieux petits organismes,\nayant la forme de fleurs, et excédant rarement un demi-pouce de\nlongueur..., , Journ. offic. 12 janv. 1876, p. 330, 3e col.\n\nÉTYMOLOGIE\nDu grec, eau, et, forme.
hydrure	HYDRURE\n i-dru-r' s. m.\n\n1° Terme de chimie. Composé, qui n'est ni gazeux ni acide, d'hydrogène\net d'un autre corps simple non gazeux. L'hydrure de soufre.\n\n2° Nom donné à certaines huiles volatiles, telles que celles d'amandes\namères, de cannelle, etc. qui paraissent résulter de la combinaison de\nl'hydrogène avec un radical, le benzoyle, le cinnamyle, etc.\n\nÉTYMOLOGIE\nHydr.... pour hydrogène, et la finale chimique ure, qui désigne la\ncombinaison de deux corps simples.
hydréléon	HYDRÉLÉON\n i-dré-lé-on s. m.\nTerme de médecine. Mélange d'eau et d'huile.\n\nÉTYMOLOGIE\nHydr...., et terme grec signifiant huile.
hydrémie	HYDRÉMIE\n i-dré-mie s. f.\nTerme de médecine. Prédominance du plasma sanguin sur les globules du\nsang.\n\nÉTYMOLOGIE\nHydr...., et terme grec signifiant sang.
hydréole	HYDRÉOLE\n i-dré-o-l' s. f.\nTerme de mécanique. Machine pour faire monter de l'eau au-dessus de son\nniveau au moyen d'une combinaison d'air et d'eau.\n\nÉTYMOLOGIE\nHydr...., et Éole, roi des vents.
hygie	HYGIE\n i-jie s. f.\n\n1° Terme de mythologie. La déesse de la santé.\n\n2° Terme d'astronomie. Planète télescopique découverte en 1849.\n\nÉTYMOLOGIE\nTerme dérivé du mot grec traduit par sain, en santé ; comparez le\nsanscrit ugra, fort, ôjas, force, et le latin vigeo, vigor.
hygiocérame	HYGIOCÉRAME\n i-ji-o-sé-ra-m' s. m.\nPoterie dans la couverture de laquelle il n'entre aucune substance\nnuisible à la santé.\n\nÉTYMOLOGIE\nEn grec, sain et poterie.
hygiologie	HYGIOLOGIE\n i-ji-o-lo-jie s. f.\nHistoire de la santé, c'est-à-dire des actes normaux de l'économie.\n\nÉTYMOLOGIE\nEn grec, sain et doctrine.
hygiène	HYGIÈNE\n i-jiè-n' s. f.\nPartie de la médecine qui traite des règles à suivre pour la\nconservation de la santé dans les différents âges, les différentes\nconstitutions, les différentes conditions de la vie et les différentes\nprofessions.\nEncore l'hygiène est-elle moins une science qu'une vertu, J. J. ROUSS.,\nÉm. I.\nHygiène publique, l'ensemble des connaissances qui assurent la santé des\npopulations considérées en masse.\nHygiène professionnelle, celle qui convient à chaque profession.\nHygiène militaire, hygiène navale, celle qu'il convient d'appliquer aux\ntroupes de terre pendant la paix et en campagne, et aux hommes de mer\ndans les vaisseaux, dans les navigations, dans les relâches.\nHygiène rurale, conditions de salubrité pour les gens de la campagne\nquant à leurs logements, à leurs travaux, aux fumiers, aux eaux, etc.\nHygiène administrative, partie de l'hygiène dont les prescriptions sont\nsoumises à des mesures et à des règlements du domaine de\nl'administration.\nHygiène industrielle, partie de l'hygiène dite administrative qui\nconcerne les établissements industriels.\nHygiène cérébrale, régime à suivre dans les lectures, les méditations et\nles divers travaux pour entretenir les facultés intellectuelles dans le\nmeilleur état.\nHygiène morale ou hygiène de l'âme, application de la physiologie à la\nmorale et à l'éducation publique et privée.\nDans le langage ordinaire, on dit souvent : Voilà mon hygiène, voilà le\nrégime que je suis. Il suit, il a une mauvaise hygiène.\n\nHISTORIQUE\nXVIe s.\nLa contemplation des choses non naturelles appartient à la seconde\npartie de la medecine qui se nomme hygiaine, ou diaitetique, à cause\nqu'elle tasche à garder la santé par l'usage raisonnable de telles\nchoses, PARÉ, Introd. 3.\n\nÉTYMOLOGIE\nTerme grec signifiant se bien porter.
hygiénique	HYGIÉNIQUE\n i-jié-ni-k' adj.\n\n1° Qui a rapport à l'hygiène.\n\n2° S. f. Médecine préservatrice.\nPeu usité en ce sens ; on dit hygiène.\n\nÉTYMOLOGIE\nHygiène.
hygiéniquement	HYGIÉNIQUEMENT\n i-jié-ni-ke-man adv.\nConformément aux principes de l'hygiène.
hygiéniste	HYGIÉNISTE\n i-jié-ni-st' s. m.\nMédecin qui s'occupe d'hygiène.
hygro-	HYGRO-\npréfixe\nPréfixe qui signifie humide et vient du grec. Curtius y rattache le\nsanscrit ug, d'où uksha, arroser, et même le latin humor, pour hugmor.
hygrobates	HYGROBATES\n i-gro-ba-t' s. m. pl.\nTerme d'ornithologie. Famille de l'ordre des échassiers, comprenant les\noiseaux auxquels leurs longues jambes permettent de marcher dans l'eau.\n\nÉTYMOLOGIE\nHygro...., et terme grec signifiant qui va, dérivé du verbe aller.
hygrobie	HYGROBIE\n i-gro-bie adj.\nTerme d'histoire naturelle. Qui vit dans l'eau.\n\nÉTYMOLOGIE\nHygro...., et terme grec signifiant vie.
hygrobiées	HYGROBIÉES\n i-gro-bi-ée s. f. pl.\nTerme de botanique. Nom d'une famille de plantes séparée des\nonagrariées.
hygroblépharique	HYGROBLÉPHARIQUE\n i-gro-blé-fa-ri-k' adj.\nTerme d'anatomie. Conduits hygrobléphariques, conduits excréteurs de la\nglande lacrymale.\nOrifices hygrobléphariques, orifices par lesquels ces conduits versent\nles larmes au-dessous de la paupière supérieure.\n\nÉTYMOLOGIE\nHygro...., et terme grec signifiant paupière.
hygrocollyre	HYGROCOLLYRE\n i-gro-kol-li-r' s. m.\nTerme de médecine. Collyre liquide.\n\nÉTYMOLOGIE\nHygro...., et collyre.
hygrologie	HYGROLOGIE\n i-gro-lo-jie s. f.\n\n1° Terme didactique.. Histoire de l'eau ; traité sur l'eau et les\nfluides.\n\n2° Terme de médecine. Traité sur les fluides du corps humain.\n\nÉTYMOLOGIE\nHygro.... et terme grec signifiant traité.
hygroma et hygrome	HYGROMA et HYGROME\n i-grô-ma et i-grôm' s. m.\nTerme de chirurgie. Hydropisie des bourses muqueuses sous-cutanées,\nparticulièrement au genou, devant la rotule.\n\nÉTYMOLOGIE\nTerme grec signifiant humide, liquide.
hygromètre	HYGROMÈTRE\n i-gro-mè-tr' s. m.\nInstrument de physique qui sert à mesurer le degré d'humidité\natmosphérique. Il y a deux sortes d'hygromètres : l'un qui accuse\nl'humidité sensible, tel est l'hygromètre de Saussure ; l'autre qui fait\nconnaître la quantité d'eau contenue dans l'air, lors même qu'il semble\nabsolument sec, tel est celui de Daniell.\nPar extension.\nL'hygromètre le plus simple et le plus approprié pour juger de\nl'humidité de l'air de ces sortes de fours {où l'on fait éclore des\noeufs}, c'est un oeuf froid qu'on y introduit et qu'on y tient pendant\nquelque temps lorsque le juste degré de chaleur y est établi, BUFF.,\nOis. t. III, p. 129.\n\nÉTYMOLOGIE\nHygro...., et mètre, mesure.\n\nSUPPLÉMENT AU DICTIONNAIRE\nHYGROMÈTRE. Ajoutez : - REM. Voy. pour un des premiers emplois de ce\nmot, ARÉOMÈTRE, au Supplément.
hygrométricité	HYGROMÉTRICITÉ\n i-gro-mé-tri-si-té s. f.\nQualité de ce qui est hygrométrique ; propriété qu'offrent les solides\nde s'imbiber des liquides avec lesquels ils se trouvent en contact.\n\nÉTYMOLOGIE\nHygrométrique.
hygrométrie	HYGROMÉTRIE\n i-gro-mé-trie s. f.\nPartie de la physique qui s'occupe de déterminer l'état d'humidité de\nl'air, la quantité d'eau en vapeur contenue dans l'air ou dans un gaz\nquelconque.\n\nÉTYMOLOGIE\nHygromètre.
hygrométrique	HYGROMÉTRIQUE\n i-gro-mé-tri-k' adj.\nQui est sensible aux changements d'humidité de l'air.\nSubstances hygrométriques, substances susceptibles d'éprouver des\nchangements proportionnés aux divers degrés de l'humidité de l'air\natmosphérique.\nÉtat hygrométrique, quantité plus ou moins considérable de vapeur\naqueuse qu'un corps contient.\n\nÉTYMOLOGIE\nHygromètre.
hygrométriquement	HYGROMÉTRIQUEMENT\n i-gro-mé-tri-keman adv.\nD'une manière hygrométrique.\n\nÉTYMOLOGIE\nHygrométrique, et le suffixe ment.
hygrophobie	HYGROPHOBIE\n i-gro-fo-bie s. f.\nTerme de médecine. Aversion des liquides.\n\nÉTYMOLOGIE\nHygro...., et terme grec signifiant crainte.
hygrophthalmique	HYGROPHTHALMIQUE\n i-gro-ftal-mi-k' adj.\nTerme de physiologie. Qui sert à humecter l'oeil.\n\nÉTYMOLOGIE\nHygro...., et terme grec signifiant oeil.
hygrornithes	HYGRORNITHES\n i-gror-ni-t' s. m. pl.\nTerme de zoologie. Ordre d'oiseaux vivant dans l'eau.\n\nÉTYMOLOGIE\nHygro...., et terme grec signifiant oiseau.
hygroscope	HYGROSCOPE\n i-gro-sko-p' s. m.\nTerme de physique. Instrument propre à faire connaître l'existence de la\nvapeur d'eau dans l'air.\n\nÉTYMOLOGIE\nHygro...., et terme grec signifiant examiner.
hygroscopicité	HYGROSCOPICITÉ\n i-gro-sko-pi-si-té s. f.\nPropriété d'être hygroscopique, d'indiquer l'humidité.\n\nSUPPLÉMENT AU DICTIONNAIRE\nHYGROSCOPICITÉ. Ajoutez :\n\n2° Faculté que possèdent un grand nombre de corps inorganiques et tous\nles corps organisés vivants ou morts, d'absorber et d'exhaler de\nl'humidité.\nQuant à l'eau qui pénètre dans le sol, elle peut également se partager\nen deux parties, dont l'une est retenue par l'hygroscopicité de la terre\net servira à l'évaporation des feuilles...., ÉLIE DE BEAUMONT, Bullet.\nde la Soc. centrale d'Agric. 1872, p. 578.
hygroscopie	HYGROSCOPIE\n i-gro-sko-pie s. f.\nEmploi de l'hygroscope.
hygroscopique	HYGROSCOPIQUE\n i-gro-sko-pi-k' adj.\nQui a rapport à l'hygroscopie. Observations hygroscopiques.
hylarchique	HYLARCHIQUE\n i-lar-chi-k' adj. m.\nEsprit hylarchique, esprit universel qui, selon quelques philosophes,\nrégit la matière première.\n\nÉTYMOLOGIE\nTermes grecs signifiant matière et régir.
hylobatracien, ienne	HYLOBATRACIEN, IENNE\n i-lo-ba-tra-siin, siè-n' adj.\nTerme de zoologie. Se dit de reptiles batraciens qui vivent dans les\ntaillis.\n\nÉTYMOLOGIE\nTerme grec signifiant bois, taillis, et batracien.
hylobe ou hylobie	HYLOBE ou HYLOBIE\n i-lo-b' ou i-lo-bie s. m.\nGenre d'insectes coléoptères.\nOn serait disposé à penser que l'hylobe s'attaque aux jeunes pins\natteints de la sèche et contribue ainsi à étendre le mal, tandis que les\nbostryches se jettent sur les vieux bois, , Enquête sur les incendies\ndes Landes, p. 17.\n\nÉTYMOLOGIE\nDu grec, forêt, et, vie.
hylobiens	HYLOBIENS\n i-lo-bi-in s. m.\nNom grec de certains philosophes indiens qui, vivant solitaires dans les\nbois, s'y livrent à la contemplation.\n\nÉTYMOLOGIE\nTermes grecs signifiant bois et vie.
hylogénie	HYLOGÉNIE\n i-lo-jé-nie s. f.\nFormation de la matière.\n\nÉTYMOLOGIE\nTerme grec signifiant matière, et le suffixe génie.
hylotomes	HYLOTOMES\n i-lo-to-m' s. m. pl.\nTerme d'entomologie. Genre d'hyménoptères qui, à l'aide d'une tarière en\nforme de scie, pratiquent des entailles dans le bois pour y déposer\nleurs oeufs.\n\nÉTYMOLOGIE\nTermes grecs signifiant bois et section.
hylozoïsme	HYLOZOÏSME\n i-lo-zo-i-sm' s. m.\nSystème philosophique qui attribue à la matière une vie primitive et\ninhérente.\n\nÉTYMOLOGIE\nTermes grecs signifiant matière et vivre.
hylé	HYLÉ\n i-lé s. f.\nTerme philosophique employé quelquefois pour désigner la matière\npremière.\n\nÉTYMOLOGIE\nTerme grec signifiant matière.
hylémide	HYLÉMIDE\n i-lé-mi-d' adj.\nTerme d'entomologie. Insectes hylémides, insectes diptères qui vivent\ndans les taillis et les haies.\n\nÉTYMOLOGIE\nTerme grec signifiant bois, taillis.
hymen	HYMEN\n i-mèn', d'après l'Académie et Chifflet au XVIIe siècle qui veulent\nqu'on prononce l'n ; d'autres prononcent i-min ; les deux prononciations\nsont usitées ; les poëtes le font rimer avec des rimes en in ou en ain\ns. m.\n\n1° Nom de la divinité païenne qui présidait aux noces.\n\n2° Par extension et dans le langage poétique ou élevé, mariage, union\nconjugale.\nL'hymen qui nous attache en une autre famille, CORN., Hor. III, 4.\nLes flambeaux de l'hymen viennent de s'allumer, CORN., Poly. I, 1.\nJe ne demande plus d'où partait ce dédain, Quand j'ai voulu vous faire\nun hymen de ma main, CORN., D. Sanche, IV, 5.\nL'hymen sur un époux donne quelque puissance, CORN., Othon, III, 1.\nJ'ai vu beaucoup d'hymens, aucuns d'eux ne me tentent, LA FONT., Fabl.\nVII, 2.\nComme il a volonté.... De me déterminer à l'hymen d'Hippolyte, MOL.,\nl'Ét. II, 9.\nChercher dans l'hymen d'une douce et sage personne la consolation de\nquelque nouvelle famille, MOL., l'Av. V, 6.\nAinsi que ses chagrins, l'hymen a ses plaisirs, BOILEAU, Sat. x.\nJamais hymen formé sous le plus noir auspice De l'hymen que je crains\nn'égala le supplice, RAC., Mithr. I, 2.\nL'hymen n'est pas toujours entouré de flambeaux, RAC., Phèdre V, 1.\nEnfin l'hymen est fait, je suis dans l'esclavage, VOLT., Scythes, III,\n4.\nEt l'hymen le plus doux est toujours une chaîne, COLLIN D'HARLEVILLE,\nChât. en Espagne, II, 3.\nPlus loin on voit un cirque et le peuple romain, Des Sabines en pleurs\nl'involontaire hymen, DELILLE, Én. VIII.\nLes fruits de l'hymen, les enfants.\nFig.\nToute l'année n'est qu'un heureux hymen du printemps et de l'automne,\nqui semblent se donner la main, FÉN., Tél. VIII.\nEt la rose et le lis, qu'un doux hymen assemble, Animent son beau teint,\ny confondent ensemble Leur coloris vermeil et leur vive blancheur,\nBAOUR-LORM., Jér. déliv. VI.\nLa terre, après tant de désastres, Forme avec le ciel un hymen, Et la\nloi qui régit les astres Donne la paix au genre humain, BÉRANG., Fous.\n\n3° Jeu de l'hymen, jeu analogue au jeu de l'oie.\n\nÉTYMOLOGIE\nLat. Hymen, terme grec signifiant dieu du mariage (mot qui, en grec, ne\nse trouve que dans une locution ), et chant de mariage. Parmi les\nétymologistes, les uns le rattachent à membrane, ce qui est peu\nprobable, les autres à hymne.
hymen	HYMEN\n i-min et aussi i-mèn' s. m.\nTerme d'anatomie. Repli membraneux qui, chez les vierges, se trouve\nordinairement à l'entrée du vagin.\nTerme de botanique. Petite peau qui enveloppe le bouton des fleurs et\nqui se sépare lors de l'épanouissement.\n\nHISTORIQUE\nXVIe s.\nCelle tunique que l'on appelle hymen ou pannicule virginal, PARÉ, I, 34.\nIls cuident qu'il n'y a nulle vierge qui n'aye ladite hymen, qui est la\nporte virginale, mais ils s'abusent, PARÉ, XVIII, 49.\n\nÉTYMOLOGIE\nDu grec, membrane, que l'on tire d'un radical, qui se trouve dans le\nlatin suere, coudre, et dans le grec, tissu.
hymnaire	HYMNAIRE\n i-mnê-r' s. m.\nRecueil d'hymnes.\n\nÉTYMOLOGIE\nHymne.
hymne	HYMNE\n i-mn' s. m.\n\n1° Chez les anciens, poëme en l'honneur des dieux ou des héros.\n\n2° Cantique en l'honneur de la divinité.\nPeuples de toute la terre, poussez vers Dieu des cris d'allégresse ;\nchantez un hymne à la gloire de son nom, et relevez-la par vos louanges,\nSACI, Bible, psaume LXV, 2.\n\n3° En général et poétiquement, chant.\nCes bois vont retentir des hymnes du matin, C. DELAV., Paria, I, 3.\nDans l'hymne de la nature, Seigneur, chaque créature Forme à son heure\nen mesure Un son du concert divin, LAMART., Harm. I, 3.\n\n4° S. f. Terme de liturgie. Prière en strophes conformes à la prosodie\nlatine, que l'on chante dans l'église. Une belle hymne.\n\nREMARQUE\nLa distinction qui fait hymne du féminin en parlant des hymnes de\nl'Église, n'a rien qui se justifie, soit dans l'étymologie, soit dans\nl'historique du mot.\n\nHISTORIQUE\nXIIe s.\nBels sires, entend à l'ureisun de tun serf, et oi le ymne e la priere\nque jo te faz, , Rois, p. 261.\nXVIe s.\nVostre hynne est achevé, je ne vous lou'ray plus, RONS., 846.\nChanter l'hymne du cygne, COTGRAVE, .\n\nÉTYMOLOGIE\nProvenç. hymne ; esp. himno ; ital. inno ; du lat. hymnus, qui vient du\ngrec. Les étymologistes le tirent du grec signifiant, chanter. Au\ncontraire, d'après Curtius, le grec est de même racine que dans le\nverbe, tisser, et le mot, tissu ; à l'époque reculée où l'écriture était\ninconnue, la plupart des mots qui servent à indiquer une composition\npoétique étant empruntés à l'art du tisserand, du constructeur, etc.
hymnique	HYMNIQUE\n i-mni-k' adj.\nQui a rapport à l'hymne ; qui est du genre de l'hymne.\n\nÉTYMOLOGIE\nHymne.
hymnode	HYMNODE\n i-mno-d' s. m. et f.\nTerme d'antiquité. Celui, celle qui chantait des hymnes dans les\nsolennités religieuses.\n\nÉTYMOLOGIE\nTerme dérivé de deux mots grecs traduits par hymne et chant.
hymnographe	HYMNOGRAPHE\n i-mno-gra-f' s. m.\nAuteur qui compose des hymnes. Santeuil est un de nos meilleurs\nhymnographes.
hymnographie	HYMNOGRAPHIE\n i-mno-gra-fie s. f.\nGenre de poésies qui comprend les hymnes.\nTraité bibliographique des hymnes.\n\nÉTYMOLOGIE\nHymne, et terme grec signifiant décrire.
hymnologie	HYMNOLOGIE\n i-mno-lo-jie s. f.\nTraité sur les hymnes.\nTerme de liturgie. Récitation ou chant des hymnes.\n\nÉTYMOLOGIE\nHymne, et terme grec signifiant discours.
hymnologue	HYMNOLOGUE\n i-mno-lo-gh' s. m.\nAuteur d'une hymnologie.
hyménial, ale	HYMÉNIAL, ALE\n i-mé-ni-al, a-l' adj.\nQui a rapport à l'hyménion. La portion hyméniale ou les lamelles.
hyménion ou hyménium	HYMÉNION ou HYMÉNIUM\n i-mé-ni-on ou i-méni-om' s. m.\nTerme de botanique. Couche membraneuse superficielle portant les organes\nde la fructification dans les champignons.\n\nÉTYMOLOGIE\nHymen 2.
hyménocarpe	HYMÉNOCARPE\n i-mé-no-kar-p' adj.\nTerme de botanique. Qui a le fruit membraneux.\n\nÉTYMOLOGIE\nHymen 2, et terme grec signifiant fruit.
hyménographie	HYMÉNOGRAPHIE\n i-mé-no-gra-fie s. f.\nTerme d'anatomie. Description des membranes.\n\nÉTYMOLOGIE\nHymen 2, et terme grec signifiant décrire.
hyménologie	HYMÉNOLOGIE\n i-mé-no-lo-gie s. f.\nTraité des membranes.\n\nÉTYMOLOGIE\nHymen 2, et terme grec signifiant traité.
hyménolépidoptère	HYMÉNOLÉPIDOPTÈRE\n i-mé-no-lé-pi-doptè-r' adj.\nTerme de zoologie. Insectes hyménolépidoptères, insectes qui ont des\nailes membraneuses et couvertes d'une poussière écailleuse.\n\nÉTYMOLOGIE\nHymen 2, termes grecs signifiant écaille et aile.
hyménomyces ou hyménomycètes	HYMÉNOMYCES ou HYMÉNOMYCÈTES\n i-mé-no-mi-s' ou i-mé-no-mi-sè-t' s. m. pl.\nOrdre de champignons qui ont un hyménium.\n\nÉTYMOLOGIE\nHymen 2, et terme grec signifiant champignon.
hyménophore	HYMÉNOPHORE\n i-mé-no-fo-r' s. m.\nTerme de botanique. Partie du champignon qui supporte l'hyménium.\n\nÉTYMOLOGIE\nHymen z, et terme grec signifiant qui porte.
hyménophyllées	HYMÉNOPHYLLÉES\n i-mé-no-fil-lée s. f. pl.\nTerme de botanique. Nom d'une tribu de la classe des fougères.\n\nÉTYMOLOGIE\nHymen 2, et terme grec signifiant feuille.
hyménopode	HYMÉNOPODE\n i-mé-no-po-d' adj.\nTerme de zoologie. Oiseaux hyménopodes, oiseaux qui ont les doigts à\nmoitié réunis par une membrane.\n\nÉTYMOLOGIE\nHymen 2, et terme grec signifiant pied.
hyménoptères	HYMÉNOPTÈRES\n i-mé-no-ptè-r' s. m. pl.\nTerme d'entomologie. Ordre de la classe des insectes, comprenant ceux\nqui ont quatre ailes membraneuses et nues, telles que les abeilles, les\nguêpes, les fourmis, etc.\nAdj. Insecte hyménoptère.\n\nÉTYMOLOGIE\nHymen 2, et terme grec signifiant aile.
hyménoptérologie	HYMÉNOPTÉROLOGIE\n i-mé-no-pté-ro-lo-jie s. f.\nPartie de l'entomologie qui traite des hyménoptères.\n\nÉTYMOLOGIE\nHyménoptère, et terme grec signifiant traité.
hyménorrhize	HYMÉNORRHIZE\n i-mé-no-rri-z' adj.\nTerme de botanique. Qui a des racines membraneuses. L'ail hyménorrhize.\n\nÉTYMOLOGIE\nHymen 2, et terme grec signifiant racine.
hyménothécien, ienne	HYMÉNOTHÉCIEN, IENNE\n i-mé-no-té-siin, siè-n' adj.\nTerme de botanique. Champignons hyménothéciens, champignons pourvus\nd'une membrane qui contient les corpuscules reproducteurs.\n\nÉTYMOLOGIE\nHymen 2, et terme grec signifiant loge.
hyménotomie	HYMÉNOTOMIE\n i-mé-no-to-mie s. f.\nDissection des membranes.\n\nÉTYMOLOGIE\nHymen 2, et terme grec signifiant dissection.
hyménée	HYMÉNÉE\n i-mé-née s. m.\n\n1° Nom de la divinité païenne qui présidait aux mariages.\nHyménée et l'Amour, par des désirs constants, Avaient uni leurs coeurs\ndès leur plus doux printemps, LA FONT., Phil. et Baucis.\n\n2° Mariage, union conjugale.\nMais après l'hyménée ils {les hommes} sont rois à leur tour, CORN.,\nPoly. I, 3.\nEt ne savez-vous pas qu'il est des hyménées Que font sans nous au ciel\nles belles destinées ?, CORN., Pulchér. V, 6.\nAvant qu'on eût conclu ce fatal hyménée, RAC., Andr. V, 1.\n{Lisette} Qui des chaînes de l'hyménée Veut charger mes bras caressants,\nBÉRANG., Indép.\n\nÉTYMOLOGIE\nEn grec, chant de mariage, dieu du mariage, dérivé de hymen 1.
hyménélytre	HYMÉNÉLYTRE\n i-mé-né-li-tr' adj.\nTerme d'entomologie. Qui a les élytres membraneux.\n\nÉTYMOLOGIE\nHymen 2, et élytre.
hyo-glosse	HYO-GLOSSE\n i-o-glo-s' s. m.\nTerme d'anatomie. Muscle pair qui s'attache à l'os hyoïde et à la\nlangue.\n\nÉTYMOLOGIE\nHyoïde, et terme grec signifiant langue.
hyo-pharyngien, enne	HYO-PHARYNGIEN, ENNE\n i-o-fa-rin-jiin, jiè-n' adj.\nTerme d'anatomie. Qui a rapport à l'hyoïde et au pharynx. Muscle\nhyo-pharyngien, et, substantivement, l'hyo-pharyngien, le constricteur\nmoyen du pharynx.\n\nÉTYMOLOGIE\nHyoide, et pharyngien.
hyo-épiglottique	HYO-ÉPIGLOTTIQUE\n i-o-é-pi-glo-tti-k' adj.\nTerme d'anatomie. Qui appartient à l'hyoïde et à l'épiglotte. Muscle\nhyo-épiglottique, ou, substantivement, l'hyo-épiglottique, muscle impair\nfixé sur le milieu du corps de l'hyoïde, et s'insérant à la base de\nl'épiglotte.\n\nÉTYMOLOGIE\nHyoïde, et épiglotte.
hyocholique	HYOCHOLIQUE\n i-o-ko-li-k' adj.\nTerme de chimie.\nAcide hyocholique, corps qui, à l'état de combinaison avec la soude,\nforme la partie principale de la bile de porc, CAHOURS, Leçons de chimie\ngénérale, t. II, p. 760.\n\nÉTYMOLOGIE\nDu grec, porc, et, bile.
hyoscyamine	HYOSCYAMINE\n i-o-ssi-a-mi-n' s. f.\nTerme de chimie. Substance découverte dans les semences de la jusquiame\n(hyoscyamus niger, L.).\n\nÉTYMOLOGIE\nLat. hyoscyamus (voy. JUSQUIAME).
hyospondylotomie	HYOSPONDYLOTOMIE\n i-o-spon-di-lo-to-mie s. f.\nTerme de vétérinaire. Ponction des poches gutturales.\n\nÉTYMOLOGIE\nHyoïde, termes grecs signifiant vertèbre et incision.
hyosternal	HYOSTERNAL\n i-o-ster-nal s. m.\nTerme d'anatomie. Troisième pièce du sternum.\nPièce du sternum des tortues.\n\nÉTYMOLOGIE\nHyoïde, et sternal.
hyoïde	HYOÏDE\n i-o-i-d' adj.\nTerme d'anatomie. L'os hyoïde, et, substantivement, l'hyoïde, os situé\nentre la base de la langue et le larynx.\n\nHISTORIQUE\nXVIe s.\nLa figure de cet os est telle que de la lettre grecque{upsilon}, au\nmoyen de quoy il est appellé hyoïde, PARÉ, IV, 11.\n\nÉTYMOLOGIE\nLa lettre grecque v, et terme grec signifiant forme.
hyoïdien, enne	HYOÏDIEN, ENNE\n i-o-i-diin, diè-n' adj.\nTerme d'anatomie. Qui a rapport à l'os hyoïde.
hyp-	HYP-\nPour l'emploi de hypo...., en chimie, voy. HYPER-.
hyp- ou hypo-	HYP- ou HYPO-\npréfixe\nPréfixe qui vient d'une préposition grecque qui signifie sous (voy.\nSOUS), et exprime souvent une diminution ; il est opposé à hyper....,\nvoy. ce mot.
hypachéen	HYPACHÉEN\n i-pa-ché-in s. m.\nNom donné, dans une haute antiquité, aux habitants de la Cilicie.\nPlusieurs traditions et le nom d'Hypachéens porté d'abord par les\nhabitants de la Cilicie, semblent attester le mélange de certains\néléments de race grecque ou pélasgique, qui s'étaient portés, dès une\nhaute antiquité, vers cet angle extrême de la Méditerranée, HEUZEY,\nJourn. offic. 11 juillet 1876, p. 5031, 3e col.\n\nÉTYMOLOGIE\nDu grec, sous, et Achéen : sous-achéen.
hypallage	HYPALLAGE\n i-pal-la-j' s. f.\nTerme de grammaire. Figure par laquelle on paraît attribuer à certains\nmots d'une phrase ce qui appartient à d'autres mots de cette phrase,\nsans qu'il soit possible de se méprendre au sens. Exemple : Enfoncer son\nchapeau dans sa tête, pour enfoncer sa tête dans son chapeau.\n\nÉTYMOLOGIE\nDu grec, changer.
hypanthe	HYPANTHE\n i-pan-t' s. m.\nTerme de botanique. Partie inférieure du calice.\nNom donné au mode d'inflorescence que présente le figuier.\n\nÉTYMOLOGIE\nHyp...., et terme grec signifiant fleur.
hypanthé, ée	HYPANTHÉ, ÉE\n i-pan-té, tée adj.\nTerme de botanique. Dont le calice et la corolle s'insèrent sous\nl'ovaire.\n\nÉTYMOLOGIE\nHypanthe.
hypate	HYPATE\n i-pa-t' s. f.\nTerme de musique ancienne. La corde la plus grave de la lyre et des deux\ntétracordes les plus bas.\n\nÉTYMOLOGIE\nTerme grec signifiant la dernière corde.
hyper-	HYPER-\npréfixe\nPréfixe qui représente une préposition grecque qui signifie au-dessus,\nau delà (voy. SUR, prép.) ; il exprime en général l'excès, le plus haut\ndegré ; il est opposé à hypo. Dans le langage chimique, ces deux\nprépositions portent non sur l'élément exprimé qui les suit, mais sur\nl'oxygène qui est sous-entendu ; ainsi hypoazotique veut dire non qu'il\ny a moins d'azote, mais moins d'oxygène que dans l'azotique ; et\nhyperchlorique veut dire non qu'il y a plus de chlore, mais plus\nd'oxygène dans le chlorique.
hyperacusie	HYPERACUSIE\n i-pèr-a-ku-zie s. f.\nTerme de médecine. Exaltation de l'ouïe ; perception confuse et\ndouloureuse de certains sons, surtout de ceux qui sont élevés et aigus.\n\nREMARQUE\nOn trouve dans des livres de médecine hypercousie, ce qui est une double\nfaute, a ne pouvant être supprimé, et la diphthongue ov se rendant en\nlatin et en français par u.\n\nÉTYMOLOGIE\nHyper...., et terme grec signifiant action d'entendre.
hyperalbuminose	HYPERALBUMINOSE\n i-pèr-al-bu-mi-nô-z' s. f.\nTerme de médecine. Augmentation de la quantité d'albumine du sang.\n\nÉTYMOLOGIE\nHyper...., et albumine.
hyperbate	HYPERBATE\n i-pèr-ba-t' s. f.\nFigure de grammaire. Inversion.\nL'hyperbate est un tour particulier qu'on donne à une période, et qui\nconsiste principalement à faire précéder une proposition par une autre\nqui, dans l'ordre naturel, aurait dû la suivre ; par exemple, dans ces\nvers de Racine : Que, malgré la pitié dont je me sens saisir, Dans le\nsang d'un enfant je me baigne à loisir (Andr. I, 2), DUCLOS, Gramm. P.\nR. Oeuvres, t. IX, p. 210, dans POUGENS.\nParticulièrement. Figure qui consiste à intervertir, à renverser\nbrusquement l'ordre naturel du discours pour exprimer une violente\naffection de l'âme.\n\nÉTYMOLOGIE\nTerme grec dérivé de deux mots se traduisant par : au delà et aller.
hyperbole	HYPERBOLE\n i-per-bo-l' s. f.\n\n1° Figure de rhétorique qui consiste à augmenter ou à diminuer\nexcessivement la vérité des choses pour qu'elle produise plus\nd'impression.\nParlons sans hyperbole et sans plaisanterie, DUCLOS, Sat. X.\nEt bientôt vous verrez mille auteurs pointilleux, Pièce à pièce\népluchant vos sons et vos paroles, Interdire chez vous l'entrée aux\nhyperboles, BOILEAU, Épître X.\nJuvénal, élevé dans les cris de l'école, Poussa jusqu'à l'excès sa\nmordante hyperbole, BOILEAU, Art p. II.\nL'hyperbole exprime au delà de la vérité pour ramener l'esprit à la\nmieux connaître, LA BRUY., I.\nLes esprits vifs, pleins de feu, et qu'une vaste imagination emporte\nhors des règles et de la justesse, ne peuvent s'assouvir de l'hyperbole,\nLA BRUY., I.\nLe cynisme des moeurs doit salir la parole, Et la haine du mal enfante\nl'hyperbole, BARBIER, Iambes, prologue.\n\n2° Terme de mathématique. Courbe telle qu'en menant d'un quelconque de\nses points des rayons à deux points fixes nommés foyers, la différence\nde ces rayons est toujours la même ; elle est une des sections coniques,\ncelle qui est engendrée par un plan coupant obliquement un cône droit,\nde manière à pouvoir couper aussi un second cône semblable au premier et\nqui lui serait opposé ; elle est formée de deux branches indéfiniment\nouvertes et se tournant mutuellement leur convexité.\nNicolas Mercator publia en 1668 sa logarithmotechnie, ou il donnait, par\nune suite ou série infinie, la quadrature de l'hyperbole, FONTEN.,\nNewton.\nHyperbole équilatère, celle dont les axes sont égaux.\n\nÉTYMOLOGIE\nLat. hyperbole ; en grec, le terme est un dérivé de deux mots se\ntraduisant par : au delà et jeter.
hyperboliforme	HYPERBOLIFORME\n i-pèr-bo-li-for-m' adj.\nTerme de géométrie. Qui se rapproche de l'hyperbole. Courbes\nhyperboliformes, nom que des géomètres ont donné à des courbes dont les\néquations ont une forme analogue à celle de l'hyperbole ordinaire.\n\nÉTYMOLOGIE\nHyperbole, et forme.
hyperbolique	HYPERBOLIQUE\n i-pèr-bo-li-k' adj.\n\n1° Qui exagère beaucoup.\nJe dois rejeter tous les doutes de ces jours passés, comme hyperboliques\net ridicules, particulièrement cette incertitude si générale touchant le\nsommeil, que je ne pouvais distinguer de la veille, DESC., Médit. VI,\n23.\nAprès tout, son français {de Balzac}, combien que trop hyperbolique, est\nencore meilleur et plus agréable que son latin, GUI PATIN, Lett. t. II,\np. 25.\nIl se dit des personnes dans le même sens. Homme, personne hyperbolique.\n\n2° Terme de mathématique. Qui a la forme de l'hyperbole, ou qui dépend\nde ses propriétés. Figure hyperbolique.\nAprès avoir traversé le verre hyperbolique, DESC., Dioptr. 8.\nIl {Descartes} conclut que les verres elliptiques et hyperboliques sont\nles meilleurs de tous pour rassembler les rayons, BUFF., Hist. min.\nIntrod. Oeuvres, t. VII, p. 185.\n\nREMARQUE\nJ. J. Rousseau a cru, à tort, hyperbolique un mot nouveau et créé par\nlui : Les louanges hyperboliques et outrées dont vos deux lettres sont\nremplies, Lett. à Mme de Boufflers, 23 mai 1766. Le mot est en\nitaliques, et Rousseau dit dans une note : Voici encore un mot pour le\ndictionnaire ; hélas ! pour parler de ma destinée, il faudrait un\nvocabulaire tout nouveau qui n'eût été composé que pour moi.\n\nHISTORIQUE\nXVIe s.\nMaintenant il convient parler de meslinges hyperboliques, c'est-à-dire\nexcessifs, que la superstition a mis sus, CALV., Instit. 1102.\n\nÉTYMOLOGIE\nHyperbole.
hyperboliquement	HYPERBOLIQUEMENT\n i-pèr-bo-li-ke-man adv.\n\n1° Avec exagération.\nElle est donc belle ? - Belle hyperboliquement, TH. CORN., le Berger\nextravagant, I, 2.\n\n2° Terme de géométrie. Couper un cône hyperboliquement, le couper de\nmanière à former une hyperbole.\n\nÉTYMOLOGIE\nHyperbolique, et le suffixe ment.
hyperboliser	HYPERBOLISER\n i-pèr-bo-li-zé v. n.\nParler par hyperboles.\n\nHISTORIQUE\nXVIe s.\nQuand on vient à contempler celles {les dames} qu'ils ont tant\nhyperbolisées (pour user du mot de leur plus riche figure et sans\nlaquelle leur poesie demeure fort seiche), CARLOIX, III, 7.\n\nÉTYMOLOGIE\nHyperbole.
hyperbolisme	HYPERBOLISME\n i-pèr-bo-li-sm' s. m.\nNéologisme. Emploi abusif de l'hyperbole.\n\nÉTYMOLOGIE\nHyperboliser.
hyperboloïde	HYPERBOLOÏDE\n i-pèr-bo-lo-i-d' adj.\nTerme de géométrie. Qui se rapproche de l'hyperbole. Courbes\nhyperboloïdes.\nS. m. Solide produit par la révolution d'une hyperbole.\n\nÉTYMOLOGIE\nHyperbole, et terme grec signifiant forme.\n\nSUPPLÉMENT AU DICTIONNAIRE\nHYPERBOLOÏDE. Ajoutez :\n\n2° S. m. Surface du second degré pouvant être engendrée par une ellipse\nqui se transporte parallèlement à elle-même, en s'appuyant toujours par\ndeux de ses sommets sur une hyperbole, et en se déformant de manière que\nle rapport de ses axes soit constant. On obtient un hyperboloïde à une\nnappe, lorsque le centre de l'ellipse se meut le long de l'axe\nnon-transverse de l'hyperbole, et un hyperboloïde à deux nappes, lorsque\nle centre de l'ellipse se meut le long de l'axe transverse de\nl'hyperbole.\nHyperboloïdes de révolution à une ou deux nappes, surfaces obtenues dans\nle cas particulier où l'ellipse génératrice est un cercle ; on peut\naussi les considérer comme résultant de la rotation d'une hyperbole\nautour d'un de ses axes.
hyperborée	HYPERBORÉE\n i-per-bo-rée adj.\nQui est situé tout à fait au nord. Peuples hyperborées.\nLes pâles habitants de ces froides contrées, Qu'assiégent de glaçons les\nmers hyperborées, VOLT., Henr. VII.\nPeuples que Dieu fit naître aux portes du soleil, Vous, nations\nhyperborées, VOLT., Pour et contre.\nAllons dans cette immense région hyperborée {la Russie}, qui était si\nbarbare il y a quatre-vingts ans, et qui est aujourd'hui si éclairée et\nsi invincible, VOLT., Voyage de la raison.\n\nÉTYMOLOGIE\nLat. hyperboreus; en grec, le terme est dérivé de deux mots se\ntraduisants par : au delà et Borée.
hyperboréen, enne	HYPERBORÉEN, ENNE\n i-pèr-bo-ré-in, è-n' adj.\n\n1° Synonyme d'hyperborée.\nOn ne comprit plus sous la dénomination de Scythie que les régions\nhyperboréennes situées aux extrémités de l'Europe, DIDER., Opin. des\nanc. philos. (Scythes).\nPlantes hyperboréennes, plantes qui croissent dans des lieux très\nfroids.\n\n2° S. m. pl. Les Hyperboréens, nom, chez les Grecs, d'un peuple\nmythique, vivant dans l'extrême septentrion, aimé d'Apollon, et renommé\npour sa piété et son bonheur.
hypercatalecte	HYPERCATALECTE\n i-pèr-ka-ta-lè-kt' s. m.\nTerme de prosodie grecque et latine. Vers qui a une syllabe de plus.\n\nÉTYMOLOGIE\nDu grec, au delà, et, final, du grec, finir.
hypercatalectique	HYPERCATALECTIQUE\n i-pèr-ka-ta-lè-kti-k' adj.\nVers hypercatalectique, synonyme d'hypercatalecte.
hypercatharsie	HYPERCATHARSIE\n i-pèr-ka-tar-sie s. f.\nTerme de médecine. Superpurgation.\n\nÉTYMOLOGIE\nTerme grec dérivé de deux mots se traduisant par : au delà et purger.
hyperchlorate	HYPERCHLORATE\n i-pèr-klo-ra-t' s. m.\nTerme de chimie. Sel produit par la combinaison de l'acide\nhyperchlorique avec une base.\n\nÉTYMOLOGIE\nHyper...., et chlorate.
hyperchlorique	HYPERCHLORIQUE\n i-pèr-klo-ri-k' adj. m.\nTerme de chimie. Se dit d'un des oxacides du chlore.\n\nÉTYMOLOGIE\nHyper...., et chlorique.
hypercrinie	HYPERCRINIE\n i-per-kri-nie s. f.\nTerme de médecine. Augmentation plus ou moins considérable d'une\nsecrétion.\n\nÉTYMOLOGIE\nHyper...., et terme grec signifiant secréter, séparer.
hypercrise	HYPERCRISE\n i-pèr-kri-z' s. f.\nTerme de médecine. Crise plus forte qu'on ne l'observe communément.\n\nÉTYMOLOGIE\nHyper...., et crise.
hypercritique	HYPERCRITIQUE\n i-pèr-kri-ti-k' s. m.\nCenseur outré, critique qui ne pardonne rien.\nÀ nosseigneurs académiques, Nosseigneurs les hypercritiques, Souverains\narbitres des mots, MÉNAGE, Requête des dictionnaires à l'Académie.\nL'affiche des comédiens du Petit Bourbon qui marquait qu'après les\nPrécieuses ridicules on devait jouer : Ménage hypercritique, le faux\nsavant et le pédant coquet, , Antimenagiana, p. 170.\nLa lettre que vous m'avez fait l'honneur de m'écrire, monsieur, doit\nvous valoir le nom d'hypercritique qu'on donnait à Scaliger ; vous me\nparaissez bien redoutable, VOLT., Mérope, Lettre.\n\nÉTYMOLOGIE\nHyper...., et critique.
hyperdiacrisie	HYPERDIACRISIE\n i-pèr-di-a-kri-zie s. f.\nTerme de médecine. Sécrétion excessive.\n\nÉTYMOLOGIE\nHyper...., et du grec, sécrétion, et, séparation.
hyperdorien	HYPERDORIEN\n i-pèr-do-riin adj. m.\nTerme de musique ancienne et de plain-chant. Mode hyperdorien, mode qui\nétait d'une quarte au-dessus du dorien.\n\nÉTYMOLOGIE\nHyper...., et dorien.
hyperdramatique	HYPERDRAMATIQUE\n i-pèr-dra-ma-ti-k' adj.\nTrop dramatique, où les moyens dramatiques sont exagérés.\n\nÉTYMOLOGIE\nHyper...., et drame.
hyperdulie	HYPERDULIE\n i-per-du-lie s. f.\nTerme de théologie. Culte qu'on rend à la sainte Vierge, par opposition\nà dulie, le culte que l'on rend aux saints.\nFig. et en plaisantant.\nLa nôtre {famille} se met toujours à l'ombre de vos ailes, et je vous\nadore du culte d'hyperdulie ; et, si les roués {le Triumvirat}\nréussissent, j'irai jusqu'à latrie, VOLT., Lett. d'Argental, 15 déc.\n1763.\n\nÉTYMOLOGIE\nHyper...., et dulie.
hyperelliptique	HYPERELLIPTIQUE\n i-pèr-èl-li-pti-k' adj.\nTerme de mathématique. Fonction hyperelliptique ou ultra-elliptique,\nfonction formée par une intégrale dont la différentielle contient, sous\nun radical du second degré, un polynôme de degré supérieur au quatrième.\nJacobi et Abel ont créé la théorie des fonctions hyperelliptiques.\n\nÉTYMOLOGIE\nHyper...., et elliptique.
hyperencéphale	HYPERENCÉPHALE\n i-pèr-an-sé-fa-l' s. m.\nTerme de tératologie. Nom de monstres qui ont l'encéphale situé en très\ngrande partie hors de la boîte cérébrale, et au-dessus du crâne.\n\nÉTYMOLOGIE\nHyper...., et encéphale.
hyperencéphalie	HYPERENCÉPHALIE\n i-pèr-an-sé-fa-lie s. f.\nAnomalie qui caractérise les hypérencéphales.
hyperencéphalien, enne	HYPERENCÉPHALIEN, ENNE\n i-pèr-an-sé-faliin, liè-n' adj.\nQui a le caractère de l'hyperencéphalie. Monstres hyperencéphaliens.
hyperesthésie	HYPERESTHÉSIE\n i-pèr-è-sté-zie s. f.\nTerme de médecine. Sensibilité excessive et, par cela, douloureuse.\n\nÉTYMOLOGIE\nHyper...., et terme grec signifiant sens, sensibilité.
hypergenèse	HYPERGENÈSE\n i-pèr-je-nè-z' s. f.\nTerme de médecine. Altération caractérisée par un excès dans la\nproduction des parties constituantes du corps.\n\nÉTYMOLOGIE\nHyper...., et terme grec signifiant production.
hypergénétique	HYPERGÉNÉTIQUE\n i-pèr-jé-né-ti-k' adj.\nQui a rapport à l'hypergenèse.
hypergéométrique	HYPERGÉOMÉTRIQUE\n i-pèr-jé-o-mé-tri-k' adj.\nTerme de mathématique. Série hypergéométrique, série dont les termes se\ndéduisent les uns des autres suivant une loi plus compliquée que celle\nqui donne naissance à la progression géométrique.\n\nÉTYMOLOGIE\nDu grec, au-dessus, et géométrique.
hyperidrose	HYPERIDROSE\n i-pèr-i-drô-z' s. f.\nTerme de médecine. Supersécrétion de sueur.\n\nÉTYMOLOGIE\nHyper...., et terme grec signifiant sueur.
hyperidéation	HYPERIDÉATION\n i-pèr-i-dé-a-sion s. f.\nExcitation intellectuelle se manifestant par une production incessante\nd'idées plus ou moins incohérentes.\nSi l'on continue à boire, l'excitation intellectuelle augmente et se\nmanifeste de plusieurs manières ; on pourrait résumer d'un mot toutes\nces formes en disant qu'il y a hyperidéation.... l'hyperidéation de\nl'ivresse au premier degré est un phénomène très curieux et très\nintéressant, CH. RICHET, Rev. des Deux-Mondes, 15 fév. 1877, p. 821.\nLes effets de béatitude et d'hypéridéation sont plus marqués avec\nl'absinthe qu'avec l'alcool, CH. RICHET, ib. p. 831.\n\nÉTYMOLOGIE\nHyper..., et idéation (voy. ce mot au Supplément).
hyperinose	HYPERINOSE\n i-pèr-i-nô-z' s. f.\nTerme de médecine. Augmentation de la quantité de la fibrine.\n\nÉTYMOLOGIE\nHyper...., et terme grec signifiant fibre.
hyperiodate	HYPERIODATE\n i-pèr-i-o-da-t' s. m.\nTerme de chimie. Nom générique des sels d'acide hyperiodique.
hyperiodique	HYPERIODIQUE\n i-pèr-i-o-di-k' adj.\nTerme de chimie. Acide hyperiodique, acide qui contient plus d'oxygène\nque l'acide iodique.\n\nÉTYMOLOGIE\nHyper...., et iodique.
hyperlydien	HYPERLYDIEN\n i-pèr-li-diin adj. m.\nTerme de musique ancienne et de plain-chant. Mode hyperlydien, mode qui\nétait d'une quarte au-dessus du lydien.\n\nÉTYMOLOGIE\nHyper...., et lydien.
hyperlymphie	HYPERLYMPHIE\n i-pèr-lin-fie s. f.\nTerme de médecine. Augmentation, surabondance de la lymphe.\n\nÉTYMOLOGIE\nHyper...., et lymphe.
hypermixolydien	HYPERMIXOLYDIEN\n i-pèr-mi-kso-li-diin adj.\nTerme de musique ancienne. Le plus aigu des modes de la musique grecque.\nL'opinion qui commence à prévaloir admet treize modes à un demi-ton de\ndistance l'un de l'autre, rangés dans cet ordre en commençant par\nl'hypodorien qui est le plus grave : hypodorien, si.... hypermixolydien,\nsi (à l'octave du premier), BARTHÉLEMY, Anachars. ch. 27.
hypermyopie	HYPERMYOPIE\n i-pèr-mi-o-pie s. f.\nMyopie très prononcée.\n\nÉTYMOLOGIE\nHyper...., et myopie.
hypermètre	HYPERMÈTRE\n i-pèr-mè-tr' s. m.\nTerme de prosodie grecque et latine. Vers hexamètre terminé par une\nsyllabe surabondante.\n\nÉTYMOLOGIE\nHyper...., et mètre.
hypermétamorphose	HYPERMÉTAMORPHOSE\n i-pèr-mé-ta-mor-fô-z' s. f.\nChangement que subissent certains insectes (sitaris, meloë, etc.),\npassant par l'état de première larve, de deuxième larve, puis de\npseudochrysalide, à laquelle succède une troisième larve analogue à la\ndeuxième, et enfin arrivant à l'état de nymphe, tandis que les autres\ninsectes n'ont que trois états : oeuf, chenille, chrysalide.\n\nÉTYMOLOGIE\nHyper..., et métamorphose.
