kinésithérapie	KINÉSITHÉRAPIE\n ki-né-zi-té-ra-pie s. f.\nTerme de médecine. Procédé de gymnastique consistant à provoquer la\ncontraction volontaire des muscles pendant qu'on s'oppose à leur\nraccourcissement, et à exercer des tractions sur eux pendant qu'ils sont\nraccourcis.\n\nÉTYMOLOGIE\nTerme grec signifiant mouvement, et thérapie.
kinésodique	KINÉSODIQUE\n ki-né-zo-di-k' adj.\nTerme de physiologie. Qui conduit les mouvements.\n\nÉTYMOLOGIE\nTermes grecs signifiant mouvement et chemin.
kioekkenmoedding	KIOEKKENMOEDDING\n kieu-kèn'-meu-ding' s. m.\nTerme de préhistoire. Amas de débris de cuisine d'anciens peuples.\n\nÉTYMOLOGIE\nDanois, kioekkenmoedding, de kioekken, cuisine, et moedding, fumier.
kiosque	KIOSQUE\n ki-o-sk' s. m.\n\n1° Belvédère situé dans un jardin, sur une terrasse ; pavillon turc\nouvert de tous côtés, dont on décore les parcs, les jardins.\nMédine aux mille tours, d'aiguilles hérissées, Avec ses flèches d'or,\nses kiosques brillants, V. HUGO, Odes et Ballades, la fée et la péri.\n\n2° Petite boutique sur les boulevards de Paris et des grandes villes où\nl'on vend les journaux aux passants.\n\nÉTYMOLOGIE\nTurc, kieuchk, belvédère.
kiotome	KIOTOME\n ki-o-to-m' s. m.\nTerme de chirurgie. Instrument servant à couper les brides accidentelles\nformées dans le rectum ou dans la vessie.\n\nÉTYMOLOGIE\nTermes grecs signifiant colonne, bride, et section.
kirrhonose	KIRRHONOSE\n ki-rro-nô-z' s. f.\nTerme d'anatomie pathologique. Mélanose tirant sur le jaune.\n\nÉTYMOLOGIE\nTermes grecs signifiant jaune, et maladie.
kirsch	KIRSCH\n kirch s. m.\nvoy. KIRSCH-WASSER.
kirsch-wasser	KIRSCH-WASSER\n kirch-va-sr' s. m.\nLiqueur limpide, incolore, alcoolique, obtenue par fermentation des\ncerises noires ou merises et de leurs noyaux, qu'on distille ensuite.\nOn dit souvent par abréviation : kirsch. Boire du kirsch. Un verre de\nkirsch. Kirsch de la Forêt-Noire.\n\nÉTYMOLOGIE\nAllem. Kirschwasser, de Kirsch, cerise (Kirsch est le même que cerise,\nvoy. ce mot), et Wasser, eau ; angl. water ; qui est de même racine que\nle sanscrit uda, eau (lequel suppose une forme vada) ; lat. udus,\nhumide, et unda, onde (voy. ce mot).
klavais	KLAVAIS\n kla-vê s. m.\nEspèce de filon coupant les lits de houille, dit aussi, mais d'une\nmanière plus générale, faille.
klephte	KLEPHTE\n klè-ft' s. m.\nVoy. CLEPHTE.
kleptomanie	KLEPTOMANIE\n klè-pto-ma-nie s. f.\nSynonyme de clopémanie.\n\nÉTYMOLOGIE\nTerme grec signifiant voler, et manie.
klipper	KLIPPER\n kli-ppèr s. m.\nTerme de marine. Bâtiment anglais d'une vitesse remarquable.\nTout bon navire de commerce analogue au klipper.\n\nÉTYMOLOGIE\nAngl. to clip, couper, fendre ; comparez cutter, coupeur, autre nom\ndonné à un navire de marche rapide. La bonne orthographe est donc\nclipper.
knautie	KNAUTIE\n knô-tie s. f.\nVoy. SCABIEUSE.
knout	KNOUT\n knout' s. m.\n\n1° Instrument de supplice, chez les Russes, composé de plusieurs nerfs\nde boeuf fortement entrelacés et terminés par des crochets en fer ; il\nsert à infliger les châtiments légaux.\nUn petit nombre de coups de knout donnent la mort ; quatre à cinq\nsuffisent pour ne faire qu'une plaie du corps du condamné, LEGOARANT, .\n\n2° Supplice que l'on inflige avec cet instrument.\nIls {les Russes} regarderont toujours les hommes libres comme il faut\nles regarder eux-mêmes, c'est-à-dire comme des hommes nuls, sur lesquels\ndeux seuls instruments ont prise, savoir l'argent et le knout, J. J.\nROUSS., Gouvern. Pologne, ch. 15.\n\nÉTYMOLOGIE\nMot russe qui n'est pas dans les autres langues slaves et qui paraît\nd'origine tartare.
koa	KOA\n ko-a s. m.\nArbre des îles Sandwich. C'était une maison vaste et carrée, en bois de\nkoa, dont la couleur rappelle celle de l'acajou, Revue des Deux-Mondes,\n1er mai 1877, p. 108.
kobold	KOBOLD\n ko-bold' s. m.\nNom allemand de certains lutins.\n\nÉTYMOLOGIE\nLa forme française est gobelin (voy. ce mot).
kochlani ou kocklani	KOCHLANI ou KOCKLANI\n ko-kla-ni s. m.\nRace chevaline de l'Arabie centrale, l'une des plus précieuses et des\nplus estimées des races pures de l'Orient ; on la trouve dans le Nedj.
koff	KOFF\n kof s. m.\nPetit navire des Pays-Bas.\nLes bâtiments de petite dimension tendent à disparaître :... les koffs\nont beaucoup diminué, , Journ. offic. 26 août 1874, p. 6224, 2e col.
kola	KOLA\n kola s. m.\nVoy. STERCULIE.
kopeck	KOPECK\n ko-pèk s. m.\nMonnaie de cuivre russe valant à peu près quatre centimes de France.\nCent kopecks font un rouble effectif ou rouble d'argent.\n\nSUPPLÉMENT AU DICTIONNAIRE\nKOPECK. Ajoutez : - ÉTYM. Russe, kopeika, de kopye, lance, à cause qu'il\ny avait originairement sur cette monnaie un cavalier armé d'une lance.
koran	KORAN\n ko-ran s. m.\nVoyez CORAN
koréischite	KORÉISCHITE\n ko-ré-i-chi-t' s. m.\nNom d'une tribu du Hedjaz de laquelle descendait Mahomet.\n\nÉTYMOLOGIE\nKoreisch, ancêtre de la tribu.
koréite	KORÉITE\n ko-ré-i-t' s. m.\nTerme de minéralogie. Un des noms de la pierre de lard des anciens\nminéralogistes.
kouan	KOUAN\n kou-an s. m.\nTerme de botanique. Plante dont la graine sert à faire du carmin.
koumis	KOUMIS\n kou-mis' s. m.\nPetit-lait de jument aigri et fermenté, employé par les Russes comme\ntisane rafraîchissante.\n\nSUPPLÉMENT AU DICTIONNAIRE\nKOUMIS. Ajoutez : - ÉTYM. Russe, kumys, mot d'origine mongole.
kourde	KOURDE\n kour-d' adj.\nLa langue kourde, et, substantivement, le kourde, langue appartenant au\ngroupe iranien et parlé par les Kourdes, peuple d'Asie.
kourgan	KOURGAN\n kour-gan s. m.\nNom d'antiques éminences tumulaires qu'on trouve dans certaines parties\nde la Russie orientale, A. MAURY, Journ. des Savants, mars 1876, p. 161.
kouschite	KOUSCHITE\n kou-chi-t' adj.\nVoy. COUSHITE.
kousso	KOUSSO\n kou-so s. m.\nPlante d'Abyssinie spécifique contre les vers intestinaux.
kraal	KRAAL\n kra-al s. m.\nVoy. CORRAL au Supplément.
krachena	KRACHENA\n kra-che-na s. m.\nNom d'un tabac algérien fort estimé. Ces derniers {les colons} se\nlivrent exclusivement à la production des tabacs fins, chebli, krachena,\netc. Journ. offic. 1er mai 1874, p. 3032, 1re col.\n\nÉTYMOLOGIE\nKrachena, nom d'une tribu arabe qui cultivait ce tabac.
kraton	KRATON\n kra-ton s. m.\nNom, à Java, de la résidence des princes indigènes.\nNous nous rendons au kraton ; c'est une vaste enceinte de hautes\nmurailles fermées par des portes que gardent les soldats déguenillés du\nsultan, BOUSQUET, Rev. des Deux-Mondes, 15 janv. 1877, p. 320.
kremlin	KREMLIN\n krèm'-lin s. m.\nPalais des czars de Russie à Moscou.\nSon ambition {de Napoléon} est flattée de cette conquête : on l'entend\ns'écrier : je suis enfin dans Moscou, dans l'antique palais des czars,\ndans le Kremlin, SÉGUR, Hist. de Nap. VIII, 6.
kreutzer	KREUTZER\n kreu-tzr' s. m.\nMonnaie d'Allemagne, qui est la soixantième partie du florin.\n\nÉTYMOLOGIE\nAllem. Kreutz, croix.
krichna, ou, d'après l'orthographe anglaise, krishna	KRICHNA, ou, d'après l'orthographe anglaise, KRISHNA\n kri-chna s. m.\nNom d'un héros du Mahabhârata (grand poëme indien), qui est une\nincarnation de Vichnou ; krichna signifie proprement noir.
kriss	KRISS\nVoy. CRISS.
krohor	KROHOR\n kro-or s. m.\nNom indien exprimant la valeur de cent lacs ; le lac vaut cent mille\nroupies ; le krohor vaut donc dix millions de roupies ; la roupie vaut 2\nfr. 50.
krona	KRONA\n kro-na s. f.\nPièce de monnaie suédoise en argent, valant au pair 1 fr. 33 c.
krouffe	KROUFFE\n krou-f' s. m.\nSynonyme de crain 2.
kuldéens	KULDÉENS\n kul-dé-in s. m. pl.\nNom donné en Écosse vers le IXe siècle à des ecclésiastiques qui avec\nles moines composaient le clergé et paraissent avoir appartenu à l'ordre\ndes chanoines.\n\nÉTYMOLOGIE\nIrlandais, ceile Dae, serviteurs de Dieu.
kurtchis	KURTCHIS\n kurt-chis s. m.\nCorps de cavalerie chez les Persans, composé de l'ancienne noblesse.
kwas	KWAS\n kouas' s. m.\nNom, dans la Russie, d'une boisson de ménage que le peuple compose avec\ndes fruits acides ou des croûtes de pain mis en fermentation.
kyllopodie	KYLLOPODIE\n kil-lo-po-die s. f.\nTerme de chirurgie. Nom générique des diverses difformités du pied\nappelées vulgairement pieds-bots.\nOn dit aussi kyllose.\n\nÉTYMOLOGIE\nTermes grecs signifiant courbé et pied.
kyllose	KYLLOSE\n kil-lô-z' s. f.\nVoy. KYLLOPODIE.
kymographion	KYMOGRAPHION\n ki-mo-gra-fi-on s. m.\nTerme de physiologie. Appareil qui note les battements du pouls.\n\nÉTYMOLOGIE\nTermes grecs signifiant flot, ondulation, écrire.
kymri	KYMRI\n ki-mri s. m.\nVoy. KYMRIQUE.
kymrique	KYMRIQUE\n ki-mri-k' adj.\nL'idiome kymrique, ou, substantivement, le kymrique, idiome celtique qui\na trois dialectes principaux, le welsh, ou gallois, ou kimrique\nproprement dit, parlé en Angleterre dans le pays de Galles, le cornique\nde la Cornouaille en Angleterre (il est éteint), et l'armoricain ou\nbas-breton parlé en France dans la Bretagne.\nOn dit aussi le kymri.
kynancie	KYNANCIE\n ki-nan-sie s. f.\nTerme de médecine. Voy. CYNANCIE.
kyphonisme	KYPHONISME\n ki-fo-ni-sm' s. m.\nSupplice usité chez les anciens et dans lequel on torturait les\ncondamnés en les attachant à un bois recourbé.
kyrielle	KYRIELLE\n ki-ri-è-l' s. f.\n\n1° Litanie (sens propre et peu usité).\n\n2° Fig. Longue suite de choses qui ne finissent pas.\nSi le mari ne se fût fait connaître, Elle en allait enfiler beaucoup\nplus {de ses infidélités} ; Courte n'était, pour sûr, la kyrielle, LA\nFONT., Mari conf.\n.... Tout hors d'haleine il {Apollon} courait après elle {Daphné}, Et\nlui contait pourtant la longue kyrielle Des rares qualités dont il était\norné, FONTEN., Sonnet.\n\n3° Kyrielle ou rime kyrielle est aussi une ancienne pièce de poésie\nfrançaise formée de vers octosyllabes à rimes plates, divisée en petits\ncouplets égaux et terminés par le même mot qui servait de refrain.\n\nHISTORIQUE\nXIIIe s.\nIl n'est sequence n'alleluie, Bele note ne kyriele, Tant soit plaisans,\nne tant soit bele, Que trop n'anuit, s'ele trop dure, DU CANGE, kyrie\neleyson.\nLors commence une kyriele, Sa credo et sa miserele, Pater noster, sa\nletanie, , Ren. 2639.\nXVe s.\nLe quel prieur mist la main à son espée et la tira toute nue, en\nreynyant {reniant} Dieu et la kyrielle qu'il tueroit...., DU CANGE,\nkyrieles.\nLe suppliant jura le vilain serment et dist ces paroles : en despit de\nla croix, de l'eaue benoiste et de toute la kisielle...., DU CANGE, ib.\nXVIe s.\nKyrielle ou palinode est quand le vers final du premier couplet se\nrepete à la fin des autres couplets, comme en la ballade ; et est bien\nseant aux chans lyriques et odes, dont se dit palinodes, BOISSIÈRE,\nPoétique, p. 258, dans LACURNE.\n\nÉTYMOLOGIE\nCe mot provient de la litanie, après, vient nombre de saints (voy.\nKYRIÉ).
kyriologie	KYRIOLOGIE\n ki-ri-o-lo-jie s. f.\nUsage des expressions propres, par opposition à langage figuré.\n\nÉTYMOLOGIE\nTermes grecs dont le premier est dérivé du mot propre, et dont le second\nsignifie discours.
kyriologique	KYRIOLOGIQUE\n ki-ri-o-lo-ji-k' adj.\nÉcriture kyriologique, nom par lequel saint Clément d'Alexandrie désigne\nl'une des deux sortes d'écritures hiéroglyphiques des Égyptiens : celle\nqui consiste à représenter les objets par la lettre initiale du nom\nqu'ils portaient dans la langue parlée.\n\nÉTYMOLOGIE\nKyriologie.
kyrié, ou kyrié-éléison	KYRIÉ, ou KYRIÉ-ÉLÉISON\n ky-ri-é ou ki-ri-é-élé-i-son' s. m.\nTerme de liturgie. Partie de la messe qui renferme une triple invocation\nà Dieu répétée trois fois.\nLa musique composée sur les paroles du Kyrié. Un beau Kyrié.\n\nÉTYMOLOGIE\nDu grec, seigneur, aie pitié (voy. AUMÔNE).
kyste	KYSTE\n ki-st' s. m.\nTerme de pathologie. Membrane en forme de vessie sans ouverture, qui\nrenferme des humeurs ou autres matières contre nature, et qui se\ndéveloppe accidentellement par dilatation des culs-de-sac ou des\nconduits excréteurs des diverses espèces de glandes dont l'orifice\ns'oblitère.\n\nHISTORIQUE\nXVIe s.\nSouvent l'humeur se trouve enfermé en un kyst et membrane qui luy est\npropre, PARÉ, V, 16.\n\nÉTYMOLOGIE\nTerme grec signifiant vessie, poche.
kystique	KYSTIQUE\n ki-sti-k' adj.\nTerme de chirurgie. Qui appartient, qui a rapport au kyste. Cavité\nkystique.
kystotome	KYSTOTOME\n ki-sto-to-m' s. m.\nVoyez CYSTOTOME.
kystotomie	KYSTOTOMIE\n ki-sto-to-mie s. m.\nVoyez CYSTOTOMIE.
kélotomie	KÉLOTOMIE\n ké-lo-to-mie s. f.\nTerme de chirurgie. Opération ayant pour but de guérir radicalement la\nhernie, en obtenant, au niveau de l'ouverture du sac herniaire,\nparticulièrement dans la hernie inguinale, la formation d'adhérences\nsolides.\n\nÉTYMOLOGIE\nTermes grecs signifiant hernie et action de couper, d'opérer.
kénozoïque	KÉNOZOÏQUE\n ké-no-zo-ï-k' adj.\nTerme de géologie. Terrain kénozoïque (écrit à tort kainozoïque),\nterrain tertiaire, contenant, parmi les animaux fossiles, les plus\nrécents.\n\nÉTYMOLOGIE\nTermes grecs signifiant nouveau, récent, et animal.
képi	KÉPI\n ké-pi s. m.\nGenre de casquette que portent certains corps de troupes françaises en\nAfrique.\nPar imitation. Coiffure de la plupart des jeunes garçons dans les\nlycées, colléges, pensions, etc.\n\nÉTYMOLOGIE\nOrigine inconnue.\n\nSUPPLÉMENT AU DICTIONNAIRE\nKÉPI. - ÉTYM. Allem. Käppi, dimin. de Kappe, bonnet, casquette, qui\nlui-même est le français cape.
képisme	KÉPISME\n ké-pi-sm' s. m.\nManie du képi, c'est-à-dire de la garde nationale pendant le siége et\nsous la commune de Paris en 1871 (mot éphémère et qui ne survivra pas\naux circonstances qui l'ont suggéré). La plupart avaient des vareuses\nplus ou moins militaires, mais l'épidémie du képisme avait tout envahi,\nl'Illustration, 25 nov. 1871, p. 346, 3e col.
kéracèle	KÉRACÈLE\n ké-ra-sè-l' s. f.\nNom donné par les hippiatres aux tumeurs de la face externe du sabot.\n\nÉTYMOLOGIE\nTermes grecs signifiant corne et tumeur.
kéraphylleux, euse	KÉRAPHYLLEUX, EUSE\n ké-ra-fil-leû, leû-z' adj.\nTerme de vétérinaire. Tissu kéraphylleux, la portion du tissu corné de\nla paroi, dans le sabot, formant, à sa face interne, les nombreuses\nlames verticales qui s'engrènent avec les lames correspondantes du tissu\npodophylleux.\n\nÉTYMOLOGIE\nTermes grecs signifiant corne et feuille.
kéraphyllocèle	KÉRAPHYLLOCÈLE\n ké-ra-fil-lo-sè-l' s. f.\nTerme de vétérinaire. Tumeur cornée qui survient entre la paroi du sabot\ndu cheval et les tissus sous-jacents.\n\nÉTYMOLOGIE\nKéraphylleux, et terme grec signifiant tumeur.
kérapseude	KÉRAPSEUDE\n ké-ra-pseu-d' s. f.\nTerme de vétérinaire. Corne fendillée et raboteuse qui recouvre une\nportion de corne, dans quelques maladies du sabot.\n\nÉTYMOLOGIE\nTermes grecs signifiant corne et tromper.
kérargyre	KÉRARGYRE\n ké-rar-ji-r' s. f.\nTerme de minéralogie. Chlorure d'argent naturel, dit aussi argent\ncorné ; c'est une substance blanche, demi-transparente, se coupant comme\nde la corne, et déposant de l'argent métallique lorsqu'on la frotte sur\nune lame de fer avec un peu d'eau.\n\nÉTYMOLOGIE\nDu grec, corne, et, argent.
kérasine	KÉRASINE\n ké-ra-zi-n' s. f.\nTerme de minéralogie. Combinaison de chlorure de plomb et d'oxyde de\nplomb.
kératectomie	KÉRATECTOMIE\n ké-ra-tè-kto-mie s. f.\nTerme de chirurgie. Opération de pupille artificielle par excision d'une\nportion de la cornée.\n\nÉTYMOLOGIE\nTermes grecs signifiant cornée et excision, de hors et section.
kératine	KÉRATINE\n ké-ra-ti-n' s. f.\nTerme de chimie. Substance organique qui se trouve dans la corne,\nl'épiderme et les ongles.\n\nÉTYMOLOGIE\nTerme grec signifiant corne, et la finale chimique ine.
kératite	KÉRATITE\n ké-ra-ti-t' s. f.\nAffection dans laquelle la cornée offre diverses altérations, à la suite\nde l'inflammation des membranes vasculaires de l'oeil.\n\nÉTYMOLOGIE\nTermes grecs signifiant cornée, et la finale médicale ite indiquant\ninflammation.
kérato-pharyngien, enne	KÉRATO-PHARYNGIEN, ENNE\n ké-ra-to-farin-jiin, jiè-n' adj.\nTerme d'anatomie. Qui appartient à la corne de l'os hyoïde et au\npharynx. Muscles grand et petit kérato-pharyngien, petits faisceaux\nmusculaires qui font partie de l'hyo-pharyngien.\n\nÉTYMOLOGIE\nTerme grec signifiant corne, et pharyngien.
kérato-staphylin	KÉRATO-STAPHYLIN\n ké-ra-to-sta-fi-lin adj. m.\nTerme d'anatomie. Muscle kérato-staphylin, ou, substantivement, le\nkérato-staphylin, petit muscle s'étendant de la corne de l'hyoïde vers\nla luette.\n\nÉTYMOLOGIE\nTermes grecs signifiant corne et luette.
kératocèle	KÉRATOCÈLE\n ké-ra-to-sè-l' s. f.\nTerme de chirurgie. Hernie de la cornée, petite tumeur formée tantôt par\nla membrane de l'humeur aqueuse faisant hernie à travers une ulcération\nde la cornée transparente, tantôt par une dilatation des lames\nsuperficielles de la cornée.\n\nÉTYMOLOGIE\nTermes grecs signifiant corne, cornée, et hernie.
kératogène	KÉRATOGÈNE\n ké-ra-to-jè-n' adj.\nTerme d'anatomie. Appareil kératogène, ensemble des parties du derme qui\nsécrètent la corne.\n\nÉTYMOLOGIE\nTerme grec signifiant corne, et la finale gène, prise à tort pour qui\nengendre, alors que le terme grec signifie qui est engendré.
kératomalacie	KÉRATOMALACIE\n ké-ra-to-ma-la-sie s. f.\nTerme de chirurgie. Ramollissement de la cornée.\n\nÉTYMOLOGIE\nTermes grecs signifiant corne, cornée, et mou.
kératonyxis	KÉRATONYXIS\n ké-ra-to-ni-ksis' s. f.\nTerme de chirurgie. Opération qui consiste à déplacer ou à broyer le\ncristallin au moyen d'une aiguille introduite à travers la cornée, les\nchambres antérieure et postérieure de l'oeil, et l'ouverture pupillaire\nde l'iris.\n\nÉTYMOLOGIE\nTermes grecs signifiant corne, et lésion, perforation.
kératophyte	KÉRATOPHYTE\n ké-ra-to-fi-t' s. m.\nTerme d'histoire naturelle. Nom donné anciennement à toute production\npolypeuse dont la substance est transparente comme la corne.\n\nÉTYMOLOGIE\nTermes grecs signifiant corne, et plante.
kératotome	KÉRATOTOME\n ké-ra-to-to-m' s. m.\nTerme de chirurgie. Nom de divers instruments employés à inciser la\ncornée transparente dans l'opération de la cataracte par extraction.\n\nÉTYMOLOGIE\nTermes grecs signifiant cornée et incision.
kératotomie	KÉRATOTOMIE\n ké-ra-to-to-mie s. f.\nTerme de chirurgie. Incision de la cornée transparente, opération de la\ncataracte par extraction.
kératoïde	KÉRATOÏDE\n ké-ra-to-i-d' adj.\nQui ressemble à une corne. La branche kératoïde de l'hyoïde.\n\nÉTYMOLOGIE\nTermes grecs signifiant corne et forme.
kéraunographique	KÉRAUNOGRAPHIQUE\n ké-rô-no-gra-fi-k' adj.\nTerme de physique. Empreintes kéraunographiques, les empreintes d'objets\nvoisins que la foudre imprime sur les corps qu'elle frappe.\n\nÉTYMOLOGIE\nTermes grecs signifiant foudre, et tracer, figurer.
kérosène	KÉROSÈNE\n ké-ro-zè-n' s. m.\nNaphte ou pétrole américain raffiné servent à l'éclairage.
l	L\n èl s. f.\net, dans la nouvelle épellation, L (le), s. m. Lettre consonne, la\ndouzième de l'alphabet.\nLL double, quand elle est précédée d'un i, se prononce mouillée, comme\ndans paille, bouteille, fille, etc. ; il faut se garder de confondre\ncette prononciation, comme font plusieurs, avec celle de l'y grec, et de\ndire pa-ye, bou-tè-ye, fi-ye. L se prononce comme ll dans certains mots,\npar exemple : péril.\nL, initiale du mot Louis, se trouve sur les monnaies des rois de France\nqui ont porté ce nom.\nL, dans les chiffres romains, est le signe numérique de 50. XL fait 40.\nSurmontée d'une ligne horizontale, L ( avec un tiret au-dessus) vaut 50\n000.\nL est la marque de la monnaie frappée à Bayonne.\n\nHISTORIQUE\nXIIIe s.\nLettre, langage, loi ensemble Senefie L, ce me semble ; L est mout\nlongue, de haut pris, Senefiance de l'ABC, JUBINAL, t. II, 280.\nXVIe s.\nConsidérons ces deux lettres que les uns appellent mignardes, les autres\nmolles, l et n {il s'agit de ll mouillées et de gn}, PASQUIER, Lettres,\nt. I, p. 138.\n\nÉTYMOLOGIE\nLatin, l ; le grec, pris de l'alphabet phénicien.
la	LA\npronom relatif\nVoy. LE.
la	LA\narticle féminin\nVoy. LE.
la	LA\n là s. m.\n\n1° Terme de musique. La sixième note de la gamme d'ut ou de la gamme\nordinaire.\nNom du signe qui représente cette note.\n\n2° Nom de la seconde corde de quelques instruments. Remettez un la à ce\nviolon.\nLes cordes sur les instruments à manche, à touche, comme le violon et la\nguitare, se comptent à partir de la plus haute. La première dans le\nviolon est le mi, la seconde le la, la troisième le ré, la quatrième le\nsol ; le la est le nom de la première ou chanterelle dans l'alto, dans\nle violoncelle et la contre-basse De là vient que pour s'accorder les\nmusiciens donnent ou reçoivent le la, parce que c'est une corde commune\nà tous les instruments. Donnez-moi le la. Avez-vous le la ?\n\nÉTYMOLOGIE\nVoy. pour l'étymologie FA.
la la	LA LA\n la-la\n1° Espèce d'interjection employée pour apaiser, pour consoler, pour\nmenacer. La la, rassurez-vous, il n'y a rien à craindre. La la,\nmonsieur, ne continuez pas sur ce ton.\nHé, la la, madame, tout doucement ; il n'est pas besoin de me faire tant\nde leçons, MOL., G. Dand. I, 6.\nLa la, mon papa, ne pleurez point tant, je ne suis pas morte tout à\nfait, MOL., Mal. imag. II, 11.\nLa employé seul se dit à peu près dans le même sens. La, en voilà assez.\n\n2° La la, se dit en réponse, avec le sens de médiocrement. Cet enfant\ntravaille-t-il ? la la.\n\nÉTYMOLOGIE\nAutrefois, l'Académie mettait un accent : Là là, nous vous\nretrouverons ; elle avait raison ; car ce n'est pas autre chose que\nl'adverbe là.
labadisme	LABADISME\n la-ba-di-sm' s. m.\nDoctrine dans laquelle Labadie, théologien français, en 1610, prétendant\nque la hiérarchie ecclésiastique devait être abolie, autorisait à y\nsuppléer par l'inspiration intérieure.\nLabadiste, disciple de Labadie.
labarum	LABARUM\n la-ba-rom' s. f.\nÉtendard romain, qui consistait en une longue lance, surmontée d'un\nbâton qui la traversait à angles droits, d'où pendait une riche pièce\nd'étoffe couleur de pourpre et quelquefois enrichie de pierres\nprécieuses ; jusqu'au temps de Constantin le Grand, elle portait la\nfigure d'une aigle ; mais ce prince fit mettre à la place une croix avec\nun chiffre qui exprimait le nom de Jésus, à la suite, dit-on, d'une\napparition dans les nues qui lui montrait ce signe et lui annonçait la\nvictoire s'il l'adoptait.\nPar extension.\nLe Christ sort de son trône avec un labarum de feu qui se forme\nsoudainement dans sa main, CHATEAUB., Natch. IV.\n\nÉTYMOLOGIE\nLat. labarum, dont l'origine est inconnue. Ce n'est qu'à partir de\nConstantin que ce mot se trouve chez les auteurs latins ; mais, d'après\ndu Cange, ce genre d'étendard est figuré bien longtemps auparavant sur\nles médailles des premiers empereurs, et, comme il y figure à propos de\nvictoires sur les barbares du Nord, il pense que la chose et le nom ont\nété empruntés par les Romains à ces peuples.
labbe	LABBE\n la-b' s. m.\nGenre d'oiseaux palmipèdes.
labdacisme ou lambdacisme	LABDACISME ou LAMBDACISME\n la-bda-si-sm' ou lan-bda-si-sm' s. m.\nEspèce de bégayement sur la lettre l (voy. LALLATION).\n\nÉTYMOLOGIE\nLat. labdacismus, nom de l'l en grec.
labech	LABECH\n la-bèk s. m.\nNom qu'on donne au vent de sud-ouest, grand ou petit, dans les villes de\nFrance voisines de la Méditerranée. Le labech est opposé au grégou ou\nnord-est.\n\nHISTORIQUE\nXVIe s.\nLe vent se tourna en lebeche, qui est entre le midi et le ponant, AMYOT,\nAnton. 1.\n\nÉTYMOLOGIE\nEspagn. lebeche ; ital. libeccio ; formes dérivées du terme grec\nsignifiant vent du sud-ouest.
labelle	LABELLE\n la-bè-l' s. m.\nTerme de botanique. Segment inférieur d'une enveloppe florale unique (le\npérianthe des orchidées), distingué ordinairement par une forme et une\ncouleur particulière. On la nomme aussi tablier.\n\nÉTYMOLOGIE\nLat. labellum, petite lèvre, diminutif de labrum, lèvre (voy. LÉVRE).
labellé, ée	LABELLÉ, ÉE\n la-bèl-lé, lée adj.\nCoquille labellée, coquille univalve dont le bord interne est prolongé\nen une petite lèvre.\n\nÉTYMOLOGIE\nLabelle.
labeur	LABEUR\n la-beur s. m.\n\n1° Terme du style relevé et poétique. Travail pénible et suivi.\nDonc un nouveau labeur à tes armes s'apprête ; Prends ta foudre,\nLouis...., MALH., II, 12.\nMoi qui n'ai ni l'esprit ni l'haleine assez forte Pour te suivre de près\net te servir d'escorte, Je me contenterai, sans me précipiter, D'admirer\nton labeur, ne pouvant l'imiter, RÉGNIER, Sat. IX.\n....Le boeuf vient à pas lents ; Quand il eut ruminé tout le cas en sa\ntête, Il dit que du labeur des ans Pour nous seuls il portait les soins\nles plus pesants, LA FONT., Fabl. X, 2.\nUn octogénaire plantait.... Quel fruit de ce labeur pouvez-vous\nrecueillir ?, LA FONT., ib. XI, 8.\nOn exige que vous connaissiez ceux que les fatigues de l'âge et de leurs\nlabeurs ont épuisés, MASS., Car. Aumône.\nLoin des livres modernes, ces cruels sophismes dont on berce les riches\net les grands qui s'endorment sur les labeurs du pauvre, ferment leurs\nentrailles à ses gémissements...., RAYNAL, Hist. phil. XV, 4.\n\n2° Il se dit pour labour dans cette phrase-ci : Ces terres sont en\nlabeur, elles sont en culture, par opposition à terres en friche.\nBêtes de labeur, celles qui servent pour la culture et le labourage.\n\n3° Terme d'imprimerie. Ouvrages de labeur, ouvrages considérables et\ntirés à grand nombre, par opposition à ouvrages de ville qui sont de peu\nd'étendue et se tirent à moindre nombre.\nPresse à labeurs, presse destinée aux ouvrages de luxe.\n\nREMARQUE\nChateaubriand, au lieu de travail en parlant d'une femme qui enfante, a\ndit labeurs, en imitation du latin labores qui a ce sens : Adam, témoin\ndes labeurs de son épouse, et recevant dans ses bras Caïn, l'éleva vers\nle ciel, Génie, I, III, 2.\n\nHISTORIQUE\nXIIe s.\nDe tribulaciun apelai le segnor, e exoït {entendit} mei en laür li sire,\n, Liber psalm. p. 179.\nJà n'iert perie ma labours, Se fins cuers puet d'amors joïr, CHRESTIEN\nDE TROIES, dans HOLLAND, p. 234.\nNe vus metez en eire {voyage} ne en si grant labur, , Th. le mart. 85.\nXIIIe s.\nÀ cix {ceux} qui se doivent vivre de lor labor, BEAUMANOIR, XXIV, 13.\nXIVe s.\n{Il} Aroit fait à vo gré et paiet ma labour, , Baud. de Seb. VII, 651.\nMais, se Dieu plaist, par mon labeur pourra estre mieux entendue ceste\nnoble science, ORESME, Prol.\nC'est très grascieuse labeurs, J. DE CONDET, p. 173.\nXVe s.\nEt faut que de nous {paysans} vienne et de nostre labour ce dont ils\n{les nobles} tiennent les estats, FROISS., II, II, 106.\nVoult de rechef Bouciquaut aller au labeur d'armes en frontieres au pays\nde Picardie, , Bouciq. I, 13.\nLes nobles hommes, citadins, mechaniques, gens de labeur et de toutes\nautres conditions, , Perceforest, t. IV, f° 3.\nXVIe s.\nJouir du fruit de son labeur, AMYOT, Arist. et Caton comp. 8.\nQui aime labeur parvient à honneur, LEROUX DE LINCY, Prov. t. II, p.\n382.\n\nÉTYMOLOGIE\nProvenç. labor, laor ; espagn. labor ; ital. lavoro ; du lat. laborem,\nlabeur. Labor tient au radical sanscrit rabh, désirer, agir violemment ;\nil s'y rapporte lettre pour lettre, l'r du sanscrit se changeant en l\ndans le latin (voy. le radical sanscrit ruc, lat. lucere) ; le sanscrit\nâ-rabh, agir avec vigueur, a donné l'ancien haut allem. arapeit, d'où\nl'allemand moderne Arbeit, travail. Dans les meilleurs textes, labeur,\nlabor, labour est du féminin, comme c'est la règle quand un nom latin en\nor se transforme en mot français ; mais on le trouve aussi masculin de\nbonne heure ; c'est cette irrégularité qui s'est implantée dans la\nlangue moderne. On remarquera laür, fait suivant les règles de\nl'ancienne langue, qui laisse tomber les consonnes latines\nintermédiaires.
labial, ale	LABIAL, ALE\n la-bi-al, a-l' adj.\nQui a rapport aux lèvres. Articulation labiale.\nMuscle labial ou orbiculaire des lèvres, muscle ovalaire placé autour de\nl'ouverture de la bouche, dans l'épaisseur des lèvres.\nLettre labiale, ou, substantivement, une labiale, lettre qui se prononce\navec les lèvres. Les labiales b, p, v, f, m.\nTerme de palais. Offres labiales, offres qu'on ne fait que de bouche et\nsans exhibition de deniers.\n\nÉTYMOLOGIE\nLat. labium, lèvre.
labiatiflore	LABIATIFLORE\n la-bi-a-ti-flo-r' adj.\nTerme de botanique. Plantes labiatiflores, plantes dont la corolle\nmonopétale est divisée en deux lèvres inférieures, et qui forment un\ngroupe de la famille des composées.\n\nÉTYMOLOGIE\nLat. fictif, labiatus, muni de lèvres (de labium, lèvre), et flos,\nfleur.
labiatiforme	LABIATIFORME\n la-bi-a-ti-for-m' adj.\nTerme de botanique. Corolle labiatiforme, corolle monopétale qui, par sa\nforme, se rapproche de celles dont le limbe est partagé en deux lèvres\n\nÉTYMOLOGIE\nLat. fictif, labiatus, muni de lèvres (de labium, lèvre), et forme.
labidomètre	LABIDOMÈTRE\n la-bi-do-mè-tr' s. m.\nVoy. LABIMÈTRE.
labidophore	LABIDOPHORE\n la-bi-do-fo-r' adj.\nTerme de zoologie. Insectes labidophores, insectes dont l'abdomen est\nterminé par deux pièces disposées en forme de tenailles.\n\nÉTYMOLOGIE\nTermes grecs signifiant pince, tenaille, et qui porte.
labidoure	LABIDOURE\n la-bi-dou-r' adj.\nTerme de zoologie. Insectes labidoures, insectes dont le corps est\nterminé en arrière par des espèces de tenailles.\n\nÉTYMOLOGIE\nTermes grecs signifiant pince, tenaille, et queue.
labile	LABILE\n la-bi-l' adj.\n\n1° Sujet à glisser, à tomber, manquer.\nMémoire labile, mémoire faible qui manque souvent au besoin.\nElles {de mauvaises poésies} se répandaient dans des oreilles\npopulaires, et n'étaient reçues que dans des mémoires labiles et de\nvrais tonneaux percés, en sorte qu'elles tombaient dans l'oubli,\nFURETIÉRE, Factums, t. II, p. 318.\n\n2° Terme de botanique. Se dit d'une partie qui se détache et tombe\naisément.\n\nHISTORIQUE\nXVIe s.\nToute matiere est coulante et labile, MONT., II, 376.\n\nÉTYMOLOGIE\nLat. labilis, de labi, tomber, glisser.
labimètre	LABIMÈTRE\n la-bi-mè-tr' s. m.\nTerme d'obstétrique. Instrument consistant en une sorte de compas de\nproportion adapté aux manches du forceps, et indiquant, par le degré\nd'écartement des branches, les dimensions de la tête de l'enfant encore\ncontenu dans l'utérus.\n\nÉTYMOLOGIE\nTerme grec signifiant pince, et mètre, mesure.
labio-nasale	LABIO-NASALE\n la-bi-o-na-za-l' adj. f.\nTerme de grammaire. Lettre labio-nasale, la lettre M, parce qu'elle se\nprononce en même temps des lèvres et du nez.\nOn dit mieux labiale nasale.\n\nÉTYMOLOGIE\nLat. labium, lèvre, et nasal.
labié, ée	LABIÉ, ÉE\n la-bi-é, ée adj.\n\n1° Terme de botanique. Qui est en forme de lèvres. Fleurs labiées.\nPlantes labiées, plantes à corolles monopétales dont le tube est plus ou\nmoins courbé, la gorge dilatée et le limbe divisé en deux lobes\nprincipaux disposés l'un au-dessus de l'autre comme deux lèvres.\nS. f. Familles des labiées. La lavande est une labiée.\n\n2° Terme de zoologie. Il se dit de certains animaux qui ont les lèvres\nallongées, épaisses ou autrement colorées que le reste du corps.\n\nÉTYMOLOGIE\nLat. labium, lèvre.
laboratoire	LABORATOIRE\n la-bo-ra-toi-r' s. m.\n\n1° Local disposé pour y exécuter les opérations de la chimie ou de la\npharmacie et les expériences de la biologie.\nPhilippe, duc d'Orléans, avait un laboratoire et étudiait la chimie,\nVOLT., Louis XIV, 17.\nJe laisse Van Helmont faire de l'estomac un laboratoire de chimie,\nVOLT., Dial. XX.\nSa vie entière a été partagée entre son laboratoire et l'Académie de\nBerlin, CONDORCET, Margraaf.\nFig. Le laboratoire de la nature, le sein de la terre, des eaux, de\nl'atmosphère, où se font les grandes modifications des substances.\n\n2° Par extension, ateliers garnis de fourneaux, où les distillateurs,\nconfiseurs, limonadiers, etc. font leurs préparations.\n\n3° Partie d'un fourneau à réverbère où l'on met la matière sur laquelle\ndoit agir le combustible.\n\nÉTYMOLOGIE\nLat. laborare, travailler (voy. LABOURER).
laborieusement	LABORIEUSEMENT\n la-bo-ri-eû-ze-man adv.\nD'une manière laborieuse. Cet écrivain ne produit que laborieusement.\nJe tremble d'avoir laborieusement fortifié des préjugés ; il {le jeune\nHuron} n'écoute que la simple nature, VOLT., l'Ingénu, X.\nEn travaillant.\nS'il {un homme de talent} est de bon commerce, il leur {aux jeunes gens}\nest une leçon utile : il leur apprend qu'on peut vivre gaiement et\nlaborieusement, avoir des vues sérieuses sans renoncer aux plaisirs\nhonnêtes, LA BRUY., XII.\n\nREMARQUE\nAug. Barbier a fait ce mot de cinq syllabes : Est-ce le pli des ans ou\nle sillon des veilles, Qui traverse ton front si laborieusement ?\nIambes, Dante.\n\nHISTORIQUE\nXIVe s.\nToutes gens aiment plus les choses qui par eulx sont faites ou acquises\nlaborieusement, ORESME, Eth. 276.\nXVIe s.\nMon desseing est de passer doulcement, et non laborieusement, ce qui me\nreste de vie, MONT., II, 99.\n\nÉTYMOLOGIE\nLaborieuse, et le suffixe ment
laborieux, euse	LABORIEUX, EUSE\n la-bo-ri-eû, eû-z' adj.\n\n1° Qui se livre au travail.\nDurant le temps de ses études, il se faisait admirer de ses compagnons ;\nil surpassait de bien loin ceux qui étaient laborieux, par son travail,\nceux qui étaient ingénieux, par son esprit, BOSSUET, Bourgoing.\nLaborieux valet du plus commode maître Qui, pour te rendre heureux,\nici-bas pouvait naître, BOILEAU, Épît. X.\nComme ils sont robustes et laborieux, leur exemple servira pour exciter\nau travail les artisans, FÉN., Tél. XI.\n\n2° En parlant des choses. Qui coûte beaucoup de labeur, de fatigues.\nAprès cent trente ans de vie, Jacob, amené au roi d'Égypte, lui raconte\nla courte durée de son laborieux pèlerinage, qui n'égale pas les jours\nde son père Isaac ni de son aïeul Abraham, BOSSUET, le Tellier.\nQue peut espérer un soldat que son capitaine ne daigne éprouver ? mais\nau contraire, quand il l'exerce dans des entreprises laborieuses, il lui\ndonne sujet de prétendre, BOSSUET, Sermons, Nécessité des souffrances,\n2.\nEt consommer dans un court intervalle ce qui devait être l'ouvrage\nlaborieux de la vie entière, MASS., Carême, Empl. du temps.\nLes satisfactions laborieuses qui en expient les souillures {du crime},\nMASS., Carême, Pécheresse.\nTous les titres dont elle {l'Église} vous revêt à l'ordination sont des\ntitres laborieux, des titres de charité et de sollicitude, MASS.,\nConfér. Zèle contre les scandales.\nJe n'ai point pour la gloire inquiété Pégase ; L'obscurité tranquille\nest plus chère à mes yeux Que de ses favoris l'éclat laborieux, A.\nCHÉN., Élégies, 5.\n\n3° Digestion laborieuse, digestion qui se fait lentement et péniblement.\nAccouchements laborieux, ceux qui, malgré la position avantageuse de\nl'enfant, exigent quelques secours de l'art ; ceux qui se prolongent au\ndelà de vingt-quatre heures ; ceux qui réclament l'emploi des\ninstruments.\n\nHISTORIQUE\nXIVe s.\nFuir choses penibles et laborieuses, ORESME, Eth. 83.\nRecevoir est chose sans labour, et bien faire ou donner est chose plus\nlabourieuse, ORESME, ib. 277.\nXVIe s.\nSa queste {de la vertu} est scabreuse et laborieuse, MONT., I, 70.\nPour desnouer aux plus sages Les plus ennouez passages Des livres\nlaborieux, RONS., 379.\nIlz ont esté tous deux vaillans, laborieux, magnanimes et courageux,\nAMYOT, Marcel. et Pélop.\nNicias menoit une miserable et trop laborieuse vie, AMYOT, Nicias, 9.\n\nÉTYMOLOGIE\nProvenç. laborios ; espagn. et ital. laborioso ; du lat. laboriosus, de\nlabor, labeur.
laboriosité	LABORIOSITÉ\n la-bo-ri-ô-zi-té s. f.\nQualité de celui qui est laborieux.\nLes moeurs avaient en général le caractère de douceur et de laboriosité\nqui est commun à tous les Allemands, BEUGNOT, Mémoires, le grand-duché\nde Berg, ch. 7, t. I, p. 291.\nOn retrouvait dans le préfet de Mayence {Jean-Bon-Saint-André} le vieux\nconventionnel du Comité de salut public, avec sa frugalité et sa\nlaboriosité toute républicaine, ID., ib. ch. 14, t. II, p. 11.\n\nHISTORIQUE\nXVIe s.\nLaboriosité, PALSGRAVE, p. 237.\n\nÉTYMOLOGIE\nLaborieux.
labour	LABOUR\n la-bour s. m.\n\n1° Travail de labourage. Donner un seul labour, deux labours à cette\nterre.\nJe diminuai le nombre des labours, crainte de trop dessécher la terre,\nBUFF., Hist. nat. introd. part. exp. Oeuv. t. VIII, p. 403.\nTerres labourées.\nSa haute silhouette noire {du semeur} Domine les profonds labours ; On\nsent à quel point il doit croire à la fuite utile des jours, V. HUGO,\nChansons des rues et des bois, Saison des semailles.\n\n2° Terme de plombier. Sorte de pelle pour ramener le sable du moule.\n\nHISTORIQUE\nXIIIe s.\nS'auscuns me preste son ceval por fere mon labor ou por cevaucier,\nBEAUMANOIR, XXXVIII, 4.\nXIVe s.\nPour gaigner parmi son labour du blé pour lui, sa femme et enfans, DU\nCANGE, augustare.\nToutes labours de charrues qu'il feront, DU CANGE, aragium.\nXVe s.\nMauvais labour et semence pourrie, Foibles chevaux, et le laboureur\ncrie, E. DESCHAMPS, Chacun ne pense qu'à soi.\nXVIe s.\nRecompensant les nuicts et jours passez, Où du labour {travail} avoient\neu plus qu'assez, J. MAROT, V, 150.\nLes mechantes herbes qui, par le labour arrachées de terre, ne s'y\npourront reprendre, O. DE SERRES, 112.\n\nÉTYMOLOGIE\nAutre forme de labeur. Labour a été, comme labeur, quelquefois féminin.
labourable	LABOURABLE\n la-bou-ra-bl' adj.\nPropre à être labouré. Terres labourables.\nJ'ai cent vingt arpents labourables dans le plus beau pays de la nature\net le sol le plus ingrat, VOLT., l'H. aux 40 écus, Lettre.\n\nÉTYMOLOGIE\nLabourer.
labourage	LABOURAGE\n la-bou-ra-j' s. m.\n\n1° Action de remuer, de retourner la terre d'un champ avec des\ninstruments aratoires. Le labourage des terres légères est plus aisé que\ncelui des terres grasses.\nFaçon donnée à la terre. On donne à la vigne de trois à quatre\nlabourages par an.\n\n2° L'art de labourer la terre. Il entend bien le labourage.\nLes premiers consuls ou dictateurs romains, plus célèbres par leur\nretour aux fonctions du labourage que par leurs triomphes mêmes,\nFONTEN., Ressons.\n\n3° Partie d'un train de bois qui est sous l'eau.\n\n4° Travail que font les maîtres d'un pont lorsqu'ils descendent et\nremontent un bateau.\n\n5° Anciennement, décharge et labourage des vins, cidres, etc. la sortie\nde ces liqueurs hors des bateaux arrivés à Paris ; ce labourage ou\ntravail appartenait aux maîtres tonneliers.\n\nHISTORIQUE\nXIIIe s.\nEn tel cas ne vienent pas les despueilles {récoltes} qui puis y sont\nmises en partie {partage}, mais li laborages tant solement de tans\npassé, BEAUMANOIR, XIII, 22.\n{Je} Vous vueil descouvrir mon corage, Que ne sai autre laborage\n{travail}, RUTEB., 101.\nXVe s.\nEt si ils faisoient aucun labourage pour leurs seigneurs, ils en\nvouloient avoir leur salaire, FROISS., II, II, 106.\nXVIe s.\nLes legionnaires {sous François 1er} sont gens qui sortent du\nlabouraige, pour s'affranchir des tailles, en servant 4 ou 5 mois,\nCARLOIX, VII, 3.\nPar excellence ce mot de labourage a esté donné à la culture des bleds,\nencores qu'il soit communiqué à tout autre travail, O. DE SERRES, 137.\nLabourage et pasturage sont les deux mamelles qui nourrissent la France,\nSULLY, Oecon. t. I, p. 282, cité dans H. MARTIN, Hist. de France, t. X,\np. 447. 4e éd.\n\nÉTYMOLOGIE\nLabourer : bourguig, laiboraige ; provenç. laboratge.
labourer	LABOURER\n la-bou-ré v. a.\n\n1° Travailler (sens propre qui n'est usité que dans des termes de\nmétier).\nDébarquer, traîner. Labourer des tonneaux de vin.\nLabourer le sable, mouiller et soulever par mottes le sable du moule des\nplombiers.\n\n2° Particulièrement, le travail de la terre étant pris pour le travail\npar excellence, remuer, retourner la terre avec les instruments\naratoires. Labourer avec la charrue. Labourer à la bêche.\nIl laboure le champ que labourait son père, RACAN, les Douceurs de la\nretraite.\nLabourer ses champs, conduire ses troupeaux, et combattre, voilà la vie\ndes Russes jusqu'au temps de Pierre le Grand, et c'est la vie des trois\nquarts des habitants de la terre, VOLT., Moeurs, 190.\nDans ces plaines heureuses Que labouraient jadis des mains victorieuses,\nM. J. CHÉN., Gracques, I, 2.\nDouze mille arpents de terre enclos, c'est un joli cadeau à faire à qui\nles saurait labourer, P. L. COUR., Chambord.\nIl se dit des animaux employés à remuer la terre.\nVos taureaux et vos ânons qui labourent la terre, SACI, Bible, Isaïe,\nXXX, 24.\nAbsolument. Labourer avec des chevaux, avec des boeufs.\nSi vous n'eussiez pas labouré avec ma génisse, SACI, Bible, Juges, XIV,\n18.\nIl n'irait point troubler la paix de ces fauvettes, S'il lui fallait\ntoujours comme moi s'exercer, Labourer, couper, tondre, aplanir,\npalisser, BOILEAU, Épître X.\nLabourer à deux charrues, à trois charrues, occuper deux charrues, trois\ncharrues pour le labourage de ses terres.\nLabourer à blé, donner le quatrième labour à la terre.\n\n3° Par extension, faire sur la superficie de la terre une impression\ncomparée à celle des instruments aratoires, en parlant de certains\nanimaux et de certaines choses. Les sangliers, les taupes ont labouré\ntout ce pré. Le canon a labouré ce champ.\nComme un vaisseau qui laboure les vagues, CHATEAUBR., René.\nPar extension. L'artillerie labourait les rangs de l'ennemi, y faisait\nde grands ravages.\nTerme de manége. Ce cheval laboure le terrain, se dit d'un cheval qui\nbutte.\nFig. Tracer des rides sur la physionomie humaine. Les chagrins ont\nlabouré son front.\n\n4° Terme de marine. Labourer le fond, se dit d'un vaisseau qui navigue\ndans une eau trop peu profonde et qui touche le fond sans être cependant\narrêté.\nAbsolument. Ce vaisseau laboure.\nOn dit qu'une ancre laboure, quand le fond du terrain ne la retient pas.\nLe plat bord d'une embarcation laboure la mer quand il rase la surface\nde l'eau\n\n5° Fig. et familièrement. Faire quelque chose avec un effort comparé à\ncelui du labourage.\nMe voilà plantée au coin de mon feu, une petite table devant moi,\nlabourant depuis deux heures mes lettres d'affaires de Bretagne, SÉV.,\n15 déc. 1688.\nPopulairement, labourer sa vie, avoir beaucoup de peine, d'embarras, de\ntraverses.\nAbsolument.\nFaut-il toujours labourer et tirer le diable par la queue ?, SÉV., 30\njuill. 1677.\nJe me divertis autant à causer avec vous que je laboure avec les autres,\nSÉV., 234.\nJe le confirmai de mon mieux dans une résolution pour laquelle j'avais\ntant labouré, SAINT-SIMON, 311, 61.\n\nHISTORIQUE\nXe s.\nJonas propheta habebat mult laboret {travaillé} e mult penet à cel\npopulum, , Fragm. de Valenc. p. 468.\nXIIIe s.\nLi vilains dist que Dieu labeure {travaille}, Quant il li plaist, en\nmoult peu d'eure, , Fl. et Bl. 1641.\nLi Grieu {les Grecs} avoient ce pont rompu, et li baron firent toute jor\nlabourer l'ost, et le pont affaitier toute la nuit, VILLEH., LXXV.\nEt aussi se je labore son heritage en entention que je cuidoie qu'il\nfust miens...., BEAUMANOIR, XXIX, 12.\nToutes fames sers et honore, D'eles servir poine et labore, , la Rose,\n2126.\nXIVe s.\nLes excellens medecins labourent moult à avoir congnoissance des choses\ndu corps, ORESME, Eth. 29.\nXVe s.\nEn quoi peuvent ils {les nobles} dire ni monstrer que ils sont mieux\nseigneurs que nous {les paysans}, fors parce que ils nous font gagner et\nlabourer ce que ils dependent ?, FROISS., II, II, 106.\nLe peuple doit chascun jour labourer Pour les estas des nobles\nsoustenir, E. DESCH., Gouv. des rois.\nXVIe s.\nEn Dieu te fie, à bien faire labeure : La terre auras pour habitation,\nEt jouiras de rente vraye et seure, MAROT, IV, 277.\nIl labouroit et cultivoit avec ses propres mains ce peu de terre, AMYOT,\nCaton, 1.\nQuant à moy je n'aurois jamais le cueur de vendre le boeuf qui auroit\nlonguement labouré ma terre, AMYOT, ib. 11.\nUng moine ne laboure comme le paysant, ne guarde le pays comme l'homme\nde guerre, RAB., Garg. I, 40.\nLe paradiz terrestre, de la situation duquel tant disputent et labourent\nles bons theologiens, RAB., Pant. IV, 57.\nLors commencerons à labourer à bled noz terres, comme on parle en\nFrance ; c'est à dire à jetter la semence en terre, sans autre attente\nque du beau temps, O. DE SERRES, 111.\nLe grand boeuf apprend à labourer au petit, COTGRAVE, .\n\nÉTYMOLOGIE\nPicard, rabourer ; provenç. laborar, laorar, laurar ; catal. mod.\nllaurar ; esp. labrar ; port. lavrar ; ital. lavorare ; du lat.\nlaborare, de labor, labeur.
laboureur	LABOUREUR\n la-bou-reur s. m.\n\n1° Celui qui laboure, soit l'ouvrier qui trace le sillon, soit le\npropriétaire ou le fermier qui cultive une terre.\nUn riche laboureur, sentant sa mort prochaine, LA FONT., Fabl. V, 9.\nRappelez un moment en votre mémoire la triste idée des guerres soit\nciviles soit étrangères, où le soldat recueille ce que le laboureur\navait semé...., FLÉCH., Aiguillon.\nLa profession de laboureur ne sera plus méprisée, FÉNEL., Tél. XI.\nAlternativement guerrier et laboureur, ou jardinier, toujours citoyen,\nFONTEN., Ressons.\nPar extension.\nHydra {île habitée par des marins} n'a point de champs, mais elle a des\nvaisseaux ; Ses laboureurs sont sur les eaux, Et c'est la mer qu'elle\nsillonne, P. LEBRUN, Voy. en Grèce, ch. 8.\nFig. Les directeurs des consciences, ces laboureurs spirituels, BOSSUET\nBourgoing,\n\n2° Terme de marine. Celui qui transporte des marchandises.\n\n3° Terme de Plombier. Bâton pour labourer le sable.\n\nHISTORIQUE\nXIIe s.\nE li vilain laboreor, E li povre home del païs...., BENOIT, II, 3076.\nXIIIe s.\nEt creissent li citeien, et multiplient li habiteor en champ et li\nlaboreor des terres et des vignes, BRUN. LATINI, Trésor, p. 295.\nLi uns est chevaliers, li autres est marcheans, li autres est laboreres,\nBRUN. LATINI, ib. p. 404.\nXIVe s.\nSe labureur n'estoient, je vous dis mon pensé, Les nobles conviendroit\ntravailler en le ré, , Combat des trente, p. 15.\nXVe s.\nDes voitures et voituriers, et des laboureurs {mariniers} par les\nrivieres de Saine, d'Yonne et de Marne en descendant jusqu'à Paris, ,\nOrdonn. des rois, t. II, p. 566.\nXVIe s.\nÀ foible champ fort laboureur, LEROUX DE LINCY, Prov. t. I, p. 77.\n\nÉTYMOLOGIE\nBourg. laiborei ; provenç. laboraire, lahoraire, laborador ; catal.\nllaurador ; esp. labrador ; port. lavrador ; ital. lavoratore ; du lat.\nlaboratorem, travailleur, de laborare, travailler. En provençal,\nlaboraire, en vieux français, laborere, sont au nominatif, laborador et\nlaboreor, au régime.
laboureuse	LABOUREUSE\n la-bou-reû-z' s. f.\nCharrue mue par la vapeur.\nChaque kilogramme de houille brûlé par la laboureuse correspondra à une\nration de viande de plus donnée à la consommation publique, JOHANET,\nJourn. des Débats, 31 mars 1877, Feuilleton, 1re page, 2e col.
labouré, ée	LABOURÉ, ÉE\n la-bou-ré, rée part. passé de labourer\nOn les {les taureaux qui lançaient le feu} a vus au joug, et le champ\nlabouré, CORN., Tois. d'or, V, 2.\nTerme de papeterie. Papier labouré, papier qui présente des défauts,\nparce qu'en le fabriquant la forme a glissé un peu sur le feutre.
labrador	LABRADOR\n la-bra-dor s. m.\nVoy. LABRADORITE.
labradorite	LABRADORITE\n la-bra-do-ri-t' s. m.\nTerme de minéralogie. Feldspath à reflets opalins qu'on trouve sur la\ncôte du Labrador, et dont on fait des tables, des vases, etc.\nOn dit aussi labrador.
labre	LABRE\n la-br' s. m.\n\n1° Terme de zoologie. Lèvre supérieure des mammifères.\n\n2° Chez les insectes, la pièce qui forme l'extrémité du bec ou rostre,\net qui tient lieu de lèvre supérieure.\n\n3° Bord externe d'une coquille univalve.\n\n4° Genre de poissons qui ont les lèvres doubles et charnues.\n\nÉTYMOLOGIE\nLat. labrum, lèvre.
labreux, euse	LABREUX, EUSE\n la-breû, breû-z' adj.\nTerme de zoologie. Coquille labreuse, coquille univalve dont le bord\nexterne est épais ou renversé.\n\nÉTYMOLOGIE\nLabre.
labroïdes	LABROÏDES\n la-bro-i-d' s. m. pl.\nTerme de zoologie. Famille de poissons qui a pour type le genre labre.\n\nÉTYMOLOGIE\nLabre, et terme grec signifiant forme.
labrusque	LABRUSQUE\n la-bru-sk' s. f.\nVoy. LAMBRUSQUE.
labry	LABRY\n la-bri s. m.\nChien de berger spécial à la Provence et au Dauphiné. Le labry est\nd'importation sarrasine, tient du griffon et du lévrier et est\nadmirablement doué pour la conduite des troupeaux ; un trait particulier\nà cette race, c'est qu'elle ne se croise pas avec les autres espèces :\nune chienne labry en rut refuse les chiens et va chercher un individu de\nsa race (docteur BERNARD, de Montbrun-les-Bains, Drôme).
labyrinthe	LABYRINTHE\n la-bi-rin-t' s. m.\n\n1° Terme d'antiquité. Édifice composé d'un grand nombre de chambres et\nde passages disposés tellement, qu'une fois engagé on n'en pouvait\ntrouver l'issue. Le plus célèbre de tous et le modèle de tous les autres\nétait le labyrinthe d'Égypte.\nCe que nous avons dit sur le jugement qu'on doit porter des pyramides,\npeut être appliqué aussi au labyrinthe, qu'Hérodote, qui l'avait vu,\nnous assure avoir été encore plus surprenant que les pyramides, ROLLIN,\nHist. anc. Oeuv. t. I, p. 24, dans POUGENS.\nLe labyrinthe de Crète, celui qui fut construit par Dédale pour Minos ;\nsa fille Ariadne remit à Thésée, qui allait y combattre le Minotaure, un\npeloton de fil sans lequel il n'aurait pu retrouver la sortie.\nC'est moi, prince, c'est moi, dont l'utile secours Vous eût du\nlabyrinthe enseigné les détours, RAC., Phèdre, II, 5.\nFig.\nLe chemin de la justice n'est pas de ces chemins tortueux qui,\nsemblables à des labyrinthes, vous font toujours craindre de vous\nperdre, BOSSUET, Polit. VIII, III, 5.\nCaverne qui existe dans l'île de Candie, autrefois la Crète.\nLe fameux labyrinthe de l'île de Candie n'est pas l'ouvrage de la nature\ntoute seule ; M. de Tournefort assure que les hommes y ont beaucoup\ntravaillé, et on doit croire que cette caverne n'est pas la seule que\nles hommes aient augmentée, BUFF., Hist nat. Preuv. théor. terr. Oeuv.\nt. II, p. 362.\n\n2° Petit bois qu'on place dans les jardins et qui est coupé d'allées\ntellement entrelacées, qu'on peut s'y égarer facilement. Le labyrinthe\ndu Jardin des plantes.\nÀ propos de labyrinthe, celui-ci {celui des Rochers} est fort joli,\nSÉV., 1er juin 1689.\n\n3° Terme d'anatomie. Ensemble des cavités flexueuses situées entre le\ntympan et le conduit auditif interne ; on le nomme aussi oreille\ninterne.\n\n4° Labyrinthe de carrière, confusion qui s'établit entre les conduits\nd'une carrière depuis longtemps exploitée.\nTerme de métallurgie. Suite de canaux qui sont disposés auprès d'un\nbocard, et dans lesquels un courant d'eau entraîne et dépose la matière\npilée.\n\n5° Terme d'archéologie. Petits carreaux alternatifs formés de lignes\ncroisées, qui se voient fréquemment sur les vases grecs, sur les\nmédailles de Gnosse en Crète.\nSe dit aussi des compartiments de pavés, formés par des plates-bandes,\nen marbres de couleurs différentes, de manière à imiter le plan d'un\nlabyrinthe.\n\n6° Fig. Grand embarras, complication d'affaires embrouillées.\nQue dis-tu {Henri IV mort} de cette belle âme {Marie de Médicis}, Quand\ntu la vois si dignement Adoucir toutes nos absinthes, Et se tirer des\nlabyrinthes Où la met ton éloignement ?, MALH., III, 3.\nÔ triste labyrinthe et de peine et d'amour, ROTR., Bélis. II, 1.\nPour sortir d'un labyrinthe où il nous a mis, SÉV., 445.\nJe m'y trouvai dans un labyrinthe d'embarras, de difficultés, J. J.\nROUSS., Prom. 3.\nGrâce à l'Ariane Suzon, je tiens le fil du labyrinthe, et le Minotaure\nest cerné, BEAUMARCH., Mère coupable, II, 7.\n\n7° Difficultés, questions obscures.\nAssis près d'un ruisseau, Les labyrinthes d'un cerveau L'occupaient\n{Démocrite}, LA FONT., Fabl. VIII, 26.\nLa mauvaise humeur où il {Jurieu} entre parce qu'il ne sait par où se\ntirer de ce labyrinthe {ses propositions sur la Trinité}, BOSSUET, 6e\navert. 1.\nCet esprit philosophique qui doit dominer partout, et qui est le fil de\ntous les labyrinthes, VOLT., Élog. Marq. du Chatel.\nAdjectivement.\nCeci n'est-il point un peu labyrinthe ? l'entendez-vous ?, SÉV., 74.\n\n8° Pensées qui se croisent.\nJe viens d'en faire un {voyage} dans mon labyrinthe où votre aimable et\nchère idée m'a tenu fidèle compagnie ; je vous avoue que c'est un de mes\nplaisirs que de me promener toute seule ; je trouve quelques labyrinthes\nde pensées dont on a peine à sortir ; mais on a du moins la liberté de\npenser à ce qu'on veut, SÉV., 29 juill. 1671.\n\nHISTORIQUE\nDes affaires qui sont pleines D'un labyrinthe de peines, RONSARD, 395.\n\nÉTYMOLOGIE\nQu'on fait venir de ra mare, en égyptien porte ou palais du roi Mare,\navec le suffixe grec.\n\nSUPPLÉMENT AU DICTIONNAIRE\nLABYRINTHE.\n\nÉTYMOLOGIE\nAjoutez : M. Mariette (Revue critique, 22 mars 1872, p. 182) conjecture\navec plus de vraisemblance que c'est la transcription de l'égyptien\nRope-ro-h'unt ou Lopero-h'unt, le temple de Ro-h'unt ; Ro-h'unt est une\nville auprès de laquelle était le Labyrinthe.
labyrinthique	LABYRINTHIQUE\n la-bi-rin-ti-k' adj.\nQui a rapport au labyrinthe, qui est inextricable comme le labyrinthe.\nTerme d'anatomie. Nerf labyrinthique, nerf auditif, ainsi dit\nquelquefois parce qu'il se distribue dans les cavités du labyrinthe de\nl'oreille.\nTerme d'histoire naturelle. Qui a des sillons tortueux.\n\nÉTYMOLOGIE\nLabyrinthe.
labyrinthodon	LABYRINTHODON\n la-bi-rin-to-don s. m.\nTerme de paléontologie. Reptile gigantesque dont le genre a vécu à\nl'époque où se déposait le trias.\n\nÉTYMOLOGIE\nLabyrinthe, et du grec, dent.
lac	LAC\n lak ; au pluriel, l's ne se lie pas : des lak azuré ; mais quelques-uns\nla lient : des lak-z ouverts s. m.\n\n1° Grand espace d'eau, qui se trouve enclavé dans les terres.\nQue le chantre flatteur du tyran des Romains, L'auteur harmonieux des\ndouces Géorgiques, Ne vante plus ces lacs et leurs bords magnifiques,\nCes lacs que la nature a creusés de ses mains Dans les campagnes\nitaliques ; Mon lac est le premier...., VOLT., Épît. 76.\nL'Amérique septentrionale est le pays des lacs ; les plus grands sont le\nlac Supérieur, qui a plus de 125 lieues de longueur sur 50 de largeur,\nBUFF., Hist. nat. Preuv. théor. terr. Oeuv. t. II, p. 174.\nÔ lac, l'année à peine a fini sa carrière, Et près des flots chéris\nqu'elle devait revoir. Regarde, je viens seul m'asseoir sur cette pierre\nOù tu la vis s'asseoir, LAMART., Médit. I, 13.\nOn distingue les lacs en lacs qui n'ont aucune communication avec les\nrivières ; lacs qui, étant alimentés visiblement par une ou plusieurs\nrivières, ne donnent naissance à aucune autre, perdant, par\nl'évaporation, autant d'eau qu'ils en reçoivent ; lacs qui, donnant\nnaissance à une rivière sans qu'on en voie s'y jeter, sont alimentés par\ndes sources de fond, ou par des communications inconnues avec d'autres\namas d'eau, et lacs qui donnent naissance à des rivières et qui en\nreçoivent, LEGOARANT, .\n\n2° Lacs salés, lacs dont l'eau contient, en proportion plus ou moins\nforte, les mêmes substances dissoutes que l'eau de mer.\nLa mer Caspienne est actuellement un vrai lac qui n'a aucune\ncommunication avec les autres mers, pas même avec le lac Aral, qui\nparaît en avoir fait partie, BUFF., Hist. nat. 2e disc. Oeuv. t. I, p.\n148.\n\n3° Lac de Moeris, nom donné en Égypte à un immense réservoir d'eau fait\nde main d'homme.\n\nHISTORIQUE\nXIIe s.\nDone li venison, peison {poisson} de lac, , Gerard de Ross. p. 360.\nXIIIe s.\nLi grans sires {l'empereur de la Chine} a fait faire telles voies et\ntelles ordonnances par yaues douces et par lacs de ceste cité jusqu'à\nCambaluc, MARC POL, p. 481.\nXIVe s.\nSans pluies celestes ou autre cause que nul peust savoir, li lac Albain\ncrut oultre mesure, BERCHEURE, f° 102.\nXVe s.\nEaues courrans et de pluseurs ruisseaulx Firent un lac si grant en un\npaïs. Qu'il se peupla de lus {brochets} et de carreaulx, E. DESCHAMPS,\nPoésies mss. f° 292.\n\nÉTYMOLOGIE\nBerry, lac, prononcé la, au plur. lacs, prononcé lâ ; provenç. lac ;\nanc. catal. llac ; espagn. et ital. lago ; du lat. lacus ; le terme en\ngrec est dérivé d'un verbe traduit par déchirer ; ainsi,\nétymologiquement, un lac est une déchirure. Comparez l'écossais loch, un\nlac, l'allemand Lache, une mare, lachen, inciser.\n\nSUPPLÉMENT AU DICTIONNAIRE\nLAC. - HIST.\nXIIIe s.  Ajoutez :\nEt si est {une ville} encor toute apierte, Sans abiteours et desierte ;\nEn milieu croist {crut} uns lais dormans, ù il a noirs poissons moult\ngrans, P. MOUSKES, Chronique, V. 12090.\nEt il a {il y a} un lai mout parfont Environ, et si estoit lés {large}\nBien deus arcies.... Et li lais lor bat {à des tours} environ, , li\nChevaliers as deus espées, publié par Förster, V. 6303.
lac	LAC\n lak s. m.\nVoy. ci-dessus KROHOR.
lac-laque	LAC-LAQUE\n lak-la-k' s. f.\nTerme de chimie. Précipité formé par l'alun dans une dissolution\nalcaline de résine laque, et employé dans l'inde pour la teinture.
laccine	LACCINE\n la-ksi-n' s. f.\nTerme de chimie. Matière résineuse pure qui fait la base des diverses\nlaques du commerce.
laccique	LACCIQUE\n la-ksi-k' adj.\nQui a rapport à la laque.\nAcide laccique, acide qui est dans la laque en bâtons.
lacement	LACEMENT\n la-se-man s. m.\nAction de lacer.\n\nHISTORIQUE\nXVIe s.\nLacement, COTGRAVE, .
lacer	LACER\n la-sé ; quelques-uns, à tort, prononcent lâ-sé, et confondent ce verbe\navec lasser ; le c prend une cédille devant a et o : laçant, laçons v.\na.\n\n1° Serrer avec un lacet. Lacer un corset, un bas de peau. Lacer une\nfemme. Se faire lacer.\n\n2° Terme de marine. Lacer la voile, attacher à la vergue une partie de\nla voile ; ce qui se pratique quand le vent est violent.\nLacer la voile, se dit aussi de deux voiles qu'on réunit au moyen d'un\npetit filin ou raban.\nLacer ou mailler une bonnette, attacher une bonnette à une voile à\nl'aide de petits anneaux en cordage qui servent à la laçure.\n\n3° Faire les mailles d'un filet.\n\n4° Terme de chasse ou de meute. Couvrir la femelle, en parlant des\nchiens. Une chienne qui a été lacée par un mâtin.\n\n5° Se lacer, V. réfl. Se serrer avec un lacet Cette femme se lace\nelle-même.\n\nHISTORIQUE\nXIe s.\n{Ils} lacent lur helmes, , Ch. de Rol. LXXVIII.\nXIIe s.\nUns grans sollers aveit, que uns freres li presta, Entur le col del pié\nà nuals les laça, , Th. le mart. 50.\nAsolez {absolvez}, funt il, cels qui sunt escumengié {excommuniés} E\ncels qui sunt par vus suspendu e lacié, , ib. 148.\nXIIIe s.\nDont s'en alerent cele part tout d'un front, et furent tuit armé es\nvessiaus, les hiaumes lacés, VILLEH., CLXX.\nLacié {pris} m'avés, n'en puis retraire, Ou bien m'en prenge, ou mal\nm'en viegne, , Fl. et Bl. 2268.\nRobe porprine vestue {il} ot ; Si fu laciés au mix {mieux} qu'il pot, ,\nib. 2869.\nAprès fit lachier son hyaume et puis prist son escus, H. DE VALENC.,\nXXXI.\nXVIe s.\nEt resta tenant ses deuz bras sus la poictrine, lassez l'ung sus\nl'aultre, RAB., Pant. III, 20.\n\nÉTYMOLOGIE\nLacs ; anciennement au régime singulier, lac ; wallon, lèsi ; namur.\nlâsi ; provenç. lassar, lachar. Le sens de lacs s'est plus\nparticulièrement conservé dans enlacer.
laceret	LACERET\n la-se-rè s. m.\nSorte de petite tarrière employée à travailler le bois.
lacerie	LACERIE\n la-se-rie s. f.\nNom que les vanniers donnent à leurs ouvrages les plus beaux et les plus\nfins.\nTissu d'osier mince et serré qui remplit le corps d'une corbeille.\n\nÉTYMOLOGIE\nLacer.
lacerne	LACERNE\n la-sèr-n' s. f.\nTerme d'antiquité romaine. Habit grossier qui ne fut d'abord en usage\nque pour la campagne, et dont on se servit à la ville pour se garantir\nde la pluie.\n\nÉTYMOLOGIE\nLat. lacerna.
laceron	LACERON\n la-se-ron s. m.\nVoy. LAITERON.\n\nHISTORIQUE\nXVIe s.\nLaceron, COTGRAVE, .
lacert	LACERT\n la-sêr s. m.\nVoy. LYRE, n° 4.
lacertiens	LACERTIENS\n là-sèr-tiin s. m. pl.\nTerme de zoologie. Nom d'une division des sauriens comprenant les\nlézards et les monitors.\n\nÉTYMOLOGIE\nLat. lacerta, lézard.
lacet	LACET\n la-sè ; le t ne se lie pas ; au pluriel, l's se lie : des la-sè-z\nélégants ; lacets rime avec traits, succès s. m.\n\n1° Cordon plat ou rond, ferré à l'un des bouts ou aux deux, avec lequel\non serre un vêtement, un corset, etc. en le passant dans des oeillets.\nQuand j'étais à Moutiers, j'allais faire des lacets chez mes voisines,\nJ. J. ROUSS., Conf. V.\n\n2° Lacs avec lequel on prend les perdrix, les lièvres, etc.\nElle {la grive} se prend facilement soit à la pipée, soit au lacet, mais\nmoins cependant que le mauvis, BUFF., Ois. t. V, p. 392.\nFig. Être pris dans ses propres lacets, être pris par cela même à l'aide\nde quoi on voulait prendre les autres.\nMalgré ses fiertés affectées, il {Jurieu} sentait bien l'embarras où il\ns'était mis, et que, pris dans ses propres lacets, plus il ferait\nd'efforts pour se dégager, plus il redoublerait les noeuds qui le\nserrent, BOSSUET, 6e avert. 2.\nFig. Piéges, embûches.\nPour attirer les âmes infirmes dans leurs lacets, BOSSUET, Var. I.\nSachez {jeune fille} que cette vanité {se parer} qui vous paraît\ninnocente, machine de loin contre votre honneur ; elle vous tend des\nlacets, BOSSUET, Sermons, Honneur, 1.\n\n3° Corde garnie de boules que les habitants de l'Amérique espagnole\nsavent lancer avec beaucoup d'adresse, et avec laquelle ils enlacent un\ncheval, un homme, et s'en rendent maîtres.\n\n4° Cordon avec lequel les Turcs et autres peuples orientaux font\nétrangler un condamné.\nAu point du jour l'apothicaire de Sa Majesté entra dans ma chambre avec\nune potion mêlée de jusquiame, d'opium, de ciguë, d'ellébore noir et\nd'aconit, et un autre officier alla chez vous avec un lacet de soie\nbleue, VOLT., Zadig, 18.\nEnvoyer le lacet à un pacha, dépêcher auprès de lui un agent chargé de\nl'étrangler.\n\n5° Terme de marine. Petit cordage qui sert à lacer une bonnette.\n\n6° Anse de corde à laquelle on accroche un boyau qu'on veut tordre.\n\n7° Terme de botanique. Lacet de mer, lacet de Neptune, varech filiforme\net très long (hydrophytes), dit aussi corde fil et boyau de mer,\nchordaria flagelliformis, Ag.\n\n8° Petite broche de fer avec laquelle les serruriers unissent les deux\nparties d'une charnière.\nPetite ferrure qui garnit un anneau de fer que l'on veut fixer.\n\n9° Les lacets d'un chemin, se dit d'un chemin de montagne qui, pour\ndiminuer la fatigue de l'ascension, gagne le terrain en montant\nobliquement et revenant sur lui-même à un point plus élevé, comme fait\nle lacet d'un corset.\nOn dit dans le même sens : Ce chemin fait le lacet.\nOn dit qu'un chemin de fer a un mouvement de lacet, quand il éprouve en\nmarchant un mouvement latéral de va-et-vient ou de roulis, causé par un\nmanque d'adaptation et d'ajustement entre les roues et la largeur des\nrails.\n\nHISTORIQUE\nXVIe s.\nElle vous avoit un corset D'un fin bleu, lassé d'un lasset, MAROT, II,\n201.\n....Scellé du grand scel, à lassets de soye et de cire verte, CARLOIX,\nIX, 21.\n\nÉTYMOLOGIE\nDiminutif de lacs ; bourguig. laissô ; wallon, lèsète ; namur. lasète ;\nprovenç. lassol.\n\nSUPPLÉMENT AU DICTIONNAIRE\nLACET. Ajoutez :\n\n10° Sorte de coutil.\nCoutils rayés pour literie, fantaisie pour stores, lacets bleus et\nblancs pour habillements..., , Enquête, Traité de comm. avec l'Anglet.\nt. IV, p. 514.
laceur	LACEUR\n la-seur s. m.\nOuvrier qui fait des filets pour la pêche ou la chasse.\n\nÉTYMOLOGIE\nLacer.
lachésis	LACHÉSIS\n la-ké-zis' s. f.\n\n1° Nom d'une des Parques, de celle qui détermine le sort des mortels.\n\n2° La 120e planète télescopique, découverte en 1872 par M. Borrelly.\n\nÉTYMOLOGIE\nEn grec, donner au sort.
lacier	LACIER\n la-sié, s. m. ou LACIÈRE (la-siè-r')\n s. f.\nEspèce de filet à manche pour la pêche.\nSe dit aussi d'un filet qui sert à prendre les loups.\n\nÉTYMOLOGIE\nLacer.
laciniation	LACINIATION\n la-si-ni-a-sion s. f.\nÉtat de ce qui est lacinié.\nDu mouvement dans les poils et les laciniations foliaires du drosera\nrotundifolia, HECKEL, Ac. des sc. Comptes rend. t. LXXXII, p. 525.\n\nÉTYMOLOGIE\nVoy. LACINIÉ.
lacinifolié, ée	LACINIFOLIÉ, ÉE\n la-si-ni-fo-li-é, ée adj.\nTerme de botanique. Dont les feuilles sont laciniées.\n\nÉTYMOLOGIE\nLacinié, et le lat. folium, feuille.
laciniure	LACINIURE\n la-si-ni-u-r' s. f.\nTerme de botanique. Découpure longue, étroite et irrégulière.\n\nÉTYMOLOGIE\nLacinié.
lacinié, ée,	LACINIÉ, ÉE,\n la-si-ni-é, ée adj.\nTerme de botanique. Qui est découpé inégalement en lanières de forme\nirrégulière. Feuilles laciniées.\n\nÉTYMOLOGIE\nLat. laciniatus, de lacinia, morceau, lambeau ; les termes grecs\nsignifient segment, diviser (voy. LAC).
lacis	LACIS\n la-sî ; l's se lie : un la-si-z élégant s. m.\n\n1° Espèce de réseau de fil ou de soie.\nConcevez sa superficie {du cerveau, du côté des ventricules}, comme un\nreseuil {réseau} ou lacis assez épais, DESC., l'Homme.\n\n2° Terme d'anatomie. Sorte de réseau formé par un entrelacement de\nvaisseaux ou de nerfs.\n\nHISTORIQUE\nXIIe s.\nEt riche ovre i ont desure de malegranates, de lilie et de laceiz, ,\nRois, p. 253.\nXVIe s.\nCes bergeres y travaillent sans cesse, l'une après le labeur industrieux\nde quelque gentil ouvrage de broderie, l'autre après un lassis de fil\nretors ou de fil de soye de couleur, R. BELLEAU, Bergeries, t. I, p. 40,\ndans LACURNE.\n\nÉTYMOLOGIE\nLacer, la finale is, eis représentant la finale latine acius, itius.
lacière	LACIÈRE\n la-siè-r' s. f.\nVoy. LACIER.
lack	LACK\n lak s. m.\nNom de nombre usité dans l'Inde, lequel, joint à roupie, signifie cent\nmille (100 000 roupies d'argent valent, au pair, 253 238 francs, PIHAN).\nOn lui assigna, pour sa solde annuelle, trois lacks de roupies, ou 720\n000 livres, RAYNAL, Hist. phil. III, 20.\nOn écrit aussi lac.\n\nÉTYMOLOGIE\nPersan, lax, du sanscrit laksha, cent mille.
laconicon	LACONICON\n la-ko-ni-kon s. m.\nTerme d'antiquité. Sorte d'étuve en usage chez les anciens : c'était une\npièce voûtée qu'on échauffait à l'aide de fourneaux placés sous la\npièce, et qui provoquait la sueur à l'aide d'une chaleur sèche.\n\nÉTYMOLOGIE\nLat. laconicum (balneum) : le bain à la laconienne, ainsi dit de ce que\ncette sorte de bain était fort en usage parmi les Laconiens.
laconien, ienne	LACONIEN, IENNE\n la-ko-niin, niè-n' s. m. et f.\nHabitant de la Laconie, contrée du Péloponnèse, ayant Sparte pour\ncapitale\nÀ la laconienne, aussi brièvement que les Lacédémoniens.\nTranchez-moi votre discours d'un apophthegme à la laconienne, MOL., Mar.\nforcé, sc. 8.
laconique	LACONIQUE\n la-ko-ni-k' adj.\n\n1° Qui est propre à la Laconie, à Sparte.\nIl {Cléomène} tourna tous ses soins du côté de l'éducation des enfants,\net travailla à rétablir la discipline appelée laconique, ROLLIN, Hist.\nanc. Oeuv. t. VII, p. 557, dans POUGENS.\n\n2° Bref en paroles, à la manière des habitants de la Laconie, des\nLacédémoniens.\nOn les accoutumait {les jeunes Lacédémoniens} de bonne heure au style\nlaconique, c'est-à-dire à un style concis et serré, ROLLIN, Traité des\nÉt. liv. V, 3e part. ch. 2.\nIls se dirent encore quelques mots d'une manière assez laconique,\nquoique bienveillante, STAËL, Corinne, VI, 4.\nIl se dit aussi du style, de la manière d'écrire.\nMais surtout certain Grec renchérit et se pique D'une élégance\nlaconique, LA FONT., Fabl. VI, 1.\nIl faut que vous supportiez mes défauts ; chacun a son style ; le mien,\ncomme vous voyez, n'est pas laconique, SÉV., à Bussy, 19 juill. 1655.\n\nSYNONYME\nLACONIQUE, CONCIS. Laconique se dit plus souvent du langage parlé ;\nconcis se dit du langage écrit : une réponse laconique, un compliment\nlaconique ; mais un ouvrage concis ; le style concis. Quand laconique se\ndit du style, il implique une recherche de brièveté que concis\nn'implique pas.\n\nÉTYMOLOGIE\nTerme dérivé du mot grec signifiant Lacédémonien\n\nSUPPLÉMENT AU DICTIONNAIRE\nLACONIQUE. Ajoutez :\n\n3° S. m. Le laconique, le style laconique, en peu de paroles.\nNous avons lu et relu votre mémoire, c'est une pièce achevée ; il n'y\nfallait pas moins de paroles ; le laconique serait fort dangereux en\npareille occasion, SÉV., Lett. à Mme de Grignan, 29 nov. 1679, dans\nLett. inédites, éd. Capmas, t. II, p. 70.
laconiquement	LACONIQUEMENT\n la-ko-ni-ke-man adv.\nD'une manière laconique.\nAllons, plaidez, ma soeur, exposez laconiquement le fait en peu de\nparoles, DANCOURT, le Prix de l'arquebuse, sc. 15.\n\nÉTYMOLOGIE\nLaconique, et le suffixe ment.
laconisme	LACONISME\n la-ko-ni-sm' s. m.\n\n1° Manière de parler en peu de paroles.\nJ'évite par là.... d'essuyer sa gravité, son ris amer, et son laconisme,\nLA BRUY., IX.\n\n2° Manière courte, vive et sentencieuse d'exprimer une pensée.\nSi nous lui avons ôté quelque chose {à Sénèque}, c'est son laconisme et\nson énergie, et l'on imagine bien que c'est malgré nous, DIDER., Claude\net Nér. I, 94.\n\nÉTYMOLOGIE\nTerme dérivé du verbe grec qui signifie parler à la laconienne, qui\nvient du mot grec Lacédémonien.
lacre	LACRE\n la-kr' s. f.\nAncien nom d'une sorte de cire à cacheter. Lacre ou cire à cacheter le\ncent pesant payera 6 livres, Tarif du 18 sept. 1684.\n\nÉTYMOLOGIE\nLaque ; port. lacre, composition de cire et de lie de laque qui sert\npour cacheter.
lacryma-christi	LACRYMA-CHRISTI\n la-kri-ma-kri-sti s. m.\nVin sucré très recherché que l'on récolte au pied du Vésuve.\n\nÉTYMOLOGIE\nLat. lacryma, larme, Christi, du Christ.
lacrymal, ale	LACRYMAL, ALE\n la-kri-mal, ma-l' adj.\n\n1° Terme d'anatomie. Qui a rapport aux larmes.\nGlande lacrymale, petite glande située entre l'apophyse orbitaire et le\nglobe de l'oeil, qui sécrète les larmes.\nCaroncule lacrymale, petit tubercule situé à l'angle nasal de l'oeil et\nportant à sa surface quelques poils courts et fins qui arrêtent les\ncorpuscules étrangers mêlés aux larmes.\nPoints lacrymaux, petits pores, au nombre de deux, distingués en\nsupérieur et en inférieur, suivant la paupière à laquelle ils\nappartiennent, qui sont les orifices toujours béants des conduits\nlacrymaux.\nConduits lacrymaux, nom de deux canaux qui font suite aux points\nlacrymaux.\nSac lacrymal, petite poche membraneuse, oblongue, qui se termine\nsupérieurement en cul-de-sac et se continue inférieurement avec le canal\nnasal, lequel va s'ouvrir dans le nez.\nAppareil lacrymal, ensemble des organes destinés à sécréter et excréter\nles larmes.\n\n2° Terme de chirurgie. Fistule lacrymale, ouverture accidentelle au sac\nlacrymal, qui permet aux larmes de s'écouler ailleurs que dans leurs\nvoies ordinaires.\n\nHISTORIQUE\nXIVe s.\nLa fistule du lacrimel, LANFRANC, f° LVII, verso.\nXVIe s.\nLa glandule lachrymale, PARÉ, III, 11.\n\nÉTYMOLOGIE\nLat. lacryma, larme (voy. ce mot).
lacrymatoire	LACRYMATOIRE\n la-kri-ma-toi-r' s. m.\nTerme d'antiquités romaines. Petit vase de terre cuite ou de verre que\nl'on trouve dans les sépultures romaines, et que l'on a cru longtemps\ndestiné à recueillir les larmes versées aux funérailles ; d'où le nom.\nAdjectivement. Urne, vase lacrymatoire.\n\nÉTYMOLOGIE\nLat. lacrymare, pleurer, de lacryma, larme (voy. ce mot).
lacrymiforme	LACRYMIFORME\n la-kri-mi-for-m' adj.\nTerme de minéralogie. Se dit d'une coulée de lave qui s'épanche par une\nouverture de cratère, et va ensuite en s'élargissant peu à peu.\n\nÉTYMOLOGIE\nLat. lacryma, larme, et forme.
lacrymule	LACRYMULE\n la-kri-mu-l' s. f.\n\n1° Diminutif burlesque de larme.\nEt si vous en tirez la moindre lacrymule, SCARRON, Jodelet ou le maître\nvalet, III, 2.\n\n2° Terme de pharmacie. Petite larme.\n\nÉTYMOLOGIE\nLat. lacrymula, diminutif de lacryma, larme.
lacs	LACS\n lâ ; l's se lie : un lâ-z élégant ; le c ne se prononce jamais, et\nc'est une grosse faute de dire lâk s. m.\n\n1° Cordon délié. Autrefois le sceau était attaché aux édits avec des\nlacs de soie de diverses couleurs. Il se retrouve encore {à une pièce}\ndeux lacs de parchemin attachés en deux différents endroits.... lesdits\ndeux tirets ou lacs de parchemin qui sont encore.... Procès-verbal du 12\naoût 1665 du greffier de l'élection de Laon.\n\n2° Noeud coulant qui sert à prendre des oiseaux, des lièvres et autre\ngibier.\nLe lacs était usé ; si bien que, de son aile, De ses pieds, de son bec,\nl'oiseau le rompt enfin, LA FONT., Fabl. IX, 2.\nIl y vole, il est pris ; ce blé couvrait d'un lacs Les menteurs et\ntraîtres appas, LA FONT., ib.\nFig.\nPiége, embarras dont on a de la peine à se tirer.... Et souffrir qu'un\nenfant Des lacs d'un vieux routier se sauve en triomphant, LA FONT.,\nl'Eunuque, III, 1.\nLa coquette tendit ses lacs tous les matins, .... Composa de sa main les\nfleurs de son visage, BOILEAU, Épître IX.\nFamilièrement. Tomber dans le lacs, être dans le lacs, tomber, être dans\nl'embarras.\n\n3° Ruban de fil en bande dont se servent les chirurgiens pour faire\nl'extension dans les fractures et les luxations.\nCordon que les accoucheurs appliquent sur les membres du foetus pour\nfaciliter son extraction dans les cas difficiles.\n\n4° Liens de corde dont on fait usage pour assujettir les animaux. A\nbattre un cheval avec le lacs.\nCordes qui servent à accoupler, pendant la route, les chevaux que les\nmarchands conduisent.\n\n5° Lacs d'amour, cordons repliés sur eux-mêmes, de manière à former un 8\ncouché.\nDieu sait quels lacs d'amour, quels chiffres, quelles fleurs...,\nRÉGNIER, Sat. X.\nNous aurions bien des affaires, ma fille, si nous nous mettions à faire\ndes lacs d'amour à tous nos D et à toutes nos L, SÉV., 441.\n\n6° Dans les métiers à tisser les étoffes façonnées, cordes disposées\npour supporter des fils forts qui remplacent les lisses employées dans\nles métiers à tisser les autres étoffes.\n\nSYNONYME\nLACS, RETS, FILET. Le rets ou le filet est un tissu à mailles et à\njour ; le lacs est un assemblage de cordons disposés de manière à\narrêter le gibier. Quant à rets et filet, il ne paraît pas qu'il y ait\naucune distinction dans la signification.\n\nHISTORIQUE\nXIe s.\nAl brant d'acier il tranche cinq des laz, , Ch. de Rol. CCL.\nXIIe s.\nE en es laz que il tendeient, Par soventes feiz se perneient, BENOIT,\nII, 12699.\nLas douloureus, qui si m'ont mal bailli, , Couci, VII.\nCele.... Qui tout me tient en ses las, , ib. p. 122.\nEn ces laz le voleient li cardenal buter, , Th. le mart. 106.\nLes cordes de enfern me unt lied, e les laz de mort m'unt saisid, ,\nRois, p. 205.\nXIIIe s.\nComment Vulcanus espia Sa femme, et moult fort la lia D'un laz avec\nMarz...., , la Rose, 14050.\nDes cordes {il} fist un laz corsor {noeud coulant}, à son col le mist\ntot entor, , Ren. 21505.\nLaz apareillierent il à mes piez, , Psautier, f° 67.\nEt s'entrefierent parmi les hyaumes, tant que tout li lach sont depecié,\nH. DE VALENC., XXVI.\nXIVe s.\nHomme qui dit paroles de losengerie est un las pour prendre les\ninnocens, , Ménagier, I, 9.\nXVe s.\nQuant ils furent là entre eux deux ensemble, Jacques le Gris, tenté des\nlacs de l'ennemi {démon}, embrassa la dame et lui dit..., FROISS., II,\nIII, 49.\nLe sage ne veult que contende Contre puissant pouvre homme las, Affin\nque ses filez ne tende, Et que ne tresbuche en ses laqs, VILLON, Grand\ntestament, CXXXII.\n\nÉTYMOLOGIE\nWallon, lès ; namur. las' ; provenç. lac, laz, latz ; catal. llas ; esp.\nlazo ; port. laço ; ital. laccio ; du lat. laqueus, lacs. Dans l'ancien\nfrançais, on trouve las au nominatif et au régime ; cependant on trouve\naussi lach au nominatif pluriel (et par conséquent, lach aussi au régime\nsingulier) ; ce qui est la forme correcte. Lacs dans la langue moderne\nest un amalgame du thème étymologique avec l's des anciennes formes.\nLaqueus est au grec signifiant, lacs, comme l'éolien (voy. LACÉRER).
lactaire	LACTAIRE\n la-ktê-r' adj.\nTerme didactique.. Qui a rapport au lait ou à l'allaitement.\nTerme d'archéologie. Colonne lactaire, colonne élevée à Rome dans le\nmarché aux herbes, où l'on exposait les enfants trouvés.\nTerme de botanique. Se dit de quelques champignons qui fournissent un\nsuc laiteux.\n\nÉTYMOLOGIE\nLat. lactaris, de lac, lait.
lactate	LACTATE\n la-kta-t' s. m.\nTerme de chimie. Sel produit par la combinaison de l'acide lactique avec\nune base salifiable.\n\nÉTYMOLOGIE\nVoy. LACTIQUE.
lactation	LACTATION\n la-kta-sion s. f.\nTerme de médecine. Action d'allaiter un enfant.\nLa fonction organique qui consiste dans la sécrétion et l'excrétion du\nlait.\n\nÉTYMOLOGIE\nLat. lactationem, de lactare, allaiter, de lac, lait.
lactescence	LACTESCENCE\n la-ktè-ssan-s' s. f.\nTerme didactique.. Qualité d'un liquide qui ressemble à du lait.
lactescent, ente	LACTESCENT, ENTE\n la-ktè-ssan, ssan-t' adj.\nTerme didactique.. Qui contient un suc laiteux. Plantes lactescentes.\nCoquilles lactescentes, coquilles couleur de lait.\n\nÉTYMOLOGIE\nLat. lactescere, se convertir en lait, de lac, lait.
lactide	LACTIDE\n la-kti-d' s. m.\nTerme de chimie. Corps qui se forme pendant la distillation sèche de\nl'acide lactique.\n\nÉTYMOLOGIE\nLat. lac, lait.
lactifique	LACTIFIQUE\n la-kti-fi-k' adj.\nQui produit le lait, qui fait venir le lait en abondance. Aliments\nlactifiques.\n\nÉTYMOLOGIE\nLat. lac, lait, et facere, faire.
lactifié, ée	LACTIFIÉ, ÉE\n la-kti-fi-é, fi-ée part. passé d'un verbe fictif lactifier\nPar plaisanterie, être lactifié, avoir usé suffisamment de la diète\nlactée.\nLe révérend père m'a dit résolûment qu'il prétend que je ne m'en aille\nque quand il lui plaira, et que je serai bien et dûment lactifié, J. J.\nROUSS., Lett. à Mme de Warens, 31 août 1733.
lactifuge	LACTIFUGE\n la-kti-fu-j' adj.\nSynonyme d'antilaiteux.\n\nÉTYMOLOGIE\nLat. lac, lait, et fugare, chasser.
lactifère	LACTIFÈRE\n la-kti-fè-r' adj.\nQui porte, qui conduit, qui produit le lait.\nConduits lactifères, conduits qui amènent le lait au dehors.\nPlantes lactifères, celles qui abondent en sucs laiteux, telles que le\ntithymale, la laitue.\n\nÉTYMOLOGIE\nLat. lac, lait, et ferre, produire.
lactigène	LACTIGÈNE\n la-kti-jè-n' adj.\nQui produit du lait. La vertu lactigène d'une vache.\n\nÉTYMOLOGIE\nLat. lac, lait, et la finale gène, employée à tort pour signifier qui\nproduit.
lactine	LACTINE\n la-kti-n' s. f.\nSucre de lait, principe qui existe dans le lait de tous les mammifères.\n\nÉTYMOLOGIE\nLat. lac, lait, et la finale chimique ine.
lactique	LACTIQUE\n la-kti-k' adj. m.\nTerme de chimie. Acide lactique, acide qui existe dans le petit lait\naigri.\nÉther lactique, éther obtenu en distillant à parties égales du lactate\nde chaux, de l'alcool anhydre et de l'acide sulfurique.\n\nÉTYMOLOGIE\nLat. lac, lait.
lactobutyromètre	LACTOBUTYROMÈTRE\n la-kto-bu-ti-ro-mè-tr' s. m.\nInstrument employé pour déterminer la quantité de beurre que renferme le\nlait.
lactoline	LACTOLINE\n la-kto-li-n' s. f.\nLait concentré par l'évaporation, et qui redevient du lait ordinaire par\naddition d'une nouvelle quantité d'eau.\nOn trouve aussi lactéoline.
lactomètre	LACTOMÈTRE\n la-kto-mè-tr' s. m.\nVoy. GALACTOMÈTRE.\n\nÉTYMOLOGIE\nLat. lac, lait, et mètre, mesure.
lactone	LACTONE\n la-kto-n' s. f.\nTerme de chimie. Produit de distillation de l'acide lactique.
lactoscope	LACTOSCOPE\n la-kto-sko-p' s. m.\nVoy. GALACTOSCOPE.\n\nÉTYMOLOGIE\nMot hybride, du lat. lac, lait, et du verbe grec se traduisant par\nexaminer.
lactose	LACTOSE\n la-ktô-z' s. f.\nSynonyme de lactine.
lactucarium	LACTUCARIUM\n la-ktu-ka-ri-om' s. m.\nTerme de pharmacie. Suc laiteux de la laitue obtenu par incision et\ndesséché au soleil, au lieu que la thridace est le même suc obtenu par\ncontusion des tiges de la laitue.\n\nÉTYMOLOGIE\nLat. lactuca, laitue.
lactucine	LACTUCINE\n la-ktu-si-n' s. f.\nSubstance fournie par la laitue et qui a des propriétés anodynes.\n\nÉTYMOLOGIE\nLat. lactuca, laitue.
lactucique	LACTUCIQUE\n la-ktu-si-k' adj.\nTerme de chimie. Acide lactucique, substance acide découverte dans le\nsuc laiteux du lactuca virosa.
lacté, ée	LACTÉ, ÉE\n la-kté, ktée adj.\n\n1° Qui a rapport ou qui ressemble au lait.\nDiète lactée, régime dans lequel les malades font du lait leur principal\naliment.\nFièvre lactée, fièvre de lait, voy. LAIT.\n\n2° Terme d'anatomie. Vaisseaux lactés, veines lactées, conduits\nchylifères, ainsi nommés à cause de la couleur de lait du liquide qu'ils\ntransportent\n\n3° Plantes lactées, plantes qui abondent en sucs laiteux.\n\n4° Terme d'astronomie. Voie lactée, blancheur irrégulière qui entoure le\nciel en forme de ceinture, et qui, avec de forts télescopes, se résout\npresque partout en un nombre infini de petites étoiles. La Fable dit que\nla voie lactée se forma de quelques gouttes de lait tombées des mamelles\nde la chèvre Amalthée.\nUn être pensant qui habite dans une étoile de la voie lactée, ne lui\ndoit-il pas {à Dieu} le même hommage que l'être pensant sur ce petit\nglobe où nous sommes ?, VOLT., Dict. phil. Religion, II.\nNotre soleil et les plus brillantes étoiles font probablement partie\nd'un de ces groupes, qui, vu du point où nous sommes, semble entourer le\nciel et forme la voie lactée, LAPLACE, Expos. V, 6.\n\nHISTORIQUE\nXVIe s.\nLe laict qui s'escouloit espars Fit au ciel la voye laictée, RONS., 420.\n\nÉTYMOLOGIE\nLat. lacteus, de lac, lait.
lactéipenne	LACTÉIPENNE\n la-kté-i-pè-n' adj.\nTerme de zoologie. Insectes lactéipennes, insectes qui ont les ailes\nd'un blanc laiteux.\n\nÉTYMOLOGIE\nLat. lacteus, de lait, et penne.
lactéoline	LACTÉOLINE\n la-kté-o-li-n' s. f.\nVoy. LACTOLINE.
lacunaire	LACUNAIRE\n la-ku-nê-r' adj.\nTerme de minéralogie. Corps lacunaire, corps composé de cristaux\nagglomérés qui laissent entre eux des intervalles.\nTerme de botanique et de zoologie. Qui est pourvu de lacunes.
lacune	LACUNE\n la-ku-n' s. f.\n\n1° Terme de botanique. Nom donné aux cavités qui se forment d'une\nmanière constante dans certaines plantes, surtout aquatiques.\nTerme d'anatomie. Petite cavité formant l'orifice commun d'un assemblage\nde follicules appartenant aux membranes muqueuses.\n\n2° Solution de continuité, interruption dans le texte d'un auteur, dans\nune série, etc. Il y a une grande lacune dans cette décade de Tite-Live.\nLa lacune que présente la série de ces médailles. Combler une lacune.\nIl se dit aussi, dans un sens analogue, de l'esprit, de la mémoire. Ici\nses souvenirs ont une lacune. C'est un esprit qui a des lacunes.\n\nÉTYMOLOGIE\nLat. lacuna, fosse pleine d'eau, et, par suite, lacune, dérivé de lacus,\nlac (voy. ce mot).
lacunette	LACUNETTE\n la-ku-nè-t' s. f.\nPetit fossé au milieu du grand, qu'on tient rempli d'eau avec des haies\nvives en buisson tout au long, pour se garantir des surprises, FÉLIBIEN,\nHistorique des bâtiments du roi, Paris, 1690.
lacuneux, euse	LACUNEUX, EUSE\n la-ku-neû, neû-z' adj.\nTerme d'histoire naturelle. Qui offre ou contient des lacunes.\n\nÉTYMOLOGIE\nLat. lacunosus, de lacuna, lacune.\n\nSUPPLÉMENT AU DICTIONNAIRE\nLACUNEUX. Ajoutez :\n\n2° Qui contient des lacunes, en parlant d'un texte, d'un écrit, d'un\nlivre.\nCe passage {ch. V et VI} est un de ceux pour lesquels le Codex\nAlexandrinus {qui contient les Épîtres de Clément Romain} est le plus\nlacuneux, RENAN, Journ. des Savants, janv. 1877, p. 7.
lacunosité	LACUNOSITÉ\n la-ku-nô-zi-té s. f.\nTerme didactique.. État lacuneux.\nOn ne doit pas admettre la lacunosité comme une propriété des corps\nbruts et organisés, , Dict. de médec. Pore, Baillière, Paris, 1873.
lacustre	LACUSTRE\n la-ku-str' adj.\n\n1° Terme didactique.. Qui appartient à un lac. Le caractère lacustre de\nla première faune terrestre.\n\n2° Qui vit dans les lacs. Plantes lacustres.\n\n3° Terme de géologie. Terrains lacustres, se dit de certaines couches du\nsol qui paraissent avoir été déposées au fond des eaux douces.\nCalcaires lacustres, calcaires formés dans des eaux de lacs.\n\n4° Cités lacustres, bourgades bâties sur pilotis à quelque distance de\nla rive des lacs en Suisse, en Savoie et dans la haute Italie par des\nhommes qui ont précédé les Celtes dans ces contrées.\nLes habitations lacustres de la Suisse recèlent une foule d'outils et\nd'instruments que l'on retrouve chez un certain nombre de peuplades\nsauvages, MARCEL DE SERRES, Comptes rendus, Acad. des sc. t. LIII, p.\n1123.\nS. m. pl. Les lacustres, les hommes qui ont habité ces cités.\n\nHISTORIQUE\nXVe s.\nLacustre, COTGRAVE, .\n\nÉTYMOLOGIE\nLat. lacustris, de lacus, lac.
lacé, ée	LACÉ, ÉE\n la-sé, sée part. passé de lacer\n\n1° Serré avec un lacet. Corset bien lacé. Une femme lacée.\n\n2° S. m. Lacé, entrelacement de petits grains de verre, dont on orne les\nlustres.
lacédémonien, ienne	LACÉDÉMONIEN, IENNE\n la-sé-dé-mo-niin, niè-n' adj.\nQui appartient à Lacédémone. La brièveté lacédémonienne, dite laconisme,\nest devenue proverbiale.
lacérable	LACÉRABLE\n la-sé-ra-bl' adj.\nNéologisme. Que l'on peut lacérer ; qui doit être lacéré. Écrit\nlacérable.
lacération	LACÉRATION\n la-sé-ra-sion ; en vers, de cinq syllabes s. f.\nTerme de jurisprudence. Action de lacérer un écrit, un livre. Le\njugement ordonne la lacération de cet écrit, condamné comme libelle\ninjurieux.\n\nHISTORIQUE\nXVIe s.\nLaceration, OUDIN, Dict.\n\nÉTYMOLOGIE\nLat. lacerationem, de lacerare, lacérer.
lacérer	LACÉRER\n la-sé-ré. La syllabe cé prend un accent grave quand la syllabe qui suit\nest muette, excepté au futur et au conditionnel : je lacérerai, je\nlacérerais v. a.\n\n1° Mettre en pièces.\nOutre plus, le susdit serait venu, de rage, Pour lacérer ledit présent\nprocès-verbal, RAC., Plaid. II, 4.\nIl a lacéré, incendié tous ses livres, et s'est sauvé, BRUEYS, Grondeur,\nI, 10.\nOn dit en chirurgie : La balle a lacéré les parties qu'elle a\ntraversées.\n\n2° Particulièrement, en termes de jurisprudence, mettre en pièces, par\nautorité de justice.\nMaître Joli de Fleuri assemblerait les chambres contre tout autre, et on\nlacérerait l'écrit scandaleux, VOLT., Lett. Mme du Deffant, 18 fév.\n1760.\n\nHISTORIQUE\nXIVe s.\nL'estat distrait et laceré, BERCHEURE, f° 48, recto.\nXVIe s.\nLa chair si grandement contuse et lacerée ne se peut consolider, PARÉ,\nIX, 6.\n\nÉTYMOLOGIE\nLat. lacerare, déchirer, de lacer, déchiré ; en grec, le terme est\ndérivé d'un verbe traduit par déchirer. La comparaison du grec, en\néolien signifiant, lambeau, mène au radical sanscrit vraçc, pour vrak,\ndéchirer.
lacéré, ée	LACÉRÉ, ÉE\n la-sé-ré, rée part. passé de lacérer\nUn livre lacéré.\nTerme de botanique. Qui offre des divisions irrégulières semblables à\ndes déchirures. Feuilles lacérées.
ladanifère	LADANIFÈRE\n la-da-ni-fè-r' adj.\nTerme de botanique. Qui produit le ladanum.\n\nÉTYMOLOGIE\nLat. ladanum, et ferre, porter.
