herminer	172-76741-B
herminette	133-157004-S,172-76946-B
herminite	172-77007-B
hermione	172-77948-B
hermitage	133-157587-S,172-78113-B
hermite	32-137971-S,133-158805-S,172-78156-B
hermodacte ou hermodatte	172-78193-B
hermodactyle	172-78720-B
hermodatte	172-78193-S
hermogenien	172-78932-B
hermographie	172-78789-B
hernandie	172-82516-B
herniaire	172-82637-B
hernie	172-82997-B
hernie ee	172-85395-B
hernier	172-84332-B
hernieux euse	172-84543-B
herniole	172-84771-B
herniotomie	172-85243-B
hernute	172-85538-B
hernutisme	172-86330-B
herode	181-70816-B
herodiens	181-71209-B
heroi comique	181-85471-B
heroicite	181-85829-B
heroide	181-86020-B
heroine	181-87101-B
heroique	181-89023-B
heroiquement	181-94190-B
heroiser	181-94346-B
heroisme	181-94659-B
heron	32-69352-S,81-9245-S,181-71460-B
heronneau	181-73090-B
heronner	181-73323-B
heronnier iere	181-73533-B
heronniere	181-74085-B
heroogonie	181-75496-B
heroon	181-75743-B
heros	181-75923-B
herostrate	181-85219-B
herouet	181-85413-B
herpaille	172-86458-B
herpalectorides	172-86531-B
herpe	172-86734-B,172-86870-B,172-87120-B
herpe ee	173-502-B
herpes	172-87209-B,173-82-B
herpeste	173-0-B
herpetique	173-642-B
herpetisme	173-809-B
herpetographie	173-1001-B
herpetologie	173-1194-B,173-1410-B
herque	173-1547-B
hersage	173-1689-B
herschelite	173-1796-B
herschell	173-1914-B
herse	173-2059-B
herse ee	173-6444-B
hersement	173-4932-B
herser	173-5027-B
herseur	173-5770-B
hersillon	173-6198-B
hertha	173-6673-B
hesitant ante	181-113963-B
hesitation	181-114140-B
hesiter	181-114792-B
hesper	173-6877-B
hesperidees	173-7876-B
hesperides	173-7118-B
hesperidine	173-7720-B
hesperie	173-8061-B
hesperique	173-8246-B
hesse	173-8391-B
hessiau	173-8454-B
hestia	173-8771-B
hesus	181-117818-B
hesychiastes	181-117861-B
hetaire et hetairie	181-118496-B
hetairie	181-118496-S
heter ou hetero	182-906-B
heteradelphe	182-1049-B
heteradelphie	182-1345-B
heteradenique	182-1440-B
heteralien	182-1666-B
heterandre	182-1933-B
heteranthe	182-2177-B
hetere	182-727-B
heterie	182-2355-B
heterisme	182-2492-B
heteriste	182-2769-B
hetero	182-906-S
heterobaphie	182-2840-B
heterobranche	182-3020-B
heterocarpe	182-3505-B
heterocarpien ienne	182-3633-B
heteroceres	182-6719-B
heterocerque	182-3900-B
heterocheles	182-4350-B
heterochrone	182-4021-B
heterochronie	182-4231-B
heteroclite	182-4564-B
heterodactyles	182-6816-B
heterodermes	182-7050-B
heterodons	182-7274-B
heterodoxe	182-7468-B
heterodoxie	182-7900-B
heterodoxite	182-8436-B
heterodrome	182-8605-B
heterodyme	182-8921-B
heterodymie	182-9266-B
heterogame	182-9354-B
heterogamie	182-9563-B
heterogene	182-9911-B
heterogeneite	182-12552-B
heterogenesie	182-12807-B
heterogenie	182-12180-B
heterogeniste	182-12458-B
heterogyne	182-9670-B
heteroide	182-21277-B
heterologue	182-13041-B
heteromeres	182-14396-B
heteromite	182-13301-B
heteromorphe	182-13658-B
heteromorphisme	182-14291-B
heteronome	182-14664-B
heteronomie	182-14874-B
heteronyme	182-15442-B
heteropage	182-15708-B
heteropagie	182-16036-B
heteropathie	182-16124-B
heteropes	182-16359-B
heteropetale	182-18485-B
heterophlegmasique	182-16605-B
heterophylle	182-16894-B
heterophyllie	182-17101-B
heteroplasie	182-17215-B
heteroplasme	182-17462-B
heteroplastique	182-17669-B
heteropode	182-17769-B
heteropore	182-18011-B
heteropside	182-18220-B
heterorexie	182-18685-B
heterosciens	182-18853-B
heterosomes	182-19263-B
heterostrophe	182-19475-B
heterotaxie	182-19648-B
heterothetique	182-19984-B
heterotome	182-20289-B
heterotopie	182-20478-B
heterotrope	182-20756-B
heterotypien	182-21000-B
hetman	173-8929-B
hetoudeau ou hetourdeau	182-0-B
hetourdeau	182-0-S
hetraie	182-666-B
hetre	182-21947-B
heu	173-9025-B
heuchere	173-9245-B
heuguenon	173-9400-B
heulandite	173-9470-B
heur	173-9621-B
heure	173-14861-B
heures	32-91280-S
heurette	173-47014-B
heureusement	173-47800-B
heureusete	173-50333-B
heureux euse	173-50718-B
heuristique ou hevristique	173-67186-B
heurt	173-67585-B
heurte	173-70393-B
heurte ee	173-81410-B
heurte pot	173-70807-B
heurtement	132-19366-S,173-71074-B
heurtequin	173-71904-B
heurter	173-72158-B
heurter s 	132-19543-S
heurtes	173-80452-B
heurtoir	78-40260-S,173-80584-B
heuse	173-83147-B
heu 	173-83613-B
heve	180-35569-B
hevee	182-21476-B
heveene	182-21787-B
hevristique	173-67186-S
hex et hexa	173-83781-B
hexa	173-83781-S
hexacanthe	173-83876-B
hexacorde	173-84138-B
hexacycle	173-84357-B
hexadactyle	173-84502-B
hexaedre	173-91108-B
hexaedrique	173-91333-B
hexaemeron	173-91416-B
hexagonal ale	173-84686-B
hexagone	173-85255-B
hexagramme	173-86216-B
hexagyne	173-86651-B
hexagynie	173-86797-B
hexametre	173-86911-B
hexandre	173-87977-B
hexandrie	173-88125-B
hexandrique	173-88281-B
hexapetale ee	173-89849-S
hexapetale ou hexapetale ee	173-89849-B
hexaphylle	173-88379-B
hexaples	173-88553-B
hexapode	173-88979-B
hexapole	173-89156-B
hexaptere	173-89692-B
hexaptote	173-89331-B
hexasepale	173-90969-B
hexasperme	173-90066-B
hexastique	173-90235-B
hexastome	173-90458-B
hexastyle	173-90613-B
hexasyllabe	173-90792-B
hexodon	173-91905-B
heyque	173-92017-B
hi	173-92066-B
hianticonque	173-92879-B
hiatus	173-93247-B
hibernacle	173-95607-B
hibernal ale	173-95849-B
hibernant ante	173-96264-B
hibernation	173-96545-B
hiberner	173-96695-B
hibernie	173-96871-B
hibiscees	173-97846-B
hibiscus	173-96975-B
hibou	173-97938-B
hic	173-101489-B
hic et nunc	173-102187-B
hicard	173-102333-B
hickory	173-102502-B
hidalgo	173-102646-B
hideur	173-103035-B
hideusement	173-104662-B
hideux euse	173-105283-B
hidrotique	173-106877-B
hie	173-107132-B
hieble	174-64990-B
hiemal ale	174-66134-B
hiemation	174-66563-B
hiement	173-108153-B
hier	25-174682-S,173-108472-B,173-108759-B
hieracite	174-66786-B
hieracocephale	174-67091-B
hierarchie	174-67325-B
hierarchique	174-69610-B
hierarchiquement	174-70078-B
hierarchisation	174-70223-B
hierarchiser	174-70354-B
hierarque	174-70507-B
hieratique	174-70881-B
hieratiquement	174-71605-B
hieratisme	174-71903-B
hiercheur	173-113306-B
hierodrame	174-72750-B
hierodule	174-73040-B
hieroglyphe	174-73262-B
hieroglyphe ee	174-77042-B
hieroglyphique	174-75340-B
hieroglyphisme	174-76889-B
hierogrammate ou hierogrammatiste	174-77393-B
hierogrammatique	174-77643-B
hierogrammatiste	174-77393-S
hierogramme	174-77804-B
hierographie	174-77946-B
hierographique	174-78084-B
hierologie	174-78176-B
hierologique	174-78446-B
hieronique	174-78532-B
hieronymique	174-78740-B
hieronymites	174-78879-B
hierope	174-80175-B
hierophante	174-79239-B
hierophantide	174-79985-B
hieroscopie	174-80598-B
high life	173-113361-B
highland	173-113754-B
higoumene	173-114164-B
hilaire	173-114559-B
hilarant ante ou hilariant ante	173-114658-B
hilariant ante	173-114658-S
hilarieux euse	173-115165-B
hilarite	173-115809-B
hilda	173-116631-B
hile	173-116725-B
hiliere	173-117231-B
hilifere	173-117103-B
hiloire	78-40423-S,173-117298-B
hilon	173-117709-B
hilosperme ee	173-117894-S
hilosperme ou hilosperme ee	173-117894-B
hilote	173-118117-B
himalayen enne	173-118152-B
himantocere	173-118318-B
himantopode	173-118548-B
himation	173-118781-B
himyarique	173-119071-B
himyarite	173-119179-B
hin	173-119434-B
hindi ou hindoustani ou hindouvi	173-119826-B
hindouisme	173-120156-B
hindoustani	173-120769-B
hindoustani ou hindouvi	173-119826-S
hindoustaniste	173-120931-B
hindouvi	173-119826-S
hinguet	173-121116-B
hinse	173-121181-B
hipp ou hippo	173-121285-B
hippace	173-121396-B
hippanthropie	173-121576-B
hipparion	173-121787-B
hipparque	173-122409-B
hippe	173-122580-B
hippee	173-137933-B
hippelaphe	173-138050-B
hippiatre	173-122740-B
hippiatrie	173-122997-B
hippiatrique	173-123091-B
hippie	173-123349-B
hippien ienne	173-123454-B
hippique	173-123790-B
hippius	173-123938-B
hippo	173-121285-S
hippobdelle	173-124071-B
hippobosque	173-124235-B
hippocampe	173-124593-B
hippocastanees	173-125094-B
hippocentaure	173-125432-B
hippocolle	173-126006-B
hippocrate	173-126189-B
hippocratee	173-127303-B
hippocratique	173-126428-B
hippocratiser	173-126811-B
hippocratisme	173-126926-B
hippocratiste	173-127215-B
hippocrene	173-127422-B
hippodrome	173-128415-B
hippodromie	173-128916-B
hippoglosse	173-129040-B
hippogriffe	173-129329-B
hippolithe	173-130071-B
hippologie	173-130420-B
hippologique	173-130553-B
hippologue	173-130913-B
hippomancie	173-131150-B
hippomane	173-131330-B,173-132052-B,173-132176-B
hippomanees	173-132549-B
hippomanie	173-132358-B
hipponacte ou hipponacteen	173-132735-B
hipponacteen	173-132735-S
hippone	173-133221-B
hippopathologie	173-133446-B
hippope	173-133570-B
hippophae	173-134502-B
hippophage	173-134136-B
hippophagie	173-134307-B
hippophagique	173-134419-B
hippopotame	173-134821-B
hippopotamien ienne	173-136227-B
hipposandale	173-136446-B
hippotomie	173-136962-B
hippurate	173-137090-B
hippuride	173-137205-B
hippurie	173-137350-B
hippurique	173-137574-B
hippurite	173-137806-B
hircin ine	173-138354-B
hircine	173-138516-B
hircipelle	173-138649-B
hircique	173-138783-B
hircisme	174-0-B
hircocerf	174-161-B
hirondeau	174-801-B
hirondelle	174-1244-B
hirondinees	174-7342-B
hirsute	174-7469-B
hirtimane	174-7609-B
hirtipede	174-7765-B
hirudiculteur	174-7918-B
hirudiculture	174-7994-B
hirudine ee ou hirudiniforme	174-8338-B
hirudiniculteur	174-8071-B
hirudiniculture	174-8170-B
hirudiniforme	174-8338-S
hispanique	174-8763-B
hispanisme	174-8892-B
hispide	174-8976-B
hispidite	174-9128-B
hisse ee	174-10675-B
hisser	174-9221-B
hisson	174-10585-B
histasapage	174-10774-B
histasape	174-11015-B
histasaper	174-11185-B
histiodromie	174-11264-B
histiologie	174-11519-B
histiophore	174-11627-B
histochimie	174-12086-B
histochimique	174-12319-B
histogenie	174-12656-B
histographie	174-12527-B
histoire	174-12790-B
histologie	174-31259-B
histologique	174-31556-B
histologiquement	174-31636-B
histonomie	174-31838-B
historial ale	174-32036-B
historicite	174-32370-B
historie ee	174-47584-B
historien	174-32808-B
historier	174-36372-B
historiette	174-37622-B
historieur	174-38630-B
historiographe	174-39223-B
historiographer	174-41328-B
historiographerie	174-41681-B
historiographie	174-41830-B
historiographique	174-42364-B
historiosophie	174-42460-B
historique	174-43090-B,326-150699-S
historiquement	174-46101-B
histotaxie	174-48337-B
histotaxique	174-48708-B
histotripsie	174-49004-B
histotripteur	174-49239-B
histotromie	174-49350-B
histrion	174-49557-B
histrionage	174-50932-B
histrionie	174-51323-B
histrionique	174-51656-B
histrionner	174-51957-B
hiver	131-53848-S,174-52350-B
hivernache	174-60265-B
hivernage	174-60326-B
hivernal ale	174-61458-B
hivernation	174-61892-B
hiverne ee	174-64772-B
hivernement	174-62179-B
hiverner	131-53998-S,174-62263-B
ho	174-80810-B
hobbisme	174-82030-B
hobereau	174-82405-B
hobin	174-85240-B
hoc	4-95987-S,174-85371-B
hoc et ab hac	1-10827-S
hoca	174-86741-B
hocco	174-87824-B
hochat	174-88115-B
hoche	174-88268-B
hoche ee	174-97025-B
hochement	174-89401-B
hochepied	174-89651-B
hochepot	174-90077-B
hochequeue	174-90822-B
hocher	174-90984-B,174-93116-B
hochet	174-94002-B,174-96431-B
hocheur	174-96918-B
hockiac	174-97130-B
hodographique	174-97351-B
hodometre	174-97469-B
hodometrie	174-98218-B
hodometrique	174-98332-B
hoeli	174-98432-S
hoeli ou hoeli	174-98432-B
hogner	174-98618-B
hoguine	174-99691-B
hoho	174-99852-B
hohou	174-99888-B
hoir	174-99972-B
hoirie	174-102002-B
hoirin ou horin	174-102604-B
hola	174-110193-B
holacanthe	174-102968-B
holement	182-22773-B
holer	182-22969-B
hollandais	174-103176-B
hollandaise	174-103637-B
hollande	174-103718-B
hollande ee	174-105053-B
hollander	174-104552-B
hollandiser	174-104892-B
holo	174-105230-B
holobranche	174-105283-B
holocarpe	174-105419-B
holocauste	174-105583-B
holocauster	174-106961-B
holocentre	174-107135-B
holoedre	174-109765-B
holoedrie	174-109985-B
holoedrique	174-110085-B
holographe	174-107324-B
holographier	174-107779-B
holometre	174-107881-B
holopetalaire	174-108680-B
holophrase	174-108215-B
holophrastique	174-108358-B
holosidere	174-108877-B
holothurides	174-109206-B
