mutule	233-315-B
myalgie	233-1530-B
mycelial ale	233-2510-B
mycelium	233-2625-B
mycetographie	233-3126-B
mycetologie	233-3285-B
mycogenie	233-1872-B
mycogenique	233-2058-B
mycoglycose	233-1665-B
mycologie	233-2138-B
mycterie	233-2271-B
mydriase	233-3480-B
mydriatique	233-3634-B
mye	233-3787-B
myelencephale	233-61818-B
myeline	233-62051-B
myelite	233-62194-B
myelocyte	233-62389-B
myeloide	233-63286-B
myelomalacie	233-62586-B
myelome	233-62768-B
myeloplaxe	233-62898-B
myelosarcome	233-63121-B
mygale	233-3837-B
myiocephale	233-4164-B
myiodopsie	233-4470-B
myiologie	233-4660-B
myitis	233-4798-B
mylacephale	233-4980-B
myliobate	233-5203-B
mylo glosse	233-5530-B
mylo hyoidien	233-5824-B
myo	233-6168-B
myocarde	233-6255-B
myocardite	233-6387-B
myocele	233-6608-B
myodynie	233-6744-B
myognathe	233-6907-B
myographe	233-7169-B
myographie	233-7368-B
myographique	233-7481-B
myoide	233-12337-B
myolemme	233-7701-B
myologie	233-7884-B
myomalacie	233-8026-B
myope	233-8185-B
myopie	233-9347-B
myoporinees	233-10129-B
myoptere	233-10446-B
myose	233-10553-B
myosotis	233-10735-B
myospectroscope	233-11285-B
myotome	233-11529-B
myotomie	233-11729-B
myotomique	233-12105-B
myria	233-12548-B
myriacanthe	233-12632-B
myriade	233-12796-B
myriagramme	233-13507-B
myriametre	233-13620-B
myrianthe	233-13904-B
myriapode	233-14112-B
myriare	233-14171-B
myrica	233-14294-B
myricacees ou myricees	233-14746-B
myricees	233-14746-S
myricine	233-14933-B
myringite	233-15027-B
myrio	233-15243-B
myriobiblon	233-15335-B
myriogone	233-15521-B
myrionyme	233-15764-B
myriophthalme	233-15977-B
myriophylle	233-16254-B
myriopode	233-16480-B
myristicacees ou myristicees	233-16948-B
myristication	233-17250-B
myristicees	233-16948-S
myristicine	233-17525-B
myristine	233-17741-B
myristique	233-17911-B
myrmecie	233-19346-B
myrmecophage	233-19572-B
myrmeleon	233-19722-B
myrmidon	233-18105-B
myrobolan	233-19891-B
myronate	233-21881-B
myronique	233-21998-B
myrosine	233-22216-B
myrosperme	233-22385-B
myrospermine	233-22648-B
myrote	233-22792-B
myroxyle	233-22946-B
myroxyline	233-23186-B
myroxylique	233-23328-B
myrrhe	233-23485-B
myrrhe ee	233-25645-B
myrrhis	233-25024-B
myrrhite	233-25230-B
myrrhoide	233-25351-B
myrrhoidine	233-25522-B
myrsinees	233-25844-B
myrtacees	233-26004-B
myrte	233-26134-B
myrtifere	233-27925-B
myrtifolie ee	233-27602-B
myrtiforme	233-27766-B
myrtil	233-28126-B
mysorine	233-28422-B
mystagogie	233-28513-B
mystagogue	233-29264-B
myste	233-29672-B
mystere	233-39218-B
mysterieusement	233-52767-B
mysterieux euse	233-53192-B
mysticisme	233-29784-B
mysticite	233-30273-B
mystificateur	233-30828-B
mystification	233-31645-B
mystifie ee	233-34524-B
mystifier	233-32346-B
mystique	233-34637-B
mystiquement	233-38412-B
mystiquerie	233-38734-B
mystre	233-39055-B
mytacisme	233-55312-B
mythe	233-55538-B
mythique	233-56488-B
mythisme	233-56731-B
mythographe	233-56814-B
mythographie	233-56896-B
mythologiade	233-57132-B
mythologie	233-57611-B
mythologique	233-58493-B
mythologiquement	233-58774-B
mythologiser	233-58864-B
mythologiste	233-59182-B
mythologue	233-59723-B
mytiloides	233-59988-B
myure	233-60157-B
myxa	233-60503-B
myxinoides	233-60702-B
myxogastre	233-60815-B
myxomycete	233-61190-B
myzocephales	233-61355-B
myzoxyles	233-61533-B
n	237-148031-B
n y touche	237-150426-B
nabab	237-150476-B
nababie	237-151018-B
nabateen enne	237-151338-B
nabca	237-151472-B
nabirop	237-151607-B
nable	237-151711-B
nabot ote	237-151900-B
nabusseau	237-153227-B
nacaire	237-153474-B
nacarat	237-153901-B
nacelle	237-154933-B
nache	237-156673-B
nacouma	237-156922-B
nacre	237-157054-B
nacre ee	237-158737-B
nacrer	237-158064-B
nacrier ere	237-158127-B
nacrite	237-158227-B
nacro culture	237-158331-B
nacrure	237-158598-B
nadelle	237-159077-B
nadir	237-159239-B
nadiral ale	237-159611-B
naevus	237-159866-B
nafe	237-160552-B
naffe	237-160048-B
nagari	237-160804-B
nage	237-161129-B
nageant ante	237-166112-B
nagee	237-181274-B
nagement	237-166961-B
nageoire	237-167246-B
nageoter	237-168397-B
nager	237-168517-B
nageret	237-177392-B
nages	237-177510-B
nageur euse	237-177688-B
nagor	237-179236-B
naguere ou nagueres	237-179362-B
nagueres	237-179362-S
nahuatl	237-181709-B
naiade	239-20753-B
naiadees	239-22521-B
naie ou naye	237-182017-B
naif ive	239-22780-B
nain aine	237-182178-B
naire	239-28008-B
naissain	237-185787-B
naissance	237-185901-B
naissant ante	237-196671-B
naitre	239-5127-B
naivement	239-28120-B
naivete	239-29467-B
naja	237-200947-B
nam	237-201154-S
nam nam	237-201154-B
nanan	237-201266-B
nanceate	237-202123-B
nanceique	237-202207-B
nancelle	237-201906-B
nandhirobees	237-202302-B
nandou	237-202420-S
nandu ou nandou	237-202420-B
nanguer ou nangueur	237-202635-B
nangueur	237-202635-S
naniser	237-202753-B
nanisme	237-203064-B
nankin	238-0-B
nanocephalie	238-556-B
nanocormie	238-396-B
nanomelie	238-758-B
nanquinette	238-913-B
nansouk	238-1032-B
nanti ie	238-1502-B
nantir	238-2107-B
nantissement	238-4072-B
naophore	238-5325-B
napee	238-17571-B
napel	238-5529-B
naphe	238-6185-B
naphtagil	238-6224-B
naphtaline	238-6289-B
naphte	238-6464-B
naphteine	238-7439-B
napiforme	238-7581-B
napiste	238-7714-B
naples	238-7799-B
napoleon	238-9485-B
napoleone	238-9812-B
napoleonien ienne	238-9939-B
napoleonisme	238-10158-B
napoleonite	238-10305-B
napolitain	238-9059-B
napolitaine	238-9288-B
nappage	238-10397-B
nappe	156-77463-S,238-10957-B,334-9295-S
napperie	238-16956-B
napperon	238-17242-B
nappiste	238-17500-B
naque mouche	238-17850-B
naquet	238-17919-B
naqueter	238-18774-B
narbonne	238-19158-B
narceine	238-25165-B
narcine	238-19214-B
narcisse	238-19330-B,238-21407-B
narcissine	238-22486-B
narcissoide	238-22594-B
narcose	238-23050-B
narcotico acre	238-23294-B
narcotine	238-23561-B
narcotinique	238-23809-B
narcotique	238-24043-B
narcotisme	238-25027-B
nard	238-25356-B
nardet	238-26635-B
narel	238-26767-B
narghileh ou narguile	238-26837-B
nargue	238-27548-B
nargue ee	238-30194-B
narguer	238-29571-B
narguile	238-26837-S
narine	238-30288-B
narines	20-71727-S
narquois oise	238-32877-B
narquoisement	238-34618-B
narquoiserie	238-34696-B
narrateur trice	238-34846-B
narratif ive	238-35235-B
narration	238-35755-B
narrative	238-37819-B
narre	238-40078-B
narre ee	238-40665-B
narrer	238-38141-B
narthece	238-41631-B
narthex	238-40760-B,390-36225-S
narval	238-41826-B
narvaline	238-42284-B
nasal ale	151-171298-S,238-42401-B,249-99256-S,343-44673-S,343-44948-S
nasale	203-30687-S
nasalement	238-45122-B
nasalisation	238-45345-B
nasaliser	238-45530-B
nasalite	238-45667-B
nasard	238-46146-B
nasarde	238-47624-B
nasarde ee	238-50391-B
nasarder	238-49642-B
nase	238-50600-B
naseau	238-50761-B,343-45237-S
nasi	238-52323-B
nasicorne	238-52809-B
nasiere	238-56549-B
nasillard arde	238-52995-B
nasillardement	238-53415-B
nasillardise	238-53728-B
nasillement	238-53941-B
nasiller	238-54178-B
nasilleur euse	238-55158-B
nasillonnement	238-55316-B
nasillonner	238-55717-B
nasillonneur euse	238-55864-B
nasique	238-56094-B
nasitort	238-56325-B
naso labial ale	343-45345-S
naso lobaire	238-56672-B
naso oculaire	238-56877-B
naso palatin ine	238-57011-B
naso palpebral ale	238-57165-B
naso sourcilier ere	238-57323-B
naso transversal ale	238-57457-B
nason	238-57711-B
nasonne ee	238-58367-B
nasonnement	238-57866-B
nassat	238-58470-B
nasse	238-58606-B
nassier	238-61423-B
nassone	238-61508-B
nasturce	238-61638-B
natal ale	238-61952-B
natalite	238-63625-B
natant ante	238-64021-B
natation	238-64198-B
natatoire	238-64589-B
nates	238-64968-B
natice	238-65135-B
naticier	238-65218-B
naticoides	238-65292-B
natif ive	238-65443-B
nation	238-68052-B
national ale	238-75869-B
nationalement	238-77794-B
nationalisation	238-78019-B
nationaliser	238-78235-B
nationalite	238-78508-B
nations	292-155299-S
nativement	238-79638-B
nativisme	238-79789-B
nativitaire	238-80426-B
nativite	238-80607-B
natrium	238-82878-B
natrix	238-82982-B
natrometre	238-83047-B
natron ou natrum	238-83262-B
natrum	238-83262-S
nattage	238-83995-B
natte	238-84204-B
natte ee	238-87075-B
natter	238-86132-B
nattier	238-86774-B
natu majorite	238-87422-B
naturalibus	186-82838-S
naturalibus in	238-87806-B
naturalisation	238-88086-B
naturalise ee	238-95578-B
naturaliser	238-89132-B
naturalisme	238-92660-B
naturaliste	238-93671-B
naturalite	238-95934-B
naturant ante	238-97521-B
nature	238-98381-B
nature ee	238-163946-B
naturel elle	238-133949-B
naturellement	238-159145-B
naturisme	238-163437-B
naturiste	238-163766-B
nauclee	238-164461-B
nauclerc	238-164132-B
naucore	238-164843-B
naufrage	238-165048-B
naufrage ee	238-170826-B
naufrager	238-169566-B
naufrager ere	238-169971-B
naufrageur	238-170641-B
naulage	238-171323-B
naulis	238-172024-B
naumachie	238-172069-B
nauscope	238-172315-B
nauseabond onde	238-172495-B
nausee	238-172979-B
nauseeux euse	238-173935-B
nautier	238-174137-B
nautile	238-174292-B
nautilier	238-175617-B
nautilite	238-175693-B
nautique	238-175810-B
nautometre	238-176422-B
nautonier iere	238-176598-B
nauve	238-177957-B
navaga	238-178152-B
naval ale	238-178487-B
navalorama	238-180391-B
navarchie	238-180933-B
navarque	238-181085-B
navarrine	238-181287-B
navee	239-3039-B
navet	238-181425-B
navetier	238-183027-B
navetiere	238-183178-B
navette	238-183372-B,238-185243-B,278-219753-S
navicelle	238-189293-B
naviculaire	238-189422-B
navicule	238-190051-B
navielle	238-190400-B
naviforme	238-190480-B
navigabilite	238-190665-B
navigable	238-190967-B
navigant	238-191579-B
navigateur	238-191873-B
navigation	238-193773-B
naviguer	238-198228-B
naville	238-200691-B
navire	238-201225-B
navrant ante	239-0-B
navre ee	239-2191-B
navrer	239-236-B
naye	237-182017-S
nazareen	239-3872-B
nazireat	239-4206-B
nazireen	239-4271-B
nazoreens	239-5043-B
ne	229-188170-S,239-32988-B,279-80059-S,369-84884-S
ne m oubliez pas	239-52597-B
ne nee	243-13063-B
neanmoins	243-21004-B
neant	243-22438-B
neantise	243-35743-B
nearthrose	243-36172-B
neble	243-6942-B
nebride	243-36382-B
nebulaire	243-36600-B
nebulasit	243-36715-B
nebule ee	243-41943-B
nebuleux euse	243-36892-B
nebulosite	243-41116-B
nec plus ultra	239-52871-B,241-5066-S
necessaire	243-42094-B
necessairement	243-52768-B
necessarien	243-53911-B
necessario	243-54071-B
necessitante	243-54343-B
necessitation	243-54931-B
necessite	243-57957-B
necessite ee	243-71606-B
necessiter	243-55079-B
necessiteux euse	243-56601-B
necro	243-72934-B
necrobiose	243-73089-B
necrobiotique	243-73338-B
necrogene	243-73428-B
necrologe	243-73629-B
necrologie	243-74482-B
necrologique	243-74612-B
necrologue	243-74721-B
necromance ou necromancie	243-74855-B
necromancie	243-74855-S
necromancien enne ou negromancien enne	243-75699-B
necromant ou negromant	243-76334-B
necrometre	243-76744-B
necrophage	243-77315-B
necrophobie	243-77465-B
necrophore	243-77774-B
necropole	243-78075-B
necropsie	243-78414-B
necroscopie	243-78541-B
necrose	243-78905-B
necroser	243-79356-B
necrotomie	243-79604-B
nectaire	239-52940-B
nectar	239-53487-B
nectaradene	239-56345-B
nectare ee ou nectareen enne	239-57250-B
nectareen enne	239-57250-S
nectarifere	239-56754-B
nectarifique	239-56523-B
nectarotheque	239-56979-B
nectique	239-57652-B
nee	5-25438-S,166-146441-S,243-13063-S,275-1269-S,287-173366-S,313-158625-S,329-91973-S
nef	239-57914-B
nefas	262-174237-S
nefaste	243-79738-B
nefe	243-7309-B
nefle	243-7499-B
neflier	243-80585-B
nega	239-62256-B
negateur trice	243-81630-B
negatif ive	243-82000-B,384-66434-S
negation	243-90106-B
negativement	243-91272-B
negativite	243-91425-B
negatoire	243-91580-B
neglige ee	243-106472-B
