m	214-31067-B,247-166829-S
m amie	214-32493-B
m amour	214-32694-B
m oubliez pas	239-52597-S
ma	214-33240-B
ma ou mes	227-68313-S
mab	214-33312-B
mabee	214-33707-B
mabre	214-33603-B
mac ferlane	214-33810-B
macabre	214-34099-B
macadam	214-36947-B
macadamisage	214-37182-B
macadamisation	214-37258-B
macadamiser	214-37499-B
macaire	214-37616-S,310-102895-S
macaire ou robert macaire	214-37616-B
macao	214-38729-B
macaque	214-38821-B
macaraqueau	214-39212-B
macaret	214-39439-B
macareux	214-39489-B
macaribo	214-39773-B
macariens	214-39884-B
macarisme	214-40199-B
macarite	214-40397-B
macaron	214-40813-B
macarone ee	214-43076-B
macaronee	214-43197-B
macaroni	214-41711-B
macaronique	214-42177-B
macaronisme	214-42874-B
macaroniste	214-42983-B
maccabeo	214-43992-B
macedoine	214-97817-B
macedonien enne	344-94239-S
macedonien ienne	214-98622-B
macedoniens	214-98879-B
macer	214-44093-B
macerate	214-100235-B
macerateur	214-99028-B
maceration	214-99180-B
macere ee	214-101997-B
macerer	214-100449-B
maceret	214-44134-B
maceron	214-44327-B
machabees	214-44527-B
machaon	214-44854-B
mache	233-63462-B
mache bouchons	233-63863-B
mache dru	233-64065-B
mache ee	233-80784-B
mache laurier	233-64194-B
machecoulis ou machicoulis	233-64608-B
machefer	233-65915-B,233-66121-B
machelier iere	233-67001-B
machement	233-68137-B
machemoure	233-68474-B
macher	233-68581-B
macheur euse	233-73897-B
machiavel	214-45097-B
machiavelique	214-45761-B
machiaveliquement	214-46366-B
machiaveliser	214-46656-B
machiavelisme	214-47157-B
machiaveliste	214-48117-B
machicatoire	233-74115-B
machicot	214-48425-B
machicotage	214-48881-B
machicoter	214-49345-B
machicoulis	233-64608-S,233-74275-B
machiller	233-74345-B
machin	214-49625-B
machinage	214-49983-B
machinal ale	214-50122-B
machinalement	214-51336-B
machinateur trice	214-52070-B
machination	214-52761-B
machine	214-53904-B
machine ee	214-77416-B
machiner	214-72196-B
machinerie	214-74490-B
machineur	214-74667-B
machinisme	214-74980-B
machiniste	214-75915-B
machinoir	214-76988-B
machinule	214-77109-B
machoiran	214-77833-B
machoire	233-74522-B,254-86219-S
machonne ee	233-78452-B
machonnement	233-77284-B
machonner	233-77614-B
machoquet	233-78697-B
machure	233-78770-B
machure ee	233-80687-B
machurer	214-78043-B,233-79039-B
macigno	214-78416-B
macilence	214-78601-B
macine	214-78805-B
macis	214-78893-B
mackintosh	214-79310-B
maclage	214-79473-B
macle	214-79568-B,214-79926-B,214-80259-B
macle ou macre	214-81067-B
macler	214-81315-B
macler se	214-81536-B
maclifere	214-81935-B
maclon	214-82099-B
maclonniere	214-82151-B
maclou	214-82328-B
maclure	214-82451-B
macon	150-27846-S,222-6422-B,233-81874-B
maconnage	222-9344-B
maconnaise	233-81950-B
maconne ee	222-12658-B,357-238486-S
maconner	222-9705-B
maconnerie	150-28675-S,222-11402-B
maconnique	222-12526-B
macouba	214-82589-B
macquage	214-82691-B
macque	214-82746-B
macquer	214-83106-B
macquerie	214-83674-B
macquoir	214-83795-B
macr ou macro	214-83967-B
macre	214-81067-S,214-84060-B,214-84102-B
macree	214-94538-B
macreuse	105-39614-S,214-84151-B
macro	214-83967-S
macrobien ienne	214-85200-B
macrobiotique	214-85752-B
macrocephale	214-87479-B
macrocephalie	214-87792-B
macrocere	214-87256-B
macrocerque	214-85956-B
macrochire	214-86129-B
macrochirie	214-86274-B
macrocole	214-86392-B
macroconidie	214-86589-B
macrocosme	214-86782-B
macrodactyle	214-88320-B
macrodactylie	214-88519-B
macroglosse	214-88655-B
macrologie	214-88833-B
macromelie	214-89026-B
macronyque	214-89206-B
macropetale	214-90752-B
macrophthalme	214-89413-B
macrophylle	214-89599-B
macropode	214-89762-B
macropodie	214-90107-B
macroprosopie	214-90222-B
macroptere	214-90426-B
macrorrhize	214-90888-B
macroscelide ou macroskelide	214-92456-B
macroscelie	214-92748-B
macroscien ienne	214-91040-B
macroscopique	214-91400-B
macroskelide	214-92456-S
macrosomatie	214-92918-B
macrostiche	214-93117-B
macrostyle	214-93448-B
macrotarsien ienne	214-93576-B
macrotheride	214-93728-B
macroule	214-94063-B
macroure	214-94305-B
maculage	214-94640-B
maculaire	214-94843-B
maculature	214-95001-B
macule	214-95890-B
macule ee	214-97548-B
maculer	214-96757-B
maculiforme	214-97412-B
macusson	214-97734-B
madame	35-85732-S,91-61326-S,214-102282-B,361-32945-S,361-58786-S,362-125451-S
madapolam	214-111535-B
madarose	214-111636-B
madefaction	215-11740-B
madefie ee	215-12139-B
madefier	215-11877-B
madeleine	214-111805-B
madelonnettes	214-112419-B
mademoiselle	214-112808-B
madere	215-11663-B
madi	214-116467-B
madiaique	214-116713-B
madier	215-0-B
madone	215-306-B
madote	215-628-B
madrague	215-899-B
madras	215-1500-B
madrate	215-1898-B
madre	215-1985-B
madre ee	215-8050-B
madrephylles	215-10071-B
madrepore	215-10268-B
madrepores	215-11565-B
madreporien ienne	215-10952-B
madreporifere	215-11213-B
madreporiforme	215-11079-B
madreporique	215-11357-B
madreporite	215-11459-B
madrier	215-2949-B
madrigal	215-3480-B
madrigalesque	215-6285-B
madrigalier	215-6784-B
madrigaliser	215-7014-B
madrigaliste	215-7297-B
madrinier	215-7435-B
madrure	215-7817-B
maemacterion	215-12239-B
maerle	222-12902-B
maestoso	215-12314-B
maestral	222-13520-B
maestraliser	222-13567-B
maestria	215-12507-B
maestro	215-12776-B
mafan	215-13154-B
maffle ee et mafflu ue	215-13210-B
mafflu ue	215-13210-S
mafia	215-14580-B
maforte	215-14871-B
magagne	215-15032-B
maganom	215-15112-B
magasin	156-74377-S,215-15352-B
magasinage	215-20406-B
magasinier	215-20742-B
magdaleon	215-21341-B
mage	215-21674-B,215-23202-B
mage ou maje	215-23476-B
magellanique	215-24245-B
magenta	215-24436-B
magicien enne	215-24726-B
magie	215-26761-B
magile	215-30797-B
magique	215-30911-B
magisme	215-32652-B
magister	215-32762-B
magistere	215-43379-B
magistral ale	215-33980-B
magistralement	215-36535-B
magistrat	62-40355-S,215-37242-B
magistrature	215-40967-B
magma	215-45254-B
magnan	215-45497-B
magnanage	215-45883-B
magnanerie	215-46011-B
magnanier	215-46310-B
magnanime	215-46460-B
magnanimement	215-48842-B
magnanimite	215-49053-B
magnat	215-51215-B
magnatisme	215-51399-B
magnaud	215-51525-B
magnauderie	215-51614-B
magnaudeur euse	215-51707-B
magnesico ammonique	215-67812-B
magnesides	215-68071-B
magnesie	215-68216-B
magnesie ee	215-70312-B
magnesien ienne	215-69218-B
magnesifere	215-69518-B
magnesique	215-69709-B
magnesite	215-70017-B
magnesium	215-70151-B
magnetipolaire	215-70451-B
magnetique	155-35815-S,215-70600-B,384-66014-S
magnetiquement	215-72177-B
magnetisant ante	215-72263-B
magnetisation	215-72729-B
magnetise ee	215-74963-B
magnetiser	215-72877-B
magnetiseur euse	215-73116-B
magnetisme	155-35943-S,215-73287-B,384-66194-S
magneto electrique	215-75149-B
magnetologie	215-75470-B
magnetometre	215-75622-B
magney	215-51833-B
magnier	215-51945-B
magnificat	215-52289-B
magnificence	215-53354-B
magnifie ee	215-66122-B
magnifier	215-58529-B
magnifique	215-61070-B
magnifiquement	215-64808-B
magnoc	215-66361-B
magnole	215-66514-B
magnolia	215-66569-B
magnoliacees	215-66625-B
magnolier	215-66771-B
magnonaise	215-67659-B
magnote	215-67721-B
magog	215-76152-B
magot	215-76302-B,215-79686-B
maguey	215-81453-B
maguseens	215-81497-B
magyar	215-81618-B
magyarisation	215-81706-B
magzem	215-81976-B
mahagoni	215-82887-B
mahaleb	215-82944-B
mahari	215-83080-B
maheutre	215-83206-B
mahogou	215-84352-B
mahom ou mahon	215-84404-B
mahometan ane	215-84605-B
mahometanisme	215-85748-B
mahometisme	215-85966-B
mahon	215-84404-S,215-86849-B,215-86954-B
mahonille	215-87123-B
mahonne	215-87382-B
mahou	215-87776-B
mahout	215-88248-B
mahratte	215-88341-B
mahute	215-88441-B
mai	145-185357-S,215-88569-B
maia	222-78276-B,222-78322-B
maialisme	222-78504-B
maidan	222-79089-B
maie	215-91814-B
maieur	222-79281-B
maieutique	222-79570-B
maigle	215-92868-B
maigre	215-93056-B,215-102210-B
maigrelet ette	215-102629-B
maigrement	215-103077-B
maigret ette	215-103495-B
maigreur	215-103941-B
maigri ie	215-104754-B
maigrichon onne	215-104876-B
maigrir	215-105102-B
mail	35-55343-S,215-105791-B
maillade	132-23949-S
maillage	215-108124-B
maillard	70-127178-S,215-108425-B
maille	78-47553-S,143-32420-S,215-108978-B,215-112953-B,215-113669-B,215-117199-B,215-128353-B,268-78794-S,311-142354-S
maille ee	78-47908-S,215-129510-B
mailleau	215-117386-B
maillechort	215-117583-B
mailler	78-47760-S,215-118086-B,215-118300-B,215-119175-B,215-119773-B
maillet	215-119897-B
mailletage	215-121545-B
mailleter	215-121823-B
mailleton	215-122028-B
mailleur	215-122174-B
mailleuse	215-122294-B
mailloche	215-122590-B
mailloir	215-123343-B
maillon	215-123504-B
maillot	215-124016-B,215-124402-B,215-126657-B,276-107804-S
mailloteuse	215-127089-B
maillotin	215-127386-B
maillure	215-127831-B
maimon ou maimonet	215-130226-B
maimonet	215-130226-S
main	17-165279-S,20-70613-S,25-176460-S,37-109090-S,75-56225-S,105-39708-S,135-158546-S,150-71588-S,156-74681-S,167-27669-S,206-73067-S,215-130456-B,334-5140-S
main brune	215-230677-B
main d oeuvre	215-230843-B
main forte	215-231903-B
main levee	215-234211-B
main militaire	215-235094-B
mainate	215-235271-B
mainbour	215-235384-B
maine	215-236260-B
maine ee	215-260915-B
mainete	215-236863-B
mainmise	215-237409-B
mainmortable	215-238163-B
mainmorte	215-239470-B
mainotte	215-243253-B
maint mainte	215-243324-B
mainte	215-243324-S
maintenance	215-245815-B
maintenant	215-246673-B
mainteneur	215-249641-B
maintenir	215-250470-B
maintenon	215-257100-B
maintenu ue	215-257229-B
maintenue	215-257339-B
maintien	215-257708-B
maiolique	222-80605-B
maipouri	215-261162-B
mairain	216-0-B
mairat	216-47-B
maire	216-215-B
mairesse	216-3533-B
mairie	216-3766-B
mais	216-4760-B,222-80664-B
mais mieux hemorrhagie	181-25310-S
maison	44-97439-S,168-27496-S,216-14875-B
maisonnee	216-42580-B
maisonner	216-41184-B
maisonnette	216-41509-B
maisonniere	216-42410-B
maistrance	216-42841-B
maitre	78-50986-S,222-13797-B,292-123872-S
maitre esse	334-5991-S
maitresse	222-56664-B
maitrisable	222-71478-B
maitrise	222-71645-B
maitrise ee	222-77963-B
maitriser	222-74682-B
majat	216-43380-B
maje	215-23476-S,216-43478-B
majeste	216-45642-B
majestueusement	216-43508-B
majestueux euse	216-43738-B
majeur eure	216-57635-B
majolique	216-63007-B
major	216-63386-B,391-39786-S
majorat	216-66077-B
majorataire	216-66642-B
majorate ee	216-67429-B
majoration	216-66733-B
majordomat	216-67730-B
majordome	216-67973-B
majorer	216-68818-B
majorite	216-69432-B,216-69970-B,216-71872-B,238-87422-S
majuscule	216-72159-B
maki	216-74824-B
makis	216-75343-B
mal a pied	216-120647-B
mal ale	216-75751-B
mal appris ise	216-118770-B
mal bouche ee	216-119573-B
mal dente ee	216-119652-B
mal egal	216-121007-B
mal en point	216-119925-B
mal etre	216-121165-B
mal juge	216-120197-B
mal venant	216-120385-B
malac	216-121898-B
malachite	216-122054-B,286-1750-S
malacie	216-122628-B
malaco	216-123063-B
malacoderme	216-123216-B
malacologie	216-123428-B
malacopterygien ienne	216-123583-B
malacosarcose	216-123968-B
malacosome	216-124147-B
malacosteose	216-124291-B
malacozoaire	216-124448-B
malactique	216-124778-B
malade	156-74882-S,216-124964-B
maladie	216-132123-B
maladif ive	216-139804-B
maladivement	216-140827-B
maladministration	216-140902-B
maladrerie	216-141165-B
maladresse	216-141955-B
maladroit oite	216-142196-B
maladroitement	216-143060-B
malaga	216-143250-B
malagma	216-143373-B
malaguette	216-143557-B
malai aie	216-143619-B
malainoc	216-143870-B
malaire	216-144079-B
malais	216-144424-B
malaisance	216-144451-B
malaise	216-144721-B
malaise ee	216-146236-B
malaisement	216-148512-B
malambo	216-149324-B
malamiris	216-149452-B
malamoque	216-149671-B
malandre	216-149822-B
malandreux euse	216-150471-B
malandrie	216-150867-B
malandrin	216-150935-B
malaquette	216-151968-B
malaria	216-152029-B
malarmat	216-152263-B
malart	216-152514-B
malate	216-152831-B
malaventure	216-152963-B
malavise ee	216-153245-B
malaxation	216-153889-B
malaxe ee	216-154487-B
malaxer	216-153954-B
malaxeur	216-154294-B
malayen enne	216-154595-B
malbati ie	216-155373-B
malbeck	216-154697-B
malbergique	216-154756-B
malborough	216-155118-B
malchance	216-155572-B
malchanceux euse	216-155684-B
malchus	216-155946-B
malcomplaisant ante	216-156483-B
malcontent ente	216-156709-B
malder	216-158236-B
maldisant ante	216-158454-B
maldonne	216-158682-B
maldoux	216-159009-B
male	233-82342-B
maleate	217-16914-B
malebete	216-160240-B
malebouche	216-159127-B
malebranchisme	216-159502-B
