vocaliser	375-8309-B
vocalisme	375-8749-B
vocaliste	375-9098-B
vocatif	375-9187-B
vocation	375-9986-B
voce	332-163857-S
vocem	375-17010-B
vocero	375-17155-B
vochysiacees	375-17357-B
vociferant ante	375-17562-B
vociferateur trice	375-17770-B
vociferations	375-17984-B
vociferer	375-18317-B
voconienne	375-19005-B
vodanium	375-19331-B
voetien	376-88365-B
voeu	375-19418-B
voglie	37-109286-S
vogue	259-260189-S,375-27966-B
voguer	375-31427-B
vogueur	375-34418-B
voi	375-34930-B
voici	375-35603-B
void	375-41459-B
voide	375-41728-B
voie	67-84842-S,132-53203-S,375-41769-B
voila	375-89508-B
voile	31-7609-S,375-63212-B,375-74210-B
voile d etai	79-50645-S
voile ee	375-99389-B,375-101190-B,375-101581-B
voiler	375-82165-B,375-85217-B,375-85386-B
voilerie	375-86184-B
voilette	375-86354-B,375-86491-B
voileur	375-86663-B
voilier	375-86775-B
voilure	375-88945-B,375-89333-B
voir	32-95050-S,370-91625-S,375-101859-B
voir venir	375-155177-B
voire	375-155573-B
voirement	375-158021-B
voirie	375-158568-B
voirine	375-161999-B
vois plus je t aime	272-119833-S
vois plus je vous aime ou plus je te vois plus je t aime	272-119833-S
voisin ine	375-162268-B
voisinage	375-167172-B
voisinance	375-170107-B
voisiner	375-170701-B
voiturage	375-171468-B
voiture	375-171789-B
voiture ee	375-181033-B
voituree	375-181160-B
voiturer	375-177969-B
voiturier	375-179298-B
voiturin	375-180301-B
voix	1-60630-S,276-116419-S,375-181341-B
vojet	375-206663-B
vol	375-206852-B,375-215911-B
vol au vent	375-219043-B
volable	375-219523-B
volage	375-219895-B
volagement	375-223404-B
volagete	375-223942-B
volaille	375-224068-B
volailler	375-225787-B
volain	375-226052-B
volant	58-37730-S,259-260487-S,375-226199-B,375-228758-B
volant ante	375-230062-B
volante	375-236212-B,389-63042-S
volards	375-236680-B
volateur	375-236811-B
volatil ile	375-237054-B
volatile	375-238324-B
volatilisation	375-239921-B
volatilise ee	375-241443-B
volatiliser	375-240638-B
volatilite	375-241720-B
volatille	375-242306-B
volatine	375-242780-B
volcan	375-242870-B
volcanicite	375-245897-B
volcanique	286-3708-S,375-246582-B
volcanisation	375-247323-B
volcanise ee	375-247699-B
volcanisme	375-247398-B
volcaniste	375-247558-B
volcanite	375-248575-B
volcelest	375-248678-S
volcelet ou volcelest	375-248678-B
volcet	370-35085-S
vole	375-248881-B
vole ee	375-343286-B,375-343381-B,375-343652-B
volee	375-343727-B
volement	375-249719-B
voler	375-249993-B,375-260663-B
volereau	375-265335-B
volerie	375-265530-B,375-266509-B
volet	375-267804-B
voleter	375-271662-B,375-273233-B
volettement	375-273520-B
voleur	375-273636-B
voleur euse	375-273801-B
voliere	375-279391-B
volige	375-277177-B
voligeage	375-278006-B
voliger	375-278279-B
volins ou volis	375-278396-B
volis	375-278396-S
volition	375-278809-B
volitionnel elle	375-279295-B
volksting	375-280687-B
volnay	375-280996-B
volontaire	375-281064-B
volontairement	375-287456-B
volontarianiste	375-288581-B
volontariat	375-288958-B
volonte	375-292098-B
volontiers	375-289468-B
volselle	375-304269-B
volta	375-304578-B
voltaique	375-305472-B
voltaiquement	375-305881-B
voltairianisme	375-304834-B
voltairien ienne	375-304956-B
voltairiuscule	375-305141-B
voltaisme	375-305975-B
voltametre	375-305330-B
volte	79-50916-S,375-306124-B
volte ee	375-319887-B
volte face	375-310480-B
volter	79-51147-S,375-311190-B
volti	375-311922-B
voltige	375-312353-B
voltigeant ante	375-313247-B
voltigement	375-313601-B
voltiger	375-314101-B
voltigeur	375-317834-B
volubilaire	375-319958-B
volubile	98-114695-S,375-320082-B
volubilis	375-320952-B
volubilisme	375-321009-B
volubilite	375-321104-B
voluble	375-323312-B
volucelle	375-323771-B
volue	375-323919-B
volume	375-324014-B
volumetre	375-332201-B
volumetrique	375-332428-B
volumetriquement	375-332638-B
volumette	375-331187-B
volumineux euse	375-331618-B
volupte	375-336942-B
voluptuaire	375-332772-B
voluptueusement	375-333693-B
voluptueux euse	375-334524-B
voluptuosite	375-336703-B
volute	375-340037-B
volute ee	375-342344-B
voluter	375-342209-B,375-342263-B
volva	375-342452-B
volvace ee	375-342683-B
volve	375-342805-B
volve ee	375-343195-B
volvoce	375-342845-B
vomer	375-356271-B
vomi ie	375-356567-B
vomi purgatif ive	375-356795-B
vomicine	375-356997-B
vomique	375-357155-B,375-357427-B
vomiquier	375-357783-B
vomir	375-357924-B
vomissement	375-363252-B
vomisseur	375-364892-B
vomitif ive	375-365139-B
vomito	375-365489-S
vomito negro ou simplement vomito	375-365489-B
vomitoire	375-365686-B
vomiturition	375-366611-B
vontac	375-367046-B
voquer	376-0-B
vorace	376-160-B
voracite	376-583-B
vordre	376-1548-B
vortex	376-1611-B
vorticelle	376-1892-B
vorticule	376-2041-B
vos	239-98888-S,376-2175-B
vosgien ienne	376-2234-B
votant	376-2425-B
votation	376-2678-B
vote	376-3519-B
vote ee	376-11666-B
voter	376-4281-B
votif ive	376-5863-B
voto	137-40-S
votre	376-6992-B
votre la	377-61484-S
votre le ou votre la	377-61484-B
voue ee	376-65492-B
vouede	376-65445-B
vouer	376-11759-B
vouge	376-17407-B
vougeot	376-18215-B
vougier	376-18366-B
voulant ante	241-9350-S,376-18419-B
vouloir	376-18782-B,376-49572-B
vouloir s 	132-53357-S
voulu ue	376-52138-B
vous	304-113497-S,376-53985-B
vous aime ou plus je te vois plus je t aime	272-119833-S
vous de moi	334-106808-S
vous vois plus je vous aime ou plus je te vois plus je t aime	272-119833-S
vousieu	376-62523-B
vousse ee	376-65097-B
vousseau ou plus ordinairement voussoir	376-62590-B
voussoir	376-62590-S
voussol	376-62946-B
voussoyer	376-62999-B
voussure	20-76586-S,376-63640-B
voute	376-88509-B
voute ee	376-94966-B
vouter	376-92903-B
voutis	376-94883-B
voutz	376-65405-B
vovan	376-66328-B
voveide	376-66385-B
voyage	376-66433-B
voyageable	376-73961-B
voyager	376-74233-B
voyager ere	376-77156-B
voyageur euse	376-77772-B
voyant ante	376-81308-B
voye	376-83279-B
voyelle	326-154990-S,376-83439-B
voyelle ou une h muette nouvel nouvelle	242-60197-S
voyer	376-85446-B,376-86844-B
voyette	376-86916-B
voyeur euse	376-86995-B
voyou	376-87908-B
vrac	376-96075-B
vrai aie	376-97235-B
vraiment	376-116199-B
vraisemblable	376-118217-B
vraisemblablement	376-120706-B
vraisemblance	376-121730-B
vrancelle ou vroncelle	376-124826-B
vredelee	376-129875-B
vreille	376-124936-B
vriddhi	376-125262-B
vrille	376-125452-B
vrille ee	376-129502-B
vriller	376-128344-B
vrillerie	376-128716-B
vrillette	376-129081-B
vrillier	376-129202-B
vrillifere	376-129322-B
vrillon	376-129427-B
vroncelle	376-124826-S
vu arriver	376-133022-B
vu ue	376-129993-B
vue	79-51254-S,156-86881-S,241-9428-S,376-133207-B
vulcain	376-175655-B
vulcanales	376-176561-B
vulcanicite	376-176724-B
vulcanien ienne	376-176795-B
vulcanique	376-177089-B
vulcanisation	376-177209-B
vulcaniser	376-177738-B
vulcanisme	376-177827-B
vulcaniste	376-177940-B
vulcanite	376-178009-B
vulgaire	376-178318-B
vulgairement	376-184780-B
vulgairement et en termes de commerce bordeaux	37-149686-S
vulgarisateur	376-185491-B
vulgarisation	376-185771-B
vulgariser	376-185861-B
vulgarite	376-186079-B
vulgate	376-187570-B
vulgivague	376-188270-B
vulnerable	376-188962-B
vulneraire	376-189245-B
vulnerant ante	376-189865-B
vulneration	376-190128-B
vulpin ine	376-190343-B
vulpine ou vulpuline	376-190899-B
vulpinique ou vulpique	376-191081-B
vulpique	376-191081-S
vulpuline	376-190899-S
vultueux euse	376-191223-B
vulvaire	376-191572-B
vulve	376-191925-B
vulvite	376-192644-B
w	377-66248-B
wacapou	377-66939-B
wacke ou wake	377-67346-B
wacoua	377-67582-B
waddy	377-67910-B
wagage	377-68073-B
waggart	377-68275-B
wagnerisme	377-68414-B
wagon	377-68667-B
wagonet	377-68841-B
wagonnette	377-68890-B
wagonnier	377-69057-B
wahabite	377-69129-B
wahabitisme	377-69489-B
waire ou wairette	377-69561-B
wairette	377-69561-S
wake	377-67346-S
wakouf	377-69741-B
walhalla	377-69864-B
wali	377-70326-B
walida	377-70410-B
walkyrie	377-70568-B
wallon onne	377-71105-B
walrus	377-72207-B
wampoum	377-72869-B
wapiti	377-73485-B
warandeurs	377-73775-B
warie	377-74021-B
warnette	377-74465-B
warnetteur	377-74920-B
warrant	377-75008-B
warrante ee	377-76028-B
warranter	377-75459-B
warretee	377-76119-B
warrots	377-76266-B
wasser	203-1651-S,292-296183-S
wasserglass	377-76643-B
waste	377-76827-B
watchman	377-77836-B
watercloset	377-77979-B
watergang	377-78196-B
waterie	377-78655-B
wateringue	377-78800-B
waterman	377-79459-B
waterproof	377-79609-B
wauxhall	377-79762-B
way	357-215914-S
weald	377-79803-B
wealdien enne	377-80036-B
wedelin	377-80161-B
wega	377-87599-B
wehme et wehmique	377-80288-B
wehmique	377-80288-S
wehrgeld	377-80349-B
welche	377-80782-B
wermouth	377-80817-B
wernerite	377-80869-B
wesleyen	377-81063-B
west	141-45509-S
wetterli	377-81244-B
whig	377-81449-B
whiggisme	377-82369-B
whisk	377-82436-B
whiskey ou whisky	377-82475-B
whisky	377-82475-S
whist	377-82918-B
whiterite	377-83596-B
wiche	377-83682-B
wiclefisme	377-83870-B
wiclefiste	377-84195-B
wigwam	377-84264-B
willelmite	377-84381-B
willis	377-84491-B
willkomm	377-84654-B
winter	377-84798-B
wiskey	377-85053-B
wiski	377-85110-B
wodanium	377-85231-B
wohlerite	377-87923-B
wolfram	377-85457-B
wollastonite	377-85596-B
wombat	377-85712-B
woomera	377-85841-B
woorali ou woorari	377-86171-B
woorari	377-86171-S
wootz	377-86264-B
wormien	377-86570-B
wouede	377-86905-B
wrightie	377-86959-B
writ	377-87136-B
wulfenite	377-87290-B
wurst	377-87373-B
x	377-88026-B
xanthe	377-91028-B
xanthene	377-93704-B
xanthine	377-91294-B
xanthippe	377-91581-B
xanthique	377-91768-B
xanthophylle	377-91921-B
xanthopicrite	377-92148-B
xanthoproteique	377-92437-B
xanthorrhee	377-92903-B
xanthorrhize	377-92728-B
xanthose	377-93066-B
xanthoxyle	377-93278-B
xanthoxylees	377-93527-B
xemple	377-93798-B
xenagie	377-103725-B
xenarque	377-103849-B
xenelasie	377-104908-B
xenie	377-103917-B
xenodoque	377-104395-B
xerantheme	377-105313-B
xerasie	377-105517-B
xeres	378-1063-B
xerophage	378-0-B
xerophagie	378-82-B
xerophile	378-361-B
xerophthalmie	378-577-B
xerotribie	378-934-B
xiphias	377-93851-B
xiphisternal	377-94426-B
xiphodyme	377-94572-B
xiphoide	377-95265-B
xiphoidien enne	83-43900-S
xiphoidien ienne	377-95814-B
xiphopage	377-94816-B
xiphophylle	377-95123-B
xylene	377-103204-B
xylharmonicon	377-96161-B
xylite	377-96333-B
xylo	377-96480-B
xylobalsame	377-96666-B
xylocarpe	377-96861-B
xylocope	377-96993-B
xyloculture	377-97160-B
xylodie	377-97661-B
xylofer	377-97836-B
xylogene	377-99709-B
xylographe	377-98239-B
xylographie	377-98372-B
xylographique	377-99245-B
xyloide	377-102614-B
xyloidine	377-102753-B
xyloidique	377-102998-B
xylolatre	377-100400-B
xylolatrie	377-100525-B
xylolithe	377-100165-B
xylologie	377-100283-B
xylomancie	377-100602-B
xylomyce	377-100812-B
xylon	377-100969-B
xylonite	377-101098-B
xylopale	377-101292-B
xylophage	377-101345-B
xylophagie	377-101897-B
xylophone	377-102005-B
xylophore	377-102324-B
xylotome	377-102488-B
xyste	377-103372-B,377-103623-B
y	308-11018-S,378-1135-B,378-3944-B
y la	368-9154-S
y laisse	332-153055-S
y touche	237-150426-S
y voir	370-91625-S
yac	378-24115-B
yacht	378-24299-B
yack ou yak	378-25707-B
yacna	378-27028-B
yak	378-25707-S
yam	378-25797-B
yankee	378-26066-B
yard	378-26331-B
yatagan	378-26408-B
yaws	378-26944-B
yeble	378-32491-B
yed	378-27339-B
yemenique	378-32527-B
yenite	378-33130-B
yenotte	378-27618-B
yeoman	378-27911-B
yeomanry	378-28288-B
yere	50-0-S
yeuse	378-28539-B
yeux	378-29302-B
ylang	378-29351-S
ylang ylang	378-29351-B
yne	14-29978-S
yoga	378-29662-B
yoghi	378-29878-B
yole	378-30111-B
yon	378-30745-S
yon ou saint yon	378-30745-B
youyou	378-30953-B
ypreau	378-31259-B
yre	220-126216-S
ysard	378-31607-B
ytterbite	378-31646-B
yttria	378-31720-B
yttrique	378-31901-B
yttrium	378-32018-B
yucca	378-32140-B
z	378-33338-B
za	378-34099-B
zagaie	378-34801-B
zaim	378-38225-B
zain	378-35742-B
