restitution	307-66390-B
restitutoire	307-70328-B
restoupage	307-71160-B
restouper	307-71227-B
restraint	307-71386-B
restreignant ante	307-71868-B
restreindre	307-72175-B
restreint einte	307-78006-B
restreinte	307-78600-B
restrictif ive	307-78756-B
restriction	307-79233-B
restringent ente	307-81987-B
resubdiviser	307-82649-B
resultant ante	317-300146-B
resultat	317-302047-B
resulter	317-303024-B
resume ee	318-0-B
resumer	317-304565-B
resumpte	317-305339-B,317-305865-B
resumption	317-305680-B
resupination	318-977-B
resupine ee	318-1083-B
resure	318-1323-B
resurrecteur	318-1624-B
resurrectif ive	318-1812-B
resurrection	318-2177-B
resurrectionisme	318-5113-B
resurrectionnel elle	318-5388-B
resurrectionniste	318-5831-B
retable	79-25757-S,307-83796-B
retabli ie	318-7940-B
retablir	318-9237-B
retablissement	318-16368-B
retablisseur	318-18895-B
retaille	307-84260-B
retaille ee	307-86200-B
retaillement	307-84636-B
retailler	307-84930-B
retaler	318-19093-B
retamage	318-19206-B
retamer	318-19268-B
retameur	318-19435-B
retancer	307-86337-B
retape ee	307-87260-B
retaper	307-86727-B
retard	307-87768-B
retardataire	307-88939-B
retardateur trice	307-89336-B
retardatif ive	307-89979-B
retardation	307-90191-B
retarde ee	307-98330-B
retardement	307-90979-B
retarder	307-93417-B
retater	307-308932-B
retaxer	307-98715-B
reteiller	307-98877-B
reteindre	307-99033-B
reteint einte	307-99322-B
retelegraphier	307-309938-B
retendeur	318-19506-B
retendoir	318-19955-B
retendre	307-99428-B,318-20026-B
retendu ue	307-99756-B
retenir	307-99843-B
retenter	307-124284-B
retenteur trice	318-20529-B
retentif ive	318-20859-B
retention	318-21203-B
retentionnaire	318-23741-B
retentir	307-124569-B
retentissant ante	307-128717-B
retentissement	307-129089-B
retentivite	318-24023-B
retentum	307-130354-B
retenu ue	307-131731-B
retenue	307-134894-B
retenuement	307-141437-B
retercage ou retersage	307-142106-B
reterce ou reterse ee	307-141979-B
retercer ou reterser	307-141698-B
retersage	307-142106-S
reterse ee	307-141979-S
reterser	307-141698-S
retiaire	318-24288-B
reticence	318-24509-B
reticulaire	318-26174-B
reticulation	318-26780-B
reticule	318-27005-B
reticule ee	318-28361-B
retif ive	318-29331-B
retiforme	318-31239-B
retinacle	318-31514-B
retinalite	318-31856-B
retinasphalte	318-31993-B
retine	318-32109-B
retinerve	318-33205-B
retinien ienne	318-33372-B
retinite	318-33496-B,318-33663-B
retinnaphte	318-33906-B
retinoscope	318-34524-B
retirable	307-142247-B
retirade	307-142664-B
retirage	307-142974-B
retiration	307-143142-B
retire ee	307-167110-B
retirement	307-143284-B
retirer	307-144458-B
retirons	307-166256-B
retirote	307-166381-B
retirure	307-166773-B
retisser	307-171465-B
retivete	318-34670-B
retoile	318-35343-B
retoire	318-35505-B
retombe ee	307-182138-B
retombee	307-183192-B
retombement	307-171566-B
retomber	307-171771-B
retombet	307-182023-B
retondeur	307-183679-B
retondre	307-183983-B
retondu ue	307-184648-B
retonner	307-184714-B
retoquer	307-184929-B
retorcher	307-185296-B
retordage	307-185484-B
retordement	307-185947-B
retorderie	307-186262-B
retordeur	307-186619-B
retordoir	307-186829-B
retordre	307-186928-B
retordu ue	307-187849-B
retorquable	318-35775-B
retorque ee	318-37296-B
retorquer	318-36193-B
retors orse	307-187953-B
retorsif ive	318-37441-B
retorsion	318-37729-B
retorte	307-189770-B
retortiller	307-190258-B
retorturer	307-190746-B
retouche	307-190957-B
retouche ee	307-194809-B
retoucher	307-191278-B
retoucheur euse	307-194686-B
retouper	307-194984-B
retour	307-195075-B
retournage	307-221458-B
retourne	307-222007-B
retourne ee	307-240993-B
retournement	307-222190-B,307-222927-B
retourner	307-224324-B
retourneur	307-240595-B
retournure	307-240862-B
retrace ee	307-246132-B
retracement	307-243481-B
retracer	307-243893-B
retractation	318-38554-B
retracte ee	318-45569-B,318-45959-B
retracter	318-39985-B
retracter se	318-43235-B
retracteur trice	318-43420-B
retractible	318-43618-B
retractif ive	318-43763-B
retractile	318-44103-B
retractilite	318-44476-B
retraction	318-44578-B
retraduire	307-246634-B
retraindre	318-46185-B
retrainer	307-290876-B
retraire	307-247148-B
retrait	307-248966-B,307-250439-B,307-250739-B
retrait aite	307-251286-B,307-252458-B
retraite	307-253476-B,307-270556-B
retraite ee	307-271693-B
retraiter	307-271247-B,307-271363-B
retranche ee	307-287472-B
retranchement	307-271982-B
retrancher	307-277132-B
retranscrire	307-288676-B
retransferer	307-288863-B
retransplanter	307-289456-B
retransporter	307-289584-B
retravaille ee	307-290380-B
retravailler	307-289872-B
retraverser	307-290484-B
retrayant ante	307-290696-B
retre	308-129933-S,314-60118-B
retreci ie	318-61351-B
retrecir	318-62477-B
retrecissement	318-65076-B
retreindre	307-291076-B
retreinte	307-291800-B
retrempe	307-292007-B
retrempe ee	307-293054-B
retremper	307-292073-B
retribue ee	318-49264-B
retribuer	318-46321-B
retributaire	318-47188-B
retributeur	318-47416-B
retribution	318-47736-B
retrie	307-293219-B
retriller	318-49372-B
retro	318-49530-B
retro uterin ine	318-49705-B
retroactif ive	318-49933-B
retroaction	318-50608-B
retroactivement	318-50792-B
retroactivite	318-50884-B
retroagir	318-51041-B
retrocedant ante	318-52321-B
retrocede ee	318-53054-B
retroceder	318-52450-B
retrocessif ive	318-51245-B
retrocession	318-51397-B
retrocessionnaire	318-52169-B
retroflechi ie	318-53474-B
retroflexion	318-53172-B
retrogradateur	318-53673-B
retrogradation	318-54029-B
retrograde	318-55151-B
retrograder	318-56991-B
retrogression	318-59201-B
retroition	318-61121-B
retromper	307-293335-B
retropenne ee	318-59443-B
retropulsion	318-59699-B
retroquer	307-293555-B
retrospectif ive	318-59879-B
retrospection	318-60207-B
retrospectivement	318-60670-B
retrotter	307-293991-B
retroubler	307-294276-B
retrouer	307-294431-B
retroussage	307-294535-B
retrousse	307-294707-B
retrousse ee	307-297209-B
retroussement	307-294829-B
retrousser	307-295255-B
retroussis	307-296552-B
retrouve ee	307-305216-B
retrouver	307-298268-B
retroversion	318-60770-B
rets	307-305356-B
retuer	307-308698-B
retus use	318-65923-B
reuchlinien ienne	307-310226-B
reum	318-66145-B
reuni ie	318-66459-B
reunion	318-67556-B
reunir	318-69803-B
reunissage	318-73275-B
reunisseuse	318-73380-B
reussi ie	318-73642-B
reussir	318-74055-B
reussite	241-6852-S,318-79867-B
revaccination	307-310495-B
revacciner	307-310572-B
revalenta	307-310644-B
revalesciere	307-311195-B
revalidation	307-311360-B
revalider	307-311692-B
revaloir	307-311899-B
revalu ue	307-312757-B
revanche	307-312820-B
revanche ee	307-318710-B
revancher	307-316187-B
revancheur	307-318562-B
revari volcet	370-35085-S
revary	369-97306-S
revasser	319-4588-B
revasserie	319-5950-B
revasseur	319-6504-B
revaut	379-142610-S
revautrer	307-318816-B
reve	319-6822-B,319-10151-B
reve creux	319-10972-B
reve ee	319-30531-B
reveche	308-107345-B
revecu et revecus et revecusse creux	308-107051-B
revecus et revecusse creux	308-107051-S
revecusse creux	308-107051-S
reveil	318-81730-B
reveillable	318-85071-B
reveille ee	318-97416-B
reveille matin	318-85254-B
reveillee	318-97814-B
reveillement	318-86469-B
reveiller	318-86667-B
reveilleur	318-95386-B
reveillon	318-96179-B
reveillonner	318-97327-B
revelateur trice	318-146128-B
revelatif ive	318-146549-B
revelation	318-146745-B
revelationiste	318-150785-B
revele ee	318-155308-B
reveler	318-151064-B
revenant	307-319089-B
revenant ante	308-0-B
revenant bon	308-1071-B
revendage	308-3028-B
revendanger	308-3299-B
revendeur euse	308-3456-B
revendicateur	308-5207-B
revendication	308-5284-B,320-120432-S
revendique ee	308-8227-B
revendiquer	308-5926-B,320-138307-S
revendre	308-8338-B
revendu ue	308-10920-B
revenez y	308-11018-B
revenir	308-11380-B
revenoir	308-47171-B
revente	308-47342-B
reventer	308-48050-S
reventer ou reventer	308-48050-B
revenu	308-48236-B,308-50540-B
revenu ue	308-50810-B
revenue	308-52375-B
revenure	308-53469-B
rever	319-11109-B
reverberant ante	318-99750-B
reverberation	318-99964-B
reverberatoire	318-102083-B
reverbere	318-97986-B
reverbere ee	318-103291-B
reverberer	318-102212-B
revercher	308-53592-B
reverdi ie	308-53917-B
reverdie	308-54148-B
reverdir	308-54492-B
reverdissement	308-56620-B
reverdoir	308-57414-B
revere ee	318-171097-B
reveremment	318-156083-B
reverence	318-157011-B
reverencielle	318-164855-B
reverencier	318-103434-B
reverencieusement	318-165485-B
reverencieux euse	318-165883-B
reverend ende	318-166467-B
reverendissime	318-168164-B
reverer	318-168685-B
reverie	319-20613-B
reverifier	308-107146-B
revernir	308-57568-B
reverquier	308-58046-B
revers	79-26020-S,308-58107-B
reversal ale	318-103839-B
reverse ee	308-73373-B
reverseau	308-68282-B
reversement	308-68560-B,308-68937-B
reverser	308-69323-B,308-70372-B
reversi ou suivant une orthographe usitee aussi reversis	308-71601-B
reversibilite	318-104288-B
reversible	318-104783-B
reversion	318-106551-B
reversis	308-71601-S,308-73136-B
reversoir	308-73176-B
revertier	308-73503-B
revestiaire	308-73929-B
revetement	308-110862-B
revetir	308-112990-B
revetissement	308-120772-B
revetu ue	308-121045-B
reveur euse	319-25566-B
reveusement	319-30159-B
revidage	308-74239-B
revider	308-74297-B
revient	308-74641-B
revif	308-74896-B
revigorer	308-75493-B
revirade	308-75837-B
revirement	308-76363-B
revirer	308-76829-B
revise ee	308-79744-B
reviser	308-78516-B
reviseur	318-107574-B
revisibilite	318-108439-B
revisible	318-108703-B
revision	318-109139-B
revisionnel elle	318-111642-B
revisionniste	318-111937-B
revisiter	308-79200-B
revival	308-79832-B
revivaliste	308-80350-B
revivificateur	318-112645-B
revivification	318-113101-B
revivifie ee	318-114491-B
revivifier	318-113608-B
reviviscence	318-114769-B
reviviscent ente	318-115217-B
reviviscible	318-115661-B
revivre	308-80435-B,308-87600-B
revocabilite	318-115747-B
revocable	318-115861-B
revocablement	318-116253-B
revocation	318-116505-B
revocatoire	318-118198-B
revoici	308-88261-B
revoir	32-40297-S,308-89379-B
revoir s 	132-38908-S
revoiturer	308-96123-B
revoler	308-96402-B
revolin	308-98472-B
revoltant ante	318-118476-B
revolte	318-119024-B
revolte ee	318-125363-B
revoltement	318-120425-B
revolter	318-120635-B
revolu ue	318-126602-B
revolute ee	318-138739-B
revolutif ive	318-127484-B
revolution	79-27111-S,318-127633-B
revolutionnaire	79-27605-S,318-136898-B,366-116686-S
revolutionnairement	79-27901-S,318-137785-B
revolutionne ee	318-138435-B
revolutionner	79-28098-S,318-137931-B
revolvant ante	318-138970-B
revolver	308-99172-B
revomi ie	308-100430-B
revomir	308-100684-B
revoque ee	318-143813-B
revoquer	318-139352-B
revoter	308-101869-B
revouloir	308-102114-B
revoyager	308-102665-B
revoyance	308-102918-B
revoyeur	318-144266-B
revu ue	308-103039-B
revue	308-103479-B
revulser	318-144419-B
revulseur	318-144605-B
revulsif ive	318-144875-B
revulsion	318-145229-B
rez	308-124640-B
rez de chaussee	308-126531-B
rez mur	308-127223-B
rhabarbarin	308-131978-B
rhabdoide	308-133227-B
rhabdologie	308-132147-B
rhabdologique	308-132331-B
rhabdomance ou rhabdomancie	308-132412-B
rhabdomancie	308-132412-S
rhabdomancien	308-132839-B
rhabdomancique	308-133039-B
rhabillage	308-133420-B
rhabille ee	308-139057-B
rhabillement	308-134688-B
rhabiller	308-135045-B
rhabilleur euse	308-138075-B
rhabiter	308-139148-B
rhabituer	308-139395-B
rhacose	308-139588-B
rhadamanthe	308-139723-B
rhagade	308-139865-B
rhagion	308-140239-B
rhagoide	308-140296-B
rhamnacees ou rhamnees	308-140482-B
rhamnees	308-140482-S
rhamnegine	308-142416-B
rhamnes	308-140617-B,308-141893-B
rhamnier	308-140773-B
rhamnine	308-140833-B
rhamnoxanthine	308-140982-B
rhamnus	308-141109-B
rhamphotheque	308-142572-B
rhaphiolepe ou rhaphiolepide	308-142733-B
rhaphiolepide	308-142733-S
rhapontic	308-143004-B
rhaponticine	308-143556-B
rhapsodage	308-143701-B
rhapsode	308-144019-B
rhapsoder	308-144551-B
rhapsodie	308-145036-B
rhapsodien	308-146391-B
rhapsodieur	308-146672-B
rhapsodique	308-146901-B
rhapsodiste	308-147015-B
rhapsodomancie	308-147322-B
rhaptocarpe	308-147578-B
rhasis ou blanc raisin	35-87141-S
rhea	309-10492-B
rhee	309-10653-B,309-10888-B
rhegmate	308-147734-B
rheine	309-11032-B
rhenan ane	309-11283-B
rheometre	309-11419-B
rheophore	309-11758-B
rheostat	309-11965-B
rheotome	309-12162-B
rheteur	309-12712-B
rhetinite ou rhetinnasphalte	309-13919-B
rhetinnasphalte	309-13919-S
rhetique	309-14061-B
rhetoricien	309-14192-B
rhetorique	309-15611-B
rhetoriquement	309-20230-B
rhinalgie	308-147919-B
rhinanthe	308-148035-B
