encephalalgique	127-58881-B
encephale	127-58984-B
encephalique	127-59349-B
encephalite	127-59461-B,157-1253-S,235-104860-S
encephalocele	127-59642-B,177-75185-S
encephaloide	127-60712-B,127-61046-B
encephalolithe	127-59790-B
encephalologie	127-59963-B
encephalopathie	127-60099-B
encephalozoaire	127-60361-B
encercler	126-48228-B
enchaine ee	126-72542-B
enchainement	126-64384-B
enchainer	126-66119-B
enchaineur	126-71178-B
enchainure	126-71476-B
enchalage	126-48689-B
enchaler	126-48786-B
enchaleur	126-48864-B
enchambrer	126-48926-B
enchante ee	126-58654-B
enchantelage	126-49011-B
enchantele ee	126-49898-B
enchanteler	126-49085-B
enchantement	126-50155-B
enchanter	126-53509-B
enchanterie	126-56658-B
enchanteur eresse	126-56762-B
enchaper	126-59763-B
enchaperonne ee	126-60426-B
enchaperonnement	126-59918-B
enchaperonner	126-60119-B
enchapure	126-60647-B
encharger	126-60830-B
encharibotte ee	126-61652-B
encharner	126-62012-B
encharron	126-62161-B
enchasse ee	126-82017-B
enchassement	126-79881-B
enchasser	126-80096-B
enchassure	126-81699-B
enchatonnement	126-62339-B
enchatonner	126-62442-B
enchatre	126-82682-B
enchaulage	126-62979-B
enchausse ee	126-64049-B
enchaussenage	126-63100-B
enchaussener	126-63187-B
enchaussenoir	126-63439-B
enchausser	126-63543-B
enchaussumer	126-63872-B
enchaux	126-64258-B
enchelysome	126-85718-B
enchenot	126-74167-B
enchere	126-83141-B
encheri ie	126-85888-B
encherir	126-86126-B
encherissement	126-89608-B
encherisseur	126-90163-B
enchevalement	126-74238-B
enchevaucher	126-74441-B
enchevauchure	126-74580-B
enchevetre ee	126-77214-B
enchevetrement	126-75015-B
enchevetrer	126-75292-B
enchevetrure	126-76875-B
encheville ee	126-74813-B
enchifrene ee	126-78587-B
enchifrenement	126-78777-B
enchifrener	126-77639-B
enchiridion	126-78972-B
enchondrome	126-79257-B
enchorial ale ou enchorique	126-79483-B
enchorique	126-79483-S
enchymose	126-79636-B
encirement	126-91149-B
encirer	126-91236-B
enclanchement	126-91328-B
enclasse ee	126-91722-B
enclassement	126-91401-B
enclasser	126-91471-B
enclavation	126-91877-B
enclave	126-92091-B
enclave ee	126-96094-B
enclavement	126-93224-B
enclaver	126-93994-B
enclavure	126-95659-B
enclenchement	126-96828-B
enclin ine	126-97007-B
enclinomene	126-99227-B
encliquetage	126-99904-B
encliqueter	126-100070-B
enclitique	126-100285-B
encloitrer	126-110387-B
enclore	126-101681-B
enclos	126-105162-B
enclos ose	126-106187-B
enclotir	126-106788-B
encloture	126-107173-B,126-114191-B
enclouage	126-107355-B
encloue ee	126-110291-B
enclouer	126-107436-B
encloueur	126-108599-B
enclouure	126-108783-B
enclume	126-110712-B
enclumeau ou enclumot	126-113776-B
enclumette	126-113915-B
enclumot	126-113776-S
encoche	126-114621-B
encoche ee	127-1255-B
encochement	127-0-B
encocher	127-66-B
encochure	127-1101-B
encoconner	127-1426-B
encoffre ee	127-2075-B
encoffrer	127-1511-B
encognure	127-2347-S
encoiffer s 	127-2163-B
encoignure ou encognure	127-2347-B
encollage	127-3070-B
encolle ee	127-5050-B
encoller	127-3682-B
encolleter	127-4398-B
encolleuse	127-4796-B
encollure	127-4920-B
encolpite	127-5134-B
encolure	127-5365-B
encombrant ante	127-8057-B
encombre	127-8393-B
encombre ee	127-13459-B
encombrement	127-9703-B
encombrer	127-11426-B
encomiaste	127-13771-B
encommencer	127-14630-B
encontre	37-108497-S
encontre a l 	127-15025-B
encoquer	127-19199-B
encoqure	127-19369-B
encor	127-19467-B
encorbellement	127-19500-B
encore	127-19742-B
encornail	127-29546-B
encorne ee	127-31463-B
encorneiller	127-29747-B
encorner	127-30047-B
encornet	127-30548-B
encorneter	127-31069-B
encornure	127-31349-B
encotillonne	127-31886-B
encotonner	127-32181-B
encoubert	127-32390-B
encouder	127-32490-B
encouloir	127-32665-B
encourage ee	127-36099-B
encourageant ante	127-32824-B
encouragement	127-33103-B
encourager	127-33899-B
encourager s 	131-51724-S
encourir	127-36294-B
encourir s 	127-38281-B
encourtiner	127-39276-B
encouru ue	127-39812-B
encouture	127-39900-B
encouturer	127-39997-B
encrage	127-40178-B
encrasse ee	127-41075-B
encrassement	127-40301-B
encrasser	127-40566-B
encratique	127-41179-B
encratite	127-41599-B
encravatement	127-41914-B
encre	127-42276-B
encre ee	127-52879-B
encrechement	127-52708-B
encrene ee	127-46601-B
encrepe ee	127-53247-B
encreper	127-53000-B
encrer	127-46769-B
encreur	127-47052-B
encrier	127-47303-B
encrine	127-48206-B
encrinite	127-48377-B
encrinitique	127-48524-B
encrivore	127-48681-B
encroisement	127-49022-B
encroiser	127-49112-B
encroix	127-49371-B
encrotter	127-49647-B
encroue ee	127-49934-B
encroutant ante	127-51451-B
encroute ee	127-52429-B
encroutement	127-51592-B
encrouter	127-51826-B
encuirasse ee	127-54056-B
encuirasser	127-53441-B
enculasser	127-54151-B
encuvage	127-54258-B
encuve ee	127-54738-B
encuvement	127-54433-B
encuver	127-54520-B
encyclie	127-54815-B
encyclique	127-55058-B
encyclographie	127-55328-B
encyclopede	127-55527-B
encyclopedie	127-55768-B
encyclopedique	127-57268-B
encyclopedisme	127-57683-B
encyclopediste	127-57776-B
encyprotype	127-58078-B
endanche ee	127-61196-B
endaubage	127-61326-B
endauber	127-61738-B
endaubeur	127-61825-B
ende	318-166467-S
endeans	128-28492-B
endecagone	128-29463-B
endemene ee	128-29507-B
endemie	128-30166-B
endemique	128-30543-B
endente	127-61944-B
endente ee	127-63744-B
endentement	127-62026-B
endenter	127-62511-B
endents	127-63180-B
endenture	127-63265-B
endermique	127-64413-B
endette ee	127-66417-B
endettement	127-64778-B
endetter	127-64959-B
endeve ee	128-32198-B
endever	128-30778-B
endhymenine	127-67040-B
endiable ee	127-67765-B
endiabler	127-67260-B
endiamante ee	127-69126-B
endie	127-70064-B
endigage	127-70243-B
endiguement	127-70306-B
endiguer	127-70580-B
endimanche ee	127-71792-B
endimanchement	127-70691-B
endimancher	127-71424-B
endive	127-71891-B
endivisionnement	127-72273-B
endivisionner	127-72683-B
endizeler	127-72962-B
endo arterite	127-73197-B
endobranche	127-73375-B
endocarde	127-73537-B
endocardite	127-73695-B
endocarpe	127-73793-B
endocarpe ee	127-74027-B
endocephale	127-77429-B
endochorion	127-74187-B
endochrome	127-74329-B
endocrane	127-74538-B
endoctorer	127-74726-B
endoctrinable	127-75151-B
endoctrine ee	127-77309-B
endoctrinement	127-75313-B
endoctriner	127-75554-B
endoctrineur	127-77194-B
endoderme	127-77587-B
endoesthesie	127-77997-B
endogene	127-78472-B
endogenese	127-78145-B
endogone	127-78303-B
endolori ie	127-78822-B
endolorir	127-78992-B
endolorissement	127-79363-B
endolymphe	127-79556-B
endommage ee	127-81161-B
endommagement	127-79752-B
endommager	127-79934-B
endonephrite	127-81290-B
endoparasite	127-81475-B
endophore	127-81629-B
endophragme	127-81775-B
endoplevre	127-81956-B
endoptile	127-82118-B
endormant ante	127-82340-B
endormement	127-82799-B
endormeur euse	127-83167-B
endormi ie	127-84095-B
endormir	127-86251-B
endormissement	127-92231-B
endorrhize	127-92579-B
endos	127-92979-B
endoscope	127-93673-B
endosmometre	127-93938-B
endosmose	127-94130-B
endosmotique	127-94778-B
endosperme	127-94858-B
endosperme ee	127-95233-B
endospermique	127-95098-B
endospore	127-95349-B
endospore ee	127-95650-B
endossage	127-95790-B
endosse	127-96050-B
endosse ee	127-100771-B
endossement	127-96321-B
endosser	127-96818-B
endosseur	127-99851-B
endossure	127-100535-B
endostome	127-101242-B
endotheque	128-0-B
endothermique	127-101437-B
endotriche ee	128-152-B
endouilletter	128-320-B
endouzainement	128-722-B
endouzainer	128-993-B
endroguer s 	128-1097-B
endroit	128-1383-B
enduire	128-10327-B
enduisant ante	128-12377-B
enduit	128-12463-B
enduit ite	128-13582-B
endurable	128-13674-B
endurance	128-13811-B
endurant ante	128-14785-B
endurci ie	128-16045-B
endurcir	128-18055-B
endurcissement	128-21609-B
endure ee	128-28075-B
endurer	128-22880-B
endyalite	128-28401-B
eneide	386-76291-B
eneileme	386-76438-B
eneme	386-76100-B
eneoreme	386-76486-B
energie	386-45381-B
energique	386-47670-B
energiquement	386-48004-B
energumene	386-48268-B
enervant ante	386-49521-B
enervation	386-49692-B
enerve	386-50380-B
enerve ee	386-53805-B
enervement	386-50514-B
enerver	386-50923-B
eneyer	386-54682-B
enfaite ee	128-71317-B
enfaiteau	128-70720-B
enfaitement	128-70859-B
enfaiter	128-71000-B
enfance	128-32428-B
enfancon	128-67871-B
enfant	128-37595-B,168-27269-S
enfante ee	128-67641-B
enfantelette	128-58121-B
enfantement	128-58722-B
enfanter	128-59878-B
enfantillage	128-64400-B
enfantin ine	128-66075-B
enfants	20-73346-S,264-204606-S
enfarine ee	128-69559-B
enfariner	128-68363-B
enfascie ee	128-70366-B
enfer	128-71397-B
enferme ee	128-84336-B
enfermer	128-79542-B
enfermerie	128-84064-B
enferonner	128-171474-B
enferre ee	128-88057-B
enferrer	128-85834-B
enferrure	128-87788-B
enfeu	128-88275-B
enfeuiller s 	128-88706-B
enficeler	128-88925-B
enfieller	128-89184-B
enfievrement	128-102223-B
enfievrer	128-102469-B
enfilade	128-89752-B
enfile aiguilles	128-91582-B
enfile ee	128-99262-B
enfiler	128-91751-B
enfileur	128-98241-B
enfilure	128-98676-B
enfin	128-99920-B
enfin polka masurka	221-16717-S
enflamme ee	128-107363-B
enflammement	128-103311-B
enflammer	128-103501-B
enfle	128-109722-B
enfle boeuf	128-109836-B
enfle ee	128-125233-B
enflecher	128-128702-B
enflechure	128-128878-B
enflement	128-110007-B
enfler	128-110177-B
enfleurage	128-120669-B
enfleurer	128-120734-B
enfleuri ie	128-121320-B
enflure	128-121619-B
enfolier	128-129013-B
enfoncage	128-145574-B
enfonce ee	128-141054-B
enfoncement	128-129165-B
enfoncer	128-131566-B
enfonceur	128-140766-B
enfoncoir	128-145841-B
enfoncure	128-145967-B
enfondrer	128-144769-B
enfontange ee	128-145361-B
enforci ie	128-146911-B
enforcir	128-147022-B
enformer	128-148912-B
enfoui ie	128-149083-B
enfouir	128-149477-B
enfouissement	128-151745-B
enfouisseur	128-151934-B
enfourche ee	128-154165-B
enfourchement	128-152267-B
enfourcher	128-152743-B
enfourchie	128-153068-B
enfourchure	128-153251-B
enfournage	128-154286-B
enfourne ee	128-157445-B
enfournee	128-157871-B
enfournement	128-154351-B
enfourner	128-154951-B
enfourneur	128-157267-B
enfourrer	128-157977-B
enfranger	128-158394-B
enfrayer	128-158487-B
enfrayure	128-158594-B
enfreigneur	128-158699-B
enfreindre	128-158904-B
enfreint einte	128-161203-B
enfroque ee	128-161996-B
enfroquer	128-161448-B
enfui ie	128-162342-B
enfuir s 	128-162760-B
enfumage	128-166660-B
enfume ee	128-169463-B
enfumer	128-166948-B
enfumoir	128-169341-B
enfunester	128-170851-B
enfutage	128-171759-B
enfutailler	128-171336-B
engage ee	128-191419-B
engageant ante	128-171872-B
engageantes	128-172731-B
engagement	128-172991-B
engager	128-177252-B
engagiste	128-190853-B
engainant ante	128-199433-B
engaine ee	128-200167-B
engainer	128-199715-B
engallage	128-194675-B
engaller	128-195069-B
engamer	128-195388-B
engane	128-196045-B
enganter	128-196114-B
enganymeder	128-197346-B
engarde	128-197627-B
engarre	128-197982-B
engarrotte ee	128-198081-B
engastrimythe	128-198218-B
engastrimythisme	128-198672-B
engaver	128-198793-B
engazonnement	128-199061-B
engazonner	128-199169-B
enge ee	129-29091-B
engeance	128-200630-B
engeancer	128-202925-B
engeigner	128-203708-B
engeler	128-204814-B
engelure	128-205592-B
engendrable	128-205865-B
engendrant ante	128-206168-B
engendre ee	128-212224-B,128-212707-B
engendrement	128-206507-B
engendrer	128-207183-B,128-211393-B
engendreur	128-211925-B
engeoler	128-217079-B
engeoleur	128-217134-B
enger	128-212862-B
engerbage	128-216716-B
engerbe ee	128-216999-B
engerber	128-216809-B
engin	128-217193-B
englante ee	128-221837-B
englobe ee	128-222404-B
englober	128-222018-B
englouti ie	128-222666-B
engloutir	128-223513-B
engloutissement	128-228212-B
engloutisseur	128-228987-B
englue ee	128-231271-B
engluement	128-229295-B
engluer	128-229905-B
englyphique	128-231664-B
engobage	128-231817-B
engobe	128-231874-B
engober	128-231992-B
engommage	128-232155-B
engommer	128-232237-B
engonce ee	128-233064-B
engoncement	128-232400-B
