dicranocere	99-27032-B
dicroophyte	99-27206-B
dicrote	99-27385-B
dictame	99-27675-B
dictamen	99-29116-B
dictamne	99-29570-B
dictateur	99-30075-B
dictatorial ale	99-32058-B
dictatorialement	99-32205-B
dictature	99-32594-B
dicte ee	99-49366-B
dictee	99-49868-B,99-50197-B
dicter	99-33125-B
diction	99-37388-B
dictionnaire	99-40154-B
dictionnaire de l academie et mieux hemorrhoidal ale	172-20174-S
dictionnaire de l academie mais mieux hemorrhagie	181-25310-S
dictionnariste	99-45893-B
dicton	99-46203-B
dictum	99-47322-B
dictyite	99-48351-B
dictyocarpe	99-48491-B
dictyode	99-48645-B
dictyopsie	99-48805-B
dictyoptere	99-49052-B
dictyorrhize	99-49207-B
didacticien	99-51030-B
didactique	99-51119-B
didactiquement	99-52043-B
didactyle	99-52173-B
didascalie	99-52480-B
dideau	99-53020-B
didecaedre	99-57129-B
didelphe	99-53403-B
didelphoide	99-53831-B
didiplase	99-53988-B
didisque	99-54230-B
didodecaedre	99-54370-B
didrachme	99-54615-B
diducteur	99-54720-B
diduction	99-54906-B
didymalgie	99-55291-B
didyme	99-55443-B,99-55613-B
didymes	99-55886-B
didymion	99-56055-B
didymite	99-56224-B
didyname	99-56414-B
didynamie	99-56732-B
didynamique	99-56879-B
diectasique	99-57375-B
diedre	103-88115-B
dief	99-57677-B
dienne	338-82996-S
dienneaedre	99-57716-B
dierese	103-93547-B
dieresile	103-94437-B
dieresilien enne	103-94653-B
dieretique	103-94769-B
diese	103-88396-B
diese ee	103-95401-B
dieser	103-94966-B
diesis	103-95352-B
diete	103-89223-B,103-91955-B
dieteride	103-95609-B
dietetique	103-95907-B
dietetiquement	103-97014-B
dietetiste	103-97125-B
dietine	103-95496-B
dieu	99-57948-B,161-12132-S,207-137209-S,229-1542-S,229-187039-S,276-100750-S,279-307372-S,279-320296-S,372-91827-S
dieu conduit	99-84174-B
dieu va	4-121323-S
dieudonne	99-84435-B
dieve	103-93267-B
diffamable	99-84633-B
diffamant ante	99-85030-B
diffamari	99-85288-B
diffamateur trice	99-85534-B
diffamation	99-85872-B
diffamatoire	99-87509-B
diffame ee	99-93460-B
diffamer	99-89035-B
diffamer s 	132-4946-S
differe ee	99-144626-B
differemment	99-121783-B
difference	99-122966-B
differenciation	99-128176-B
differencie ee	99-130536-B
differencier	99-128304-B
differenciometre	99-130274-B
differend	99-130862-B
different ente	99-134293-B
differentiation	99-137681-B
differentie ee	99-139207-B
differentiel elle	99-137888-B
differentier	99-138815-B
differer	99-139332-B,99-142777-B,132-5133-S
difficile	99-94132-B
difficilement	99-99530-B
difficulte	99-101065-B
difficultueusement	99-100300-B
difficultueux euse	99-100452-B
diffluence	99-107645-B
diffluent ente	99-107779-B
diffluer	99-108028-B
difformation	99-108416-B
difforme	99-108892-B
difforme ee	99-114277-B
difformer	99-110202-B
difformite	99-111516-B
diffracte ee	99-115559-B
diffracter	99-114363-B
diffractif ive	99-114524-B
diffraction	99-114686-B
diffringent ente	99-115673-B
diffus use	99-115911-B
diffuse ee	99-120939-B
diffusement	99-121243-B
diffuser	99-118427-B
diffuseur	351-155799-S
diffusible	99-118751-B
diffusif ive	99-119175-B,351-156016-S
diffusion	99-119548-B,351-156185-S
digame	99-144964-B
digamma	99-145120-B
digastrique	100-0-B
digene	100-36881-B
digenese	100-263-B
digenetique	100-673-B
digenie	100-37069-B
digenisme	100-37196-B
digeon	100-817-B
digerant ante	100-37263-B
digere ee	100-43328-B
digerer	100-37472-B
digesta	100-960-B
digeste	100-1225-B,100-8563-B
digesteur	100-2900-B
digestibilite	100-3309-B
digestible	100-3604-B
digestif ive	100-4032-B
digestion	100-4953-B
digitaire	328-134646-S
digital ale	100-8769-B,328-135013-S
digitale	100-9386-B,100-10055-B
digitale ee	100-11173-B
digitaliforme	100-10189-B
digitaline	100-10358-B
digitalique	100-10490-B
digitalisation	100-10647-B
digitaliser	100-10871-B
digitation	100-11309-B
digite ee	100-13785-B
digitifere	100-11971-B
digitifolie ee	100-11644-B
digitiforme	100-11821-B
digitigrade	100-12230-B
digitinerve ee	100-12644-B
digitipalme ee	100-12879-B
digitipenne ee	100-13026-B
digitipinne ee	100-13281-B
digitisme	328-135178-S
digitoleine	100-13431-B
digitule	100-13628-B
diglyphe	100-14284-B
digne	100-14468-B
dignement	100-22197-B
dignifier	100-23528-B
dignitaire	100-23954-B
dignite	100-24385-B
digon	100-29037-B
digone	100-29359-B
digot	100-29492-B
digramme	100-29672-B
digraphe	100-30117-B
digresser	100-30411-B
digresseur	100-30488-B
digressif ive	100-30947-B
digression	100-31100-B
digressionnaire	100-32337-B
digressivement	100-32624-B
diguail	100-32766-B
digue	78-24627-S,100-32949-B
digue ee	100-36226-B
diguement	100-34448-B
diguer	100-34589-B,100-35033-B
diguet	100-35215-B
digyne	100-36321-B
digynie	100-36588-B
dihelie	100-44285-B
diheptapode	100-43880-B
dihydrique	100-44035-B
diiambe	103-97330-B
diiambique	103-97425-B
dike	100-44527-B
dilaceration	100-44660-B
dilacere ee	100-46013-B
dilacerer	100-45070-B
dilapidateur trice	100-46105-B
dilapidation	100-46260-B
dilapide ee	100-47303-B
dilapider	100-46492-B
dilatabilite	100-47407-B
dilatable	100-47623-B
dilatant ante	100-47821-B
dilatateur	100-48165-B
dilatation	100-48616-B
dilatatoire	100-50389-B
dilate ee	100-56058-B
dilater	100-50613-B
dilaticorne	100-52874-B
dilation	100-53041-B
dilatoire	100-53939-B
dilatoirement	100-54694-B
dilatometre	100-55323-B
dilatometrique	100-55706-B
dilaye ee	100-57939-B
dilayer	100-56615-B
dilection	100-58009-B
dilemmatique	100-59782-B
dilemme	100-59918-B
dilepide	100-76439-B
dilettante	100-60934-B
dilettantisme	100-61211-B
diligemment	100-61496-B
diligence	100-63038-B
diligent ente	100-69131-B
diligente ee	100-72845-B
diligenter	100-71604-B
dilobe ee	100-73221-B
dilogie	100-73370-B
dilophe	100-73583-B
dilucidation	100-73743-B
dilucider	100-73851-B
dilue ee	100-76364-B
diluer	100-74046-B
dilution	100-74403-B
diluvial ale	100-75172-B
diluvie ee	100-76234-B
diluvien ienne	100-75268-B
diluvium	100-75865-B
dimable	121-185315-B
dimanche	100-76588-B
dimanchier iere	100-79221-B
dime	121-185448-B
dimee	122-0-B
dimension	100-79389-B
dimensionnel elle	100-80664-B
dimer	121-189522-B
dimere	100-91433-B
dimerie	121-190668-B
dimetre	100-91607-B
dimeur	121-190938-B
dimidie ee	100-80909-B
dimier	121-191146-B
diminuant ante	100-81114-B
diminue ee	100-88402-B
diminuendo	100-81431-B
diminuer	100-81700-B
diminutif ive	100-85289-B
diminution	100-86174-B
diminutivement	100-88060-B
dimissoire	100-89540-B
dimissorial ale	100-90204-B
dimorphe	100-90351-B
dimorphie	100-90798-B
dimyaire	100-91249-B
dinade	122-77-B
dinanderie	100-91810-B
dinandier	100-92370-B
dinar	100-92502-B
dinatoire	122-257-B
dinde	100-92676-B
dindon	100-94993-B
dindonnade	100-96544-B
dindonneau	100-96720-B
dindonner	100-96838-B
dindonnier iere	100-97314-B
dindoulette	100-97947-B
dine	17-204345-S,17-204402-S,122-8461-S,122-11431-B
dinee	122-11476-B
dinee ou apres diner ou apres dine	17-204402-S
dineme	100-100075-B
diner	17-204288-S,122-464-B
diner ou apres dine	17-204402-S
diner ou dine	122-8461-B
dinere	100-100245-B
dinette	122-10945-B
dineur	122-11106-B
dineure	100-98034-B
dinglie	100-98196-B
dingo	100-98379-B
dinguer	100-98686-B
dinite	100-99148-B
dinkard	100-99337-B
dinosaurien	100-99545-B
dinotherium	100-99744-B
diocesain aine	100-102244-B
diocese	100-100914-B
dioctaedre	100-100386-B
dioctonal ale	100-100631-B
diodon	100-103172-B
diodoncephale	100-103331-B
dioecete	100-103962-B
dioecie	100-103601-B
dioecique	100-103846-B
diogdoedre	100-104150-B
diogdoedrie	100-104338-B
dioggot	100-104576-B
dioique	100-110328-B
diomate	100-104791-B
dioncose	100-104925-B
dione	100-106289-B
dionee	100-106467-B
dionysiaque	100-105201-B
dionysien ienne	100-105761-B,100-106004-B
diopside	100-106796-B
dioptase	100-106984-B
dioptre	100-107208-B,100-107364-B
dioptrique	100-107643-B
diorama	100-108192-B
dioramique	100-108568-B
diorchite	100-108638-B
diorite	100-108818-B
dioritique	100-109179-B
diorthose	100-109271-B
dioscoree	100-109629-B
dioscorien ienne	100-109455-B
dioscures	100-109963-B
dioscuries	100-110244-B
dipe	100-110640-B
diperianthe ee	101-12933-B
dipetale	101-13128-B
diphalangarchie	100-110922-B
diphenyle	100-113394-B
diphthere	100-112274-B
diphtherie ou diphtherite	100-112525-B
diphtherite	100-112525-S
diphtheritique	100-112883-B
diphthongaison	100-111104-B
diphthongue	100-111378-B
diphthonguer	100-112103-B
diphylle	100-112975-B
diphyllobranche	100-113228-B
diplasiasme	101-0-B
diple	101-165-B
diplocephale	101-459-B
diplocephalie	101-605-B
diploe	101-5705-B
diploedre	101-5512-B
diplogenese	101-798-B
diplohemiedrie	101-1127-B
diploique	101-6468-B
diplomate	101-1380-B
diplomatie	101-1793-B
diplomatique	101-2547-B,101-3142-B
diplomatiquement	101-3591-B
diplomatiste	101-3881-B
diplome	101-6606-B,101-7377-B
diplome ee	101-7572-B
diplometre	101-4040-B
diploneure	101-4296-B
diplopie	101-4449-B
diploptere	101-4625-B
diplosome	101-4791-B
diplosomie	101-4921-B
diplostemone	101-5134-B
diplotege	101-5340-B
dipneumone ee	101-7877-B
dipnoe ee	101-8084-B
dipode	101-8299-B
dipodie	101-8428-B
dippel	101-8764-B
dipsace ee	101-8888-B
dipsade	101-9103-B
dipsomanie	101-9818-B
diptere	101-10886-B,101-11345-B
dipterique	101-11573-B
dipterocarpee	101-11923-B
dipterologie	101-12217-B
dipterygien ienne	101-12366-B
diptote	101-10094-B
diptyques	101-10248-B
dipyrene ee	101-12762-B
dipyrrhique	101-12538-B
dira t on	291-73255-S
diramation	101-13347-B
dire	33-132523-S,101-13558-B,101-56514-B,252-177982-S
dire s 	132-5455-S
direct ecte	101-57830-B,326-149291-S
directe	101-61167-B
directement	101-61554-B
directeur	333-213839-S
directeur trice	101-62838-B
directif ive	101-66067-B
direction	101-66443-B
directite	101-71488-B
directoire	101-71571-B
directorat	101-72556-B
directorial ale	101-72926-B
directrice	101-73217-B
diremption	101-74057-B
dirhem	101-74376-B
dirige ee	101-77346-B
dirigeable	101-74549-B
dirigeant ante	101-74688-B
diriger	101-75050-B
dirimant ante	101-78058-B
dirimer	101-78508-B
dirk	101-78813-B
dirrhomboedrique	101-78873-B
dirrhynque	101-79116-B
diruptif ive	101-79265-B
dis	101-79613-B
disance	33-133977-S
disant	101-80115-B,224-61105-S,330-163546-S
disant ante	33-134591-S
disbroder	101-80319-B
disbrodure	101-80428-B
discale	101-80534-B
discaler	101-80770-B
discant	101-80873-B
disceder	101-167959-B
disceptation	101-80946-B
discernable	101-81335-B
discerne ee	101-88959-B
discernement	101-81715-B
discerner	101-84814-B
discession	101-89551-B
discifere	101-90230-B
disciflore	101-89818-B
disciforme	101-90029-B
discigyne	101-90412-B
disciple	101-90633-B
disciplinable	101-94165-B
disciplinaire	101-95201-B
disciplinairement	101-96381-B
disciplinant ante	101-96597-B
discipline	101-96702-B
discipline ee	101-105608-B
disciplinement	101-104073-B
discipliner	101-104222-B
discobole	101-106080-B
discoidal ale	101-144172-B
discoide	101-144306-B
discoide ee	101-144608-B
discolore	101-106377-B
discompte	101-106642-B
discontinu ue	101-107023-B
discontinuation	101-107854-B
discontinue ee	101-110602-B
discontinuer	101-108741-B
discontinuite	101-110004-B
disconvenable	101-110732-B
disconvenablement	101-111224-B
disconvenance	101-111376-B
disconvenant ante	101-112593-B
disconvenir	101-113253-B
discophore	101-115238-B
discord	101-115390-B,101-118212-B
discordamment	101-118613-B
discordance	101-118909-B
discordant ante	101-120584-B
discorde	101-121730-B
discorder	101-124984-B
discosome	101-126936-B
discoureur euse	101-127139-B
discourir	101-128751-B
discours	101-133787-B
discourtois oise	101-143005-B
discourtoisement	101-143402-B
discourtoisie	101-143655-B
discouru ue	101-143945-B
discredit	101-149662-B
discredite ee	101-151301-B
discrediter	101-150366-B
discret ete	101-144751-B
discretement	101-148934-B
discretion	101-151403-B
discretionnaire	101-159348-B
discretionnairement	101-159725-B
discretoire	101-160154-B
discrimen	101-147654-B
discriminant ante	101-147917-B
discrimination	101-148540-B
disculpation	101-160696-B
disculpe ee	101-162986-B
disculper	101-161099-B
discursif ive	101-163124-B
discussif ive	101-164047-B
discussion	101-164652-B
discutable	101-166012-B
discute ee	101-167842-B
discuter	101-166290-B
discuteur	101-167557-B
disepale	102-191026-B
disert erte	101-168273-B
disertement	101-170144-B
disette	101-170740-B
disetteux euse	101-174609-B
diseur euse	101-175842-B
