mouee	231-85623-B
mouet	230-141388-B
mouette	230-141524-B,230-143115-B
mouezzin	230-143163-B
moufette	230-143207-B
mouflard arde	230-143259-B
moufle	230-143802-B,230-145061-B,230-146927-B,230-147778-B
moufle ee	230-149109-B
moufler	230-147858-B,230-148149-B
mouflettes	230-148309-B
mouflon	230-148527-B
moufti	230-149263-B
mouillade	230-149306-B
mouillage	230-149531-B
mouille	230-151120-B
mouille bouche	230-152120-B
mouille ee	230-161167-B
mouillee	230-164032-B
mouillement	230-152422-B
mouiller	230-153156-B
mouilleres	230-161020-B
mouillette	230-158486-B
mouilleur	230-158667-B
mouilleux euse	230-159304-B
mouilloir	230-159788-B
mouillure	230-160217-B
moujik	230-164225-B
moulage	78-55514-S,230-164280-B,230-164960-B
moulant	230-165636-B
moulard	230-166450-B
moule	78-55673-S,230-166692-B,230-173974-B
moule ee	230-202302-B
mouleau	230-174880-B
moulee	230-204619-B
mouler	78-55963-S,230-175209-B,230-179570-B
moulerie	230-179736-B
moulet	230-180287-B
moulette	230-180410-B
mouleur	230-180515-B
moulier	230-181346-B
mouliere	230-196824-B
moulin	230-181576-B
moulinage	230-189533-B
mouline ee	230-196381-B
mouliner	230-190149-B
moulinerie	230-190763-B
moulinet	96-252626-S,230-190938-B
moulineur ou moulinier	230-195869-B
moulinier	230-195869-S
mouliniere	230-196289-B
mouliste	230-196587-B
moulon	230-197386-B
moult	230-197727-B
moulu ue	230-199566-B
moulure	230-200832-B
moulure ee	230-202078-B
moulurier	230-201983-B
moumoute	230-206346-B
mounier	230-206728-B
mouphti	230-206813-B
mouquette	230-206934-B
mour	230-207020-B
mourant ante	230-207168-B
mourastel	230-211854-B
moureau	230-212028-B
moureillier	230-212146-B
mouret	229-97665-S,230-212279-B
mouretier	230-212395-B
mourier	230-212575-B
mourine	230-212654-B
mourir	33-137675-S,230-212723-B
mouron	230-244415-B,230-245343-B
mouronnet	230-245935-B
mourre	230-246064-B
mourroy	230-246685-B
mourvede	230-246787-B
mousart	230-246841-B
mousquet	230-247013-B,230-248807-B
mousquetade	230-249480-B
mousquetaire	230-250427-B
mousqueter	230-253174-B
mousqueterie	230-253528-B
mousqueton	230-254268-B,276-109646-S
moussache	230-255370-B
moussant ante	230-255910-B
mousse	230-256041-B,230-257579-B,230-258693-B
mousse ee	231-5835-B
mousseau	230-263533-B
mousselin	230-263623-B
mousseline	230-263804-B
mousselinette	230-266350-B
mousselinier iere	230-266425-B
mousser	230-266590-B
mousseron	230-267288-B
mousseronne	230-267999-B
mousseronniere	230-268092-B
moussette	231-0-B
mousseux euse	231-60-B
moussier	231-1116-B
moussillon	231-1437-B
moussoir	231-1826-B
mousson	231-2472-B
mousson a	78-56071-S
moussu ue	231-4957-B
moussure	231-5730-B
moustache	231-6044-B,303-37567-S
moustachu ue	231-10323-B
moustapha	231-10539-B
moustille	231-10774-B
moustillier	231-10971-B
moustiquaire	231-11078-B
moustique	231-11486-B
mout	231-115989-B,289-797-S
moutan	231-11759-B
moutard	231-11906-B
moutarde	231-13229-B
moutardelle	231-17390-B
moutardier	231-17534-B
moutardin	231-18829-B
moutardon	231-18888-B
moutelle	231-19060-B
moutier	231-117326-B
mouton	161-15305-S,231-19215-B,323-73092-S
moutonnade	231-32000-B
moutonnaille	231-32225-B
moutonnant ante	231-32483-B
moutonne ee	231-37176-B
moutonnement	231-32698-B
moutonner	231-32810-B
moutonnerie	231-34117-B
moutonnet	231-34883-B
moutonneux euse	231-35025-B
moutonnier iere	231-35354-B
moutonnierement	231-36869-B
moutonnique	231-36807-B
moutons	89-2056-S
moutte	231-38164-B
mouture	231-38558-B
mouvage	231-40738-B
mouvaison	231-40916-B
mouvance	231-41126-B
mouvant ante	231-42276-B
mouve chaux	231-47602-B
mouve ee	231-85478-B
mouvement	231-47703-B
mouvemente ee	231-75703-B
mouvementer	231-75211-B
mouver	231-76213-B
mouveron	231-77452-B
mouvet ou mouvette	231-77771-B
mouvette	231-77771-S,231-78091-B
mouvoir	231-78399-B
movibilite	231-86042-B
moxa	231-86267-B,276-109998-S
moxibustion	231-86709-B
moyau	231-86979-B
moye	231-87079-B
moye ee	231-113745-B
moyen	231-87522-B
moyen agiste	231-105073-B
moyen enne	231-96267-B
moyennant	231-105214-B
moyenne ee	231-109415-B
moyennement	231-106294-B
moyenner	231-107381-B
moyenneur	231-109144-B
moyer	231-109540-B
moyere	231-113541-B
moyette	231-109664-B
moyeu	231-109945-B,231-111610-B,231-112675-B
moyeuse	231-113199-B
mozambrun	231-113961-B
mozarabe	231-114077-B
mozarabique	231-114585-B
mozerien enne	231-115696-B
mozette	231-115647-B
mu	231-118397-B
mu ue	237-131530-B
muabilite	231-118542-B
muable	231-118891-B
muablement	231-119919-B
muance	231-120046-B
muant	231-122170-B
muard	231-122240-B
mucate	231-122516-B
mucedinees ou mucorinees	231-127371-B
muche pot a	231-122618-B
mucilage	231-123126-B
mucilagineux euse	231-123936-B
mucine	231-124452-B
mucipare	231-124559-B
mucique	231-124705-B
muco	231-124879-B
muco pus	231-124973-B
mucor	231-125176-B
mucorinees	231-125331-B,231-127371-S
mucosine	231-125441-B
mucosite	231-125724-B
mucoso sucre ee	231-126293-B
mucrone ee	231-126820-B
mucronule	231-126597-B
mucus	231-127067-B
mudar	231-127698-B
mudarine	231-128096-B
muder	231-128197-B
mue	231-128369-B,231-131387-B
mue ee	233-1003-B
muer	231-132560-B
muet	333-155306-S
muet ette	231-135821-B
muetisme	233-1301-B
muette	231-145201-B,231-145574-B
muette nouvel nouvelle	242-60197-S
muettement	231-147182-B
muezzin	231-147442-B
mufle	231-147622-B
mufleau	231-149604-B
muflier	231-149658-B
mufliere	231-149879-B
mufti	231-150065-B
muge	231-150871-B
mugho	231-151262-B
mugiloides	231-151415-B
mugir	231-151591-B
mugissant ante	231-154395-B
mugissement	231-154870-B
mugot	231-156331-B
muguet	231-157456-B
muguete ee	231-162847-B
mugueter	231-161331-B
muguetterie	231-162703-B
muharrem	231-162947-B
muid	231-163022-B
muire	231-165800-B
mular	231-166333-B
mulard	231-166419-B
mulasse	231-166496-B
mulasserie	231-166593-B
mulassier iere	231-166715-B
mulat	231-167472-B
mulatre	232-17382-B
mulcte ee	231-167835-B
mulcter	231-167562-B
mule	143-158-S,231-168005-B,231-169556-B
mule jenny	231-171560-B
mules	231-171995-B
mulet	61-17584-S,231-173108-B,231-177091-B
muletier	231-177575-B
muletiere	231-178243-B
muletieres	231-178309-B
muleton	231-178393-B
muletonne	231-178715-B
mulette	231-178870-B
muley	231-178978-B
mulier	231-179226-B
mulion	231-179383-B
mulle	150-31035-S,231-179457-B,231-180000-B,231-180203-B
mullequin	231-180351-B
mullette	231-180624-B
mulon	231-181024-B
mulot	231-181465-B
muloter	231-183089-B
mulquinier	231-183596-B
mulsion	231-184043-B
multangulaire ou multangule ee	231-184289-B
multangule ee	231-184289-S
multi	231-184539-B
multiarticule ee	231-184624-B
multiaxifere	231-184812-B
multicapsulaire	231-185065-B
multicaule	231-185216-B
multicolore	231-185381-B
multicorne	231-185554-B
multicuspide ee	231-185712-B
multidigite ee	231-185914-B
multiembryonne ee	231-186124-B
multifascie ee	231-186311-B
multifide	231-186505-B
multiflore	231-186815-B
multifore ee	231-187598-B
multiforme	231-186978-B
multiformite	231-187485-B
multijugue ee	231-187765-B
multilabre	231-187981-B
multilatere	231-188154-B
multilobe ee	231-188312-B
multiloculaire	231-188571-B
multimamme	231-188746-B
multinerve ee ou multinervie ee	231-188890-B
multinervie ee	231-188890-S
multinome	231-189117-B
multipare	231-189222-B
multiparite	231-189410-B
multipartite	231-189522-B
multipede	232-11691-B
multipetale ee	232-11867-B
multiple	231-189788-B,334-8540-S
multiplement	232-0-B
multipliable	232-176-B
multipliant ante	232-527-B
multiplicande	232-814-B
multiplicateur	232-1081-B,351-156510-S
multiplicatif ive	232-1318-B
multiplication	232-1494-B
multiplicite	232-3657-B
multiplie ee	232-10837-B
multiplier	232-4689-B
multiplieur	232-10644-B
multipolaire	232-11357-B
multiponctue ee	232-11487-B
multiseculaire	232-12655-B
multiseque ee	232-12993-B
multiserie ee	232-13286-B
multisilique ee	232-12227-B
multisiliqueux euse	232-12062-B
multisonore	232-12384-B
multitude	232-13477-B
multivalve	232-16801-B
multongule ee	232-17149-B
mumie	232-18247-B
muncos	232-18286-B
mundick	232-18409-B
mungo	232-18769-B
mungos	232-19560-B
muni ie	232-19708-B
municipal ale	232-20327-B
municipalement	232-22173-B
municipalisme	232-22390-B
municipalite	232-22648-B
municipe	232-23094-B,232-23467-B
munificence	232-24164-B
munir	232-25035-B
munition	232-27128-B
munitionnaire	232-29195-B
munitionner	232-30385-B
munsterien	232-30712-B
munychion	232-30887-B
muphti	232-31013-B
muqueuse	157-2864-S
muqueux euse	143-176007-S,232-31055-B
mur	25-176961-S,43-11353-S,78-56255-S,232-32745-B,259-245308-S,308-127223-S
mur ure	237-132355-B
murage	232-41166-B
muraille	232-41492-B,263-2605-S
muraillement	232-47882-B
murailler	232-48359-B
mural ale	232-48985-B,237-138237-B
mure	237-138440-B
mure ee	78-56900-S,232-70145-B
mureau	232-50896-B
murement	237-140747-B
murene	232-69073-B
murenophis	232-70781-B
murer	78-56716-S,232-51172-B,232-52248-B,232-52320-B
mureraie	237-141233-B
muret	232-52528-B
mureux euse	232-52940-B
murex	232-53111-B
murexane	232-53988-B
murexide	232-54169-B
murger	232-54695-B
muri ie	237-141464-B
muriate	232-55442-B
muriate ee	232-56123-B
muriatique	232-55799-B
muricier	232-56291-B
muricite	232-56358-B
muricule ee	232-56412-B
muride	232-56617-B
murier	237-141803-B
muriforme	237-143156-B
muriosulfate	232-56695-B
muriosulfurique	232-56894-B
murique ee	232-57126-B
murir	237-143306-B
murissant ante	237-147714-B
murity	232-57194-B
murmurant ante	232-57277-B
murmurateur	232-57747-B
murmuration	232-59089-B
murmure	232-59385-B
murmure ee	232-67747-B
murmurement	232-63796-B
murmurer	232-64151-B
muron	237-147896-B
muros	139-40284-S,196-0-S
muros extra	232-67878-S
muros intra ou muros extra	232-67878-B
murrhe	232-68211-B
murrhin ine	232-68536-B
musacees	232-71027-B
musagete	232-71521-B
musangere	232-71753-B
musaraigne	232-71815-B
musard arde	232-72273-B
musarder	232-72977-B
musarderie ou musardise	232-73205-B
musardise	232-73205-S
musc	232-73397-B,259-245443-S,276-110187-S
muscade	232-76635-B
muscadelle	232-77822-B
muscadet	232-77947-B
muscadier	232-78462-B
muscadin	232-79119-B
muscardin	232-81168-B
muscardine	232-81770-B
muscardinique	232-81929-B
muscari	232-82077-B
muscarine	232-82515-B
muscat	232-82664-B,259-245558-S
muscatelline	232-84651-B
muschelkalk	232-84816-B
muscicape	232-85101-B
muscicole	232-85617-B
muscides	232-85781-B
muscinees	232-85920-B
muscipule	232-86085-B
muscivore	232-86663-B
muscle	232-86889-B
muscle ee	232-88138-B
muscler	232-88001-B
muscologie	232-88729-B
musculaire	183-100101-S,221-173388-S,232-88907-B,245-98766-S
musculation	232-89548-B
musculature	232-89873-B
muscule	232-90027-B
musculeux euse	232-90308-B
musculine	232-91114-B
musculo cutane ee	232-91254-B
musculosite	232-91393-B
muse	232-91529-B,232-97597-B,232-98100-B,232-98277-B,232-98641-B
museau	47-93571-S,55-72999-S,232-98823-B,240-136525-S
musee	232-134718-B
musele ee	232-103844-B
museler	232-101980-B
museliere	232-102832-B
musellement	232-103539-B
museographe	232-135703-B
museon	232-135851-B
muser	232-103931-B,232-106750-B
muserie	232-107165-B
muserolle	232-107447-B
musette	68-49603-S,232-107605-B,232-109477-B
museum	232-135900-B
musical ale	232-109673-B
musicalement	232-110222-B
musicastre	232-110764-B
musicien ienne	232-111359-B
musico	232-113378-B
musicographe	232-113957-B
musicomanie	232-114169-B
musif ive	232-114403-B
musique	232-115074-B
musiquer	232-125496-B
musiquette	232-125981-B
musoir	232-126286-B
musophage	232-126428-B
musque ee	232-127614-B
musquer	232-126679-B
musquinier	232-127181-B
musse	232-130356-B
musse ee	232-132544-B
musser se	232-130578-B
mussif ive	232-132247-B
mussitation	232-132328-B
mustafa	232-132636-B
mustang	232-132726-B
mustec	232-132999-B
mustelins	232-133239-B
mustelle	232-133079-B
musulman ane	232-133417-B
musulmanisme	232-134136-B
musurgie	232-134396-B
mutabilite	232-136998-B
mutacisme	232-138131-B
mutage	232-138324-B
mutation	232-138514-B
mute ee	233-567-B
mutel	232-140841-B
mutelline	232-140915-B
muter	232-141069-B
mutilateur trice	232-141399-B
mutilation	232-141953-B
mutile ee	232-146802-B
mutiler	232-143154-B
mutileur	232-146438-B
mutin ine	232-148327-B
mutine ee	232-155475-B
mutinement	232-151414-B
mutiner	232-151684-B
mutinerie	232-154330-B
mutique	232-156248-B
mutisme	232-156420-B,232-156618-B
mutite	232-156733-B,342-22606-S
mutualiste	232-156869-B
mutualite	232-156965-B
mutuel elle	232-157209-B
mutuellement	232-160513-B
mutuellisme	232-161993-B
mutuelliste	233-0-B
