coupon	84-262852-B
couponne ee	84-264637-B
coupoui	84-264924-B
coupure	84-265029-B
couque	84-272966-B
cour	20-66585-S,25-170430-S,31-4925-S,84-273065-B
courable	84-294776-B
courade	84-295050-B
couradoux	84-295133-B
courage	84-295261-B
courageusement	84-307639-B
courageux euse	84-308228-B
courai	84-310106-B
courailler	84-310168-B
couralin	84-310344-B
couramment	84-310402-B
courant	78-23047-S,139-38288-S
courant ante	85-0-B
courante	85-9427-B,85-11684-B,85-12109-B,85-12199-B
courantille	85-12315-B
courantin ine	85-12508-B
couraquet	85-12964-B
couratari	85-13053-B
courau	85-13211-B
courayer	85-13284-B
courbable	85-13445-B
courbage	85-13534-B
courban	85-13639-B
courbant ante	85-13874-B
courbaril	85-14069-B
courbarine	85-14239-B
courbaton	85-14323-B
courbatu ue	85-14452-B
courbature	85-15870-B
courbature ee	85-17157-B
courbaturer	85-16609-B
courbe	32-65635-S,78-23291-S,85-17247-B,85-21690-B
courbe ee	85-29966-B
courbement	85-22117-B
courber	85-22558-B
courbet	85-26823-B
courbette	85-27126-B
courbetter	85-28839-B
courbine	85-28950-B
courbotte	85-29002-B
courbu	85-29107-B
courbure	85-29159-B
courcailler	85-31394-B
courcaillet	85-31483-B
cource	85-32336-B
courcet	85-32499-B
courchot	85-32571-B
courcin	85-32627-B
courcive	85-32884-B
courcon	85-227947-B
coure vite ou court vite	85-33195-B
coureau	85-33407-B
couree	85-228202-B,85-228405-B
couresse	85-33701-B
couret	85-33785-B
coureur	25-170674-S
coureur euse	85-33849-B
courge	81-145636-S,85-39086-B,85-40603-B
courgee	85-41719-B
courier iere	31-5704-S
courir	85-42114-B
courleret ou courleri ou courleru	85-74074-B
courleri ou courleru	85-74074-S
courleru	85-74074-S
courliere	85-75721-B
courlieu ou courlis	85-74272-B
courlis	85-74272-S
courmi	85-75799-B
couroi	85-75871-B
couroir	85-75974-B
courol	85-76085-B
couronnade	85-76143-B
couronnant ante	85-76314-B
couronne	85-76472-B
couronne ee	85-107113-B
couronnement	85-94135-B
couronner	85-98404-B
couronnure	85-106796-B
couroucou	85-111595-B
couroupite	85-111677-B
courpate	85-111831-B
courradoux	82-118029-S
courre	85-111933-B,85-114591-B
courrette	85-114801-B
courriau	85-114869-B
courrier	25-171794-S,85-115006-B,211-27114-S
courriere	25-171966-S,85-117931-B
courroi	85-118680-B
courroie	40-87053-S,85-118875-B,228-113887-S
courroir	85-122886-B
courrouce ee	85-127580-B
courroucer	85-123046-B
courroux	85-127913-B
courroyer	85-134372-B
courroyeur	85-134460-B
cours	85-134564-B,131-112105-S
coursable	85-150751-B
course	78-23555-S,85-151298-B,96-249882-S
coursie	85-159771-B
coursier	85-159934-B
coursiere	85-164010-B
coursive	85-163485-B
courson	85-164268-B,85-164692-B,85-164761-B
coursonne	85-164898-B
court bandage	85-185676-B
court baton	85-186774-B
court bouillon	85-185782-B
court bouillonne ee	85-186498-B
court bouton	85-186663-B
court cote	85-187108-B
court courte	85-164954-B
court cureau	85-186983-B
court jointe ee	85-187272-B
court mancher	85-187657-B
court monte ee	85-187906-B
court pendu	85-188070-B
court tour	85-188453-B
court vetu ue	85-188747-B
court vite	85-33195-S,85-188599-B
courtage	85-188845-B
courtaille	85-190390-B
courtain	85-190490-B
courtanelle	85-190632-B
courtaud aude	85-190701-B
courtaude ee	85-193120-B
courtauder	85-192903-B
courte	85-164954-S
courte botte	85-193252-B
courte boule	85-193734-B
courte epee	85-195876-B
courte epine	85-195721-B
courte graisse	85-193796-B
courte haleine	85-193990-B
courte lettre	85-194056-B
courte paume	85-194251-B
courte pointe	85-194313-B
courte pointier	85-195476-B
courte queue	85-195571-B
courtement	85-196103-B
courter	85-196491-B
courterolle	85-196669-B
courti	85-196750-B
courtier	85-196852-B
courtiere	85-217379-B
courtil	85-201283-B
courtiliere	85-202481-B
courtillage	85-202882-B
courtille	85-203338-B
courtine	85-203803-B
courtisan	85-207230-B
courtisane	85-211514-B
courtisanerie	85-213096-B
courtisanesque	85-213793-B
courtisanier iere	85-214456-B
courtisanisme	85-214593-B
courtise ee	85-217080-B
courtisement	85-214743-B
courtiser	85-215073-B
courtois oise	85-217475-B
courtoisement	85-221567-B
courtoisie	85-222709-B
courton	85-226365-B
couru ue	85-226530-B
courue	85-227760-B
couscou	85-228576-B
couscous	85-228770-B
couseau	85-229379-B
couseuse	85-229464-B
coushite	85-229693-B
cousin	61-14281-S,85-230080-B
cousin ine	85-231205-B
cousinage	85-236355-B
cousine ee	85-239352-B
cousiner	85-237696-B
cousinerie	85-238516-B
cousinet	85-238581-B
cousinette	85-238705-B
cousiniere	85-238810-B,85-239007-B
cousoir	85-239461-B
coussin	85-239556-B
coussiner	85-242479-B
coussinet	85-242668-B
coussinette	85-245641-B
coussotte	85-245732-B
coussou	85-245801-B
coustange	85-246011-B
coustiere	85-246593-B
coustil	85-246082-B
coustillade	85-246228-B
couston	85-246840-B
cousu ue	85-246990-B
cout	86-104595-B
coutange	86-106860-B
coutant	86-107078-B
coutard	85-249955-B
coutarde	85-250274-B
coutauder	85-250396-B
coute ou coutet	85-250454-B
couteau	85-250695-B,276-98934-S
coutel	85-261125-B
coutelas	85-261218-B
coutele ee	85-265206-B
coutelet	85-262948-B,85-263027-B
coutelier iere	85-263427-B
couteliere	85-264322-B
couteline	85-264247-B
coutellerie	85-264588-B
coutelure	85-265045-B
couter	86-107200-B
coutet	85-250454-S
couteusement	86-118302-B
couteux	86-118427-B
coutier	85-265367-B
coutieres	86-1129-B
coutil	85-265631-B
coutillade	85-266623-B
coutille	86-0-B,86-209-B
coutiller	86-535-B
coutissees	86-971-B
couton	86-1272-B
coutoubee	86-1641-B
coutouille	86-1810-B
coutrau	86-1901-B
coutre	86-1955-B
coutrier	86-2835-B
coutrillon	86-2948-B
coutumat	86-3045-B
coutume	86-3117-B
coutumier	86-11930-B
coutumier iere	86-12536-B
coutumierement	86-16562-B
couture	86-17208-B
couture ee	86-24132-B
couturer	86-20675-B
couturerie	86-20810-B
couturier	86-20900-B
couturiere	86-23322-B
couvade	86-24271-B
couvage	86-24817-B
couvain	86-24892-B
couvaison	86-25404-B
couve	86-25558-B
couve ee	86-90891-B
couvee	86-91109-B
couvent	86-25783-B
couver	86-28440-B
couvercle	86-34191-B
couverseau	86-35672-B
couvert	25-169421-S,86-36287-B,86-42763-B
couvert erte	86-45978-B
couverte	86-51238-B
couvertement	86-53228-B
couverture	86-54351-B
couverturier	86-61818-B
couvet	86-62058-B
couveuse	86-62374-B
couvi	86-62698-B
couvoir	86-63098-B
couvraille	86-63442-B
couvre chef	86-63568-B
couvre face	86-65503-B
couvre feu	86-65692-B
couvre giberne	86-66584-B
couvre joint	86-66790-B
couvre lit	86-67061-B
couvre lumiere	86-67226-B
couvre pied	86-67545-B
couvre plat	86-68421-B
couvre platine	86-68563-B
couvre shako	86-68840-B
couvreau	86-68991-B
couvreur	86-69103-B
couvrir	86-70348-B
couvrir s 	131-113036-S
couvrose	86-90687-B
couze	86-93413-B
covariant	86-93726-B
covenant	86-94101-B
covenantaire	86-94547-B
covendeur	86-94663-B
covet	86-94815-B
cowpox	86-94879-B
coxal ale	86-95108-B
coxalgie	86-95262-B
coxalgique	86-95440-B
coxo femoral ale	86-95514-B
coyau	86-95725-B,86-95765-B
coyer	86-95847-B,86-96285-B
crabe	86-119735-B
crabier	86-120813-B
crabite	86-121168-B
crabotage	86-121245-B
crabron	86-121324-B
crabronide	86-121439-B
crac	86-121629-B,87-121938-S
crachat	86-122225-B
crache	86-123622-B
crache ee	86-130125-B
crachement	86-123754-B
cracher	86-124186-B
cracheur euse	86-129488-B
crachoir	86-129616-B
crachotement	86-129732-B
crachoter	86-129939-B
cracide	86-130644-B
cracovie	86-130744-B
cracovienne	86-131565-B
cracoviste	86-131691-B
cracque	86-131844-B
cracra	86-131957-B
cradeau	86-132035-B
cradot	86-132134-B
craffe	86-132219-B
crag	86-132308-B
crai	86-132630-B
craie	86-132751-B
craignant	86-135043-B
craillement	86-135281-B
crailler	86-135634-B
crain	86-135802-B,86-136054-B
craindre	86-136091-B
craindre s 	131-113392-S
craint crainte	86-151613-B
crainte	86-151613-S,86-152209-B
craintif ive	86-158195-B
craintivement	86-160067-B
craion	86-160513-B
cram	86-160578-B
cramail	86-160615-B
cramaillier	86-160971-B
crambe	86-161143-S,86-161422-S
crambe ou crambe	86-161143-B,86-161422-B
crambite	86-161621-B
cramignon	86-161740-B
craminer	86-162362-B
cramoisi	86-162485-B
cramoisi ie	86-163123-B
cramoisie	86-164479-B
cramoisiere	86-164569-B
crampe	86-164651-B,86-166558-B
crampon	86-166839-B
cramponne ee	86-172521-B
cramponner	86-170541-B
cramponnet	86-172343-B
cran	86-173150-B,86-173272-B,86-173495-B
cranage	86-176579-B
crancelin ou cancerlin ou mieux crantzelin	86-176786-B
cranchie	86-177613-B
crane	89-152506-B,263-1542-S
cranement	89-153688-B
cranequin	86-177747-B
cranequinier	86-178370-B
craner	86-178876-B
cranerie	89-153829-B
crangon	86-179098-B
craniace	86-179238-B
cranie	86-179396-B
cranien ienne	89-154422-B
cranio abdominal ale	86-179644-B
cranio facial ale	86-179896-B
cranio thoracique	86-180058-B
craniographe	86-180285-B
craniographie	86-180444-B
craniographique	86-180522-B
craniologie	86-180617-B
craniologique	86-181096-B
craniologiste ou craniologue	86-181184-B
craniologue	86-181184-S
craniomancie	86-181359-B
craniometre	86-181591-B
craniometrie	86-181786-B
craniometrique	86-181909-B
cranioscopie	86-182005-B
cranioscopique	86-182228-B
craniotome	86-182320-B
craniotomie	86-182573-B
crannoge	86-182722-B
cranoir	86-182877-B
cranologie	86-182969-B
cranquillier	86-183077-B
cranson	87-0-B
crantzelin	86-176786-S
craouillasse	87-73-B
craouille ou craouillere	87-179-B
craouillere	87-179-S
crapaud	61-14655-S,87-298-B,149-38589-S
crapaudaille	87-4762-B,87-5269-B
crapaude	87-5382-B
crapaude ee	87-9527-B
crapaudeau	87-5732-B
crapaudiere	87-9075-B
crapaudin	87-5881-B
crapaudine	87-5997-B
crapelet	87-9699-B
crapelu	87-9768-B
crapone	87-9823-B
crapoussin ine	87-9907-B
crappe	87-10520-B
crapule	87-10581-B
crapuler	87-12061-B
crapuleusement	87-12636-B
crapuleux euse	87-12767-B
craque	87-13687-B,87-14711-B
craquelage	87-14833-B
craquele	87-17064-B
craqueler	87-14953-B
craquelin	87-15551-B,87-15940-B,87-16123-B
craquelot	87-16230-B
craquelotiere	87-16478-B
craquelure	87-16825-B
craquement	87-17376-B
craquenelle	87-18505-B
craquer	87-18693-B,87-20310-B
craquerie	87-20443-B
craquerolle	87-20578-B
craquet	87-20761-B
craquetement	87-22746-B
craqueter	87-20860-B
craquette	87-22396-B
craqueur euse	87-22595-B
crasane	87-22904-B
crase	87-23019-B
crasilles	87-23706-B
crasiographie	87-23998-B
crasiologie	87-24168-B
crasioristique	87-24321-B
craspedie	87-24510-B
craspedocephale	87-24760-B
craspedonte	87-24929-B
craspedophore	87-25066-B
craspedosome	87-25251-B
crassamentum	87-25398-B
crassane	87-25653-B
crassange	87-26685-B
crassat	87-26775-B
crassatelle	87-27525-B
crasse	87-27610-B,87-28951-B
crassement	87-30745-B
crasser	87-30896-B
crasses	87-31154-B
crasseux euse	87-31496-B
crassicaude	87-32993-B
crassicaule	87-33152-B
crassiceps	87-33311-B
crassicolle	87-33465-B
crassicorne	87-33605-B
crassier	87-33763-B
crassifolie ee	87-33879-B
crassilabre	87-34053-B
crassilingue	87-34257-B
crassilobe ee	87-34456-B
crassinerve ee	87-34614-B
crassipede	87-34930-B
crassipenne	87-34789-B
crassirostre	87-35086-B
crassisquamme	87-35231-B
crassisulce	87-35402-B
crassitude	87-35589-B
crassulacee	87-35769-B
crassule	87-36043-B
crat	87-36296-B
crategine	87-38612-B
cratere	87-37000-B
craterelle	87-38758-B
crateriforme	87-38828-B
craterion	87-39012-B
crateroide	87-39191-B
craticulaire	87-36357-B
craticulation	87-36499-B
craticule	87-36631-B
craticuler	87-36807-B
cratte	87-36869-B
craupecherot	87-39337-B
cravache	87-39428-B
cravan	87-40350-B
cravate	87-40824-B,87-41910-B
cravate ee	87-43747-B
cravater	87-43424-B
crave	87-43850-B
cravete	87-44029-B
cravichon	87-43951-B
craye	87-50327-B
crayer	87-44090-B,87-44170-B
crayere	87-50185-B
crayeux euse	87-44477-B
crayon	87-45146-B,347-39700-S
crayonne ee	87-50026-B
crayonner	87-48771-B
crayonneur	87-49751-B
crayonneux euse	87-49886-B
creable	90-1787-B
creac	90-1871-B
creadier	90-1913-B
creance	90-2013-B,90-10111-B
creancier iere	90-10719-B
