hypophosphoreux	179-33611-B
hypophosphorique	179-33775-B
hypophrygien	179-33937-B
hypophthalmie	179-34305-B
hypophylle	179-34585-B
hypophyllocarpe	179-34841-B
hypophyse	179-35064-B
hypopyge	179-35305-B
hypopyon	179-35477-B
hyporcheme	179-36168-B
hyporrhythme	179-36630-B
hyporyctique	179-36948-B
hyposcenium	179-37161-B
hypospade	179-37451-B
hypospadias	179-37546-B
hypospathisme	179-37975-B
hyposphagme	179-38406-B
hypostamine ee	179-38888-B
hypostaminie	179-38640-B
hypostase	179-39059-B,179-39555-B
hypostatique	179-39875-B,179-40876-B
hypostatiquement	179-41263-B
hyposternal	179-41664-B
hyposthenie	179-41799-B
hyposthenique	179-41949-B
hyposthenisant ante	179-42194-B
hypostheniser	179-42356-B
hypostome	179-42457-B
hypostrome	179-42611-B
hypostyle	179-42860-B
hyposulfate	179-43166-B
hyposulfite	179-43305-B
hyposulfureux	179-43442-B
hyposulfurique	179-43597-B
hypotenuse	179-53660-B
hypothalassique	179-43814-B
hypothalle	179-43990-B
hypothecable	179-47472-B
hypothecaire	179-47573-B
hypothecairement	179-48405-B
hypothecion	179-48801-B
hypothenar	179-48957-B
hypotheque	179-44269-B,179-45809-B
hypotheque ee	179-50635-B
hypothequer	179-49264-B
hypothese	179-46198-B
hypothetique	179-51093-B
hypothetiquement	179-52132-B
hypothionique	179-44132-B
hypotrachelion	179-52279-B
hypotrophie	179-52531-B
hypotypose	179-52712-B
hypoxanthine	179-54232-B
hypoxyde	179-54405-B
hypoxydees	179-54534-B
hypoxyles	179-54664-B
hypozoique	179-54880-B
hypsographie	179-55459-B
hypsometre	179-55603-B
hypsometrie	179-55828-B
hypsometrique	179-56051-B
hypsoptenes	179-56139-B
hyrax	179-57134-B
hysope ou hyssope	179-57380-B
hysopine	180-0-B
hysson	180-87-B
hyssope	179-57380-S
hystaspide	180-182-B
hysteralgie	180-825-B
hysterandrie	180-1027-B
hysterandrique	180-1185-B
hysteranthe ee	180-1298-S
hysteranthe et hysteranthe ee	180-1298-B
hystericisme	180-1524-B
hysterie	180-1676-B
hysterique	180-1961-B
hysterite	180-2405-B
hystero catalepsie	180-2589-B
hystero epilepsie	180-3323-B
hystero proteron	180-2807-S
hystero proton ou hystero proteron	180-2807-B
hysterocele	180-3875-B
hysterocystique	180-3465-B
hysterocystocele	180-3649-B
hysterogene	180-4174-B
hysterographie	180-4027-B
hysterolithe	180-4415-B
hysterologie	180-4892-B
hysteroloxie	180-5413-B
hysteromalacie	180-5647-B
hysteromanie	180-5887-B
hysterometre	180-6050-B
hysterophyse	180-6287-B
hysteroptose	180-6459-B
hysterorrhee	180-6614-B
hysteroscope	180-6783-B
hysterostomatome	180-6939-B
hysterotocotomie	180-7204-B
hysterotome	180-7467-B
hysterotomie	157-1886-S,180-7647-B
hysterotomotocie	180-7989-B
hystriciens	180-537-B
i	182-46058-B
iahve	182-50254-S
iahve ou iahve	182-50254-B
iambe	393-95675-B
iambelegiaque	393-97984-B
iambique	393-97664-B
iambographe	393-97838-B
ianthe	182-51240-B
ianthin ine	182-51092-B
iatr ou iatro	182-51385-B
iatralipte	182-51491-B
iatraliptique	182-51858-B
iatrion	182-52066-B
iatrique	182-52348-B
iatro	182-51385-S
iatrochimie	182-52457-B
iatrochimique	182-52605-B
iatrochimiste	182-52692-B
iatromathematicien	182-52776-B
iatromathematique	182-53221-B
iatromecanique	182-53410-B
iatrophysique	182-53553-B
iba	182-53851-B
iberide	182-55775-B
iberien enne	182-55928-B
iberique	182-56037-B
ibidem	182-54015-B
ibiocephale	182-54324-B
ibis	182-54468-B
iblis	182-55537-B
ibycter	182-55579-B
icaque	182-56117-B
icaquier	182-56292-B
icare	182-56445-B
icarie	182-56990-B,182-57336-B
ice	137-74721-S,137-108191-S,151-189344-S
iceberg	182-57544-B
icelui	182-58346-B
ichneumon	182-60598-B
ichnographe	182-62165-B
ichnographie	182-62327-B
ichnographique	182-62605-B
ichnographiquement	182-62722-B
ichor	182-62819-B
ichoreux euse	182-63304-B
ichthyique	182-63569-B
ichthyo	182-63753-B
ichthyocolle	182-63813-B
ichthyodonte	182-64062-B
ichthyodorylithe	182-64177-B
ichthyographe	182-64398-B
ichthyographie	182-64486-B
ichthyoide	182-67397-B
ichthyolithe	182-64618-B
ichthyolithologie	182-64779-B
ichthyologie	182-64928-B
ichthyologique	182-65352-B
ichthyologiste	182-65472-B
ichthyomorphe	182-65613-B
ichthyophage	182-65760-B
ichthyophagie	182-66088-B
ichthyophagique	182-66175-B
ichthyophile	182-66268-B
ichthyopsophose	182-66401-B
ichthyosaure ou ichthyosaurus	182-66644-B
ichthyosaurien ienne	182-66859-B
ichthyosaurus	182-66644-S
ichthyose	182-66971-B
ichthyospondyle	182-67255-B
ichthys	182-67538-B
ici	182-67859-B
icicane	182-76021-B
icoglan	182-76207-B
iconarithme	182-76519-B
icone	182-84212-B
iconique	182-76953-B
iconoclasme	182-77183-B
iconoclaste	182-77293-B
iconoclastie	182-78126-B
iconographe	182-78489-B
iconographie	182-78649-B
iconographique	182-78987-B
iconolatre	182-79625-B
iconolatrie	182-79844-B
iconolatrique	182-79918-B
iconologie	182-79077-B
iconologique	182-79392-B
iconologiste ou iconologue	182-79501-B
iconologue	182-79501-S
iconomanie	182-80028-B
iconomaque	182-80155-B
iconophile	182-80285-B
iconoscope	182-80454-B
iconostase	182-80636-B
iconostrophe	182-80908-B
icosaedre	182-81851-B
icosandre	182-81127-B
icosandrie	182-81461-B
icosandrique	182-81769-B
icosigone	182-82102-B
icte	338-25987-S
ictere	182-82473-B
ictericie	182-82886-B
icterique	182-83121-B
icterocephale	182-83715-B
icterode	182-83874-B
icteropode	182-84077-B
ictus	182-82260-B
ide	182-84751-B,182-84923-B,182-85192-B,343-120904-S
ideal ale	183-27463-B
idealement	183-33253-B
idealisation	183-33508-B
idealiser	183-33609-B
idealisme	183-33850-B
idealiste	183-35748-B
idealistique	183-36122-B
idealite	183-36300-B
ideation	183-36591-B
idee	183-37208-B
idem	182-85454-B,240-277204-S
idemiste	183-52325-B
identification	182-86356-B
identifie ee	182-87394-B
identifier	182-86629-B
identique	182-87680-B
identiquement	182-88280-B
identite	182-88443-B
ideogenie	183-54453-B
ideogenique	183-54617-B
ideogramme	183-52531-B
ideographie	183-52937-B
ideographique	183-53132-B
ideographiquement	183-53694-B
ideographisme	183-53985-B
ideologie	183-54705-B
ideologique	183-55259-B
ideologiste	183-55426-B
ideologue	183-55590-B
ides	182-91458-B
idio	182-92999-B
idio electricite	182-93305-B
idio electrique	182-93419-B
idio metallique	182-93062-B
idiocyclophane	182-93700-B
idiogyne	183-0-B
idiogynie	183-217-B
idiomatique	183-313-B
idiome	183-389-B
idiomographie	183-1962-B
idiomographique	183-2138-B
idiomorphes	183-2232-B
idiopathie	183-2437-B
idiopathique	183-2717-B
idiosyncrasie	183-2926-B
idiosyncrasique	183-3206-B
idiot ote	183-3302-B
idiothalame	183-5742-B
idiotie	183-5955-B
idiotique	183-6035-B,183-6157-B
idiotisme	183-6333-B,183-6708-B
idiotrophosperme	183-7128-B
idocrase	183-7299-B
idoine	183-7445-B
idolatre	183-15983-B
idolatre ee	183-25049-B
idolatrement	183-19231-B
idolatrer	183-19474-B
idolatrie	183-21455-B
idolatrique	183-24771-B
idole	183-8528-B
idoneite	183-25263-B
idoscopique	183-25578-B
idrialine	183-25855-B
idryle	183-25960-B
idylle	183-26080-B
idyllique	183-27250-B,183-27318-B
ie	1-30351-S,1-57224-S,1-107515-S,1-128805-S,1-157996-S,1-180865-S,2-17786-S,2-19973-S,2-110833-S,3-33078-S,3-86460-S,3-99399-S,3-134933-S,3-147628-S,5-58891-S,5-121289-S,5-123857-S,5-131620-S,6-37482-S,6-117792-S,7-10976-S,7-52737-S,7-66862-S,7-119899-S,8-146878-S,8-190321-S,9-179897-S,10-27443-S,10-85171-S,11-13381-S,11-80235-S,11-83398-S,11-121480-S,11-124282-S,11-140109-S,14-27481-S,15-61804-S,16-30055-S,16-33156-S,17-18746-S,17-46814-S,17-50216-S,17-78906-S,17-98350-S,17-128425-S,20-85325-S,21-78287-S,21-83574-S,22-1624-S,22-66449-S,22-74669-S,22-83416-S,22-87451-S,22-88889-S,22-90837-S,22-96274-S,23-105361-S,23-131122-S,23-152582-S,25-107118-S,26-40915-S,26-73043-S,29-41780-S,34-88206-S,35-95056-S,36-43110-S,36-66187-S,36-94433-S,38-135717-S,39-12345-S,41-61895-S,43-98128-S,44-42495-S,46-29161-S,46-30497-S,46-100591-S,46-112146-S,51-14595-S,56-32707-S,59-116131-S,63-88490-S,65-94363-S,67-109962-S,76-137957-S,78-32622-S,80-83002-S,83-59748-S,86-163123-S,89-48089-S,90-79024-S,91-1051-S,96-233859-S,97-81172-S,97-107028-S,97-108199-S,103-21065-S,105-80433-S,107-42734-S,108-97189-S,108-134432-S,109-32961-S,109-41914-S,111-109379-S,112-9080-S,112-152597-S,112-166257-S,112-169867-S,113-18010-S,113-22303-S,113-49858-S,113-91966-S,113-97932-S,114-158413-S,114-158512-S,115-23141-S,115-53328-S,115-96578-S,115-119095-S,116-27439-S,116-152937-S,117-91391-S,117-180277-S,118-0-S,118-87038-S,119-17269-S,119-43376-S,120-36878-S,120-74707-S,120-78871-S,122-140070-S,123-57053-S,123-99790-S,124-45371-S,125-54827-S,125-161675-S,126-85888-S,127-78822-S,127-84095-S,128-16045-S,128-121320-S,128-146911-S,128-149083-S,128-162342-S,128-222666-S,128-245136-S,129-29481-S,129-65537-S,129-90734-S,129-101911-S,130-22276-S,130-97383-S,131-60154-S,132-44767-S,133-49489-S,133-100801-S,140-84973-S,141-55604-S,144-282505-S,146-5691-S,146-140669-S,146-151338-S,146-152477-S,147-28825-S,149-9874-S,149-70026-S,149-123792-S,150-33408-S,151-101954-S,152-77727-S,156-12461-S,156-150048-S,163-128328-S,164-55856-S,166-3769-S,167-120896-S,170-140894-S,171-222273-S,171-228706-S,175-69412-S,184-18578-S,184-25350-S,185-53144-S,185-124372-S,186-22496-S,186-106961-S,187-6967-S,187-16028-S,187-17899-S,187-18228-S,187-18398-S,187-19530-S,187-26435-S,188-98963-S,190-71547-S,191-72146-S,191-124766-S,192-17243-S,192-158891-S,193-27710-S,194-96072-S,195-121324-S,196-162558-S,196-163434-S,197-13353-S,197-16476-S,197-34918-S,198-28031-S,200-82101-S,201-40103-S,211-98562-S,215-104754-S,216-155373-S,220-73840-S,221-57492-S,223-251182-S,223-270823-S,226-232752-S,232-19708-S,237-141464-S,238-1502-S,240-142574-S,242-1341-S,244-112514-S,244-211144-S,249-264958-S,252-4618-S,252-10566-S,252-177490-S,258-25873-S,258-229494-S,258-325478-S,258-326931-S,264-118748-S,273-254837-S,278-164498-S,278-184048-S,279-241948-S,284-65878-S,284-119818-S,285-191809-S,287-68031-S,288-51393-S,290-7173-S,291-31588-S,294-53639-S,294-63288-S,294-66004-S,294-74926-S,294-92934-S,294-168281-S,295-36925-S,295-66283-S,295-80611-S,295-100816-S,296-0-S,296-10926-S,296-34762-S,296-105556-S,296-106333-S,296-140755-S,298-58743-S,298-63055-S,298-135575-S,298-145964-S,298-149896-S,299-2866-S,299-40477-S,299-41815-S,300-109119-S,300-135601-S,301-93172-S,301-128492-S,302-67138-S,302-216274-S,303-81513-S,303-217584-S,304-82010-S,304-118587-S,304-183689-S,305-125740-S,305-125875-S,305-162746-S,305-205022-S,306-207964-S,306-234419-S,306-278579-S,308-53917-S,308-100430-S,310-210335-S,312-78889-S,312-85756-S,312-153206-S,314-118017-S,315-168026-S,316-47221-S,316-161811-S,316-171465-S,317-46207-S,318-7940-S,318-53474-S,318-61351-S,318-66459-S,318-73642-S,319-50120-S,320-65796-S,320-115522-S,320-187595-S,326-258422-S,327-93734-S,327-204075-S,328-13198-S,332-93699-S,339-34455-S,339-42751-S,340-45612-S,340-218795-S,342-44461-S,348-69623-S,348-147643-S,350-384440-S,354-150753-S,357-93209-S,358-40066-S,359-47830-S,359-174733-S,361-29056-S,366-170397-S,370-282401-S,371-68769-S,371-167147-S,372-246147-S,375-356567-S,379-153459-S,379-164884-S,379-171693-S,379-178115-S,379-190789-S,381-108827-S,382-171586-S,384-29979-S,386-91763-S,386-114136-S,389-102938-S,390-43382-S,391-216088-S,391-217330-S,392-42218-S,392-108239-S
ie et aussi assujetti ie	22-96274-S
ie ou decapartite	109-21779-S
ie ou quadripartite	291-93594-S
ielle	112-202301-S,202-30668-S
ienne	2-159060-S,5-38307-S,9-7195-S,9-48448-S,11-46326-S,13-4012-S,14-73921-S,15-46152-S,15-52838-S,16-21486-S,16-46911-S,16-47117-S,18-12060-S,19-71921-S,19-76897-S,22-21939-S,23-11119-S,24-49787-S,24-70762-S,25-95291-S,27-50742-S,30-122236-S,34-75217-S,35-0-S,36-116829-S,39-84452-S,41-5311-S,44-5945-S,44-126295-S,46-4407-S,50-5489-S,50-25041-S,50-80596-S,54-2460-S,54-25613-S,54-35669-S,54-37290-S,54-117472-S,55-1787-S,55-56617-S,56-40857-S,56-54010-S,60-201392-S,63-47873-S,63-49204-S,63-66659-S,64-4685-S,64-22391-S,65-0-S,65-139628-S,65-140947-S,66-22282-S,66-48200-S,66-94309-S,67-1999-S,68-78029-S,68-146552-S,73-179859-S,74-1726-S,74-100043-S,74-154871-S,80-153546-S,81-66158-S,81-67071-S,81-150009-S,82-1973-S,82-59063-S,82-68931-S,83-90948-S,87-122901-S,87-123146-S,87-123376-S,88-53140-S,89-48481-S,89-154422-S,90-116331-S,90-116694-S,91-152790-S,91-152996-S,92-104182-S,94-6294-S,94-27229-S,94-40923-S,95-8844-S,95-143380-S,96-167871-S,96-171034-S,98-172067-S,98-183260-S,100-75268-S,100-105761-S,100-106004-S,100-109455-S,101-12366-S,104-210170-S,105-171321-S,105-171578-S,106-25528-S,109-27888-S,121-137344-S,123-14088-S,129-125841-S,139-39686-S,141-155279-S,144-188062-S,145-94027-S,156-115671-S,156-177440-S,157-10164-S,160-21760-S,160-99730-S,160-100474-S,166-123266-S,168-5737-S,168-13262-S,168-97791-S,168-98741-S,169-22859-S,171-32760-S,171-226209-S,172-17259-S,173-123454-S,173-136227-S,178-29518-S,178-39322-S,180-61683-S,181-7086-S,182-3633-S,182-66859-S,183-103573-S,183-103843-S,187-78026-S,196-8664-S,197-65053-S,198-77266-S,199-21285-S,199-53532-S,199-80354-S,199-147021-S,200-116295-S,201-356403-S,202-4176-S,202-158502-S,202-162148-S,202-169323-S,203-67151-S,203-85780-S,204-177060-S,204-177246-S,206-1435-S,206-25657-S,206-71066-S,206-156699-S,206-158633-S,207-287714-S,208-170961-S,208-172898-S,208-174475-S,210-130142-S,211-3278-S,212-46917-S,213-6169-S,213-37799-S,213-53761-S,214-85200-S,214-91040-S,214-93576-S,214-98622-S,215-10952-S,215-69218-S,216-123583-S,217-101810-S,221-12611-S,223-81641-S,224-155704-S,225-38240-S,227-10839-S,227-182613-S,228-4801-S,228-30500-S,232-111359-S,234-198343-S,235-142861-S,235-174075-S,236-31283-S,236-31469-S,236-78023-S,236-78270-S,237-70530-S,238-9939-S,239-77919-S,239-93864-S,239-100244-S,239-169514-S,243-133435-S,243-134208-S,243-134741-S,243-152919-S,243-153979-S,245-29536-S,245-29730-S,245-29920-S,245-30639-S,245-106755-S,245-125152-S,246-106139-S,247-12726-S,248-23156-S,252-2715-S,252-198442-S,252-202056-S,252-208809-S,253-219741-S,254-13152-S,254-13534-S,254-19856-S,255-35952-S,256-12956-S,258-48359-S,258-158796-S,258-203204-S,260-124960-S,261-74605-S,262-25977-S,262-26187-S,263-159723-S,264-274924-S,265-17026-S,266-44762-S,269-156987-S,270-96070-S,270-110067-S,271-62808-S,272-124202-S,272-150124-S,273-25657-S,274-24242-S,274-34331-S,274-40801-S,275-50092-S,277-182746-S,277-185750-S,280-169266-S,280-204927-S,283-206541-S,284-6377-S,284-8907-S,285-138721-S,286-4337-S,286-18176-S,286-31431-S,286-32815-S,288-30018-S,288-38331-S,288-41260-S,289-68881-S,290-11873-S,290-78183-S,291-1732-S,293-186471-S,294-51303-S,294-152306-S,295-25258-S,307-310226-S,308-154077-S,312-271-S,312-21806-S,313-180819-S,316-34887-S,318-33372-S,319-70990-S,319-207712-S,320-44704-S,320-108101-S,322-32023-S,323-4110-S,324-22966-S,324-23175-S,329-93746-S,329-100594-S,330-113744-S,331-6671-S,331-68295-S,333-201797-S,333-202640-S,334-17090-S,334-25862-S,334-26015-S,337-9227-S,337-20231-S,337-48949-S,338-833-S,338-61544-S,338-81262-S,338-83387-S,338-83978-S,339-34667-S,339-34809-S,341-16853-S,343-43358-S,343-43707-S,343-44810-S,343-50338-S,343-51165-S,343-51894-S,343-104213-S,343-110402-S,344-1312-S,344-22665-S,344-28322-S,344-51918-S,344-96170-S,345-99781-S,345-103525-S,345-123311-S,346-83340-S,348-166159-S,348-166703-S,348-166966-S,350-1432-S,351-82291-S,351-154552-S,352-26925-S,352-51271-S,352-104920-S,354-82714-S,355-75489-S,355-104508-S,356-140704-S,357-46293-S,357-80109-S,357-92024-S,358-463-S,358-10714-S,358-126501-S,358-142657-S,360-19853-S,360-62674-S,361-89761-S,361-107899-S,361-108003-S,363-101205-S,363-124314-S,364-50918-S,364-97134-S,367-35924-S,367-128275-S,368-3748-S,372-71076-S,372-173106-S,374-8949-S,374-228478-S,375-304956-S,376-2234-S,376-176795-S,376-245430-S,377-95814-S,378-53489-S,378-80311-S,381-167855-S,384-5229-S,384-28917-S,386-77704-S,387-62826-S,387-63221-S,387-67228-S,387-99036-S,390-523-S,390-36870-S
ienne et mieux crico thyreoidien ienne	87-123376-S
ienne et pirrhonisme	269-101636-S
ienne ou nephalique	243-144741-S
ienne ou transoceanique	358-78313-S
iere	10-51501-S,19-22380-S,24-118928-S,26-109021-S,29-61035-S,31-5704-S,31-63817-S,32-136731-S,33-47139-S,33-53819-S,33-55100-S,34-32199-S,34-75934-S,37-125621-S,39-63495-S,40-45827-S,41-61667-S,42-43145-S,42-43937-S,44-120298-S,45-25241-S,47-57098-S,47-111944-S,48-55737-S,51-4131-S,51-86729-S,54-10874-S,54-28568-S,55-31206-S,57-6215-S,57-10278-S,57-111060-S,59-181401-S,60-0-S,60-32747-S,60-84230-S,60-90140-S,60-200721-S,60-212125-S,60-214207-S,61-115230-S,62-81532-S,62-251507-S,63-1596-S,63-37945-S,69-70624-S,70-81233-S,75-24780-S,79-58912-S,80-34745-S,81-52278-S,81-140733-S,82-45890-S,83-5221-S,83-77279-S,85-214456-S,85-263427-S,86-12536-S,89-39006-S,90-10719-S,90-63747-S,91-53765-S,94-60650-S,96-313352-S,97-5060-S,98-17315-S,100-79221-S,100-97314-S,106-113610-S,116-85636-S,131-5991-S,140-331457-S,142-133704-S,142-142675-S,142-301833-S,143-11877-S,143-37636-S,144-26791-S,144-119779-S,144-189336-S,144-194898-S,144-266244-S,144-268235-S,146-122680-S,147-105724-S,148-12158-S,149-125582-S,151-20028-S,151-217618-S,151-218903-S,155-101835-S,156-137649-S,157-78869-S,159-31623-S,163-47163-S,163-57410-S,163-158142-S,166-4484-S,166-93230-S,166-179213-S,171-218051-S,175-213779-S,176-2132-S,181-65618-S,181-73533-S,182-43915-S,184-63431-S,192-63591-S,199-138416-S,200-25983-S,200-26245-S,200-46232-S,200-265234-S,201-227755-S,204-36617-S,204-109723-S,207-24911-S,208-209206-S,209-4247-S,213-185123-S,221-31869-S,221-73444-S,222-224025-S,223-17146-S,223-244955-S,223-251772-S,225-1072-S,225-52681-S,225-153893-S,226-48020-S,230-266425-S,231-35354-S,231-166715-S,233-67001-S,238-176598-S,242-266991-S,249-214432-S,252-125693-S,253-185108-S,258-128041-S,259-266089-S,262-1169-S,263-146712-S,269-19333-S,272-153034-S,273-228393-S,273-271043-S,275-117185-S,277-74564-S,278-145243-S,279-63534-S,279-346232-S,280-16674-S,280-40196-S,280-87206-S,280-232923-S,288-88357-S,290-83700-S,296-146624-S,297-210324-S,301-4763-S,302-99435-S,305-39548-S,310-84603-S,312-25282-S,313-4574-S,313-45553-S,313-90796-S,315-156617-S,316-125751-S,326-86312-S,329-179644-S,331-163748-S,332-57585-S,332-215386-S,333-85139-S,333-207570-S,333-221321-S,345-57661-S,346-135645-S,346-195572-S,348-95075-S,349-60390-S,349-111541-S,350-131724-S,355-41380-S,356-146200-S,357-23812-S,359-40473-S,361-34788-S,361-54133-S,362-239488-S,363-153031-S,366-113679-S,367-91500-S,367-98143-S,369-106785-S,374-228135-S,379-129465-S,381-86870-S,381-194577-S,382-18303-S,387-63916-S,388-25059-S,390-99152-S
ieuse	191-44671-S,198-68740-S
if	183-55969-B
iffle	183-57493-B
ifine	183-57641-B
igasurate	183-57736-B
igasurique	183-57859-B
ignacien	183-58068-B
igname	183-58631-B
ignare	183-59692-B
ignarerie	183-60525-B
ignatie	183-60830-B
igne	46-103260-S
igne ee	183-84242-B
igneale	183-86529-B
ignescence	183-60980-B
ignescent ente	183-61074-B
ignicole	183-61244-B
ignifere	183-61735-B
ignition	183-62220-B
ignivome	183-62721-B
ignivore	183-62881-B
ignobilite	183-63087-B,183-63193-B
ignoble	183-63399-B
ignoblement	183-64508-B
ignominie	183-64672-B
ignominieusement	183-65935-B
ignominieux euse	183-66544-B
ignorable	183-67398-B
ignoramment	183-67654-B
ignorance	183-67715-B
ignorant ante	183-72799-B
ignorantifier	183-76275-B
ignorantin	183-76739-B
ignorantisme	183-77611-B
ignorantissime	183-77818-B
ignorantiste	183-78167-B
ignore ee	183-83451-B
ignorer	183-78465-B
iguane	183-86659-B
il	17-46755-S,183-99297-B
il au singulier ils au pluriel	183-86908-B
ile	35-27488-S,67-35884-S,187-103787-S,259-82506-S,279-218485-S,287-169313-S,293-109039-S,328-146572-S,340-20970-S,373-76684-S,374-17498-S,375-237054-S,393-91034-B
ileadelphe	183-147987-B
ileite	183-148198-B
ileo caecal ale	183-148359-B
ileo colique	183-148544-B
ileo diclidite	183-148694-B
ileon ou ileum	183-149019-B
iles	183-99460-B
ilet	393-94374-B
ilette	393-94859-B
ileum	183-149019-S
ileus	183-149526-B
iliaco femoral ale	183-99916-B
iliaco musculaire	183-100101-B
iliade	183-100277-B
iliaque	183-101348-B,183-101472-B,183-102086-B,245-31189-S,319-208005-S,372-2604-S
ilicine	183-102361-B
ilicinees	183-102556-B
ilio abdominal ale	183-102710-B
ilio femoral ale	183-102915-B
ilio lombaire	183-103118-B
ilio pectine ee	183-103276-B
ilio pubien ienne	183-103573-B
ilio rotulien ienne	183-103843-B
ilio scrotal ale	183-104034-B
ilion	183-104199-B
ilion ou ilium	183-104435-B
ilium	183-104435-S,183-104781-B
illabourable	183-104808-B
illaboure ee	183-104927-B
illacerable	183-105053-B
illacere ee	183-105170-B
illatif ive	183-105306-B
illation	183-105561-B
ille	158-92339-S
illec	183-106362-B
illecebre	183-142014-B
illegal ale	183-142243-B
illegalement	183-142869-B
illegalite	183-143015-B
illegitime	183-143743-B
illegitimement	183-145130-B
illegitimite	183-145441-B
illese ee	183-146194-B
illettre ee	183-107145-B
illiberal ale	183-107713-B
illiberalement	183-108258-B
illiberalisme	183-108500-B
illiberalite	183-108867-B
illiciees	183-110988-B
illicite	183-109542-B
illicitement	183-110490-B
illicium	183-110747-B
illico	183-111101-B
illimitable	183-111588-B
illimitation	183-111759-B
illimite ee	183-112160-B
illisibilite	183-112661-B
illisible	183-112890-B
illisiblement	183-113301-B
illition	183-113380-B
illitterature	183-113521-B
illogicite	183-113670-B
illogique	183-114082-B
illogiquement	183-114214-B
illogisme	183-114292-B
illuminable	183-114423-B
illuminant ante	183-114647-B
illuminateur	183-115064-B
illuminatif ive	183-115905-B
illumination	183-116491-B
illumine ee	183-121673-B
illuminer	183-119186-B
illuminisme	183-121442-B
illusion	183-123116-B
illusionner	183-128714-B
illusoire	183-128967-B
illusoirement	183-129991-B
illustrant ante	183-130117-B
illustrat	183-130320-B
illustrateur	183-130407-B
illustration	183-131054-B
illustre	183-133708-B
illustre ee	183-141144-B
illustrement	183-137765-B
illustrer	183-137902-B
illustrissime	183-140014-B
illutation	183-141591-B
ilot	393-95160-B
ilote	183-146350-B
ilotie	183-147048-B
ilotisme	183-147202-B
iloupe	183-147470-B
ils au pluriel	183-86908-S
iltis	183-147631-B
ilvaite	183-147890-B
image	43-10529-S,183-149684-B
image ee	184-7184-B
imager	183-160688-B
imager ere	183-160869-B
imagerie	183-161469-B
imagier	183-161727-B
imaginable	183-161925-B
imaginaire	183-162800-B
imaginant ante	183-165662-B
imaginateur	183-165933-B
imaginatif ive	183-166399-B
imagination	183-167853-B
imaginative	183-177073-B
imagine ee	184-6901-B
imaginer	78-41436-S,184-0-B
imamat	184-7366-B
iman	184-7466-B
imaret	184-8208-B
imasatine	184-8638-B
imbati ie	184-18578-B
imbecile	184-18860-B
imbecilement	184-23176-B
imbecillite	184-23558-B
imbelliqueux euse	184-8817-B
imbeni ie	184-25350-B
imberbe	184-9080-B
imbete	184-18706-B
imbibe ee	184-12681-B
imbiber	184-10429-B
imbibition	184-12179-B
imblessable	184-13162-B
imboire	184-13321-B
imbriaque	184-14936-B
imbricatif ive	184-15263-B
imbrication	184-15532-B
imbrifuge	184-15725-B
imbrim	184-15874-B
imbriquant ante	184-16089-B
imbrique ee	184-16270-B
imbroglio ou a la francaise imbroille	184-16573-B
imbroille	184-16573-S,184-17353-B
imbrulable	184-17390-B
imbu ue	184-17534-B
imbuvable	184-18347-B
imitable	184-25455-B
imitateur trice	184-26542-B
imitatif ive	184-28935-B
imitation	184-29836-B
imite ee	184-36388-B
imiter	184-32857-B
immacule ee	184-36783-B
immanent ente	184-37722-B
immangeable	184-38873-B
immaniable	184-39225-B
immaniere ee	184-39933-B
immanite	184-39493-B
immanquable	184-40327-B
immanquablement	184-41356-B
immansuetude	184-41914-B
immarcescible	184-42033-B
immariable	184-42391-B
immaterialiser	184-44449-B
immaterialisme	184-44630-B
immaterialiste	184-44793-B
immaterialite	184-45250-B
immateriel elle	184-45766-B
immateriellement	184-46795-B
immatriculation	184-42578-B
immatricule	184-42729-B
immatricule ee	184-43763-B
immatriculer	184-43198-B
immaturite	184-44017-B
immediat ate	184-112866-B
immediatement	184-115257-B
