malebranchiste	216-159650-B
malediction	217-17038-B
malefaim	216-160703-B
malefice	217-19588-B
maleficie ee	217-20861-B
malefique	217-21956-B
malefortune	216-160921-B
malegouverne	217-22303-B
maleique	217-22502-B
malement	216-161139-B,233-88147-B
malemort	216-161551-B
malencombre	216-162044-B
malencontre	216-162376-B
malencontreusement	216-163473-B
malencontreux euse	216-163640-B
malendurant ante	216-165163-B
malentendu	216-165378-B
malentente	216-166351-B
malepeste	216-166757-B
malepeur	216-167173-B
malerage	216-167425-B
malestan	216-167643-B
malevole	217-22633-B
malfacon	216-172919-B
malfaire	216-167808-B
malfaisance	216-168363-B
malfaisant ante	216-168501-B
malfait aite	216-170346-B
malfaiteur	216-170571-B
malfame ee	216-172444-B
malfil	216-173793-B
malformation	216-174171-B
malgracieusement	216-174400-B
malgracieux euse	216-174686-B
malgre	216-175410-B
malhabile	216-181036-B
malhabilement	216-181557-B
malhabilete	216-181716-B
malherbe	216-182194-B
malheur	216-182550-B,276-107985-S,359-66390-S
malheure a la	216-193004-B
malheureusement	216-193139-B
malheureux euse	216-193907-B
malhonnete	216-206407-B
malhonnetement	216-208714-B
malhonnetete	216-208942-B
malice	216-209326-B,327-165764-S,331-231116-S
malicet	216-216129-B
malicieusement	216-216480-B
malicieux euse	216-217692-B
malicore ou malicorium	216-220070-B
malicorium	216-220070-S
maliforme	216-220261-B
maligne	216-224439-S
malignement	216-220422-B
malignite	216-220791-B
malin maligne	216-224439-B
maline	216-229528-B
malines	216-230078-B
malingre	216-230271-B
malingrerie	216-232625-B
malintentionne ee	216-232772-B
malique	216-233531-B
malitorne	216-233884-B
mallard	216-234597-B
malle	216-234657-B
malle poste	216-238260-B
malleabilite	216-239344-B
malleable	216-239892-B
malleamothe	216-240504-B
malleen enne	321-10083-S
malleer	216-240622-B
malleolaire	216-241036-B,290-86441-S,352-104726-S
malleole	216-241135-B
malletier	216-238318-B
mallette	216-238436-B
mallier	216-238950-B
malmene ee	216-242981-B
malmener	216-242022-B
malnommee	216-243403-B
maloile	216-247563-B
malons	216-243462-B
malot	216-243561-B
malotru ue	216-243847-B
malouasse	216-247458-B
malpeigne	216-247736-B
malpighiacees	216-247864-B
malpighie	216-248020-B
malpighier	216-248346-B
malplaisant ante	216-248413-B
malplaquet	216-248973-B
malpropre	216-249082-B
malproprement	216-249707-B
malproprete	216-250019-B
malsage	216-250676-B
malsain aine	216-250936-B
malseance	216-253918-B
malseant ante	217-0-B
malsemaine	216-252540-B
malsentant	216-252915-B
malsonnant ante	216-253265-B
malt	217-158-B
maltage	217-722-B
maltalent	217-844-B
malte	217-2090-B
malter	217-2497-B
malterie	217-2576-B
malteur	217-2655-B
malthe	217-2734-B
malthusianisme	217-3126-B
malthusien	217-3549-B
maltote	217-7091-B
maltotier	217-9551-B
maltraite ee	217-6245-B
maltraitement	217-3976-B
maltraiter	217-4460-B
malvacee	217-10465-B
malvat	217-10709-B
malveillance	217-10877-B
malveillant ante	217-12199-B
malvenu ue	217-13424-B
malversation	217-13482-B
malverser	217-14439-B
malvivant	217-15195-B
malvoisie	217-15247-B
malvoulu ue	217-16748-B
mam selle	217-23174-B
mamamouchi	217-23256-B
maman	163-71452-S,217-23714-B
mamapian	217-25632-B
mambrine	217-25778-B
mame	217-25849-B
mamelette	217-26601-B
mameliere	217-26870-B
mamelle	217-26991-B
mamelle ee	217-30968-B
mamelon	217-31467-B
mamelonne ee	217-33789-B
mamelouk	217-34213-B,217-34534-S
mamelu ue	217-34253-B
mameluco	217-34423-B
mameluk ou mamelouk	217-34534-B
mamillaire	217-36327-B
mamille ee	217-37004-B
mammaire	217-37164-B
mammalogie ou mammologie	217-37367-B
mammalogique ou mammologique	217-37554-B
mammalogiste ou mammologiste	217-38154-B
mammee	217-41049-B
mammifere	217-38455-B
mammiforme	217-38306-B
mammite	217-38880-B
mammologie	217-37367-S
mammologie et mammologique et mammologiste	217-39028-B
mammologique	217-37554-S
mammologique et mammologiste	217-39028-S
mammologiste	217-38154-S,217-39028-S
mammon	217-39129-B
mammouth	217-39658-B
mammule	217-40776-B
manable	217-41312-B
manakin	217-41642-B
manant	217-41729-B
manate	217-44445-B
mancando	217-44817-B
mancenille	217-45079-B
mancenillier	217-45230-B
manche	156-75203-S,217-45972-B,217-49916-B
manche ee	78-48092-S
mancher	85-187657-S
mancheron	217-60879-B,217-61595-B
manchette	217-61984-B,217-65077-B
manchon	217-65455-B,276-108161-S
manchonnier	217-66943-B
manchot ote	217-67029-B,217-69165-B
mancipation	217-69406-B
mancone	217-69783-B
mandanes	217-70125-B
mandant	217-70334-B
mandarin	217-70418-B
mandarinal ale	217-72157-B
mandarinat	217-72460-B
mandarine	217-73239-B
mandarinier	217-73378-B
mandarinisme	217-73558-B
mandat	78-48264-S,217-73944-B
mandataire	217-76188-B
mandate ee	217-77535-B
mandatement	217-77014-B
mandater	217-77132-B
mandatif ive	217-77244-B
mande	217-77646-B
mande ee	217-97641-B
mandeline	217-78071-B
mandement	217-78161-B
mander	217-81415-B
mandibulaire	217-85349-B
mandibule	217-85540-B
mandibule ee	217-86297-B
mandille	217-86398-B
mandoline	217-87642-B
mandore	217-88253-B
mandragore	217-88736-B
mandragorite	217-90967-B
mandrerie	217-91080-B
mandrier	217-91597-B
mandrill	217-91719-B
mandrin	217-91836-B,217-94879-B
mandriner	217-95601-B
mandubi	217-95730-B
manducation	217-95847-B
maneage	218-154643-B
manege	218-154822-B
manege ee	218-158617-B
maneger	218-158421-B
manes	233-88426-B
manet	217-97960-B,217-98076-B
manette	217-98215-B
manga	333-0-S
mangabey	217-99440-B
mangalis	217-99515-B
manganate ou rarement manganesiate	217-99658-B
mangane	217-99864-B
manganese	217-100853-B
manganese ee	217-102338-B
manganesiate	217-99658-S
manganesien ienne	217-101810-B
manganesifere	217-101911-B
manganesique ou plus souvent et mieux manganique	217-102087-B
manganeux	217-99950-B
manganico potassique	217-100076-B
manganides	217-100204-B
manganique	217-100370-B,217-102087-S
manganium	217-100563-B
manganoso ammonique	217-100652-B
mange ee	217-142771-B
mange tout	217-102614-B,217-102941-B
mangeable	217-103096-B
mangeaille	217-103650-B
mangeant ante	217-104698-B
mangelin	217-104970-B
mangeoire	217-105161-B
mangeotter	217-106241-B
manger	35-85802-S,156-75355-S,217-106400-B,217-131199-B
manger s 	132-24094-S
mangerie	132-24435-S,217-133258-B
mangeur euse	217-135038-B
mangeure	217-139398-B
mangier	217-139681-B
mangle	217-139730-B
manglier	217-139815-B
mangonneau	217-140036-B
mangostan ou mangoustan	217-141214-B
mangoustan	217-141214-S
mangouste	217-141435-B,217-141947-B
mangue	217-142172-B,217-142392-B
manguier	217-142554-B
mani	217-143386-B
maniabilite	217-143560-B
maniable	217-143836-B
maniacal ale	217-145296-B
maniage	217-145443-B
maniaque	217-145582-B
manicanterie	217-146663-B
manicheen enne	217-148577-B
manicheisme	217-150647-B
manichordion	217-147523-B
manicle	217-150792-B,218-7140-S
manicome	217-150841-B
manicorde	217-150960-B
manicou	217-151047-B,218-8849-S
manicrot	217-151253-B
manicule	217-151509-B
manie	217-151666-B,217-152085-B,217-154898-B
manie ee	218-36715-B
maniement	217-154946-B
manier	217-159279-B,217-169456-B
maniere	218-10559-B
maniere ee	218-40210-B
manierer	218-37773-B
manierisme	218-39228-B
manieriste	218-40044-B
maniette	217-169520-B
manieur	217-169787-B
manifestaire	217-170140-B
manifestant	217-170403-B
manifestateur trice	217-170617-B
manifestatif ive	217-170903-B
manifestation	217-171148-B
manifeste	217-173138-B,217-175666-B
manifeste ee	217-181478-B
manifestement	217-177394-B
manifester	217-178741-B
maniforme	217-181631-B
manigance	217-181762-B
manigance ee	217-183750-B
manigancer	217-183140-B
manigaux	217-183873-B
manigraphie	217-183960-B
maniguette	218-0-B
maniguiere	218-806-B
manihot	218-1035-B
manillage	218-1081-B
manille	218-1240-B,218-1876-B,218-2779-B
maniller	218-3116-B
manioc	218-3281-B
maniolle	218-3784-B
maniotte	218-3961-B
manipulaire	218-4248-B
manipulateur	218-4605-B
manipulation	218-4935-B
manipule	218-5278-B
manipule ee	218-7013-B
manipuler	218-6246-B
manipuleur	218-6730-B
manique ou manicle	218-7140-B
maniquette	218-8594-B
manitou	218-8655-B
manitou ou manicou	218-8849-B
manitronc	218-8957-B
maniveau	218-9102-B
manivelle	218-9494-B
manne	218-41968-B,218-46844-B
mannee	218-53489-B
mannequin	218-48203-B,218-49044-B
mannequinage	218-50700-B
mannequine ee	218-51291-B
mannequiner	218-50865-B
mannet	218-52232-B
mannette	218-52326-B
mannide	218-52470-B
mannifere	218-52590-B
mannipare	218-52728-B
mannitane	218-52916-B
mannitartrique	218-53063-B
mannite	218-53258-B
manocage	218-53594-B
manoeuvrant ante	218-53812-B
manoeuvre	78-48468-S,218-54073-B,218-62405-B
manoeuvre ee	218-67454-B
manoeuvree	218-67579-B
manoeuvrer	218-65005-B
manoeuvrerie	218-66581-B
manoeuvrier	218-66905-B
manoir	218-67751-B
manometre	218-69816-B
manometrie	218-70147-B
manometrique	218-70227-B
manoque	218-70313-B
manoscope	218-70678-B
manote	218-70864-B
manouvrier ere	218-71027-B
manquant ante	218-71961-B
manque	218-72255-B,218-76327-B
manque ee	218-106397-B
manquement	218-76418-B
manquer	218-79313-B
mans	218-108425-B
mansais ou mansois	218-108641-B
mansard ou mansart	218-108851-B
mansarde	218-108937-B
mansarde ee	218-109755-B
mansart	218-108851-S
manse	218-109852-B,218-109892-B
mansion	218-110247-B
mansionnaire	218-110825-B
mansois	218-108641-S
mansuet ette	218-111207-B
mansuetude	218-111873-B
mante	218-113055-B,218-114791-B
manteau	36-42578-S,218-115264-B
manteaux	35-105756-S
mantegne	218-134431-B
manteion	218-129144-B
mantele ee	218-132019-B
mantelet	218-129519-B
manteline	218-131370-B
mantelle	218-131723-B
mantelure	218-131819-B
manteque	218-134488-B
mantichore	218-132568-B
mantides ou mantiens	218-132850-B
mantiens	218-132850-S
mantil	218-133018-B
mantille	218-133355-B
manto	218-134375-B
manubaliste	218-135766-B
manubiaire	218-136163-B
manuducteur	218-136418-B
manuel elle	218-136677-B
manuelle	218-138294-B
manuellement	218-138703-B
manufacturable	218-138909-B
manufacture	218-139135-B
manufacture ee	218-144735-B
manufacturer	218-142615-B
manufacturier	218-143449-B
manufacturierement	218-144466-B
manuluve	218-144848-B
manumis ise	218-145170-B
manumission	218-145601-B
manus	186-82807-S
manus in 	218-146635-B
manuscription	218-147442-B
manuscrit ite	218-147696-B
manustupration	218-150280-B
manutenteur	218-150414-B
manutention	218-150676-B
manutentionnaire	218-153171-B
manutentionnel elle	218-153600-B
manutentionner	218-153738-B
manx	218-154528-B
maon	218-158723-B
mappaire	218-158753-B
mappe	218-159124-B
mappemonde	218-159655-B
maprounier	218-161258-B
maque	218-161343-B
maquer	218-161441-B
maquereau	218-161506-B
maquereau elle	218-163374-B
maquerellage	218-165748-B
maquerellement	218-166169-B
maquereller	218-166403-B
maquerellerie	218-166536-B
maquette	218-166705-B
maquignon	218-168005-B
maquignonnage	218-170086-B
maquignonne ee	218-171867-B
maquignonner	218-170587-B
maquillage	218-172304-B
maquiller	218-172720-B
maquilleur	218-173113-B
maquilleuse	218-173209-B
maquis	218-173529-B
marabout	218-173571-B,218-175755-B
maraboutage	218-176127-B
maraboutique	218-176263-B
marache	218-176475-B
maragon	218-176633-B
maraicher	218-191806-B
maraichin	218-192964-B
marais	218-176708-B
marane	218-181753-B
marasme	218-181939-B
marasque	218-182680-B
marasquin	218-182984-B
maratre	220-140874-B
maraud aude	218-183186-B
maraudage	218-186818-B
maraudaille	218-187412-B
maraude	218-187838-B
maraude ee	218-190752-B
marauder	218-189263-B
marauderie	218-189968-B
maraudeur	218-190225-B,218-190636-B
maravedis	218-190870-B
marayon	218-191657-B
marbre	218-193110-B,218-201473-B
marbre ee	218-205115-B
marbree	218-206003-B
marbrer	218-201872-B
marbrerie	218-203123-B
marbreur	218-203377-B
marbrier	218-203695-B
marbriere	218-204483-B
marbrure	218-204621-B
marc	78-48634-S,218-206115-B,218-210567-B
marcairerie ou marcairie	218-212819-B
marcairie	218-212819-S
marcassin	218-213042-B
marcassite	218-214112-B
marcation	218-216039-B
marceau	218-216117-B
marceline	218-216245-B,218-216356-B
marcellianisme	218-216490-B
marcelliens	218-216575-B
marcescence	218-216888-B
marcescent ente	218-217013-B
marcescible	218-217609-B
marcgraviacees	218-217757-B
marchage	218-218003-B,218-218205-B
marchais	219-0-B
marchand ande	219-178-B
marchandage	219-10759-B
marchande ee	219-26454-B
marchander	219-10904-B
marchandeur euse	219-18051-B
marchandise	219-18317-B
marchandot	219-26137-B
marchant ante	219-26707-B
marchantiees	219-27135-B
marche	31-6445-S,78-48793-S,219-27588-B,219-29162-B,219-76806-B
marche ee	219-97733-B
marche palier	219-40752-B
marchepied	219-40854-B
marcher	78-49242-S,142-75940-S,219-44924-B,219-71413-B
marchette	219-73535-B
marcheur euse	219-74016-B
marcheux	219-76501-B
