salvagnin	321-44742-B
salvanos	321-44924-B
salvatelle	321-45176-B
salvation	321-45664-B
salve	321-46527-B,321-50047-B
salve d honneur	321-49539-B
salveline	321-49962-B
samare	321-55232-B,321-55636-B
samaridie	321-55699-B
samaritain aine	321-55841-B
samaritanisme	321-56189-B
sambac	321-56438-B
sambaqui	321-56508-B
sambieu ou sambleu	321-57185-B
sambleu	321-57185-S
sambuque	321-57367-B
sambur	321-57849-B
same	321-57959-B
samedi	321-58016-B
samienne	321-59118-B
samier	321-59302-B
sammonacodom	321-59385-B
samoiseau	321-59602-B
samole	321-59723-B
samoreau	321-60005-B
samos	321-60079-B
samosatenien	321-60214-B
samovar	321-60363-B
sampac	321-60744-B
sampang	321-60805-B
sampi	321-61519-B
samscrit ite	321-61652-B
samson	320-108041-S,321-61720-B
samson saint 	321-61957-B
samydees	321-62028-B
san antoni	321-62135-B
san benito	321-62214-B
sanci	321-63061-B
sancir	321-63240-B
sanctifiant ante	321-63545-B
sanctificateur	321-64082-B
sanctification	321-64883-B
sanctifie ee	321-69707-B
sanctifier	321-66111-B
sanction	321-70076-B
sanctionnateur	321-70689-B
sanctionne ee	321-70951-B
sanctionner	321-70837-B
sanctissime	321-71106-B
sanctuaire	321-71391-B
sanctus	321-76841-B
sandal	321-77110-B,321-167295-S
sandale	321-77175-B,321-79164-B
sandalier	321-79565-B
sandaracine	321-79719-B
sandaraque	321-79849-B
sandhi	321-80241-B
sandis	321-80452-B
sandjiak	321-80554-B
sandjiakat	321-80606-B
sandre	321-80666-B
sandwich	321-80748-B
sang	84-82280-S,269-120305-S,321-81026-B
sang de dragon ou sang dragon	321-109535-B
sang dragon	321-109535-S
sang froid	321-110927-B
sang gris	321-113552-B
sangiac	321-113719-B
sangiacat	321-114102-B
sanglade	321-114225-B
sanglant ante	321-114320-B
sangle	79-28984-S,321-120682-B
sangle ee	321-131349-B
sangler	321-122643-B
sanglier	321-125210-B
sanglon	79-29223-S,321-127576-B
sanglot	321-127825-B
sangloter	321-129943-B
sangsue	321-132235-B
sanguenie ou sanguenite	321-134875-B
sanguenite	321-134875-S
sanguification	321-134978-B
sanguignon	321-135754-B
sanguin ine	321-135916-B,346-75099-S
sanguinaire	321-137705-B,321-139431-B
sanguinarine	321-139888-B
sanguine	321-140038-B
sanguinelle	321-141134-B
sanguinole	321-141268-B
sanguinolent ente	321-141355-B
sanguisorbe	321-142020-B
sanguisorbees	321-142188-B
sanhedrin	321-142334-B
sanicle	321-143896-B
sanie	321-144548-B
sanieux euse	321-145133-B
sanitaire	321-145496-B
sanite	321-146080-B
sankhya	321-146607-B
sanne	261-133549-S,321-146779-B
sannes	321-146939-B
sanotte	321-147366-B
sans	321-147442-B
sans coeur	321-162079-B
sans culotte	321-162138-B
sans culotterie	321-163047-B
sans culottide	321-163180-B
sans culottisme	321-163365-B
sans dent	321-163460-B
sans facon	321-163722-B
sans fleur	321-163912-B
sans gene	321-164048-B
sans peau	321-164204-B
sans souci	321-164313-B
sansal	321-164651-B
sanscrit ite	321-165408-B
sanscritain aine	321-165859-B
sanscritique	321-166036-B
sanscritisme	321-166106-B
sanscritiste	321-166372-B
sanseviere	321-166539-B
sansonnet	321-166726-B
santal ou sandal	321-167295-B
santalacees	321-168775-B
santaleine	321-169003-B
santaline	321-168888-B
sante	321-171689-B
santoline	321-169146-B
santon	321-169461-B
santonine	321-170259-B,321-170472-B
santoron	321-170641-B
sanve	321-181753-B
saoul et saouler	321-181921-B
saouler	321-181921-S
sap	321-181994-B
sapa	321-182109-B
sapajou	321-182472-B
sapan	321-183320-B
sapate	321-183512-B
sape	321-184508-B
sape ee	322-19324-B
sapement	321-188357-B
sapeque	322-18875-B
saper	322-0-B
saperde	322-2206-B
sapeur	322-2281-B
saphene	322-5918-B
saphique	322-2748-B
saphir	286-3254-S,322-3427-B
saphirin ine	322-5261-B
saphirine	322-5339-B
saphistrin	322-5466-B
sapho	322-5749-B
sapide	322-6583-B
sapidite	322-7267-B
sapience	322-7665-B
sapientiaux	322-9733-B
sapin	322-9986-B
sapindacees	322-12223-B
sapine	322-12349-B
sapineau	322-13285-B
sapinee	322-14514-B
sapinette	322-13764-B
sapiniere	322-14153-B
sapiteur	322-14590-B
saponace ee	322-15162-B
saponaire	322-15372-B
saponarine	322-15651-B
sapone	322-17197-B
saponifiable	322-15772-B
saponification	322-15882-B
saponifier	322-16155-B
saponine	322-16615-B
saponique	322-16758-B
saponite	322-16956-B
saponule	322-17034-B
saporifique	322-17275-B
sapotacees	322-17399-B
sapote ou sapotille	322-17515-B
sapotier ou sapotillier	322-17758-B
sapotille	322-17515-S
sapotillier	322-17758-S
sappare	322-17925-B
sapristi	322-18076-B
saprophage	322-18160-B
saprophyte	322-18313-B
sapropyre	322-18727-B
saquebute	322-19434-B
saquer	322-19834-B
saquet	322-20026-B
sar	322-20253-B,322-56146-S
sarabaite	322-21369-B
sarabande	322-20280-B
saragousti ou sarangousti	322-21566-B
sarangousti	322-21566-S
sarbacane	322-21725-B
sarbotiere	322-23342-B
sarcasme	322-23469-B
sarcastique	322-24651-B
sarcellades ou sarcelloises	322-24787-B
sarcelle	322-25492-B
sarcelloises	322-24787-S
sarceux euse	322-26310-B
sarche	322-26555-B
sarcine	322-26707-B
sarclable	322-26997-B
sarclage	322-27212-B
sarcle ee	322-30358-B
sarcler	322-27788-B
sarclet	322-29090-B
sarclete	322-30129-B
sarcleur	322-29357-B
sarcloir	322-29668-B
sarclure	322-30036-B
sarco	322-30774-B
sarco epiplocele	322-31091-B
sarco epiplomphale	322-31273-B
sarco hydrocele	322-30950-B
sarcobase	322-31454-B
sarcocarpe	322-31616-B
sarcocarpien ienne	322-32023-B
sarcocele	133-35165-S,322-32712-B
sarcocolle	322-32230-B
sarcocollier	322-32456-B
sarcocolline	322-32600-B
sarcode	322-33123-B
sarcoderme	322-33617-B
sarcodique	322-33787-B
sarcodon	322-33858-B
sarcolemme	322-33935-B
sarcologie	322-34051-B
sarcomateux euse	322-34194-B
sarcome	322-34329-B
sarcomphale	322-34686-B
sarcomycete	322-34837-B
sarcophage	322-34987-B
sarcophylle	322-35835-B
sarcopte	322-35995-B
sarcoramphe	322-36235-B
sarcosine	322-36639-B
sarcotique	322-36736-B
sarcotripsie	322-37012-B
sardanapale	322-37168-B
sardanapalesque	322-37719-B
sardanapalisme	322-37940-B
sarde	322-38080-B,322-38833-B,322-39085-B
sardinal ou sardineau	322-39131-B
sardine	322-39332-B
sardineau	322-39131-S
sardinerie	322-40603-B
sardinier	322-40695-B
sardis	322-40932-B
sardoine	322-41133-B
sardonie	322-42099-B
sardonien ou sardonique	322-42266-B
sardonique	322-42266-S
sardonyx	322-43195-B
sare	322-43705-B,322-47857-S
sarelle ou sarrelle	322-43735-B
sargasse	322-43811-B
sargonoir	322-44224-B
sargue	322-44323-B
sargue ou sarguet	322-44441-B
sarguet	322-44441-S
sari	322-44821-B
saricovienne	322-44869-B
sarigue	322-45014-B
sarisse	322-45488-B
sarment	322-45579-B
sarmenteux euse	322-46995-B
saronide	322-47577-B
saropode	322-47705-B
saros ou sare	322-47857-B
sarraceniees	322-48901-B
sarracenique	322-48782-B
sarrasin	322-49033-B,322-50744-B,322-52062-B
sarrasine	322-52246-B
sarrasiniere	322-52726-B
sarrasinois oise	322-53129-B
sarrau	322-53629-B
sarrelle	322-43735-S
sarrette ou serrette	322-54570-B
sarrezi	322-55984-B
sarriette	322-55349-B,322-55798-B
sarrot	322-55949-B
sart ou sar	322-56146-B
sartage	322-56789-B
sarter	322-57204-B
sartieres	322-57790-B
sartine	322-57419-B
sas	322-57951-B,322-59409-B
sassafras	322-60320-B
sasse	322-61016-B
sasse ee	322-63488-B
sassement	322-61555-B
sassenage	322-61871-B
sasser	322-62031-B
sasseur	322-62973-B
sassoire	322-63026-B
sassoline	322-63271-B
sassure	322-63358-B
sastra	345-15812-B
satan	322-63586-B
satanas	322-66084-B
satane ee	322-67473-B
satanicle	322-66231-B
satanique	322-66338-B
sataniquement	322-67143-B
sataniser	322-67313-B
satellite	322-67580-B
sati	322-71391-B
satiete	322-101234-B
satif ive	322-71820-B
satin	259-256965-S,322-72076-B
satinade	322-73873-B
satinage	322-73983-B
satine ee	322-74630-B
satinee	322-75546-B
satiner	322-74118-B
satinet	322-74399-B
satineur	322-74562-B
satire	322-75618-B
satirique	322-80367-B
satiriquement	322-81863-B
satirise ee	322-82612-B
satiriser	322-82171-B
satisfaction	322-82838-B
satisfactionnaire	322-86773-B
satisfactoire	322-87103-B
satisfaire	322-88341-B
satisfaisant ante	322-98149-B
satisfait aite	322-98659-B
satisfecit	322-101021-B
satou	322-102713-B
satrape	322-103202-B
satrapie	322-104602-B
saturabilite	322-104860-B
saturable	322-105033-B
saturant ante	322-105126-B
saturateur	322-105227-B
saturation	322-105339-B
sature ee	323-6717-B
saturer	322-106791-B
satureur	322-107369-B
saturite	322-107545-B
saturnales	323-0-B
saturne	323-1353-B
saturnicentrique	323-3812-B
saturnie	323-4052-B
saturnien ienne	323-4110-B
saturnin ine	323-5882-B
saturnite	323-6623-B
satyre	323-7846-B,323-9605-B
satyriasis	323-10378-B
satyrion	323-10800-B
satyrique	323-11053-B,323-11404-B
sauce	151-14260-S,168-29162-S,323-12276-B
sauce 	310-102484-S
sauce a la sainte 	235-98136-S
sauce ee	323-25647-B
saucer	323-19436-B
saucerie	323-20327-B
saucier	323-20425-B
sauciere	323-25042-B
saucisse	323-21586-B
saucissier	323-22995-B
saucisson	323-23217-B
sauf auve	323-26682-B
sauf conduit	323-30789-B
sauge	323-32740-B
saugeoire	323-34846-B
sauger	323-34934-B
saugerette	323-35118-B
saugrenee	323-36802-B
saugrenu ue	323-35400-B
saugrenuite	323-36492-B
saul	323-36997-B
saulaie	323-37100-B
saule	323-37575-B
saulee	323-40279-B
saulet	323-40233-B
saumatre	323-44374-B
saumon	323-40369-B
saumone ee	323-42904-B
saumoneau	323-42523-B
saumurage	323-43134-B
saumure	323-43210-B
saumure ee	323-44083-B
saunage	142-76151-S,323-45174-B
saunaison	323-46036-B
sauner	323-46258-B
saunerie	323-46796-B
saunier	142-76214-S,323-47182-B
sauniere	323-48373-B
saupe	323-48625-B
saupiquet	323-48724-B
saupoudrage	323-50032-B
saupoudre ee	323-52011-B
saupoudrer	323-50545-B
saupoudroir	323-51810-B
saur	323-52435-B
saurage	323-52472-B
saure	150-29869-S,323-52602-B
saure ee	323-56745-B
saurel	323-54296-B
saurer	323-54417-B
sauret	323-54578-B
sauriens	323-55020-B
saurin	323-55425-B
saurir	323-55679-B
sauris	323-55920-B
saurissage	323-56013-B
saurisserie	323-56098-B
saurisseur	323-56170-B
saurographie	323-56243-B
saurophage	323-56378-B
saururees	323-56526-B
saussaie	323-56807-B
saussurite	323-57535-B
sausuire	323-57730-B
saut	279-346172-S,323-58021-B
sautade	323-70270-B
sautage	323-70420-B
sautant ante	323-70636-B
saute	323-71265-B
saute a l oeil	323-73543-B
saute bouchon	323-71709-B
saute ee	323-99488-B
saute en barque	323-72076-B
saute en bas	323-72931-B
saute mouton	323-73092-B
saute ruisseau	323-73440-B
sautelle	323-73803-B
sauter	323-74313-B
sautereau	323-88455-B,323-88676-B,357-34351-S
sauterelle	323-88891-B,323-91629-S
sauterie	323-91207-B
sauterne	323-91558-B
sauterolle ou sauterelle	323-91629-B
sauteur euse	323-92037-B
sautier	323-93296-B
sautier iere	279-346232-S
sautillage	323-93655-B
sautillant ante	323-93800-B
sautillement	323-94688-B
sautiller	323-94933-B
sautoir	323-96957-B
sauvage	323-100322-B
sauvagement	323-110273-B
sauvageon	323-111304-B
sauvagerie	323-113363-B
sauvagesiees	323-116369-B
sauvagesse	323-114007-B
sauvagin ine	323-114586-B
sauvagine	323-114959-B
sauve ee	323-144421-B
sauve l honneur	323-116536-B
sauve qui peut	323-117033-B
sauve rabans	323-117107-B
sauve vie	323-117213-B
sauvegarde	323-117440-B,323-120506-B
sauvegarder	323-120700-B
sauvement	323-120971-B
sauver	323-121471-B
sauvetage	323-139853-B
sauvete	323-141126-B
sauveter	323-140450-B
sauveterre	323-140818-B
sauveteur	323-140956-B
sauveur	323-142353-B
sauvignon	323-144332-B
savagnin	323-145314-B
savalle	323-145486-B
savamment	323-145575-B
savane	323-146047-B
savant ante	323-147895-B
savantas	323-157733-B
savanteau	323-158877-B
savanterie	323-159218-B
savantissime	323-159495-B
savarin	323-159732-B
savart	323-159915-B
savate	323-160496-B
savatelle	323-163645-B
savaterie	323-163710-B
savete ee	323-166025-B
saveter	323-163954-B
savetier	323-164214-B
saveur	323-166122-B
savigniau	323-167752-B
savinier	323-167983-B
savoie	323-168308-B
savoir	323-168502-B,323-207648-B
savoir faire	323-211037-B
savoir vivre	323-212464-B
savoisien enne	323-213649-B
savon	323-214079-B
savonnage	323-217468-B
savonne ee	323-221693-B
savonner	323-217630-B
