premuni ie	284-119818-B
premunir	284-119971-B
premunition	284-120841-B
prenable	279-81724-B
prenant	55-13366-S
prenant ante	279-82775-B
prenanthe	284-123979-B
prendre	279-84266-B
preneur	334-14374-S
preneur euse	279-197935-B
prenom	284-124146-B
prenommer	284-124691-B
prenotion	284-125046-B
prenotionnel elle	284-126177-B
preoccupation	284-126281-B
preoccupe ee	284-131153-B
preoccuper	284-128662-B
preoculaire	284-132924-B
preolier	284-133078-B
preopercule	284-133288-B
preopinant	284-133500-B
preopiner	284-133658-B
preopinion	284-133859-B
preordination	284-134126-B
preordonnance	284-134641-B
preordonne ee	284-135869-B
preordonner	284-134984-B
preorganisation	284-136064-B
preorganiser	284-136346-B
preparable	284-136765-B
preparage	284-136949-B
preparant ante	284-137073-B
preparate	284-137406-B
preparateur	284-137562-B
preparatif	284-137795-B
preparation	285-0-B
preparatoire	285-4558-B
prepare ee	285-13692-B
preparer	285-6292-B
preponderance	285-15717-B
preponderant ante	285-16464-B
preponderer	285-17447-B
prepose ee	285-21478-B
preposer	285-17737-B
prepositif ive	285-18284-B
preposition	285-19656-B
prepositionnel elle	285-21037-B
prepositivement	285-21318-B
prepotence	285-21777-B
prepuce	285-22102-B
prepuce ee	285-22682-B
preputial ale	285-22831-B
preraphaelisme ou preraphaelitisme	285-22959-B
preraphaelite	285-23689-B
preraphaelitisme	285-22959-S
prerappele ee	285-24072-B
prerectal ale	285-24370-B
prerogative	285-24548-B
preromain aine	285-27927-B
preruine ee	285-28078-B
pres	283-109237-B
pres bois	285-28470-B
presage	285-28727-B
presage ee	285-32051-B
presager	285-30578-B
presanctifie ee	285-32165-B
presbyopie	279-200777-B
presbyte	279-200890-B
presbyteral ale	279-202401-B
presbyteranisme	279-202603-B
presbytere	279-201904-B
presbyterianisme	279-202693-B
presbyteriat	279-203336-B
presbyterien enne	279-203435-B
presbytie	279-201406-B
presbytique	279-201635-B
presbytisme	279-201714-B
presbytre	279-201782-B
prescience	279-204459-B
prescient ente	279-206271-B
prescript	279-206555-B
prescriptibilite	279-206870-B
prescriptible	279-207094-B
prescription	279-207478-B
prescrire	279-210727-B
prescrit ite	279-213907-B
prescutum	285-33072-B
preseance	285-112688-B
presence	241-6382-S,285-33255-B,357-2713-S
presensation	285-42201-B
present	285-42812-B
present ente	241-6495-S,285-47400-B
presentable	285-61331-B
presentateur trice	285-61592-B
presentation	285-63086-B
presente ee	285-82992-B
presentement	285-66684-B
presenter	285-68219-B
presenteur	285-82437-B
presentiment	285-82904-B
preseret	285-83804-B
preservateur trice	285-84014-B
preservatif ive	285-84325-B
preservation	285-86039-B
preserve ee	285-88067-B
preserver	285-86461-B
preside ee	285-95022-B
presidence	285-88388-B,372-95281-S
president	285-89253-B,372-95425-S
presidental ale	285-91927-B
presidente	285-92354-B
presidentiel elle	285-92561-B
presider	279-214585-B
presides	285-92710-B
presidiaire	285-93200-B
presidial	285-93308-B
presidialement	285-94698-B
presidialite	285-94934-B
presignification	285-95172-B
presignifier	285-95606-B
presle	279-218441-B
presomptif ive	285-95892-B
presomption	285-96560-B
presomptivement	285-100973-B
presomptueusement	285-101530-B
presomptueux euse	285-101975-B
prespinal ale	285-104097-B
presqu ile	279-218485-B
presque	279-219157-B
pressage	279-222558-B
pressamment	279-222638-B
pressant ante	279-223001-B
presse	279-226395-B,279-226548-B
presse artere	279-239620-B
presse citrons	279-239800-B
presse ee	279-272530-B
presse etoffe	279-240447-B
presse papier	279-240059-B
presse uretre	279-240263-B
pressee	279-277977-B
presselle	279-240604-B
pressement	279-240906-B,279-278596-B
pressenti ie	279-241948-B
pressentiment	279-242022-B
pressentir	279-244430-B
presser	279-246300-B
presser s 	132-32991-S
pressette	279-263152-B
presseur	279-263452-B
pressier	279-263881-B
pression	79-20728-S,279-264087-B,334-14438-S
pressirostre	279-266082-B
pressis	279-266479-B
pressoir	279-266983-B
pressurage	279-269474-B
pressure	279-270419-B
pressure ee	279-272429-B
pressurement	279-270600-B
pressurer	279-270886-B
pressureur	279-272226-B
prestance	279-278891-B
prestant	279-279920-B
prestataire	279-280081-B
prestation	279-280542-B
preste	279-281983-B
prestement	279-283107-B
prester	279-283943-B
prestesse	279-284248-B
prestidigitateur	279-284938-B
prestidigitation	279-285104-B
prestige	279-285195-B
prestigiateur	279-287053-B
prestigieux euse	279-287390-B
prestimonie	279-287841-B
presto	279-288065-B
prestolet	279-288291-B
presu ue	285-104284-B
presumable	285-104505-B
presume mee	285-108998-B
presumer	285-104775-B
presuppose ee	285-111298-B
presupposer	285-109376-B
presupposition	285-110467-B
presure	285-111624-B
presurer	285-112201-B
presurier	285-112376-B
presystolique	285-112528-B
pret	285-208119-B,285-208633-B
pret ete	285-212120-B
pretable	285-220866-B
pretant	285-220977-B
pretantaine	279-289085-B
prete	285-221129-B
prete ee	285-253705-B
prete jean ee	285-221231-B
prete nom	285-221285-B
pretendance	285-113890-B
pretendant ante	285-113992-B
pretendre	285-115551-B
pretendu ue	285-123609-B
pretendument	285-125692-B
pretentaine	279-289865-B
pretentieux euse	285-125907-B
pretention	285-126360-B
preter	285-222145-B
preter s 	132-34001-S
preterit	285-140344-B
preterition	285-141458-B
pretermission	285-129558-B
preteur	285-129811-B
preteur euse	285-241456-B
pretexte	285-131055-B,285-131905-B
pretexte ee	285-136547-B
pretexter	285-135357-B
pretibial ale	285-136674-B
pretintaille	279-289923-B
pretintaille ee	279-291977-B
pretintailler	279-291762-B
pretoire	285-136845-B
pretorial ale	285-137972-B
pretorianisme	285-138264-B
pretorien ienne	285-138721-B
pretraille	285-242416-B
pretre	285-243564-B
pretre jean	285-250057-B
pretresse	285-250751-B
pretrise	285-251813-B
pretrophobe	285-252924-B
pretrot	285-253498-B
preture	285-140201-B
preu	279-292167-B
preuve	279-292290-B,326-152651-S
preux	279-300000-B
prevalence	285-142064-B
prevalent ente	285-142223-B
prevaloir	285-142453-B
prevaricateur	285-147266-B
prevarication	285-148412-B
prevariquer	285-149261-B
prevat	285-150985-B
preveil	285-151151-B
prevenance	285-151345-B
prevenant ante	285-151629-B
prevenir	285-153334-B
preventif ive	285-164132-B
prevention	285-164441-B
preventivement	285-168266-B
prevenu ue	285-168517-B
prevertebral ale	285-171363-B
prevision	285-171536-B
previsionnel elle	285-172588-B
prevoir	285-172905-B
prevot	285-180800-B
prevotal ale	285-186956-B
prevotalement	285-187818-B
prevote	285-188088-B
prevoyance	285-176816-B
prevoyant ante	285-179668-B
prevu ue	285-180589-B
priam	279-304858-B
priamele	279-305107-B
priant ante	279-305861-B
priape	279-306187-B
priapee	279-306908-B
priapeen enne	279-307154-B
priapique	279-306603-B
priapisme	279-306685-B
priapule	279-306849-B
prie dieu	279-307372-B
prie ee	280-151753-B
prier	279-308342-B
prier dieu	279-320296-B
priere	280-144629-B
pries	280-152504-B
prieur	279-320745-B
prieur eure	334-14860-S
prieural ale	279-323308-B
prieure	279-323608-B,279-324171-B
prieuse	279-325138-B
prifaiteur	279-325346-B
prima	71-133620-S
prima donna	279-325423-B
prima mensis	279-325642-B
primage	279-325965-B
primaire	279-326288-B
primat	279-328332-B
primates	279-330709-B
primatial ale	279-330916-B
primatie	279-331247-B
primaute	279-332222-B
prime	279-334117-B,279-337090-B,279-337934-B,279-338160-B,279-338304-B,279-338406-B,279-342531-B,279-343471-B
prime abord	279-345978-S
prime abord et de prime abord	279-345978-B
prime ee	280-488-B,280-644-B
prime face	279-346076-S
prime face et de prime face	279-346076-B
prime saut	279-346172-B
prime sautier iere	279-346232-B
primefeuille	279-346887-B
primefleur	279-347325-B
primer	279-347604-B,279-350395-B
primerole	279-350517-B
primerose	279-350719-B
primeur	279-350988-B
primeuriste	279-353111-B
primevere	279-353242-B
primiceriat	279-354760-B
primicier	279-354420-B
primidi	279-354869-B
primine	279-355031-B
primipare	279-355171-B
primipilaire ou primipile	279-355468-B
primipile	279-355468-S
primitif ive	279-355765-B
primitivement	279-360579-B
primitivement country dance	79-61850-S
primitivite	279-361088-B
primo	279-361170-B
primogeniture	279-361296-B
primordial ale	279-362304-B
primordialement	279-363718-B
primordialite	280-0-B
primulacees	280-256-B
primuline	280-363-B
prince	280-764-B
princens	280-12319-B
princeps	280-12439-B
princerie	280-12592-B,280-12919-B
princesse	280-13023-B
princier	280-16585-B
princier iere	280-16674-B
princillon	280-17253-B
principal	280-17446-B,334-15189-S
principal ale	280-17929-B
principalat	280-24829-B
principalement	280-24937-B
principalite	280-25981-B
principat	280-26633-B
principaute	280-27203-B
principe	280-28622-B
principicule	280-38513-B
principion	280-38947-B
princiser	280-39570-B
prinfile	280-39753-B
prinos	280-39938-B
printanier iere	280-40196-B
printemps	280-41441-B
priocere	280-45087-B
priodonte	280-45238-B
prione	280-45512-B
prionoderme	280-45661-B
prionophore	280-45887-B
priori	379-88795-S
priori a	280-46005-B
priorissale	280-46935-B
prioriste	280-47237-B
priorite	280-47396-B
pririt	280-48660-B
pris	279-80094-S
pris ise	280-48714-B
prisable	280-55737-B
priscillianisme	280-55920-B
priscillianiste	280-56270-B
prise	280-56362-B
prise ee	280-93470-B
prisee	280-93790-B
priser	280-73780-B,280-76199-B
priseur	280-76323-B
priseur euse	280-76893-B
prismatique	90-117606-S,280-77351-B
prismatisation	280-77740-B
prismatise ee	280-78130-B
prismatoide	280-78308-B
prisme	280-78449-B
prisme ee	280-81415-B
prismoide	280-81278-B
prison	280-81765-B
prisonnier iere	280-87206-B
pristin ine	280-93036-B
privable	280-94580-B,280-94695-B
privance	280-94937-B
privat docent	280-95720-B
privat docentisme	280-96031-B
privatif ive	280-96328-B
privation	280-97359-B
privativement	280-99856-B
privatoire	280-100298-B
privaute	280-100447-B
prive	280-116137-B
prive ee	280-117001-B,280-122216-B,280-122762-B
privement	280-123376-B,280-124354-B
priver	280-102512-B,280-105010-B
privilege	280-105788-B
privilegiaire	280-110934-B
privilegie ee	280-113025-B
privilegier	280-111187-B
prix	241-6335-S,280-124523-B
prix faiteur	280-144153-B
pro	279-24913-S,280-152725-B
pro deo	280-152757-B
pro nonce	280-153031-B
proa	280-153300-B
probabilisme	280-153490-B
probabiliste	280-154564-B
probabilite	280-154642-B
probable	280-159104-B
probablement	280-160401-B
probant ante	280-161143-B
probation	280-161524-B
probatique	280-162757-B
probatoire	280-163071-B
probe	280-163445-B
probite	280-163872-B
problematique	280-167000-B
problematiquement	280-168271-B
probleme	280-165891-B
probole	280-168595-B
proboscide	280-168919-B
proboscide ee	280-169492-B
proboscidien ienne	280-169266-B
proboscirostre	280-169601-B
probraque	280-169799-B
procatarctique	280-169967-B
procede	280-233194-B
procede ee	280-236718-B
proceder	280-225211-B
procedural ale	280-230179-B
procedure	280-230307-B
procedurier iere	280-232923-B
proceleusmatique	280-237371-B
procellaire	280-170273-B
procellarie	280-170765-B
procentuel elle	280-170832-B
procerite	280-237703-B
proces	280-216429-B
proces verbal	280-225160-B
processif ive	280-170939-B
procession	280-171299-B
processionnaire	280-174765-B
processionnal	280-175171-B
processionnellement	280-175427-B
processionner	280-175856-B
processus	280-176201-B
prochain aine	280-176707-B
prochainement	280-182712-B
prochainete	280-183112-B
proche	280-183349-B
prochronisme	280-189885-B
procidence	280-190099-B
procillon	280-190405-B
proclamateur	280-190763-B
proclamation	280-191042-B
proclame	280-192199-B
proclame ee	280-193698-B
proclamer	280-192360-B
proclitique	280-193837-B
proclive	280-194639-B
proclivite	280-195177-B
procombant ante	280-195334-B
procompte	280-195583-B
procondyle	280-195850-B
proconsul	280-196003-B
proconsulaire	280-197217-B
proconsulat	280-197438-B
procreateur trice	280-197821-B
procreation	280-198073-B
procree ee	280-199391-B
procreer	280-198479-B
procris	280-197640-B
proctalgie	280-199719-B
proctite	280-199866-B
proctocele	280-200007-B
proctoptose	280-200145-B
proctorrhagie	280-200261-B
procurable	280-200406-B
procuralat	280-200562-B
procurateur	280-201352-B
procuratie	280-202533-B
procuration	280-202677-B
procuratoire	280-204174-B
procuratorial ale	280-204396-B
procuratorien ienne	280-204927-B
procuratrice	280-205207-B
procure	280-205282-B
procure ee	280-215656-B
procurer	280-205752-B
procureur	280-210008-B,372-94948-S
procureuse	280-215603-B
procuste	280-215728-B
procyon	280-216217-B
prodiagnose	280-238004-B
prodictateur	280-238302-B
prodigalement	280-238643-B
prodigalite	280-239287-B
prodige	280-240586-B
prodigieusement	280-244624-B
prodigieux euse	280-245562-B
prodigue	280-247399-B
prodigue ee	280-255147-B
prodiguement	280-251831-B
