seriation	346-56964-B
sericicole	346-57056-B
sericiculteur	346-57508-B
sericiculture	346-57614-B
sericifere	346-57800-B
sericigene	346-57985-B
sericique	346-58188-B
sericole	346-58335-B
sericulteur	346-58445-B
sericulture	346-58581-B
serie	346-59462-B
serie ee	346-75021-B
seriel elle	346-61887-B
serier	346-62164-B
serieusement	346-62220-B
serieux euse	346-64488-B
serimetre	346-73428-B
serin ine	327-106785-B
serinage	327-108969-B
serine	327-109214-B,346-73657-B
serine ee	327-113470-B
seriner	327-109281-B
serinette	327-109901-B
seringage	327-110485-B
seringat ou syringa	327-110700-B
seringos	327-111048-B
seringue	327-111306-B
seringue ee	327-113371-B
seringuement	327-112664-B
seringuer	327-112785-B
seriosite	346-73882-B
seristere	346-74817-B
serivan	346-74962-B
serment	327-113606-B
sermente ee	327-119576-B
sermocination	327-120362-B
sermon	327-120524-B
sermonnaire	327-124492-B
sermonne ee	327-127702-B
sermonner	327-125243-B
sermonneur	327-126656-B
sero sanguin ine	346-75099-B
seroline	346-75270-B
serosite	346-75421-B
serotine	346-76320-B,346-76732-B
serpe	327-127852-B
serpeau	327-129519-B
serpent	327-129989-B
serpentaire	327-138348-B,327-139173-B,327-139646-B
serpentant ante	327-140066-B
serpentarides	327-140262-B
serpentariees ou serpentinariees	327-140492-B
serpentarine	327-140371-B
serpente	327-140671-B,327-141028-B
serpente ee	327-150880-B
serpenteau	327-142038-B
serpentelle	327-143257-B
serpenter	327-143596-B
serpentiforme	327-145495-B
serpentin	327-145614-B
serpentin ine	327-146254-B
serpentinariees	327-140492-S
serpentine	327-147862-B,327-148018-B,327-148482-B
serpentineux euse	327-150189-B
serpentueux euse	327-150398-B
serper	327-151170-B
serpette	327-151321-B
serpigineux euse	327-152107-B
serpilliere	327-152522-B,327-153094-B
serpillon	327-154902-B
serpolet	327-155123-B
serpule	327-155636-B
serradelle	327-155840-B
serrage	327-156036-B
serran	327-156419-B
serrate ee	327-157570-B
serratifolie ee	327-156546-B
serratiforme	327-156728-B
serratile	327-156851-B
serratule	327-157291-B
serre	327-157647-B
serre bois	327-163808-B
serre bosse	327-163997-B
serre bras	327-164150-B
serre ciseaux	327-164359-B
serre cou	327-164430-B
serre ee	327-193786-B,327-202587-B
serre feu	327-164669-B
serre file	327-164785-B
serre fine	327-165225-B
serre frein	327-165570-B
serre gouttiere	327-165710-B
serre malice	327-165764-B
serre nez	327-166157-B
serre noeud	327-166288-B
serre papiers	327-166647-B
serre pedicule	327-167126-B
serre point ou serre points	327-167029-B
serre points	327-167029-S
serre tete	327-167431-B
serrement	327-167582-B,327-202883-B
serrer	327-168950-B
serrer s 	132-41436-S
serret	327-184774-B
serretelle	327-185733-B
serrette	322-54570-S,327-185943-B
serreur	327-185996-B
serricorne	327-186133-B
serriere	327-186554-B
serrirostre	327-186405-B
serron	327-186674-B,327-186769-B
serrot	327-186946-B
serrule ee	327-187037-B
serrure	327-187179-B
serrurerie	327-191576-B
serrurier	327-192385-B
sers	327-203436-B
serte	327-203648-B,327-203734-B
serti ie	327-204075-B
sertir	328-0-B
sertissage	328-367-B
sertisseur	328-430-B
sertissure	328-494-B
sertulaire	328-1051-B
sertule	328-1157-B
sertule ee	328-1334-B
serum	346-76918-B
servage	328-1446-B
serval	328-4815-B
servant	328-4974-B
servante	328-7266-B
servantine	328-12686-B
serve	328-12752-B
serventois	328-13018-B
servetiste	328-100933-B
serveur	328-13077-B
servi ie	328-13198-B
serviabilite	328-14369-B
serviable	328-14695-B
serviablement	328-17065-B
service	328-17195-B
serviette	328-36996-B
servile	328-40834-B
servilement	328-45726-B
servilisme	328-46657-B
servilite	328-46773-B
servion	328-47294-B
serviote	328-47348-B
servir	328-47454-B
servir s 	132-41687-S
servite	328-83112-B
serviteur	328-83321-B
servitude	328-91791-B
servo moteur	328-100119-B
ses	328-101919-B
ses composes	347-6713-S
sesame	346-82104-B
sesamees	346-83530-B
sesamoide	346-82791-B
sesamoidien ienne	346-83340-B
sesban	328-102003-B
seseli	346-83646-B
seslerie	328-102361-B
sesqui	328-102682-B
sesquialtere	328-102851-B
sesquiammonique	328-103072-B
sesquiarseniate	328-103301-B
sesquibasique	328-103502-B
sesquiferreux	328-103669-B
sesquiflore	328-103868-B
sesquihydrique	328-103993-B
sesquioxyde	328-104144-B
sesquiphosphure	328-104470-B
sesquiquadrat	328-104677-B
sesquisel	328-104850-B
sesquitierce	328-105002-B
sesseyement	328-105209-B
sessile	328-105328-B
sessiliflore	328-105768-B
session	328-105867-B
sesterce	328-107185-B
setace ee	346-83995-B
setaire	346-84192-B
seterage	328-107913-B
seteree	328-110252-B
seteuille	346-84455-B
seteux euse	346-84529-B
setheen ou sethien ou sethite	346-84682-B
sethien ou sethite	346-84682-S
sethite	346-84682-S
seticaude	346-84874-B
setier	328-108245-B
setifere	346-85166-B
setiforme	346-85026-B
seton	346-85394-B
setophage	346-86355-B
seuil	328-110618-B
seuillet	328-112917-B,328-113186-B
seul	333-75470-S
seul eule	328-113328-B
seulement	328-126677-B
seulet ette	328-129841-B
seve	84-219038-S,346-86730-B,353-143829-S
severe	346-93282-B
severement	346-98107-B
severite	346-98493-B,346-98595-B
seveux euse	346-90101-B
sevices	346-90634-B
sevigne	328-130711-B
sevir	346-91440-B,346-92836-B
seviral ale	346-92994-B
sevirat	346-93076-B
sevrage	328-130826-B
sevre ee	328-134313-B
sevrer	328-131278-B
sevres	345-19947-B
sevreuse	328-134061-B
sevulose	346-93133-B
sex	328-134528-B
sex digitaire	328-134646-B
sex digital ale	328-135013-B
sex digitisme	328-135178-B
sexagenaire	328-135817-B
sexagesimal ale	328-136430-B
sexagesime	328-137163-B
sexagesimo	328-135481-B
sexangulaire et sexangule ee	328-137503-B
sexangule ee	328-137503-S
sexcentesimo	328-137699-B
sexdecimal ale	328-138055-B
sexe	328-138236-B
sexennal ale	328-142684-B
sexennalite	328-143344-B
sexies	328-143460-B
sexifere	328-143622-B
sexjugue ee	328-143777-B
sexloculaire	328-143990-B
sexponctue ee	328-144141-B
sextaieul eule	328-145376-B
sextant	328-144309-B
sexte	328-145610-B,328-146165-B
sextidi	328-146435-B
sextil ile	328-146572-B
sextile	326-154279-S
sextillion	328-147049-B
sextine	328-147326-B
sexto	328-147576-B
sextule	328-147870-B
sextuor	328-148063-B
sextuple	328-148683-B
sextuple ee	328-149117-B
sextupler	328-148985-B
sexualisme	328-149196-B
sexuel elle	328-149714-B
seyant ante	328-150355-B
seybertite	328-150510-B
sforzando	328-150636-B
sfumato	328-150874-B
sgraffier	328-151141-B
sgraffite	328-151574-B
shah	58-122588-S
shako	86-68840-S,328-152018-B
shall	328-152060-B
shampooing	328-152100-B
sheat	328-152518-B
sheling	328-152675-B
sheltopusik	328-152724-B
sherarde	328-155000-B
sherif	328-155157-B
sherry	328-152948-B
shilling	328-153086-B
shintoisme	328-153193-B
shogoun	328-153601-B
shogounat	328-153989-B
shrapnel	328-154240-B
si	27-17327-S,328-155628-B,328-175183-B,328-195118-B,328-196227-B
si mi	122-24863-S
siagonagre	328-196803-B
sialadenite	328-196982-B
sialagogue	328-197138-B
sialisme	328-197352-B
sialistere	328-197477-B
sialolithe	328-197610-B
sialologie	328-197745-B
sialorrhee	328-197858-B
sialozymase	328-197992-B
siam	328-198120-B,328-198609-B
siamang	328-198832-B
siamoise	328-198942-B
sibarite	328-199587-B
sibbens	328-199641-B
siberi	328-205713-B
siberite	328-205844-B
sibilance	328-199927-B
sibilant ante	328-200151-B
sibilation	328-200510-B
sibon	328-200711-B
sibylle	328-200839-B
sibyllin ine	328-204151-B
sibylliste	328-205396-B
sic	328-205957-B
sicaire	328-206381-B
sicamor	328-207059-B
siccatif ive	328-207190-B
siccite	328-207697-B
sicilienne	328-208242-B
sicilique	328-208480-B
sicle	328-208682-B
sicomore	328-209631-B
sideral ale	328-209685-B
siderant ante	328-212082-B
sideration	328-212167-B
sideretine	328-215106-B
siderides	328-212684-B
siderite	328-212824-B
sideritis	328-212977-B
siderochrome	328-213094-B
siderographie	328-213379-B
siderolithique	328-213513-B
sideromancie	328-213655-B
sideroplesite	328-213982-B
siderose	328-214084-B
siderostat	328-214195-B
siderotechnie	328-214482-B
siderotechnique	328-214604-B
sideroxyde	328-214703-B
siderurgie	328-214831-B
siderurgique	328-214994-B
siecle	330-51681-B
siege	30-105739-S,330-65721-B
sieger	330-81317-B
sien sienne	328-215209-B
sienne	328-215209-S
sieste	328-224235-B
siester	328-224920-B
sieur	328-225111-B
sifflable	328-226038-B
sifflade	328-226240-B
sifflage	328-226345-B
sifflant ante	328-226427-B
sifflasson	328-226869-B
siffle ee	328-246286-B
sifflement	328-227048-B
siffler	328-229727-B
sifflerie	328-238425-B
sifflet	328-238908-B
siffleur euse	328-245406-B
siffloter	328-246144-B
sifilet	328-247826-B
sige	329-55552-B
sigillaire	328-247890-B
sigille ee	329-240-B
sigillographie	328-248097-B
sigillographique	329-0-B
sigisbee	329-951-B
sigisbeisme	329-1938-B
sigle	329-2257-B
sigma	329-3170-B
sigmatique	329-3257-B
sigmatisme	329-3432-B
sigmoidal ale	329-3678-B
sigmoide	329-3761-B
signage	329-4171-B
signal	79-33681-S,329-4368-B
signale ee	329-15239-B
signalement	329-10236-B
signaler	329-11044-B
signaletique	329-16445-B
signataire	79-33892-S,329-16591-B
signature	329-16959-B,334-21249-S
signe	35-88781-S,329-20684-B
signe ee	79-35629-S,329-54489-B
signer	79-34055-S,329-33495-B
signet	329-41140-B
signeur	79-34910-S,329-43867-B
signifiance	329-44519-B
signifiant ante	329-45392-B
significateur	329-46069-B
significatif ive	329-46265-B
signification	329-47068-B
significativement	329-49030-B
signifie ee	329-53961-B
signifier	79-35265-S,329-49239-B
signole	329-54231-B
siguette	329-55299-B
sikiou	329-55709-B
sikiouter	329-55848-B
sil	329-55938-B
silard	329-56108-B
silence	329-56299-B
silenciaire	329-69024-B
silencieusement	329-69480-B
silencieux euse	329-69726-B
silene	329-94429-B,329-94864-B
silex	329-71345-B
silhouette	329-72690-B
silhouetter	329-75229-B
silicate	329-75968-B
silicate ee	329-76253-B
silicatisation	329-76092-B
silice	329-76405-B
silice ee	329-79993-B
siliceux euse	329-77183-B
silicico aluminique	329-77418-B
silicico cuivreux	329-77632-B
silicicole	329-77815-B
silicides	329-78070-B
silicifere	329-78549-B
silicification	329-78191-B
silicifie ee	329-78330-B
silicique	329-78694-B
silicium	329-78883-B
siliciuration	329-79077-B
siliciure	329-79316-B
siliciure ee	329-79428-B
silicule	329-79620-B
siliculeux euse	329-79779-B
siliginosite	329-80115-B
silique	329-80269-B
siliqueux euse	329-81374-B
siliquier	329-81578-B
siliquiforme	329-81688-B
sillage	329-81985-B,329-82779-B
sille	329-82948-B,329-83134-B
sille ee	329-92423-B
sillee	329-92562-B
siller	329-83302-B,329-84504-B
sillet	329-84877-B
sillimanite	329-85266-B
sillometre	329-85349-B
sillometrique	329-85510-B
sillon	329-85637-B
sillonne nee	329-91973-B
sillonner	329-90337-B
sillonneur	329-91797-B
silo	329-92711-B
silouette	329-93417-B
silphium	329-93462-B
silure	329-93640-B
silurien ienne	329-93746-B
silveret	329-94136-B
silves et silvestre et silviculture et silvique	329-94229-B
silvestre et silviculture et silvique	329-94229-S
silviculture et silvique	329-94229-S
silvine	329-94348-B
silvique	329-94229-S
simagree	329-95489-B
simaise	329-97535-B
simandre	329-97573-B
simarouba	329-98135-B
simaroubacees ou simaroubees	329-98277-B
simaroubees	329-98277-S
simarre	329-98503-B
simbleau	329-99481-B
sime	329-99969-B
simeri	329-100167-B
simiades	329-100283-B
simien ienne	329-100594-B
simiesque	329-100898-B
similaire	139-165999-S,329-101045-B
similarite	329-102655-B
simile	139-166193-S
similer	139-166459-S
simili	329-102942-B
similiflore	329-103162-B
similitude	329-103328-B
similor	329-105511-B
simoniaque	329-105814-B
simonie	329-107430-B
simonien	329-108612-B
simonien ienne	320-108101-S
simonisme	320-108488-S
simoun	329-108714-B
simplart	329-109038-B
simple	329-109325-B,329-127174-B
simplement	329-128272-B
simplement cholera	64-1179-S
simplement gloria	160-73330-S
simplement gradus	163-18726-S
simplement mitouche	320-109706-S
simplement pinne	268-108873-S
simplement vomito	375-365489-S
simplesse	329-131406-B
simplet ette	329-132685-B
simpleter	329-132894-B
simplicicaule	329-132985-B
simplicifolie ee	329-133136-B
simplicite	329-133315-B
simplifiable	329-141193-B
simplificateur	329-141270-B
simplification	329-141544-B
simplifie ee	329-143385-B
simplifier	329-141874-B
simplisme	329-143492-B
simpliste	329-143887-B
simulacre	329-144264-B
simulateur trice	329-146788-B
simulation	329-147313-B
simule ee	329-152217-B
simuler	329-148111-B
