indecent ente	190-58678-B
indechiffrable	190-59699-B
indechiffrablement	190-60708-B
indechiffre ee	190-60810-B
indechirable	190-60950-B
indechire ee	190-61075-B
indecis ise	190-61205-B
indecisif ive	190-63259-B
indecision	190-63385-B
indecisivement	190-63828-B
indeclinabilite	190-64063-B
indeclinable	190-64415-B
indecline ee	190-66467-B
indecollable	190-66620-B
indecomposable	190-66751-B
indecompose ee	190-67237-B
indecouvert erte	190-67530-B
indecouvrable	190-67663-B
indecrit ite	190-68028-B
indecrottable	190-68171-B
indedoublable	190-68783-B
indefectibilite	190-69126-B
indefectible	190-69752-B
indefendable	190-70099-B
indefendu ue	190-70557-B
indefensable	190-71057-B
indefie ee	190-76660-B
indefigure ee	190-71411-B
indefini ie	190-71547-B
indefiniment	190-74980-B
indefinissable	190-75723-B
indefinite	190-76446-B
indeformable	190-76782-B
indefrichable	190-77056-B
indefriche ee	190-77212-B
indegonflable	190-77370-B
indeguise ee	190-77540-B
indehiscence	190-77676-B
indehiscent ente	190-77866-B
indelebile	190-80413-B
indelebilement	190-81317-B
indelebilite	190-81595-B
indelectation	190-78095-B
indelegable	190-81695-B
indeliberation	190-78425-B
indelibere ee	190-78571-B
indeliberement	190-79494-B
indelicat ate	190-79856-B
indelicatement	190-80073-B
indelicatesse	190-80183-B
indemande ee	189-38571-B
indemne	189-38696-B
indemnisable	189-39514-B
indemnisation	189-39827-B
indemnise see	189-41371-B
indemniser	189-39958-B
indemnitaire	189-41480-B
indemnite	189-42047-B
indemontrable	190-81844-B
indemontre ee	190-82169-B
indeniable	190-82347-B
indenonce ee	190-82471-B
indenouable	190-82672-B
indenoue ee	190-82789-B
indentation	189-43760-B
indente ee	189-44492-B
indenture	189-44239-B
independamment	190-82913-B
independance	190-83882-B
independant ante	190-87001-B
independantisme	190-92088-B
indepense ee	190-92971-B
indeplore ee	190-93118-B
indepouille ee	190-93286-B
inderacinable	190-93445-B
inderacine ee	190-93781-B
inderailable	190-93938-B
indes	204-7826-S
indescriptible	189-44667-B
indescriptiblement	189-44811-B
indesirable	190-94065-B
indestituable	189-44911-B
indestructibilite	189-45099-B
indestructible	189-45393-B
indestructiblement	189-46089-B
indeterminable	190-94142-B
indetermination	190-94657-B
indetermine ee	190-96178-B
indeterminement	190-97539-B
indeterminisme	190-95545-B
indeterministe	190-95727-B
indevidable	190-97975-B
indevinable	189-46189-B
indevine ee	189-46502-B
indevorable	190-98251-B
indevot ote	190-98424-B
indevotement	190-99369-B
indevotion	190-99495-B
index	189-46644-B
indexterite	189-48787-B
indianisme	189-49294-B
indianiste	189-49404-B
indianologie	189-49545-B
indicateur trice	189-49757-B
indicatif	189-50691-B
indicatif ive	189-50992-B
indication	78-41723-S,189-52445-B
indicatoire	189-53863-B
indice	189-54027-B
indiciaire	189-57344-B
indicible	189-57425-B
indiciblement	189-58350-B
indict	189-58553-B
indiction	189-59021-B
indicule	189-60445-B
indien enne	189-60577-B
indienne	189-61234-B
indiennerie	189-61703-B
indienneur	189-62124-B
indifferemment	189-62589-B
indifference	189-64617-B
indifferent ente	189-68528-B
indifferentisme	189-76406-B
indifferentiste	189-76934-B
indiffusible	189-62409-B
indigenat	189-108088-B
indigence	189-77110-B
indigene	189-106069-B
indigeneite	189-108530-B
indigent ente	189-79947-B
indigerer s 	189-108618-B
indigeste	189-82392-B
indigestibilite	189-83831-B
indigestible	189-84018-B
indigestion	189-84414-B
indigete	189-107562-B
indigitament	189-85646-B
indignation	189-86056-B
indigne	189-88093-B
indigne ee	189-100726-B
indignement	189-94201-B
indigner	189-95859-B
indignite	189-97979-B
indigo	189-101750-B
indigocarmine	189-103421-B
indigofere	189-103664-B
indigometre	189-103982-B
indigotate	189-104126-B
indigoterie	189-104259-B
indigotier	189-104532-B,189-105091-B
indigotifere	189-105663-B
indigotine	189-105736-B
indigotique	189-105913-B
indiligemment	189-109286-B
indiligence	189-109378-B
indiligent ente	189-109449-B
indine	189-109790-B
indique ee	78-42182-S,189-112127-B
indiquer	78-41968-S,189-109961-B
indire	189-113323-B
indirect ecte	189-114211-B
indirectement	189-117269-B
indirection	189-117910-B
indiscernabilite	189-118021-B
indiscernable	189-118318-B
indiscerne ee	189-119262-B
indiscernement	189-119136-B
indisciplinabilite	189-119393-B
indisciplinable	189-119515-B
indiscipline	189-120037-B
indiscipline ee	189-121137-B
indiscipliner s 	189-120808-B
indiscret ete	189-121596-B
indiscretement	189-124459-B
indiscretion	189-125421-B
indiscutabilite	189-127936-B
indiscutable	189-128335-B
indiscutablement	189-128543-B
indiscute ee	189-128942-B
indisert erte	189-129084-B
indisertement	189-129279-B
indispensabilite	189-129410-B
indispensable	189-129703-B
indispensablement	189-130807-B
indisperse ee	189-131479-B
indisponibilite	189-131638-B
indisponible	189-132153-B
indispos	189-133315-B
indispose ee	189-136777-B
indisposer	189-133645-B
indisposition	189-135013-B
indisputabilite	189-137224-B
indisputable	189-137327-B
indisputablement	189-137743-B
indispute ee	189-137835-B
indissolubilite	189-137960-B
indissoluble	189-138525-B
indissolublement	189-139772-B
indissous oute	189-140066-B
indistinct incte	189-140217-B
indistinctement	189-140921-B
indistinction	189-141589-B
indistingue ee	189-142370-B
indistinguible	189-142037-B
indium	189-142676-B
individu	189-142810-B
individualisation	189-146464-B
individualise ee	189-147942-B
individualiser	189-147080-B
individualisme	189-147489-B
individualiste	189-147783-B
individualite	189-148387-B
individuation	189-149235-B
individue	189-149439-B
individuel elle	189-150043-B
individuellement	189-150668-B
individuelliste	189-151059-B
individuer	189-151342-B
individuite	189-151469-B
indivinite	189-151985-B
indivis ise	190-0-B
indivise ee	190-5584-B
indivisement	190-6570-B
indivisibilite	190-1985-B
indivisible	190-2580-B
indivisiblement	190-4952-B
indivision	190-5215-B
indivulgue ee	190-6727-B
indo europeen enne	190-6835-B
indo germanique	190-7275-B
indo hellenique	190-7559-B
indocile	190-7743-B
indocilement	190-9367-B
indocilite	190-9442-B
indocte	190-9768-B
indoctement	190-9952-B
indolemment	190-10113-B
indolence	190-10741-B
indolent ente	190-13158-B
indolore	190-16000-B
indomaniation	190-16170-B
indomptabilite	190-16331-B
indomptable	190-16458-B
indomptablement	190-18693-B
indompte ee	190-18809-B
indouloureux euse	190-20604-B
indri	190-20880-B
indroiture	190-20940-B
indu ue	190-21165-B
indubitable	190-22793-B
indubitablement	190-24653-B
inducteur	190-25656-B
inductif ive	190-25862-B
inductile	190-26865-B
inductilite	190-26989-B
induction	190-27369-B
induire	190-31101-B
induit ite	190-34910-B
indulgemment	190-35390-B
indulgence	190-35975-B
indulgencier	190-39521-B
indulgent ente	190-39792-B
indult	190-42133-B
indultaire	190-43773-B
indulto	190-43899-B
indument	190-100215-B
induplicatif ive	190-44070-B
induration	190-44330-B
indurer	190-44848-B
induse	190-45121-B
indusie	190-45167-B
industrialisme	190-45882-B
industrialiste	190-46191-B
industrie	190-46335-B
industriel elle	190-51582-B
industriellement	190-52458-B
industrier s 	190-52597-B
industrieusement	190-52846-B
industrieux euse	190-53829-B
induts	190-55284-B
induvial ale	190-55611-B
induvie	190-55770-B,190-55973-B
ine	2-110414-S,2-197426-S,4-98557-S,5-102130-S,8-7433-S,8-170276-S,10-38553-S,10-70006-S,12-39843-S,14-69406-S,19-41041-S,19-42950-S,21-92295-S,26-185408-S,27-59165-S,28-44924-S,28-145919-S,32-138181-S,36-60268-S,46-5143-S,46-116790-S,50-27559-S,51-34419-S,51-37007-S,52-33661-S,52-63615-S,52-87181-S,54-21089-S,58-83007-S,58-114069-S,58-119005-S,66-23469-S,66-73776-S,66-116171-S,67-3947-S,67-20137-S,67-105772-S,71-24017-S,71-65194-S,76-77181-S,81-53065-S,81-73651-S,82-62683-S,84-119705-S,85-12508-S,85-231205-S,87-9907-S,88-50526-S,90-92121-S,90-122366-S,90-123698-S,93-50750-S,94-93620-S,98-56318-S,98-201422-S,103-32955-S,103-151124-S,126-97007-S,128-66075-S,131-28323-S,132-12949-S,133-182906-S,134-78108-S,139-38768-S,139-42193-S,143-28897-S,145-116245-S,146-48262-S,146-113477-S,153-147102-S,153-156039-S,153-170401-S,159-22639-S,159-61137-S,164-83339-S,164-85171-S,167-144818-S,168-59674-S,173-138354-S,177-55509-S,180-61884-S,182-51092-S,186-111306-S,187-40858-S,195-126338-S,196-167-S,199-39109-S,199-65537-S,204-126153-S,205-124662-S,206-26149-S,207-105825-S,207-204323-S,213-200019-S,213-201007-S,219-160288-S,220-166874-S,221-5654-S,223-82038-S,232-68536-S,232-148327-S,236-12493-S,236-42802-S,238-57011-S,243-133996-S,247-133011-S,248-17263-S,250-72917-S,251-47007-S,252-21511-S,252-67336-S,254-10361-S,255-118851-S,275-868-S,278-81957-S,278-153259-S,280-93036-S,286-31760-S,287-145303-S,288-111300-S,290-7948-S,291-6661-S,296-186810-S,316-35662-S,316-46891-S,316-132587-S,318-49705-S,319-69806-S,319-144382-S,320-193837-S,321-135916-S,322-5261-S,323-5882-S,323-114586-S,327-106785-S,327-146254-S,328-204151-S,330-88123-S,334-5256-S,335-55116-S,339-29615-S,339-33871-S,341-41503-S,346-75099-S,348-104932-S,357-276972-S,357-277364-S,358-63357-S,358-97426-S,360-62160-S,367-126743-S,368-128258-S,373-227561-S,374-125484-S,375-162268-S,376-190343-S,377-31195-S,380-12969-S,380-16169-S,385-69491-S,385-70085-S,388-32816-S,389-129186-S
ine ou anodyn yne	14-29978-S
inebloui ie	197-13353-B
inebranlabilite	197-13429-B
inebranlable	197-13536-B
inebranlablement	197-15568-B
inebranle ee	197-15817-B
inebriatif ive	197-16223-B
ineclairci ie	197-16476-B
ineclaire ee	197-16658-B
inecoute ee	197-17147-B
inecrit ite	197-17272-B
inecroulable	197-17690-B
inedifie ee	197-17860-B
inedit ite	197-18177-B
ineditable	197-18505-B
ineducation	197-18697-B
inee	197-19078-B
ineffabilite	190-100778-B
ineffable	190-100993-B
ineffablement	190-102344-B
ineffacable	190-102809-B
ineffacablement	190-104173-B
inefface ee	190-102685-B
ineffectif ive	190-104502-B
ineffectue ee	190-104805-B
inefficace	190-104963-B
inefficacement	190-105965-B
inefficacite	190-106177-B
ineffrayable	190-106296-B
ineffraye ee	190-106442-B
inegal ale	197-19740-B
inegale ee	197-29864-B
inegalement	197-23336-B
inegaliser	197-23756-B
inegalitaire	197-24356-B
inegalite	197-24977-B
inelastique	197-30148-B
inelegamment	197-31982-B
inelegance	197-32409-B
inelegant ante	197-33154-B
ineligibilite	197-30422-B
ineligible	197-30527-B
ineloquent ente	197-30758-B
inelu ue	197-31029-B
ineluctable	197-31097-B
ineluctablement	197-31339-B
ineludable	197-31691-B
inembryonne ee	190-106527-B
inempeche ee	190-107076-B
inemploye ee	190-106715-B
inenarrable	197-33864-B
inenarrablement	197-34406-B
inenarre ee	197-34587-B
inengendre ee	190-107165-B
inenseigne ee	190-107387-B
inensemence ee	190-107516-B
inentendu ue	190-107631-B
inenvie ee	190-107941-B
inepanoui ie	197-34918-B
ineprouve ee	197-35059-B
inepte	190-108056-B
ineptement	190-110512-B
ineptie	190-110718-B
inepuisable	197-35295-B
inepuisablement	197-37031-B
inepuise ee	197-37309-B
inequalifolie ee	197-37743-B
inequiangle	197-37950-B
inequilateral ale	197-38076-B
inequipede	197-38387-B
inequitable	197-38554-B
inequitablement	197-38668-B
inequivalve	197-38971-B
inerme	190-112173-B
inerte	190-112450-B
inertie	190-113195-B
inerudition	197-39132-B
inescomptable	190-115161-B
inesperable	190-115272-B
inespere ee	190-115545-B
inesperement	190-117134-B
inessaye ee	190-117501-B
inestimable	190-117633-B
inestime ee	190-118932-B
inetendu ue	197-39271-B
inetirable	197-39695-B
inetonnable	197-40076-B
inetudie ee	197-40247-B
inevidence	197-40376-B
inevident ente	197-40660-B
inevitabilite	197-40964-B
inevitable	197-41349-B
inevitablement	197-43814-B
inevite ee	197-44284-B
inexact acte	190-119065-B
inexactement	190-119358-B
inexactitude	190-119481-B
inexaminable	190-119839-B
inexamine ee	190-120265-B
inexauce ee	190-120371-B
inexcitabilite	190-120518-B
inexcitable	190-120826-B
inexcusable	190-121339-B
inexcusablement	190-122468-B
inexcuse ee	190-122811-B
inexecutable	191-14791-B
inexecutablement	191-15256-B
inexecute ee	191-15944-B
inexecution	191-15400-B
inexecutoire	191-15702-B
inexerce ee	190-122931-B
inexige ee	190-123432-B
inexigibilite	190-123098-B
inexigible	190-123225-B
inexistant ante	190-123575-B
inexistence	190-124061-B
inexorabilite	190-124460-B
inexorable	190-124805-B
inexorablement	191-0-B
inexpedient ente	191-9690-B
inexperience	191-9787-B
inexperimente ee	191-10270-B
inexpert erte	191-390-B
inexpiable	191-856-B
inexpie ee	191-1093-B
inexplicabilite	191-1243-B
inexplicable	191-1466-B
inexplicablement	191-3575-B
inexplicite	191-3829-B
inexplique ee	191-3944-B
inexploitable	191-4271-B
inexploitation	191-4483-B
inexploite ee	191-4759-B
inexplorable	191-5088-B
inexplore ee	191-5251-B
inexplosible	191-5462-B
inexpressible	191-5805-B
inexpressif ive	191-6086-B
inexprimable	191-6249-B
inexprimablement	191-7341-B
inexprime ee	191-7434-B
inexpugnabilite	191-7559-B
inexpugnable	191-7954-B
inextensibilite	191-11223-B
inextensible	191-11337-B
inextensilingue	191-11682-B
inexterminable	191-11958-B
inextinguibilite	191-12142-B
inextinguible	191-12286-B
inextirpabilite	191-13618-B
inextirpable	191-13761-B
inextricabilite	191-13964-B
inextricable	191-14069-B
inextricablement	191-14518-B
inexuviable	191-14612-B
infaillibiliste	191-16367-B
infaillibilite	191-16538-B
infaillible	191-17724-B
infailliblement	191-20646-B
infaisable	191-22258-B
infalsifiable	191-23037-B
infamant ante	191-23185-B
infamation	191-24041-B
infame	191-159807-B
infamement	192-0-B
infamer	191-24329-B
infamete	192-429-B
infamie	191-25318-B
infant ante	191-28493-B
infanterie	191-29675-B
infanticide	191-31797-B,191-32120-B
infantile	191-32510-B
infarctus	191-33170-B
infatigabilite	191-33443-B
infatigable	191-33808-B
infatigablement	191-35103-B
infatigue ee	191-35588-B
infatuation	191-35750-B
infatue ee	191-37853-B
infatuer	191-36155-B
infavorable	191-38528-B
infecond onde	192-1341-B
infecondite	192-2564-B
infect ecte	191-38822-B
infectant ante	191-40930-B
infecte ee	191-48249-B
infecter	191-41060-B
infecteur	191-44288-B
infectieux ieuse	191-44671-B
infection	191-44969-B
infelicite	192-3154-B
infeodation	192-4268-B,334-1437-S
infeode ee	192-5571-B
infeoder	192-4912-B
infere	192-668-B,326-150874-S
infere ee	192-15564-B
inference	192-6218-B
inferer	192-6943-B
inferieur eure	192-8924-B
inferieurement	192-13924-B
inferiorite	192-14467-B
infermable	191-49062-B
infermente ee	191-49462-B
infermentescible	191-49283-B
infernal le	191-49560-B
infernalement	191-52680-B
infernalite	191-52792-B
inferobranche	192-14961-B
inferosupere	192-15167-B
inferovarie ee	192-15378-B
infertile	191-52985-B
infertilement	191-55161-B
infertilisable	191-55241-B
infertilise ee	191-55395-B
infertilite	191-55489-B
infesable	191-55741-B
infestation	191-55799-B
