graineur	163-46898-B
grainier iere	163-47163-B
grainoir	163-47741-B
grairie	163-47781-B
graisins	163-47829-B
graissage	163-47909-B
graissane	163-48153-B
graisse	20-70417-S,85-193796-S,163-48213-B
graisse ee	163-57964-B
graisser	163-53965-B
graisserie	163-56426-B
graisset	163-56521-B
graisseur	163-56591-B
graisseux euse	163-56973-B
graissier iere	163-57410-B
graissin	163-57591-B
graissoir	163-57790-B
graisson	163-57895-B
grallarie	163-58173-B
gralle	163-58416-B
gramen	163-58597-B
gramier	163-59003-B
graminee	163-59064-B
grammaire	163-60696-B
grammairien	163-64580-B
grammate	163-66993-B
grammatical ale	163-67394-B
grammaticalement	163-68200-B
grammatiste	163-68406-B
grammatite	163-68819-B
grammatologie	163-69102-B
grammatologique	163-69323-B
gramme	163-69539-B
grammite	163-69964-B
grammometre	163-70190-B
grammontin	163-70334-B
granaire	163-70650-B
granatees	163-71175-B
granatine	163-70834-B
granatique	163-71041-B
grand	226-150087-S,274-8213-S
grand ande	163-72588-B
grand beau	163-113609-B
grand chambrier	163-113696-B
grand compte	163-113933-B
grand croix	163-114027-B
grand ducal ale	163-114381-B
grand garde	163-71385-B
grand maman	163-71452-B
grand mere	163-71509-B
grand oncle	163-114550-B
grand pere	163-114702-B
grand tante	163-72408-B
grandelet ette	163-115073-B
grandement	163-115668-B
grandesse	163-118030-B
grandeur	163-118515-B
grandi ie	163-128328-B
grandifier	163-128701-B
grandiflore	163-129010-B
grandifolie ee	163-129135-B
grandiloquence	163-129299-B
grandiose	163-129638-B
grandir	163-130472-B
grandirostre	163-133006-B
grandissant ante	163-133283-B
grandissement	163-133411-B
grandissime	163-133582-B
grandmontin	163-134306-B
grandoul	163-134355-B
granette	163-134408-B
grange	163-134513-B
grangeage	163-136342-B
grangee	163-137461-B
granger ere	163-136752-B
grangerie	163-137302-B
granifere	163-137684-B
graniforme	163-137526-B
granilite	163-137892-B
granit	163-137982-B
granitaire	163-139784-B
granitelle	163-139860-B
granitelle ee	163-140182-B
graniter	163-140354-B
graniteux euse	163-140453-B
granitier	163-140832-B
granitin	163-141061-B
granitique	163-141240-B
granitoide	163-141683-B
granitone	163-141425-B
granivore	163-142006-B
grano lamellaire	163-142432-B
grantha	163-142636-B
granulage	163-142798-B
granulaire	143-175827-S,163-142889-B
granulateur	163-143011-B
granulation	163-143111-B
granulatoire	163-144199-B
granule	163-144328-B
granule ee	163-146527-B
granuler	163-144712-B
granuleux euse	163-145497-B
granuliforme	163-146243-B
granulosite	163-146385-B
grapelle	163-146749-B
grapette	163-146923-B
graphe et graphie	1-3558-B
graphide	163-147081-B
graphie	1-3558-S,163-147339-B
graphioide	163-148181-B
graphique	163-148334-B,163-149871-B
graphiquement	163-150180-B
graphisme	163-150454-B
graphite	163-151037-B
graphiteux euse	163-151340-B
graphium	163-151511-B
grapholithe	163-151746-B
graphologie	163-151985-B
graphologue	163-152263-B
graphometre	163-152348-B
graphometrique	163-152511-B
grapignan	163-152601-B
grapin	163-153202-B
grappage	163-153247-B
grappe	163-153476-B,163-157228-B,163-157401-B
grappeler	163-157553-B
grapper	163-157646-B
grapperie	163-157710-B
grappier iere	163-158142-B
grappillage	163-158328-B
grappille ee	163-160447-B
grappiller	163-158693-B
grappilleur euse	163-159878-B
grappillon	163-160155-B
grappin	163-160593-B
grappiner	163-162443-B
grappineur	163-162670-B
grappu ue	163-162753-B
gras asse	163-162869-B
gras double	163-176630-B
gras fondu	163-176796-B
grass	63-26817-S,298-88836-S
grassane	163-177531-B
grassement	163-177588-B
grasserie	163-178431-B
grasset ette	163-178507-B
grassette	163-179437-B,163-179495-B
grasseyement	164-0-B
grasseyer	164-428-B
grasseyeur euse	164-1506-B
grassouillet ette	164-1806-B
grat	164-2108-B
gratairon	164-2408-B
gratelier	164-2595-B
grateron	164-2708-B
gratgal	164-3244-B
graticulation	164-3398-B
graticule	164-3475-B
graticuler	164-3651-B
gratification	164-3969-B
gratifie ee	164-8544-B
gratifier	164-5595-B
gratin	164-8712-B
gratiner	164-9397-B
gratiole	164-9698-B
gratioline	164-10032-B
gratis	164-10189-B
gratitude	164-12949-B
graton	164-14284-B
grattage	164-14338-B
gratte	164-14394-B
gratte boesse	164-15469-B
gratte boesser	164-16426-B
gratte cul	164-16822-B
gratte ee	164-28233-B
gratte menton	164-17865-B
gratte paille	164-18245-B
gratte papier	164-18341-B
gratteau	164-18540-B
gratteler	164-18651-B
gratteleux euse	164-18856-B
grattelle	164-18939-B
gratter	164-19192-B
gratter s 	132-16271-S
gratterie	164-26323-B
gratteur	164-26595-B
grattoir	164-27123-B
grattons	164-27668-B
gratture	164-27877-B
gratuit ite	164-28559-B
gratuite	164-32319-B
gratuitement	164-30883-B
grau	164-33240-B
grauwacke	164-34602-B
gravanche	164-34765-B
gravatier	164-34892-B
gravatif ive	164-35087-B
gravats	164-35402-B
grave	164-35527-B,164-43385-B,164-43850-B
grave ee	164-73287-B
gravelade	164-44538-B
gravelage	164-44609-B
gravelee	164-48638-B
graveler	164-44901-B
gravelet	164-45090-B
graveleux euse	164-45165-B
gravelin	164-46548-B
gravelle	164-46640-B
gravelotte	164-48221-B
gravelure	164-48298-B
gravement	164-49184-B
graver	164-50306-B
gravette	164-54685-B
graveur	164-55215-B
gravi ie	164-55856-B
gravide	164-55956-B
gravidisme	164-56326-B
gravidite	164-56549-B
gravier	164-56869-B
graviere	164-69407-B
gravifique	164-58370-B
gravigrade	164-58918-B
gravimetre	164-59137-B
gravimetrique	164-59546-B
gravinchon	164-59681-B
gravir	164-59767-B
gravisset	164-61968-B
gravitant ante	164-62122-B
gravitatif tive	164-62308-B
gravitation	164-62412-B
gravite	164-64783-B
graviter	164-63270-B
gravoir	164-69814-B
gravois	164-70136-B
gravure	164-71159-B,303-37441-S
grayer	164-74786-B
grazioso	164-74833-B
gre	166-101817-B
greage	166-115691-B
grebe	166-90676-B
grebiche	166-115795-B
grec	30-104817-S
grec ecque	164-75065-B,243-133826-S
grecisant	166-115956-B
grecise ee	166-117121-B
greciser	166-116210-B
grecisme	166-116851-B
greciste	166-117039-B
grecite	166-117242-B
greco romain aine	166-117575-B
greco slave	166-117806-B
grecoliser	166-118251-B
grecque	164-81838-B
grecquer	164-82598-B
gredin ine	164-83339-B,164-85171-B
grediner	164-85852-B
gredinerie	164-85970-B
gree ee	166-131286-B
greement ou grement	166-118386-B
greenback	164-86085-B
greer	166-119060-B
grees	166-119786-B
greeur	166-119981-B
greffage	164-86585-B
greffe	164-86838-B,164-90862-B
greffe ee	132-16730-S,164-96500-B
greffer	164-92182-B
greffer s 	132-16560-S
greffeur	164-93268-B
greffier	164-93341-B
greffoir	164-96084-B
greffon	164-96321-B
gregaire	166-120049-B
gregal	166-120220-B
gregalade	166-120341-B
gregarisme	166-120588-B
grege	166-121132-B
gregeois	166-121902-B
gregorien ienne	166-123266-B
gregou	166-124246-B
gregue	166-91417-B
grelage	164-96846-B
grelant	166-131837-B
grelasse	166-132371-B
grele	166-132614-B,166-135366-B,166-138883-B
grele ee	166-143023-B
greleau	166-138956-B
greler	166-139117-B,166-139354-B
grelet	164-96897-B
grelet ette	166-141730-B
greleux euse	166-142084-B
grelier	166-142410-B
grelin	164-96965-B
greloir	166-142611-B
grelon	166-142767-B
grelot	164-97156-B
grelottant ante	164-99932-B
grelotter	164-100303-B
grelouage	164-101933-B
grelouer	164-101995-B
greluchon	164-102056-B
grement	166-118386-S,166-124363-B
gremial	166-124415-B
gremil	166-124645-B
gremille	164-103511-B
grenache	164-103632-B
grenade	164-104333-B
grenadier	164-106297-B
grenadiere	164-110738-B
grenadille	164-109301-B
grenadin	164-109647-B
grenadine	164-109909-B,164-110229-B
grenage	164-111179-B
grenaille	164-111376-B
grenaille ee	164-112702-B
grenaillement	164-112254-B
grenailler	164-112399-B
grenailleur	164-112540-B
grenaison	164-112820-B
grenasse	163-42076-S,164-112962-B
grenat	164-113110-B,286-1371-S
grenatique	164-114732-B
grenaut	164-114847-B
grene ee	164-134636-B
grenele ee	164-115705-B
greneler	164-115429-B
grener	164-115799-B
grenete	164-118849-B
greneter	164-117480-B
greneterie	166-92806-B
grenetier iere	166-93230-B
grenetine	164-135220-B
grenetis	166-94273-B
grenetoir	164-118105-B
grenette	164-118175-B
greneur	164-118903-B
grenier	164-119031-B
grenoir	164-126130-B,355-11463-S
grenouillard	164-126307-B
grenouille	164-126417-B
grenouille ee	164-133041-B
grenouiller	164-130627-B
grenouillere	164-132659-B
grenouillet	164-131283-B
grenouillette	164-131651-B
grenu ue	164-133197-B
grenure	164-134451-B
gres	166-94691-B,166-98028-B
greseux euse	166-125162-B
gresier	166-125477-B
gresiere	166-130695-B
gresiforme	166-125589-B
gresil	166-125722-B
gresille ee	166-130570-B
gresillement	166-127166-B,166-127586-B
gresiller	166-128010-B,166-128191-B,166-128616-B
gresillin	166-130034-B
gresillon	166-130171-B
gresillons	166-130491-B
gresoir	166-130800-B
gresserie	164-135525-B
gresset	164-135950-B
gressoripede	164-136000-B
greul	164-136284-B
greve	156-73839-S,166-98223-B,166-101044-B
greve ee	164-138553-B
grevee	164-139152-B
grever	164-136383-B
grevette	164-138284-B
greviste	166-131169-B
gri	164-139315-S
gri gri	164-139315-B
grianneau	164-139379-B
gribane	164-139625-B
griblette	164-140196-B
gribou	164-140429-B
gribouillage	164-140563-B
gribouille	164-140835-B
gribouiller	164-141872-B
gribouillette	164-142337-B
gribouilleur euse	164-142815-B
gribouillis	164-142965-B
gribouri	164-143064-B
griche dents	164-143262-B
grieche	165-93893-B,267-64627-S
grief	164-143652-B
grief eve	164-145222-B
grieu	164-147881-B
grievement	165-95121-B
grievete	165-96327-B
griffade	164-147945-B
griffage	164-148108-B
griffard	164-148521-B
griffe	164-148597-B,164-154310-B
griffe ee	165-277-B
griffer	164-154586-B
griffet	164-155895-B
griffon	164-155963-B,164-157766-B
griffon onne	164-158001-B
griffonnage	164-158441-B
griffonne ee	164-162068-B
griffonnee	164-162353-B
griffonnement	164-158964-B
griffonner	164-159120-B
griffonneur	164-161097-B
griffonnier	164-161656-B
griffonnis	164-161941-B
griffure	165-0-B
griforin	165-372-B
grignard	165-511-B
grigne	165-672-B
grignee	165-3211-B
grignon	165-1195-B,165-1245-B
grignote ee	165-3100-B
grignoter	165-2070-B
grignotis	165-2947-B
grigou	165-3356-B
gril	165-4014-B
grillade	165-6434-B
grillage	165-7248-B,165-8058-B
grillager	165-8418-B
grillagerie	165-8648-B
grillageur	165-8881-B
grille	165-9008-B
grille ee	165-21298-B,165-21788-B
grille midi	165-12644-B
griller	165-12805-B,165-15785-B
grillet	165-16630-B,165-16715-B,165-16936-B
grillete ee	165-17227-B
grilleur	165-17357-B
grilloir	165-17544-B
grillon	165-17728-B,349-39087-S
grillons	165-19696-B,165-20065-B
grillot	165-20182-B,165-20264-B
grilloter	165-20419-B
grillotis	165-20893-B
grimacant ante	165-32940-B
grimace	165-22522-B
grimacer	165-26820-B
grimacerie	165-28160-B
grimacier ere	165-28384-B
grimaud	165-29416-B
grimaudage	165-32114-B
grimauderie	165-32314-B
grime	165-33803-B
grime ee	165-45341-B
grimelin	165-34296-B
grimelinage	165-34861-B
grimeline ee	165-35702-B
grimeliner	165-35067-B
grimer se	165-35839-B
grimoire	165-36222-B
grimpant ante	165-39300-B
grimpart	165-39687-B
grimpe ee	165-44606-B
grimpee	165-44957-B
grimper	165-39791-B
grimpereau	165-43677-B
grimpeur	165-43883-B
grimpeurs	165-43955-B
grimpion onne	165-44350-B
grincement	165-45444-B
grincer	165-46060-B
grincher	165-47067-B
grincheux euse	165-47234-B
grinette	165-48052-B
gringalet	165-48143-B
gringette	165-49327-B
gringole ee	165-49411-B
gringotter	165-49665-B
gringuenaude	165-50676-B
griot	165-50933-B,165-51178-B
griotte	165-51238-B,165-51774-B
griottier	165-51977-B
grip	165-52452-B
gripet	165-52640-B
griphe	165-52915-B
grippage	165-53197-B
grippe	165-53596-B
grippe argent	165-55389-B
grippe chair	165-55569-B
grippe coquin	165-55782-B
grippe ee	165-60586-B
grippe fromage	165-56515-B
grippe sou	165-56732-B
grippeler se	165-57073-B
grippement	165-57296-B
grippeminaud	165-57681-B
gripper	165-58047-B
gripperie	165-60042-B
grippeur	165-60302-B
gris	165-69565-S,264-197278-S,321-113552-S,370-227598-S,371-162561-S
gris farinier	165-69485-B
gris gris	165-69565-B
gris ise	165-61410-B
gris pendart	165-69765-B
grisage	165-69825-B
grisaille	165-70056-B
grisaille ee	165-70935-B
grisailler	165-70693-B
