gloutonnement	160-111360-B
gloutonnerie	160-112014-B
glouze	160-112784-B
glu	160-112908-B
glu ou ergo gluc	133-147728-S
gluant ante	160-114852-B
gluau	160-115864-B
gluc	133-147728-S
glucine	160-116474-B
gluckiste	160-116512-B
glucogenie	160-117129-B
glucose	160-117179-B
glucosurie	160-117217-B
glucynium	160-117264-B
glue ee	160-122635-B
gluer	160-117308-B
glui	160-117982-B
glumace ee	160-118829-B
glume	160-119006-B
glume ee	160-119697-B
glumelle	160-119251-B
glumellule	160-119454-B
gluteine	160-122447-B
gluten	160-119830-B
glutier	160-120879-B
glutinatif ive	160-121020-B
glutine	160-121346-B
glutineux euse	160-121467-B
glutinosite	160-122006-B
glycemie	160-127539-B
glycerine	160-127965-B
glyceriner	160-128201-B
glycerinien enne ou glycerique	160-128515-B
glycerique	160-128515-S
glycerole	160-128771-B
glycine	160-122716-B,160-122989-B,160-123166-B
glycinium ou glycium	160-123411-B
glycique	160-123620-B
glycium	160-123411-S
glycocholate	160-123767-B
glycocholique	160-123885-B
glycocolle	160-124043-B
glycogene	160-124611-B
glycogenese	160-124270-B
glycogenie	160-124908-B
glycogenique	160-125150-B
glycol	160-125236-B
glycolique	160-125432-B
glycometre	160-125644-B
glyconien ou glyconique	160-125779-B
glyconique	160-125779-S
glycose	160-126052-B,319-145368-S
glycoside	160-126367-B
glycosurie	160-126515-B
glycymetre	160-126677-B
glycyrrhize	160-126868-B
glycyrrhizine	160-127065-B
glycyrrhizite	160-127305-B
glyphe	160-128894-B
glyptique	160-129058-B
glyptographie	160-129205-B
glyptologie	160-129525-B
glyptotheque	160-129662-B
gmelin	161-1918-B
gnacare	161-2238-B
gnathides	161-2478-B
gnathidie	161-2605-B
gnathodonte	161-2774-B
gnathotheque	161-2953-B
gnavelle	161-3121-B
gneiss	161-3216-B
gneisseux euse	161-3533-B
gniaf	161-3892-B
gnian	161-4237-S
gnian gnian	161-4237-B
gniole	161-5091-B
gnognotte	161-5427-B
gnole	161-5531-B
gnome	161-5798-B,161-6191-B
gnomide	161-6430-B
gnomique	161-6511-B
gnomon	161-7000-B
gnomonique	161-8357-B
gnomoniste	161-8694-B
gnose	161-8807-B
gnosimaque	161-9414-B
gnosticisme	161-9647-B
gnostique	161-9759-B
gnou	161-10627-B
go tout de	161-10842-B
gobbe	161-11502-B
gobbe ee	161-11961-B
gobe dieu	161-12132-B
gobe ee	161-31149-B
gobe goujons	161-12437-B
gobe moucherie	161-12799-B
gobe moucherons	161-12884-B
gobe mouches	161-13038-B
gobe mouton	161-15305-B
gobelet	161-15529-B
gobeleterie	161-19768-B
gobeletier	161-19934-B
gobelin	161-20071-B
gobelins	161-20642-B
gobelotter	161-21258-B
gobelotteur euse	161-22028-B
gober	161-22162-B
goberge	161-24771-B,161-25533-B
goberger se	161-26135-B
gobet	161-27253-B
gobetage	161-27937-B,161-28183-B
gobete ee	161-28881-B
gobeter	161-28241-B
gobetis	161-28644-B
gobeur euse	161-28966-B
gobie	161-29462-B
gobier	161-29558-B
gobillard	161-29787-B
gobille	161-29926-B
gobin	161-30260-B
gobineau	161-30991-B
gochet	161-31468-B
godage	161-31558-B
godaille	161-31677-B
godailler	161-32675-B,161-32849-B
godailleur	161-32992-B
godan ou godant	161-33080-B
godant	161-33080-S
godard	161-33638-B
goddam	161-34213-B
gode	161-34815-B,161-35038-B,161-35226-B
godebert	161-35341-B
godelle	161-35783-B
godelon	161-35907-B
godelureau	161-36445-B
godendac ou godendart	161-38301-B
godendart	161-38301-S
godenot	161-39252-B
goder	161-40060-B
godet	161-40613-B,224-127787-S
godiche	161-43398-B
godichon onne	161-43656-B
godille	161-43735-B
godiller	161-44416-B
godilleur	161-44563-B
godinette	161-44669-B
godiveau	161-45525-B
godron	161-46024-B
godronnage	161-47219-B
godronne ee	161-49051-B
godronner	161-47341-B
godronneur euse	161-48854-B
godronnoir	161-48965-B
godure	161-49939-B
goeland	162-168702-B
goelette	162-169573-B
goemon	162-169909-B
goethee	161-49993-B
goetie	162-168348-B
goetique	162-168590-B
goffe	161-50201-B
gog	161-50772-B
gogaille	161-51695-B
gogo a	161-52164-B
gogue	161-53487-B,161-55576-B
goguenard arde	161-55681-B
goguenarder	161-57267-B
goguenarderie	161-57732-B
goguettes	161-58025-B
goignade	161-59866-B
goinfrade	161-61352-B
goinfre	161-61411-B
goinfrer	161-62787-B
goinfrerie	161-62953-B
goiran	161-63363-B
goitre	162-171191-B
goitreux euse	162-171932-B
golem	161-63441-B
golette	161-63793-B
golfe	161-63880-B
golgotha	161-65222-B
goliath	161-65796-B
golille	161-66132-B
gomariste	161-66487-B
gombaut et mieux gombo	161-66682-B
gombette	161-67902-B
gombi	161-68033-B
gombo	161-66682-S
gomene	161-79018-B
gommage	161-68158-B
gommart	161-68326-B
gommate	161-68626-B
gomme	161-68750-B
gomme ee	161-77976-B
gomme gutte	161-72993-B
gomme resine	161-73356-B
gommement	161-73452-B
gommer	161-73509-B
gommeur	161-73902-B
gommeuse	161-74013-B
gommeux euse	161-74226-B,317-237986-S
gommides	161-75786-B
gommier	161-75912-B
gommifere	161-76854-B
gommique	161-76992-B
gommite	161-77185-B
gommo resineux euse	161-77305-B
gommoir	161-77433-B
gommose	161-77550-B
gomor	161-78243-B
gomortegue	161-78432-B
gomphose	161-78629-B
gonagre	161-79326-B
gonalgie	161-79441-B
gonarthrocace	161-79602-B
gond	161-79815-B
gonder	161-82667-B
gondin	295-91241-S
gondolage	161-82791-B
gondole	161-82929-B
gondole ee	161-85439-B
gondoler	161-84609-B
gondolerie	161-84865-B
gondolier	161-85124-B
gonelle	161-85948-B
gonet	161-86071-B
gonfalon	74-156539-S
gonfalon ou gonfanon	161-86176-B
gonfalonier	161-87529-B
gonfanon	161-86176-S
gonfle	161-88657-B
gonfle ee	161-91176-B
gonflement	161-88926-B
gonfler	161-89076-B
gong	161-92413-S
gong gong	161-92413-S
gong ou gong gong	161-92413-B
gongonner	161-93003-B
gongorisme	161-93146-B
gongoriste	161-93361-B
gongylaire	161-93474-B
gongylange	161-93627-B
gongyle	161-93812-B
goniasmometre	161-94027-B
gonichon	161-94205-B
gonidie	161-94415-B,161-94963-B
gonimique	161-95061-B
gonin	161-95228-B
goniocarpe	161-96908-B
goniogene	161-97122-B
goniometre	161-97324-B
goniometrie	161-97582-B
goniometrique	161-97825-B
goniostome	161-97937-B
gonne	161-98115-B
gonocele	161-98727-B
gonophore	161-98892-B
gonorrhee	161-99120-B
gonorrheique	161-99462-B
gony	161-99567-B
gonytheque	161-99607-B
gonzale	161-99774-B
goodeniacees ou goodenoviees	161-99833-B
goodenoviees	161-99833-S
goorkha	161-100278-B
gor	162-0-B
gord	162-156-B
gordie	162-1083-B
gordiee	162-1370-B
gordien	162-1322-B
goret	162-1465-B,353-139926-S
goreter	162-3032-B
gorfou	162-3108-B
gorge	84-214624-S,162-3608-B,165-159047-S,312-70751-S,334-492-S
gorge de pigeon	162-20245-B
gorge ee	162-26023-B
gorge fouille	162-20679-B
gorgee	162-26683-B
gorger	162-20823-B
gorgere	162-25922-B
gorgeret	162-22475-B,162-22766-B
gorgerette	162-22844-B
gorgerin	162-23737-B
gorget	162-24478-B
gorgone	162-24600-B
gorgoniens	162-25557-B
gorgue	162-25765-B
gorille	162-27157-B
goronner	162-27589-B
gortheen	162-27752-B
gorvelle	162-27857-B
gosier	162-27955-B
gosiller	162-31028-B
goslarite	162-31257-B
gossampin	162-31348-B
gosse	162-31676-B
gossypine	162-31847-B
goth	162-31991-B
gothicite	162-32344-B
gothique	162-32421-B,199-25971-S,326-150357-S
goton	162-36183-B,162-36513-B
gouache	162-36642-B
gouache ee	162-37718-B
gouailler	162-38024-B
gouaillerie	162-38521-B
gouailleur euse	162-38638-B
gouais	162-38769-B
goualette	162-39080-B
gouape	162-39256-B
gouapeur	162-39326-B
gouazoupita	162-39682-B
goudran	162-39963-B
goudrelle	162-40186-B
goudron	162-40268-B
goudronnage	162-41567-B
goudronne ee	162-43053-B
goudronner	162-41704-B
goudronnerie	162-41837-B
goudronneur	162-42201-B
goudronneux euse	162-42294-B
goudronnier	162-42422-B
goudronniere	162-42734-B
gouet	162-43747-B,162-43890-B,162-43939-B
gouffre	162-44169-B
gouge	162-48834-B,162-50866-B
gouger	162-52597-B
gouin	162-52811-B
gouine	162-52940-B
goujard	162-53786-B
goujat	162-53840-B
goujon	162-56887-B,162-57698-B
goujonner	162-58728-B
goujonnier	162-59177-B
goujonniere	162-59317-B
goujons	161-12437-S
goujure	162-59448-B
goulde	162-59654-B
goule	162-59977-B
goulee	162-66014-B
goulet	162-60513-B
goulette	162-61619-B,162-61741-B
gouliafre	162-62516-B
goulier	162-62984-B
goulleh	162-63257-B
goulot	162-63474-B
gouloterie	162-63993-B
goulotte	162-64179-B
goulu ue	162-64700-B
goulument	162-67219-B
goum	162-67840-B
goumier	162-67982-B
gouna	162-68138-B
goupil	162-68481-B
goupille	61-15572-S,162-68869-B,278-219510-S
goupiller	162-69885-B
goupillon	162-69962-B
goupillonner	162-72624-B
gour	162-72717-B
goura	162-72794-B
gourami	162-73153-B
gourbet	162-73457-B
gourbi ou gourbil	162-74308-B
gourbil	162-74308-S
gourbillage	162-74464-B
gourbiller	162-74566-B
gourd ourde	162-74740-B
gourde	162-76224-B,162-76618-B,162-77081-B
gourdin	162-78037-B
gourdiner	162-79392-B
goure	162-79479-B
goureau	162-79654-B
gourer	162-79705-B
goureur euse	162-80234-B
gourgalle	162-80397-B
gourgandine	162-80524-B
gourgane	162-81764-B
gourgouran	162-81900-B
gourmade	162-82007-B
gourmand ande	162-82995-B
gourmande ee	162-92562-B
gourmandement	162-86392-B
gourmander	162-86555-B
gourmandiller	162-91308-B
gourmandine	162-91593-B
gourmandise	162-91685-B
gourmas	162-93832-B
gourme	162-93984-B
gourme ee	162-102924-B
gourmelle	162-95577-B
gourmer	162-95685-B
gourmer s	132-15988-S
gourmet	162-98429-B
gourmette	162-100923-B
gourmeur	162-102443-B
gournable	162-103548-B
gournabler	162-103704-B
gournablerie	162-103806-B
gournablier	162-103895-B
gourou	162-103993-B,162-104175-B
gouspin	162-104365-B
goussant ou goussaut	162-104788-B
goussaut	162-104788-S
gousse	162-105569-B
gousset	162-106804-B,372-161823-S
gout	20-70218-S,25-174105-S,162-172450-B
goutave	162-109314-B
goute	162-198870-B
goute ee	162-198920-B
gouter	162-190324-B,162-197619-B,162-198228-B
gouttant ante	162-109598-B
goutte	162-109684-B,162-120961-B,162-124403-B
goutte ee	162-132853-B
goutte rose	162-124531-B
gouttelette	162-124675-B
goutter	162-125449-B
gouttes	73-120750-S
gouttette	162-125766-B
goutteux euse	162-126079-B
gouttier ere	162-127252-B
gouttiere	162-127671-B,327-165710-S
gouvernable	162-133128-B
gouvernail	162-133248-B
gouvernance	162-135186-B
gouvernant ante	162-135961-B
gouvernante	162-136451-B,334-684-S
gouvernat	162-138581-B
gouverne	162-138904-B
gouverne ee	162-166662-B
gouverneau	162-139615-B
gouvernement	78-38908-S,162-139703-B
gouvernemental ale	162-148784-B
gouvernementiste	162-149111-B
gouverner	162-149440-B
gouverneur	162-162051-B,334-765-S
gouvion	162-167412-B
gouyard	162-167566-B
goyave	162-167753-B
goyavier	162-168068-B
graal saint	162-199709-B
grabat	162-202507-B
grabataire	162-203776-B
grabeau	162-204193-B
grabelage	162-205825-B
grabeler	162-205931-B
grabeleur	162-206133-B
grabuge	162-206255-B
grace	37-108958-S,166-57269-B
graciable	162-207516-B
gracie ee	163-8054-B
gracier	162-208025-B
gracieuse ee	163-2001-B
gracieusement	162-208451-B
gracieuser	163-0-B
gracieusete	163-1016-B
gracieux euse	163-2125-B
gracilite	163-6946-B
graciole	163-7533-B
gracioso	163-7777-B
gradatif ive	163-8145-B
gradation	163-8294-B
grade	163-10863-B,163-20364-B
gradille	163-12828-B
gradin	163-12925-B
gradine	163-14368-B
gradiner	163-14547-B
gradualite	163-14623-B
graduat	163-14865-B
graduateur	163-15187-B
graduation	163-15353-B
gradue ee	163-19213-B
graduel	163-16693-B
graduel elle	163-17539-B
graduellement	163-18005-B
graduer	163-18140-B
gradus	163-18726-S
gradus ad parnassum ou simplement gradus	163-18726-B
grafitto	163-20549-B
grage	163-20838-B
grageoir	163-20936-B
grager	163-21056-B
grague	163-21429-B
graille	163-21551-B
graillement	163-21917-B
grailler	163-22197-B
graillon	163-22611-B,163-23720-B,163-24118-B
graillonner	163-24215-B,163-24384-B
graillonneur euse	163-24546-B
graillonneuse	163-24673-B
grain	163-24833-B,211-27280-S,259-258610-S,337-58772-S
grain tin	163-40844-B
grainage	163-41211-B
grainaille	163-41731-B
grainailleur	163-41864-B
grainaison	163-41964-B
grainasse ou grenasse	163-42076-B
grainchu ue	163-42274-B
graine	163-42551-B,276-104437-S
grainer	163-46566-B
graines	224-129640-S
grainetier	163-46837-B
