cornupete	82-56628-B
corocore	82-59860-B
corocoro	82-60017-B
corollace ee	82-60392-B
corollaire	82-60530-B,82-61485-B
corolle	82-61610-B
corolle ee	82-63232-B
corollifere	82-62534-B
corolliflores	82-62210-B
corolliforme	82-62398-B
corollin ine	82-62683-B
corollitique	82-62880-B
corollule	82-63116-B
coron	82-63358-B,82-63895-B
coronach	82-64342-B
coronaire	82-64481-B
coronal ale	82-65472-B
coronateur	82-66736-B
coronelle	82-66909-B,82-67360-B
coroner	82-67496-B
coronet	82-67818-B
coroniforme	82-67994-B
coronille	82-68140-B
coronis	82-68357-B
coronoide	82-68703-B
coronoidien ienne	82-68931-B
coronule	82-69045-B
coroplaste	82-69286-B
corossol	82-69474-B
corossolier	82-69533-B
corp	82-69625-B
corpon ou corpou	82-69738-B
corporal	82-69892-B
corporalier	82-70590-B
corporaliser	82-70744-B
corporalite	82-70952-B
corporatif ive	82-71262-B
corporation	82-72596-B
corporativement	82-73184-B
corporeite	82-77611-B
corporel elle	82-73354-B
corporellement	82-75862-B
corporification	82-76546-B
corporifie ee	82-77314-B
corporifier	82-76714-B
corpou	82-69738-S
corps	20-66178-S,25-170121-S,82-78189-B,142-74171-S,156-69738-S,171-187283-S
corpulence	82-113773-B
corpulent ente	82-115078-B
corpus	82-115588-B,169-80025-S
corpusculaire	82-115760-B
corpuscule	82-116526-B
corpusculeux euse	82-117724-B
corpusculiste	82-117865-B
corradoux ou courradoux	82-118029-B
corral	82-118226-B
corre ou corret	82-118562-B
correau	82-118877-B
correct ecte	82-118979-B
correctement	82-120942-B
correcteur	82-121602-B
correctif	82-122740-B
correctif ive	82-124089-B
correction	82-124694-B
correctionnaire	82-130086-B
correctionnalisation	82-130564-B
correctionnaliser	82-131402-B
correctionnalite	82-131855-B
correctionnel elle	82-132013-B
correctionnellement	82-132489-B
correctivement	82-132903-B
correctrice	82-133052-B
corregidor	82-185017-B
correlatif ive	82-185469-B
correlation	82-186732-B
correlativement	82-187124-B
correption	82-133232-B
correspondance	82-133490-B
correspondant	82-136998-B
correspondant ante	82-137873-B
correspondre	82-138523-B
corret	82-118562-S
corridor	82-140580-B
corrige ee	82-150145-B
corrigeant ante	82-141671-B
corrigement	82-142023-B
corriger	82-142286-B
corrigeur	82-148900-B
corrigibilite	82-149331-B
corrigible	82-149498-B
corrigiole ee	82-149859-B
corrival	82-150765-B
corroborant ante	82-151017-B
corroboratif tive	82-151939-B
corroboration	82-152312-B
corrobore ee	82-153612-B
corroborer	82-152706-B
corroborie	82-153432-B
corrodant ante	82-153719-B
corrode ee	82-154524-B
corroder	82-153933-B
corroi	82-154620-B
corroierie	82-155781-B
corrompable	82-156034-B
corrompre	82-157023-B
corrompu ue	82-165652-B
corrond	82-167440-B
corrosif ive	82-167588-B
corrosion	82-168485-B
corrosivete	82-169263-B
corroyage	82-169636-B
corroye ee	82-173931-B
corroyer	82-169892-B
corroyere	82-173766-B
corroyeur	82-172611-B
corrude	82-174022-B
corrugateur trice	82-174154-B
corrugation	82-174423-B
corrupteur trice	82-174648-B
corruptibilite	82-176658-B
corruptible	82-176903-B
corruptif ive	82-178752-B
corruption	82-179055-B
cors	82-187320-B,84-213296-S
corsac	82-188675-B
corsage	82-188830-B
corsaire	82-190910-B
corse	83-0-B
corse ee	83-7062-B
corsecque	83-245-B
corselet	83-404-B
corseron	83-2163-B
corses	83-2271-B
corsesque	83-2476-B
corset	83-2606-B
corsetier iere	83-5221-B
corsier	83-5393-B
corsin	83-5456-B
corsoide	83-6827-B
cortail	83-7482-B
cortege	83-10693-B
cortegeant	83-12326-B
corteger	83-12734-B
cortes	83-10334-B
cortical ale	83-7840-B,333-211285-S
corticicole	83-8883-B
corticifere	83-9220-B
corticiforme	83-9069-B
corticine	83-9407-B
cortine	83-9623-B
cortiqueux euse	83-9918-B
corton	83-10127-B
coruscation	83-13001-B
corve	83-13457-B
corveable	83-13968-B
corvee	83-14846-B
corveieur	83-18753-B
corvette	83-13550-B
corvide	83-13781-B
corybante	83-18859-B
corybantique	83-19092-B
corybantisme	83-19277-B
corycobolie ou corycomachie	83-19540-B
corycomachie	83-19540-S
corycus	83-19719-B
corymbe	83-20225-B
corymbe ee ou corymbeux euse	83-20933-B
corymbeux euse	83-20933-S
corymbifere	83-20693-B
corymbiflore	83-20532-B
corypha	83-21122-B
coryphee	83-21355-B
coryza	83-22721-B
cos	83-24779-B
cosaque	83-24812-B
cosaquerie	83-25686-B
coscinomancie	83-25881-B
coscossons ou coscotons	83-26063-B
coscotons	83-26063-S
cosecante	83-48026-B
coseigneur	83-26624-B
coseigneurie	83-26751-B
cosignataire	83-26877-B
cosinelle	83-27088-B
cosinus	83-27414-B
cosique	83-27570-B
cosismal	83-27707-B
cosme	83-27750-B
cosmetique	83-35257-B,83-35724-B
cosmetique ee	83-35872-B
cosmique	83-27942-B
cosmiquement	83-28883-B
cosmocratie	83-29133-B
cosmognose	83-29317-B
cosmogonie	83-29749-B
cosmogonique	83-30513-B
cosmogoniquement	83-30660-B
cosmogoniste	83-30751-B
cosmographe	83-30863-B
cosmographie	83-31255-B
cosmographique	83-31939-B
cosmolabe	83-32060-B
cosmologie	83-32222-B
cosmologique	83-32993-B
cosmologiquement	83-33105-B
cosmologiste ou cosmologue	83-33196-B
cosmologue	83-33196-S
cosmometrie	83-33375-B
cosmonomie	83-33598-B
cosmonomique	83-33711-B
cosmopolite	83-33793-B
cosmopolitisme	83-34489-B
cosmorama	83-34737-B
cosmos	83-34919-B
cosmosophie	83-35052-B
cosmosophique	83-35172-B
coss	83-36177-B
cossard	83-36419-B
cossas	83-36485-B
cossat	83-36578-B
cosse	83-36811-B,83-37124-B,83-38776-B
cosser	83-38836-B
cossette	83-39506-B
cossin	83-39858-B
cossique	83-40188-B
cosson	83-40501-B,83-41223-B
cossu ue	83-41410-B
costal ale	83-41855-B,195-123596-S,210-247045-S,333-211513-S
coste ee	83-47516-B
costiere	83-42438-B
costifere	83-42297-B
costo claviculaire	83-42518-B
costo sternal ale	83-42719-B
costo thoracique	83-43007-B
costo trachelien enne	83-43160-B,210-247223-S
costo transversaire	83-43380-B
costo vertebral ale	83-43654-B
costo xiphoidien enne	83-43900-B
costresse	70-113541-S,83-44106-B
costule	83-44179-B
costume	83-44350-B
costume ee	83-47035-B
costumer	83-46381-B
costumier	83-46664-B
costus	83-47338-B
cosyndic	83-47632-B
cot	83-48165-B
cotangente	83-48294-B
cotarnine	83-48439-B
cote	83-48659-B,85-187108-S,94-50023-B,94-68203-B,132-294-S,156-70366-S
cote ee	83-93062-B
cote rotie	94-58799-B
coteau	83-50270-B
cotele ee	94-60269-B
coteler	94-59056-B
cotelette	94-59395-B
coteline	83-53284-B
cotepalis	83-53378-B
coter	83-53547-B
cotereau	83-54672-B
coteret	83-55531-B
coterie	83-55669-B
cotevet	83-57889-B
cotfiche	70-61015-S
cothurne	83-57951-B
cothurne ee	83-59601-B
coti ie	83-59748-B
cotice	83-59814-B
cotice ee	83-60276-B
cotidal ale	83-60385-B
cotier	83-60582-B
cotier iere	94-60650-B
cotiere	94-62171-B
cotignac	83-61178-B
cotignelle	83-62012-B
cotil	94-61772-B
cotillon	83-62120-B,83-64523-B
cotin	83-64773-B,83-64834-B
cotinga	83-65172-B
cotique blanc	83-65393-B
cotir	83-65499-B
cotisable	83-67091-B
cotisation	83-67353-B
cotise ee	83-69247-B
cotiser	83-67871-B
cotissure	83-69091-B
coton	83-69353-B,152-101718-S,276-98660-S
cotoniser se	83-73570-B
cotonnade	83-73838-B
cotonnage	83-74101-B
cotonnant ante	83-74231-B
cotonne ee	83-77909-B
cotonner	83-74414-B
cotonnerie	83-75190-B
cotonnette	83-75450-B
cotonneux euse	83-75870-B
cotonnier	83-77028-B
cotonnier iere	83-77279-B
cotonniere	83-77713-B
cotonnine	83-77462-B
cotonnis	83-77612-B
cotoye ee	94-67919-B
cotoyer	94-63674-B
cotre	83-78370-B
cotret	83-78428-B
cottage	83-81539-B
cotte	83-81886-B,83-88594-B,354-114288-S
cotteron	83-88702-B
cottiere	83-88882-B
cotuteur trice	83-88988-B
cotyle	83-89463-B,83-89644-B
cotyledon	83-91132-B,286-801-S
cotyledonaire	83-92214-B
cotyledone ee	83-92351-B
cotylemorphe	83-92539-B
cotylephore	83-92761-B
cotylet	83-90529-B
cotyloide	83-90728-B
cotyloidien ienne	83-90948-B,245-29920-S
cou	43-10103-S,47-92706-S,55-71179-S,327-164430-S
cou coupe	83-98297-B
cou de pied	83-98843-B
cou jaune	83-99831-B
cou ou col	83-93371-B
cou rouge	83-99930-B
cou tors	83-100066-B
coua	84-0-B
couac	84-99-B,84-501-B
couagga	84-580-B
couaille	84-872-B
couaque	84-1048-B
couar	84-1289-B
couard	84-1357-B
couardement	84-4564-B
couarder	84-5148-B
couardise	84-5782-B
couble soiffiere	84-6870-B
couchage	84-7317-B
couchant ante	84-7767-B
couche	84-9887-B,333-211841-S
couche ee	84-38789-B
couche point	84-19147-B
couchee	84-40880-B
coucher	84-19273-B,84-33536-B
coucherie	84-35561-B
couchette	84-35662-B
coucheur euse	84-36888-B
couchis	84-37782-B
couchoir	84-38246-B
couchure	84-38410-B
couci	84-41880-S
couci couci	84-41880-B
coucou	84-42747-B
coucouer ou coucouler	84-45177-B
coucouler	84-45177-S
coucoumelle	84-45304-B
coucourelle	84-45407-B
coude	84-45475-B
coude ee	84-63249-B
coudee	84-63650-B
coudelattes	84-50911-B
couder	84-51042-B
coudoiement	84-51486-B
coudoir	84-51591-B
coudonnier	84-51694-B
coudoye ee	84-53557-B
coudoyer	84-51826-B
coudoyer s 	131-111518-S
coudraie	84-53788-B
coudran	84-54282-B
coudranner	84-54372-B
coudranneur	84-54492-B
coudre	84-54615-B,84-55596-B
coudree	84-63172-B
coudrement	84-61383-B
coudrer	84-61558-B
coudrette	84-61645-B
coudrier	84-62322-B
coue ee	86-93536-B
couenne	84-66401-B
couenneux euse	84-68549-B
couet	84-68829-B,84-69060-B,84-69281-B
couette	84-69679-B,84-72761-B
couffe	84-72894-B
coufique	84-73429-B
cougnade	84-73723-B
couguar	84-73959-B
coui	84-74567-B
couier	84-74848-B
couillard	84-74991-B
couillon	84-75115-B
coulage	84-75534-B
coulamment	84-76640-B
coulant	84-77108-B
coulant ante	84-78515-B
coulard arde	84-80895-B
coulaud	84-80998-B
coulavan	84-81189-B
coule	84-81246-B,84-138877-B
coule ee	84-139611-B
coule sang	84-82280-B
coulee	84-140559-B
coulemelle	84-82640-B
coulement	84-82751-B
coulen	84-83358-B
coulequin	84-83496-B
couler	84-83574-B
couleresse	84-99871-B
coulette	84-99981-B
couleur	84-100166-B,84-117049-B,241-1788-S
couleuvre	84-117229-B
couleuvreau	84-119409-B
couleuvree	84-119853-B
couleuvrin ine	84-119705-B
coulevrine	84-120272-B
coulevrinier	84-123349-B
couliere	84-131719-B
coulin	84-123597-B
coulinage	84-123643-B
couline	84-123840-B
coulis	84-124073-B,84-125342-B
coulisse	84-126698-B
coulisse ee	84-131444-B
coulisseau	84-130753-B
coulissier	84-131090-B
coulissoire	84-131302-B
coulmelle	84-131817-B
coulmotte	84-131999-B
couloir	84-132056-B
couloire	84-133486-B
coulon	84-133937-B
coulotte	84-134217-B
coulougli	71-61114-S,84-134332-B
coulpe	84-134388-B
coult	84-138022-B
coulure	84-138071-B
coumaille	84-141703-B
coumarine	84-141816-B
coumarou	84-141983-B
coumier	84-142162-B
country dance	79-61850-S,84-142249-B
coup	78-20235-S,84-142438-B,297-113924-S,379-89482-S
coup de poing	84-191288-B
coupable	84-191808-B
coupablement	84-197443-B
coupage	84-197638-B
coupanges	84-198950-B
coupant ante	84-199112-B
coupe	78-22861-S,83-98297-S,84-199424-B,84-206617-B,84-267652-B,96-249522-S,131-111744-S
coupe ballot	84-210580-B
coupe bourgeon	84-210952-B
coupe bourse	84-211262-B
coupe cercle	84-211680-B
coupe choux	84-212002-B
coupe cors	84-213296-B
coupe cul	84-213440-B
coupe ee	84-269353-B
coupe faucille	84-214113-B
coupe foin	84-214286-B
coupe gazon	84-214468-B
coupe gorge	84-214624-B
coupe jarret	84-216740-B
coupe lande	84-217550-B
coupe legumes	84-217793-B
coupe paille	84-217971-B
coupe pate	84-218158-B
coupe queue	84-218318-B
coupe racines	84-218825-B
coupe seve	84-219038-B
coupe tete	84-219284-B
coupeau	84-220180-B,84-222194-B
coupee	84-272815-B
coupeillon	84-222412-B
coupellation	84-222555-B
coupelle	84-222758-B
coupelle ee	84-224049-B
coupeller	84-223931-B
coupement	84-224133-B
couper	84-224842-B
couperas	84-239911-B
couperet	84-240044-B
couperose	84-240660-B,84-242319-B
couperose ee	84-243695-B
couperoser	84-243281-B
couperu	84-244481-B
coupet	84-244704-B
coupetee	84-244769-B
coupeur euse	84-244811-B
coupis	84-247485-B,84-247597-B
couplage	84-247653-B
couple	84-248097-B
couple ee	84-260206-B
coupler	84-254760-B
couplet	84-256926-B
couplete ee	84-260010-B
coupleter	84-259648-B
coupletier	84-259863-B
coupliere	84-260109-B
coupoir	84-261350-B
coupole	84-261559-B
