ou fumeteron	152-126763-S
ou furfurole	153-11257-S
ou fusiniste	153-32781-S
ou fustok	153-56539-S
ou gabionnage	154-59326-S
ou gabut	154-62167-S
ou gaiment	154-137887-S
ou gaite	154-139366-S
ou galantine	154-189434-S
ou galeasse	155-47907-S
ou gallo	155-6711-S
ou gammariens	155-67997-S
ou gammarologie	155-68137-S
ou garas	156-360-S
ou garbotin	156-23773-S
ou garousse	156-168263-S
ou gatte	157-10933-S
ou gauquene	157-32022-S
ou gedde	168-52378-S
ou genipayer	168-99036-S
ou genipi	168-108895-S
ou geomancie	169-22128-S
ou geranine	169-38168-S
ou ginglymoide	159-41021-S
ou ginkgo	159-40059-S
ou giraumon	159-50381-S
ou glaise	159-108334-S
ou glauconite	160-15728-S
ou glouglouter	160-105350-S
ou glycerique	160-128515-S
ou glycium	160-123411-S
ou glyconique	160-125779-S
ou godant	161-33080-S
ou godendart	161-38301-S
ou gonfalon	74-156539-S
ou gonfanon	161-86176-S
ou gong gong	161-92413-S
ou goodenoviees	161-99833-S
ou gourbil	162-74308-S
ou goussaut	162-104788-S
ou grement	166-118386-S
ou grenasse	163-42076-S
ou guedron	167-116626-S
ou gueres	167-103978-S
ou guigneaux	167-39006-S
ou guimoisson	167-64852-S
ou guzarati	167-101523-S
ou gymnoderme	168-6356-S
ou hadot	169-160486-S
ou haemato	169-160934-S
ou haemo ou haemato	169-160934-S
ou hain	170-2903-S
ou halo	170-43589-S
ou hanouart	170-98426-S
ou harnois	171-45137-S
ou harpiller se	171-65978-S
ou haut de chausse	171-186155-S
ou hecto	172-3953-S
ou hedysarum	180-52580-S
ou hein	172-7262-S
ou hellanodiques	172-8990-S
ou helops	180-74598-S
ou hemato	180-77944-S
ou hemiplexie	181-10629-S
ou hemo ou hemato	180-77944-S
ou hemorrhoides	181-26962-S
ou hepta	172-29358-S
ou herminette	133-157004-S
ou hermitage	133-157587-S
ou hermite	133-158805-S
ou hermodatte	172-78193-S
ou hetero	182-906-S
ou hetourdeau	182-0-S
ou hevristique	173-67186-S
ou hexapetale ee	173-89849-S
ou hierogrammatiste	174-77393-S
ou hilariant ante	173-114658-S
ou hilosperme ee	173-117894-S
ou hindoustani ou hindouvi	173-119826-S
ou hindouvi	173-119826-S
ou hippo	173-121285-S
ou hipponacteen	173-132735-S
ou hirudiniforme	174-8338-S
ou hoeli	174-98432-S
ou homoncule	175-15295-S
ou hongroyeur	175-27359-S
ou horin	174-102604-S
ou hottonie	175-236855-S
ou huguet	176-58819-S
ou hydarthrose	177-59971-S
ou hydro	177-62628-S
ou hydrochlorique	177-77918-S
ou hydrosulfure ou hydrosulfurique	178-14635-S
ou hydrosulfurique	178-14635-S
ou hydrotherapie	178-16464-S
ou hylobie	178-29740-S
ou hymenium	178-36888-S
ou hymenomycetes	178-37838-S
ou hypo	178-42748-S
ou hypochilion	179-12144-S
ou hyssope	179-57380-S
ou hystero proteron	180-2807-S
ou iahve	182-50254-S
ou iatro	182-51385-S
ou ichthyosaurus	182-66644-S
ou iconologue	182-79501-S
ou ileum	183-149019-S
ou ilium	183-104435-S
ou incartation	187-48746-S
ou insculpter	193-75150-S
ou interlunium	195-30754-S
ou italianiseur	199-19225-S
ou ivette	199-34204-S
ou jard	200-12422-S
ou jaspiner	200-63334-S
ou javelotte	200-95426-S
ou joncees	201-62303-S
ou jouieres	201-141931-S
ou juri	202-32477-S
ou kandjiar	202-152170-S
ou kangurou	202-152688-S
ou khamsin	59-98038-S
ou kieff	202-166240-S
ou kocklani	203-3990-S
ou koppa	80-165516-S
ou kyrie eleison	203-11443-S
ou ladiere	204-6290-S
ou lamaite	204-120313-S
ou lambdacisme	203-23264-S
ou lambrusque	204-136634-S
ou lamprette	204-169408-S
ou lamproyon	204-173106-S
ou lanc ou lans	204-176427-S
ou landaw	205-7992-S
ou lans	204-176427-S
ou lanturlu	205-110571-S
ou lapis lazuli	205-128380-S
ou laste	206-20911-S
ou lavange	206-65876-S
ou lecythus	213-115858-S
ou lenticulite	207-3305-S
ou lepido	213-209027-S
ou letton ou lettonien	207-37455-S
ou lettonien	207-37455-S
ou lettrille	214-18374-S
ou leuco	207-77149-S
ou leucome	207-79222-S
ou liassique	207-193994-S
ou liguoriste	208-163785-S
ou limas	208-173264-S
ou limnanthees	208-201712-S
ou limonine	208-210119-S
ou limousinage	208-213441-S
ou lingouard	209-1501-S
ou lithiasie	209-123239-S
ou lithofellinique	209-126380-S
ou llama	204-116957-S
ou lonteque	211-54801-S
ou lopho	1-5307-S
ou losson	211-92725-S
ou lotos	211-104917-S
ou loustig	212-453-S
ou louvetier	212-1865-S
ou luncheon	212-122663-S
ou luzin	212-160376-S
ou lycoperdinees	213-33898-S
ou lygee	213-38832-S
ou ma ou mes	227-68313-S
ou machicoulis	233-64608-S
ou macre	214-81067-S
ou macro	214-83967-S
ou macroskelide	214-92456-S
ou mahon	215-84404-S
ou maimonet	215-130226-S
ou maje	215-23476-S
ou malicorium	216-220070-S
ou mamelouk	217-34534-S
ou mammologie	217-37367-S
ou mammologique	217-37554-S
ou mammologiste	217-38154-S
ou mangoustan	217-141214-S
ou manicle	218-7140-S
ou manicou	218-8849-S
ou mansart	218-108851-S
ou mansois	218-108641-S
ou mantiens	218-132850-S
ou marcairie	218-212819-S
ou marforio ou marphorio	219-108920-S
ou margainon	219-109384-S
ou margrillette	219-126384-S
ou marmoulene	219-201854-S
ou marphorio	219-108920-S
ou marte	220-123889-S
ou masourque ou enfin polka masurka	221-16717-S
ou massore	221-135-S
ou mategau	221-24321-S
ou maufe	221-145490-S
ou maugere	221-145645-S
ou maure	229-89133-S
ou maurisque	229-123831-S
ou mazariniste	222-3297-S
ou mazourque ou mazurka	222-5812-S
ou mazurka	222-5812-S
ou meconine	234-44068-S
ou medo persique	234-153096-S
ou megal ou megalo	234-163496-S
ou megalo	234-163496-S
ou megalosaurus	234-165801-S
ou megatherium	234-169434-S
ou meige	234-169669-S
ou melandrin	234-188273-S
ou mellithate	222-104280-S
ou melongene ou merangene	222-109619-S
ou melopeponite	222-110116-S
ou meme s t	286-10283-S
ou mennonite	222-177758-S
ou menuet	222-245123-S
ou meon	237-71163-S
ou mephitis	235-113906-S
ou merangene	222-109619-S
ou mes	227-68313-S,233-127830-S
ou mestre	222-100701-S
ou meta	236-29751-S
ou meteorologue	237-70128-S
ou metonique	237-41222-S
ou metrologue	237-52117-S
ou meunier	223-242224-S
ou mezair	236-736-S
ou miauleur	223-273596-S
ou micro	223-282422-S
ou microphonium	224-3715-S
ou mieux a parte	16-1927-S
ou mieux crantzelin	86-176786-S
ou mieux ecligme	381-170218-S
ou mieux opodidyme	248-70431-S
ou mieux quindecimvirs puisque le latin est quindecimviri	293-70574-S
ou mieux vantiller	369-38493-S
ou millouin	224-154824-S
ou minaouet	224-165163-S
ou minervien ienne	225-38240-S
ou mirauder	225-138509-S
ou miscellanees	225-161379-S
ou mistique	225-186005-S
ou mithras	226-0-S
ou molesquine	227-2483-S
ou monocotyle	228-2610-S
ou monogynique	228-11378-S
ou monosperme ou monospermique	228-30707-S
ou monospermique	228-30707-S
ou monostyle ee	228-32226-S
ou monothelitisme	228-35894-S
ou moraton	229-42447-S
ou moscatelline	230-16228-S
ou moulinier	230-195869-S
ou mouret	229-97665-S
ou mouvette	231-77771-S
ou mucorinees	231-127371-S
ou multangule ee	231-184289-S
ou multinervie ee	231-188890-S
ou muros extra	232-67878-S
ou musardise	232-73205-S
ou myricees	233-14746-S
ou myristicees	233-16948-S
ou nagueres	237-179362-S
ou nandou	237-202420-S
ou nangueur	237-202635-S
ou narguile	238-26837-S
ou natrum	238-83262-S
ou naye	237-182017-S
ou nec plus ultra	241-5066-S
ou necromancie	243-74855-S
ou nectareen enne	239-57250-S
ou negromancien enne	243-75699-S
ou negromant	243-76334-S,243-126933-S
ou negue fol	243-12454-S
ou nepenthees	243-144045-S
ou nepenthes	243-144252-S
ou nephalique	243-144741-S
ou nictitation	239-242039-S
ou nitrobenzine	240-18312-S
ou nolanees	240-165951-S
ou nome	240-206788-S
ou normanisme	241-50986-S
ou norrois	241-52625-S
ou nota bene	241-59063-S
ou noyalle	242-118919-S
ou nuement	244-10434-S
ou nuraghe	242-264740-S
ou nymphea	243-0-S
ou obang	244-19640-S
ou obcordiforme	244-20269-S
ou obsidienne	244-161892-S
ou odeum	246-1494-S
ou oenanthol	246-100845-S
ou oenologue	246-102663-S
ou offertoire	246-167141-S
ou ohe	253-12138-S
ou oire	1-7681-S
ou oleinees	247-11348-S
ou oniromancie	247-167491-S
ou onques	247-106848-S
ou ophiasis	248-21530-S
ou ophio	248-21432-S
ou opodeltoch	248-70310-S
ou oque	245-68546-S
ou ores	249-215653-S
ou organogenie	249-286390-S
ou organum	249-287379-S
ou ormoie	250-41512-S
ou ornithologue	250-63490-S
ou ornithomancie	250-64003-S
ou orthographe qu admet aussi l academie boulevart	39-48597-S
ou oryctologue	250-113784-S
ou osset	251-25571-S
ou ostensoire	251-41450-S
ou ostralegue	251-49665-S
ou oulliere	251-130956-S
ou ozokerite	253-9671-S
ou padisha	253-63989-S
ou paillole	253-117199-S
ou paiment	261-91311-S
ou pajel	253-81429-S
ou palangre	254-2118-S
ou paleontologue	255-1672-S
ou palingenesique	254-36695-S
ou palixandre	254-46612-S
ou palsanguienne	254-92920-S
ou pancratier	255-41560-S
ou pandoure	255-47647-S
ou panoramique	255-93374-S
ou pantenne	256-3061-S,256-17806-S
ou papegaut	256-39803-S
ou par alteration megnie	235-101058-S
ou par contraction tournau	356-183863-S
ou para	256-154713-S
ou paraphe	256-200515-S
ou paraphe ee	257-1635-S
ou parapher	256-201612-S
ou pardine	257-117982-S
ou parelie	258-34512-S
ou pariage	259-129562-S
ou parinervie ee	258-45914-S
ou paripinne ee	258-46138-S
ou paronyquiees	258-200864-S
ou passagin	259-223276-S
ou passivite	260-1180-S
ou pat a qu est ce	260-40312-S
ou patmar	260-58983-S
ou patron minet	260-157439-S
ou patropassien	260-143849-S
ou pedalinerve ee	289-37291-S
ou pekoe	261-257823-S
ou penchot	262-45756-S
ou penta	262-151800-S
ou peplon	289-131514-S
ou pericline	290-14864-S
ou peridium	290-18120-S
ou peringue	290-35492-S
ou perispore	290-73493-S
ou peropterygien	290-86927-S
ou persaigne	264-8452-S
ou pete en gueule	264-170219-S
ou peteux	291-15691-S
ou petrot	291-46309-S
ou phalangiens	264-273507-S
ou philo	265-23193-S
ou phlegmagogue	145-153826-S
ou phormium	266-2535-S
ou phylloderme ee	266-41311-S
ou physionotype	266-57627-S
ou physometrie	266-64175-S
ou phytochromule	267-0-S
ou pigou	267-54267-S
ou pimart	268-61744-S
ou pinace	268-71549-S
ou pinguin	268-103416-S
ou pistillifere	269-133386-S
ou pitpit	269-19673-S
ou pla	253-37712-S
ou plantard	270-298683-S
ou plui plui	271-108445-S
ou plus je te vois plus je t aime	272-119833-S
ou plus ordinairement voussoir	376-62590-S
ou plus rarement anacoluthie	12-63063-S
ou plus simplement mitouche	320-109706-S
ou plus souvent et mieux manganique	217-102087-S
ou plus souvent scheme	324-86943-S
ou plus souvent termite	350-379867-S
ou plus usite epitome	388-69882-S
ou plutot chatoiement	61-84480-S
ou plutot cimicicide	66-19844-S
ou plutot nonnius	241-24142-S
ou plutot pectiplume	261-179929-S
ou pneumatologue	272-171012-S
ou poco a poco	379-88446-S
ou poetiquement arcture	19-1424-S
ou poile	279-3295-S
ou poireau	276-30184-S
ou polaque	273-245395-S,273-245715-S
ou polente	273-254023-S
ou polycotyledone ee	274-27577-S
ou polygale	274-29082-S
ou polygonees	274-34629-S
ou polygynique	274-37562-S
ou polymorphisme	274-39671-S
ou pompholyx	275-45833-S
ou ponantin	275-51499-S
ou pororoca	276-21978-S
ou potron minet	277-296875-S
ou poupeton	278-72802-S
ou poussah	278-212758-S
ou poutargue	278-278004-S
ou preraphaelitisme	285-22959-S
ou primipile	279-355468-S
ou pro	279-24913-S
ou prospecteur	282-130019-S
ou proteranthe ee	283-10960-S
ou prusse	283-78540-S
ou ps t ou meme s t	286-10283-S
ou psychologue	286-17496-S
ou puchier	286-78382-S
ou pumite	287-62419-S
ou qu es aquo	291-73703-S
ou quadrant	291-78075-S
ou quadripartite	291-93594-S
ou quadrivalve ee	291-96065-S
ou quakre	292-9951-S
ou querelle	292-9769-S
ou quinquangule	293-76878-S
ou quinque	293-75810-S
ou r aimer	295-122634-S
ou rabanter	294-22682-S
ou rabassier	294-23022-S
ou rabdomance ou rabdomancie	294-51177-S
ou rabdomancie	294-51177-S
ou raide	310-197500-S
ou raidement	310-205734-S
ou raideur	310-206413-S
ou raidi ie	310-210335-S
ou raidillon	311-0-S
ou raidir	311-540-S
ou raidissage	311-4634-S
ou raidissement	311-4993-S
ou raieton	295-107185-S
ou rainette	302-148284-S,317-0-S
ou raja	295-197414-S
ou ramazan	296-29420-S
ou rambate	296-54952-S
ou ranc ou rang	296-135014-S
ou rancueur	296-142695-S
ou rang	296-135014-S
ou rangier	296-177017-S
ou rarement manganesiate	217-99658-S
ou rat	297-136831-S
ou rat gondin	295-91241-S
ou reblochon ou rebrochon	298-147236-S
ou rebrochon	298-147236-S
ou recti	300-112012-S
ou redondance	301-19570-S
ou redondant	301-20608-S
ou redonder	301-21606-S
ou redoul	312-36791-S
ou reer	295-127538-S
ou remaniment	303-48628-S
ou remerciement	303-95268-S
ou remeugle	304-33749-S
ou remmaillement	303-148617-S
ou remors du diable	303-197713-S
ou remoulade	316-183443-S
ou remument	304-13818-S
ou renfrogne ee	301-127689-S
ou renfrognement	301-125393-S
ou renfrogner	301-125602-S
ou reniment	304-224650-S
ou renoument	305-2654-S
ou repatriement	305-149468-S
ou rescousse	300-79621-S
ou resiliment	317-231366-S
ou ressif	314-133877-S
ou retersage	307-142106-S
ou reterse ee	307-141979-S
ou reterser	307-141698-S
ou retre	308-129933-S
ou reventer	308-48050-S
ou rhabdomancie	308-132412-S
ou rhamnees	308-140482-S
ou rhaphiolepide	308-142733-S
ou rhetinnasphalte	309-13919-S
ou rhodanique	308-157536-S
ou ria	314-60739-S
ou ridenne	309-81346-S
ou rien	356-381545-S
ou rigodon	309-141523-S
ou ringeot	309-197716-S
ou rionite	309-199266-S
ou ristourne	310-45301-S
ou rite	310-48624-S
ou rivois	310-79601-S
ou robert macaire	214-37616-S
ou robre	310-85720-S
