troche	361-108342-B
trochee	361-112934-B,361-113681-B
trochere	361-112846-B
trochereau	361-108460-B
troches	361-108571-B
trochet	361-108843-B
trochier	361-109567-B
trochile	361-109659-B
trochilides	361-109878-B
trochiscation	361-110005-B
trochisque	361-110128-B
trochleaire	361-110990-B
trochlee	361-111124-B
trochoide	361-111671-B
trochot	361-111485-B
trochure	361-112442-B
trochus	361-112725-B
troene	362-218306-B
troglodyte	361-113991-B
troglodytique	361-115118-B
troglodytisme	362-0-B
trogne	362-162-B
trognon	362-2302-B
trognonner	362-3170-B
troika	362-220182-B
trois	362-3435-B
trois epines	362-10051-B
trois etoiles	362-10133-B
trois mats	362-7601-B
trois pieds	362-8202-B
trois ponts	362-8437-B
trois quarts	361-106704-S,362-8550-B,362-8861-B
trois six	362-8947-B
troisieme	362-10341-B
troisiemement	362-12466-B
trole	363-90999-B
trole ee	363-92663-B
trolee	363-92779-B
troler	363-92119-B
trolle	362-12589-B,362-12730-B,362-12910-B
troller	362-13252-B,362-13384-B
tromba	362-13510-B
trombe	362-13675-B,362-15360-B
tromblon	362-15521-B
trombone	362-15851-B
tromboniste	362-17177-B
trommel	362-17275-B
trompe	362-17654-B,362-22486-B
trompe cheval	362-22713-B
trompe conscience	362-22829-B
trompe ee	362-54701-B
trompe l oeil	362-23075-B
trompe la mort	362-23544-B
trompe valet	362-23659-B
tromper	362-23855-B
tromper s 	132-50281-S
tromperie	362-37052-B
trompete ee	362-50904-B
trompeter	362-38486-B
trompeteur	362-40638-B
trompette	362-40819-B,362-47806-B
trompettiste	362-50567-B
trompeur euse	362-51007-B
trompeusement	362-54015-B
trompillon	362-54209-B
tromyle	362-56280-B
tronc	362-56407-B
troncatelle	362-61920-B
troncatule ee	362-61998-B
troncature	362-62120-B
tronce ou tronche	362-62651-B
tronche	362-62651-S
tronchees	362-64718-B
tronchet	362-63934-B
tronchine	362-64484-B
troncon	362-69259-B
tronconique	362-64973-B
tronconne ee	362-73033-B
tronconnement	362-71839-B
tronconner	362-72015-B
troncule	362-65069-B
trone	363-93086-B
troner	363-99583-B
troniere	363-100097-B
tronque ee	362-67032-B
tronquement	362-65188-B
tronquer	362-65428-B
trop	362-73559-B
trop bu	362-85007-B
trop plein	362-85107-B
trope	362-86047-B
tropeolees	362-96831-B
trophee	362-89249-B
trophique	362-88015-B
trophologie	362-88473-B
trophologique	362-88636-B
trophopathie	362-88717-B
trophosperme	362-88909-B
trophospermique	362-89159-B
tropical ale	362-93073-B
tropidogastre	362-93394-B
tropique	362-93608-B
tropiste	362-95998-B
tropologie	362-96321-B
tropologique	362-96566-B
troppo	240-277692-S
troque	362-96988-B,362-97591-B
troque ee	362-100627-B
troquer	362-97868-B
troquet	362-100133-B
troqueur euse	362-100287-B
troscart	362-100733-B
trot	362-100830-B
trottable	362-102746-B
trottade	362-102936-B
trotte	362-103182-B
trotte chemin	362-103384-B
trotte menu	362-103445-B
trotter	362-103773-B
trotterie	362-108202-B
trotteur	362-108431-B
trottin	362-108997-B
trottiner	362-109432-B
trottoir	362-110137-B
trou	38-77049-S,362-111460-B
trou de chou	362-124604-B
trou madame	362-125451-B
troubadour	362-126072-B
troubadourisme	362-127448-B
troublant ante	362-127979-B
trouble	362-128178-B,362-133057-B,362-137700-B
trouble ee	362-152238-B
trouble fete	362-137765-B
trouble menage	362-138629-B
troubleau	362-138856-B
troublement	362-139133-B
troubler	362-139549-B
troubleur	362-151939-B
troublotte	362-152178-B
troue ee	362-216292-B
trouee	362-216791-B
trouelle	362-154492-B
trouer	362-154648-B
trougne	362-155440-B
trouille	362-155546-B
trouillet	362-155715-B
trouillotte	362-155805-B
troupe	362-156091-B
troupeau	362-163487-B
troupiale	362-167784-B
troupier	362-167878-B
trousse	362-167981-B
trousse barre	362-174424-B
trousse ee	362-184799-B
trousse etriers	362-175832-B
trousse galant	362-174571-B
trousse pete	362-175240-B
trousse pied	362-174988-B
trousse queue	362-175470-B
trousse traits	362-175685-B
trousseau	362-175912-B
troussequin	362-178938-B,362-179493-B
troussequiner	362-179801-B
trousser	362-179939-B
troussis	362-184562-B
troussoire	362-184665-B
trouvable	362-187718-B
trouvaille	362-187950-B
trouve ee	362-214607-B
trouver	362-189247-B
trouver s 	132-50719-S
trouvere	362-213525-B
trouveur	362-212903-B
troyen	362-218192-B
truand ande	362-220567-B
truandaille	362-222500-B
truander	362-222910-B
truanderie	362-223457-B
truandisme	362-224318-B
truble	362-224555-B
trubleau	362-225538-B
truc	362-225589-B
truc ou truck	362-227558-B
trucage	362-228068-B
truche	362-228326-B
trucheman ou truchement	362-228421-B
truchement	362-228421-S
trucher	362-231325-B
trucherau	362-232333-B
trucheur euse	362-232443-B
truck	362-227558-S
truculence	362-232650-B
truculent ente	362-233080-B
truelle	362-233465-B
truellee	362-235214-B
truellette	362-235153-B
truffe	362-235325-B
truffe ee	362-241142-B
truffer	362-238453-B
truffette	362-238528-B
trufficulteur	362-238707-B
trufficulture	362-238960-B
truffier iere	362-239488-B
truffiere	362-240773-B
truffigene	362-240167-B
truffinelle	362-240479-B
truffivore	362-240607-B
truflas	362-241375-B
truflier	362-241499-B
truie	362-241571-B
truisme	362-245366-B
truite	362-245736-B
truite ee	362-247146-B
truitelle	362-247065-B
trullisation	362-247894-B
trumeau	362-248079-B
trumpeau ou trumpo	362-249536-B
trumpo	362-249536-S
truqueur	362-249612-B
trusquin	362-249687-B
truste	362-249743-B
trut	362-250276-B
trygon	363-0-B
tsar	363-100197-B
tsarien ienne	363-101205-B
tsarine	363-101330-B
tsarowitz	363-101411-B
tsetse	363-101559-B
tsuga	363-102009-B
tu	363-102299-B,369-97560-S
tu autem	363-110751-B
tu ban ban	363-111993-S
tu tu ban ban	363-111993-B
tu ue	363-111919-B
tu viens tu	369-97560-S
tuable	363-112132-B
tuage	363-112942-B
tuant ante	363-113024-B
tuart	363-113857-B
tuatera	363-114018-B
tubage	363-114124-B
tubaire	363-114301-B
tube	363-114730-B
tuber	363-117884-B
tuberace ee	363-126390-B
tuberantiel elle	335-30588-S
tubercule	363-118187-B
tubercule ee	363-123043-B
tuberculeux euse	363-121738-B
tuberculifere	363-122429-B
tuberculiforme	363-122302-B
tuberculisation	363-122608-B
tuberculiser	363-122770-B
tuberculose	363-122917-B
tubereuse	363-126650-B
tubereux euse	363-126963-B
tuberivore	363-127747-B
tuberosite	363-127842-B
tubicoles	363-123256-B
tubieu	363-123475-B
tubifere	363-123702-B
tubiforme	363-123635-B
tubipare	363-123837-B
tubiporiniens	363-124049-B
tubleu	363-124268-B
tubo ovarien ienne	363-124314-B
tubulaire	363-124582-B
tubule	363-124691-B
tubule ee	363-126072-B
tubuleux euse	363-124950-B
tubulifere	363-125426-B
tubuliflore	363-125115-B
tubuliforme	363-125268-B
tubulite	363-125589-B
tubulure	363-125733-B
tuca	363-128463-B
tudesque	363-128511-B
tudieu	363-129342-B
tue brebis	363-129753-B
tue chien	363-129840-B
tue ee	364-80470-B
tue loup	363-130237-B
tue mouche	363-130309-B
tue teignes	363-130472-B
tue tete a	363-130677-B
tue vent	363-130738-B
tuer	363-130845-B
tuer s 	132-51044-S
tuerie	363-147928-B
tueur	363-148921-B
tuf	363-150566-B
tuface ee	363-152553-B
tuffeau	363-152703-B
tufier iere	363-153031-B
tuget	363-153413-B
tugurio	363-153468-B
tuie	363-153710-B
tuilage	363-154074-B
tuile	363-154224-B
tuile ee	363-159653-B
tuileau	363-157305-B
tuilee	363-159859-B
tuiler	363-157662-B
tuilerie	363-157942-B
tuilette	363-159215-B
tuileur	363-159353-B
tuilier	363-159514-B
tulipe	363-159941-B
tulipier	363-161951-B
tulipomane	363-162267-B
tulipomanie	363-162477-B
tulle	363-162612-B
tullerie	363-164278-B
tulliere	363-164627-B
tulliste	363-164350-B
tumbler	363-164828-B
tumefaction	364-11600-B
tumefie ee	364-12400-B
tumefier	364-11961-B
tumelieres	363-165100-B
tumeur	363-165516-B
tumulaire	363-166808-B
tumulte	364-0-B
tumultuaire	364-4139-B
tumultuairement	364-6188-B
tumultuer	364-7389-B
tumultueusement	364-7669-B
tumultueux euse	364-8114-B
tumulus	364-11144-B
tun	364-12537-B
tunage	364-12626-B
tune	364-13115-B
tuner	364-13181-B
tung	364-13376-B
tungstate	364-13604-B
tungstate ee	364-13732-B
tungstene	364-14085-B
tungstides	364-13839-B
tungstique	364-13956-B
tunicelle	364-14305-B
tuniciers	364-14431-B
tunicine	364-14724-B
tunique	364-14940-B
tunique ee	364-18081-B
tunnel	364-18453-B
tuorbe	364-18768-B
tupaia	364-18814-B
tupinet	364-19069-B
tuque	351-133163-S,364-19130-B
turault ou turo	364-19162-B
turban	364-19364-B
turbane ee	364-22534-B
turbanet	364-22455-B
turbe	364-22797-B
turbicule ee	364-23365-B
turbier	364-23440-B
turbinage	364-23593-B
turbinaires	364-23657-B
turbine	364-23804-B
turbine ee	364-24905-B
turbinelle	364-24204-B
turbineur	364-24593-B
turbinite	364-24757-B
turbit	364-25396-B
turbith	364-25624-B
turbo	364-26874-B
turbot	364-27401-B
turbotiere	364-28157-B
turbotin	364-28105-B
turbulemment	364-28315-B
turbulence	364-28602-B
turbulent ente	364-30076-B
turc	364-32765-B
turc urque	364-33175-B
turca	9-44470-S
turcaret	364-37824-B
turcie	364-38112-B
turcique	364-38799-B
turcisme	364-38965-B
turco	364-39340-B
turcoin	364-39424-B
turcophile	364-39526-B
turcophobe	364-39705-B
turcopole	364-39863-B
turcopolier	364-40166-B
turde	364-40511-B
turdides	364-41233-B
turelure	364-41329-B
turf	364-42025-B
turfiste	364-42168-B
turfol	364-42253-B
turgescence	364-42405-B
turgescent ente	364-42781-B
turgide	364-43032-B
turgot	364-43120-B
turgotine	364-43180-B
turguet	364-43398-B
turiobulbe	364-43586-B
turion	364-43821-B
turique	364-44230-B
turlui	364-44414-B
turlupin	364-44494-B
turlupinade	364-45930-B
turlupinage	364-47357-B
turlupine ee	364-47899-B
turlupiner	364-47428-B
turlurette	364-48022-B
turlut	364-48647-B
turlutaine	364-48779-B
turlutoir ou turlutoire	364-49168-B
turlutoire	364-49168-S
turlutte	364-49302-B
turlututaine	364-49789-B
turlututu	364-49939-B
turnep	364-50180-B
turneracees	364-50806-B
turnix	364-50534-B
turo	364-19162-S
turonien ienne	364-50918-B
turpe	364-51126-B
turpitude	364-51458-B
turpot	364-53572-B
turque	364-53689-B
turquerie	364-53829-B
turquesse	364-54326-B
turquet	364-54404-B
turquette	364-54817-B
turquie	364-54976-B
turquin	364-55122-B
turquois	364-56284-B
turquoise	364-56485-B
turricule ee	364-58512-B
turrilite	364-58718-B
turrite ou turritis	364-58863-B
turritis	364-58863-S
tusculanes	364-59027-B
tussah	364-59216-B
tussiculation	364-59478-B
tussilage	364-59752-B
tussore	364-60078-B
tutarel	364-60542-B
tutelaire	364-74174-B
tutelle	364-60600-B
tuteur trice	364-63993-B
tutie	364-67384-B
tutoiement ou tutoiment	364-67990-B
tutoiment	364-67990-S
tutorial ale	364-68934-B
tutoye ee	364-73205-B
tutoyer	364-69457-B
tutoyeur euse	364-72906-B
tutti	364-73306-B
tutto	353-108786-S
tuyau	364-75071-B
tuyautage	364-78821-B
tuyauter	364-78987-B
tuyauterie	364-79629-B
tuyere	364-80156-B
tweed	364-82284-B
tylare	364-82932-B
tyloma	364-83174-B
tylose	364-83318-B
tympan	364-83453-B
tympanal	364-85438-B
tympanique	364-85696-B
tympanise ee	364-87904-B
tympaniser	364-86029-B
tympanisme	364-87767-B
tympanite	364-88024-B
tympanon	364-88706-B
tympe ou timpe	364-88993-B
tyndarides	364-89107-B
type	364-89344-B
type ee	364-104396-B
typeal ale	364-104550-B
typer	364-93574-B
typhacees	364-94469-B
typhique	364-94739-B
typhlite	364-95176-B
typhlo diclidite	364-95291-B
typhlographe	364-95496-B
typhoemie	364-97303-B
typhoide	364-97466-B
typhoidique	364-97973-B
typhomanie	364-95638-B
typhon	364-95772-B,364-96137-B,364-96386-B
typhonien enne	364-96795-B
typhonien ienne	364-97134-B
typhus	364-98334-B
typifie ee	364-99405-B
typique	364-99482-B
typochromie	364-100423-B
typographe	364-100550-B
typographie	64-82622-S,364-101249-B
typographique	364-102146-B
typographiquement	364-102825-B
typolithe	364-102932-B
typolithographie	364-103080-B
typolithographique	364-103324-B
typometrie	364-103431-B
