garni	156-149856-B
garni ie	156-150048-B
garnir	156-152359-B
garnisaire	156-157526-B
garnison	156-158315-B
garnissage	156-161735-B
garnisseur euse	156-161958-B
garniture	156-163379-B
garniturier	156-166240-B
garo	156-166489-B
garochoir	156-166660-B
garou	156-166866-B,156-166936-B,156-167122-B,211-160924-S
garouage	156-167724-B
garoube ou garousse	156-168263-B
garouette	156-168432-B
garouil	156-168534-B
garouille	156-168614-B
garousse	156-168263-S,156-169606-B
garoutte	156-169657-B
garriere	156-169708-B
garrot	156-169867-B,156-170646-B,156-172241-B
garrottage	156-172375-B
garrotte	156-172737-B
garrotte ee	156-174598-B,156-175602-B
garrotter	156-172898-B
garrulite	156-175925-B
gars	156-176398-B
garum	156-177122-B
garumnien ienne	156-177440-B
garus	156-177736-B
garzette	156-177897-B
garzotte	156-178061-B
gascon onne	156-191651-B
gasconiser	156-194044-B
gasconisme	156-194215-B
gasconnade	156-194403-B
gasconner	156-194789-B
gasparot	156-195448-B
gaspillage	156-195578-B
gaspille ee	156-197351-B
gaspiller	156-196041-B
gaspilleur euse	156-196951-B
gassendisme	156-197476-B
gassendiste	156-197824-B
gaster	156-197959-B
gasteropodes	157-9732-B
gasteropterygien ienne	157-10164-B
gasterostees	157-10427-B
gasterozoaire	157-10578-B
gastralgie	156-198380-B
gastralgique	156-198513-B
gastricisme	156-198620-B
gastricite	156-198851-B
gastricole	156-198993-B
gastrique	156-199153-B,181-35396-S,235-105019-S,243-147208-S,266-31467-S,337-79354-S,337-80120-S
gastrite	156-199516-B,181-35499-S
gastro	156-199681-B
gastro adynamique	156-199831-B
gastro bronchite	157-0-B
gastro colique	157-235-B
gastro colite	157-417-B
gastro conjonctivite	157-582-B
gastro duodenal ale	157-895-B
gastro duodenite	157-1079-B
gastro encephalite	157-1253-B
gastro enterite	157-1454-B
gastro entero colite	157-1670-B
gastro epiploique	157-4846-B
gastro hepatique	157-2182-B
gastro hepatite	157-2346-B
gastro hysterotomie	157-1886-B
gastro intestinal ale	157-2509-B
gastro laryngite	157-2698-B
gastro meningite	157-3084-B
gastro metrite	157-3239-B
gastro muqueuse	157-2864-B
gastro nephrite	157-3404-B
gastro peritonite	157-3925-B
gastro pharyngite	157-3591-B
gastro pylorique	157-3761-B
gastro splenique	157-4104-B
gastro thoracique	157-4271-B
gastro vasculaire	157-4505-B
gastrobrosie	157-5024-B
gastrocele	157-5497-B
gastrocnemien	157-5169-B
gastrodynie	157-5697-B
gastrolatre	157-6175-B
gastrolatrie	157-6458-B
gastrologie	157-6011-B
gastromalacie	157-6540-B
gastromele	157-6701-B
gastronecte	157-6938-B
gastronome	157-7225-B
gastronomie	157-7470-B
gastronomique	157-7739-B
gastrorrhaphie	157-8112-B
gastrorrhee	157-8478-B
gastrose	157-8667-B
gastrostenose	157-8857-B
gastrotheque	157-9025-B
gastrotome	157-9193-B
gastrotomie	157-9424-B
gat	168-26677-B
gatan	157-10758-B
gatangier	157-10834-B
gate bois	168-27096-B
gate ee	168-47568-B
gate enfant	168-27269-B
gate maison	168-27496-B
gate menage	168-27917-B
gate metier	168-28203-B
gate ou gatte	157-10933-B
gate papier	168-28843-B
gate pate	168-28940-B
gate sauce	168-29162-B
gateau	168-29510-B
gater	168-33541-B
gaterie	168-45765-B
gateur euse	168-46015-B
gateuse	168-46288-B
gateux euse	168-46792-B
gatine	168-47191-B
gaton	157-11308-B
gatte	78-38651-S,157-10933-S,157-11600-B
gattillier	157-11764-B
gattine	157-12380-B
gau	157-12441-B,157-12525-B
gauche	157-12867-B,356-193392-S
gauche fer	157-24412-B
gauchement	157-24489-B
gauchene ou gauquene	157-32022-B
gaucher	157-24675-B
gaucher ere	157-24806-B
gaucherie	157-25347-B
gauchir	157-25659-B
gauchissage	157-31445-B
gauchissement	157-31545-B
gaucho	157-31747-B
gaudage	157-32304-B
gaude	157-32417-B,157-32897-B,157-35711-B
gaudeamus	157-36263-B
gaudebillaux	157-33044-B
gauder	157-33321-B
gaudir se	157-33491-B
gaudisserie	157-34537-B
gaudisseur euse	157-34915-B
gaudriole	157-35353-B
gaufrage	157-36701-B
gaufre	157-36872-B
gaufre ee	157-40797-B
gaufrene	157-40993-B
gaufrer	157-38875-B
gaufreur euse	157-39631-B
gaufrier	157-40164-B
gaufroir	157-40548-B
gaufrure	157-40678-B
gauge	157-41243-B
gauguier	157-42390-B
gaujard	157-42685-B
gaulade	157-42994-B
gaulage	157-43188-B
gaule	157-43270-B
gaule ee	157-50686-B
gaulee	157-50771-B
gauler	157-45555-B
gaulette	157-45818-B
gaulis	157-46020-B
gaulois oise	157-46554-B
gauloisement	157-49540-B
gauloiserie	157-49755-B
gault	157-50102-B
gaultherine	157-50345-B
gaumine	157-51057-B
gaupe	157-52798-B
gauperie	157-54306-B
gauquene	157-32022-S
gaur	157-54393-B
gaure	157-54436-B
gaures	157-54550-B
gausse	157-54813-B
gausser se	157-54984-B
gausserie	157-56933-B
gausseur euse	157-57036-B
gautereau	157-57994-B
gautier	157-58065-B,157-58444-B
gauvesce	157-58618-B
gavache	157-58864-B
gavassine	157-59270-B
gavassiniere	157-59370-B
gave	157-59512-B,157-59652-B
gaveau	157-60245-B
gavee	157-64697-B
gavelkind	157-60312-B
gaver	157-60662-B
gavette	157-60929-B
gaveur	157-61039-B
gavial	157-61282-B
gavian	157-61992-B
gavion	157-62044-B
gaviteau	157-62528-B
gavot	157-62998-B
gavotte	157-63450-B
gayac	157-64841-B
gayacan	157-64882-B
gayal	157-65035-B
gayette	157-65388-B
gaylussite	157-65597-B
gaz	157-65759-B
gazage	157-67529-B
gaze	157-67738-B
gaze ee	157-89584-B
gazeifiable	157-90132-B
gazeification	157-90245-B
gazeifie ee	157-90711-B
gazeifier	157-90367-B
gazeiforme	157-90816-B
gazeite	157-90922-B
gazel	157-69340-B
gazelle	157-69397-B
gazer	157-69933-B
gazete ee	157-77746-B
gazetier	157-71053-B
gazetin	157-72857-B
gazette	157-73099-B,157-77379-B
gazettille	157-77502-B
gazeur	157-77959-B
gazeuse	157-78082-B
gazeux euse	157-78240-B
gazier	157-78628-B
gazier iere	157-78869-B
gazifere	157-78979-B
gazofacteur	157-79184-B
gazogene	157-79302-B
gazolyte	157-79621-B
gazometre	157-79872-B
gazometrie	157-80414-B
gazon	84-214468-S,157-80486-B,213-96371-S,283-131266-S,357-238287-S
gazonnant ante	157-82864-B
gazonne ee	157-84489-B
gazonnee	157-84579-B
gazonnement	157-83236-B
gazonner	157-83412-B
gazonneux euse	157-84406-B
gazophylacium	157-84876-B
gazoscope	157-85219-B
gazouillant ante	157-85375-B
gazouillement	157-85635-B
gazouiller	157-86856-B
gazouillis	157-89069-B
ge	168-52844-B
geai	157-98146-B
geant ante	168-53109-B
geantisme	168-58390-B
gecarcin	168-58599-B
gecko	157-99992-B
gedde	168-52378-S
gede ou gedde	168-52378-B
gehenne	168-58713-B
geier	204-6521-S
geignant ante	158-0-B
geindre	158-113-B
geine	168-59236-B
geinique	168-59416-B
gel	158-1522-B
gelable	158-2359-B
gelasie	168-59547-B
gelasin ine	168-59674-B
gelatine	168-60003-B
gelatine ee	168-61597-B
gelatineur	168-60281-B
gelatineux euse	168-60490-B
gelatiniforme	168-61338-B
gelatinisation	168-61464-B
gelberde	158-2555-B
gele ee	158-9650-B
gelee	158-11152-B
geler	158-2698-B
geleur	158-6836-B
gelif ive	168-61900-B
gelinage	158-7043-B
geline	158-7326-B,168-62910-B
gelinette	158-8673-B
gelinier	158-8774-B
gelinotte	158-8961-B
gelisse	168-63092-B
gelivite	168-63191-B
gelivure	168-63291-B
geloscopie	168-63881-B
gelose	168-64057-B
gemara	168-64607-B
gembin	158-15222-B
gemeaux	168-64945-B
gemellaire	168-66600-B
gemelle	168-66752-B
gemelliflore	168-66852-B
gemellipare	168-67028-B
gemination	168-67184-B
gemine ee	168-67395-B
gemir	168-68055-B
gemissant ante	168-73528-B
gemissement	168-74100-B
gemisseur	168-76165-B
gemmace ee	158-15300-B
gemmage	158-15489-B
gemmaire	158-15673-B
gemmation	158-15897-B
gemme	158-16197-B,158-17006-B
gemme ee	158-20959-B
gemmer	158-18809-B
gemmeur	158-19482-B
gemmifere	158-19742-B,158-19909-B
gemmiforme	158-19609-B
gemmipare	158-20071-B
gemmiparie	158-20368-B
gemmulation	158-20596-B
gemmule	158-20695-B
gemonies	168-76350-B
genal ale	168-77027-B
genant ante	169-52552-B
genappe	168-77314-B
gencival ale	158-21276-B
gencive	158-21378-B
gendarme	158-22004-B
gendarme ee	158-28485-B
gendarmer se	158-26243-B
gendarmerie	158-27189-B
gendarmeux euse	158-28303-B
gendre	158-28845-B
gene	1-3800-B,169-53011-B,321-164048-S
gene ee	169-65032-B
geneagenetique	168-105810-B
genealogie	136-74367-S,168-106227-B
genealogique	168-107819-B
genealogiquement	168-108184-B
genealogiste	168-108336-B
genepi ou genipi	168-108895-B
genequin	168-78101-B
gener	169-58216-B
general ale	168-109398-B
generalat	168-120896-B
generale	168-121635-B
generalement	168-122159-B
generalisable	168-123281-B
generalisant ante	168-123403-B
generalisateur trice	168-123581-B
generalisation	168-123769-B
generalise ee	168-127517-B
generaliser	168-124417-B
generalissime	168-126080-B
generalite	168-127672-B
generateur trice	168-129875-B
generatif ive	168-131096-B
generation	168-131799-B
generer	168-138381-B
genereusement	169-0-B
genereux euse	169-526-B
generique	169-5750-B,334-957-S
generiquement	169-6242-B
generis	340-176152-S
generosite	169-6377-B
genese	158-119002-B
genesiaque	158-120003-B
genesique	158-120122-B
genesiquement	169-9666-B
genestade	158-30950-B,158-31059-B
genestrolle	158-31227-B
genet	158-31420-B,158-31589-B,158-121868-B
genetaire	158-120543-B
geneter	158-120811-B
genethliaque	169-10041-B
genetiere	158-121126-B
genetin	158-120931-B
genetique	169-10641-B
genette	158-32891-B,158-32972-B,158-33042-B
genette a la	158-33827-B
geneur	169-64759-B
genevieve	158-34299-S
genevieve et sainte genevieve	158-34299-B
genevois oise	168-78207-B
genevrette	158-121222-B
genevrier	158-121453-B
genevriere	158-121787-B
gengeli	158-34602-B
geni	168-78563-B
genial ale	168-78650-B
genialement	168-80372-B
genialite	168-80987-B
geniculation	168-81408-B
genicule ee	168-81541-B
genie	168-81961-B,168-97566-B
genien ienne	168-97791-B
genieux	168-98039-B
genievre	158-35249-B
genievrerie	158-36545-B
genio glosse	168-98233-B
genio hyoidien enne	168-98514-B
genio pharyngien ienne	168-98741-B
genipa ou genipayer	168-99036-B
genipayer	168-99036-S
genipi	168-99225-B,168-108895-S
genisse	168-99283-B
genisson	158-34825-B
genistelle	158-35133-B
genital ale	168-100071-B
geniteur	168-100395-B
genitif	168-100776-B
genito crural ale	168-102115-B
genito urinaire	168-102297-B
genitoires	168-102566-B
geniture	168-103117-B
genoillere	158-36632-B
genope	158-36779-B
genope ee	158-37057-B
genoper	158-36956-B
genoplastie	168-104351-B
genou	158-37299-B
genouille ee	158-48192-B
genouillere	158-47220-B
genouillet	158-46817-B
genouilleux euse	158-46926-B
genovefain	168-104605-B
genre	158-48319-B,334-378-S
gens	158-57734-B,158-81673-B
gent	158-82098-B
gent ente	158-86344-B
gentiane	158-88790-B
gentianees	158-89452-B
gentianelle	158-89136-B
gentianin	158-89288-B
gentil	158-89570-B
gentil ille	158-92339-B
gentile	158-116090-B
gentilhommaille	158-96887-B
gentilhomme	158-97155-B
gentilhommeau	158-106669-B
gentilhommer	158-106859-B
gentilhommerie	158-107077-B
gentilhommesque	158-108266-B
gentilhommiere	158-108508-B
gentilice	158-109446-B
gentilisme	158-109633-B
gentilite	158-110015-B
gentillatre	158-114993-B
gentillesse	158-111185-B
gentillet ette	158-114850-B
gentiment	158-116318-B
gentisin	158-117725-B
gentleman	158-117919-B
gentleman rider	158-118331-B
gentou	158-118593-B
gentry	158-118859-B
genuflexion	168-104823-B
genuine	168-105201-B
genuinite	168-105370-B
geobatracien	169-10860-B
geoblaste	169-11020-B
geocentrique	169-11219-B
geocorise	169-11966-B
geocyclique	169-12106-B
geode	169-12339-B
geodesie	169-12953-B
geodesien	169-13493-B
geodesigraphe	169-13580-B
geodesimetrie	169-13756-B
geodesique	169-13924-B
geodesiquement	169-14187-B
geodesiste	169-14462-B
geodique	169-12837-B
geoffree	158-123106-B
geogene	169-20169-B
geogenie	169-20328-B
geogenique	169-20468-B
geoglosse	169-14762-B
geoglossees	169-14943-B
geognosie	169-15101-B
geognoste	169-15396-B
geognostique	169-15508-B
geogonie	169-15593-B
geogonique	169-15718-B
geographe	169-15823-B
geographie	169-16611-B
geographique	169-18799-B
geographiquement	169-19856-B
geohydrographie	169-20573-B
geokronite	169-20741-B
geolage	158-171350-B
geole	158-171591-B
geolier	158-172998-B
geoliere	158-174202-B
geologie	169-20853-B
geologique	169-21482-B
geologiquement	169-21620-B
geologiste	169-21914-B
geologue	169-21997-B
geomance ou geomancie	169-22128-B
geomancie	169-22128-S
geomancien ienne	169-22859-B
geomantique	169-23115-B
geometral ale	169-25398-B
