bedaude	46-77133-S
bedeau	32-77979-B
bedeaude ou bedaude	46-77133-B
bedegar ou bedeguar	46-77608-B
bedeguar	46-77608-S
bedlam	32-79493-B
bedocher	32-79670-B
bedochon	32-79748-B
bedon	32-79855-B
bedondaine	32-80863-B
bedouille	46-78075-B
bedouin	46-78171-B
bee	46-79024-B,46-79276-B
beef	310-85374-S
beefsteak	32-81096-B
beer	46-79480-B,336-30665-S
befaria	46-79520-B
beffroi	32-81140-B
befler	46-79781-B
beg	32-83373-B,46-83151-S
beg ou beglier beg	46-83151-S
begaiement	46-80354-S
begaud e	46-79957-B
begayant ante	46-80106-B
begaye ee	46-83024-B
begayement ou begaiement	46-80354-B
begayer	46-80706-B
begler beg ou beglier beg	46-83151-B
beglier beg	46-83151-S
begu ue	46-83414-B
beguard ou beguin	46-84267-B
begue	46-58459-B
beguettes	46-85109-B
begueule	46-85186-B
begueulerie	46-86413-B
begueulisme	46-86569-B
beguin	46-84267-S,46-87018-B
beguinage	46-88178-B
beguine	46-88853-B
begum	46-89962-B
behen	46-90319-B
behors	46-90547-B
behourdis	46-90612-B
beige	32-83444-B
beignet	32-84063-B
beiram	28-20788-S,32-85101-B
bejarde	46-91045-B
bejaune	46-91149-B
bel	32-85146-B,32-85181-B
bel belle	32-6244-S
bel esprit	32-85377-B
bel outil	32-85432-B
belandre	46-92947-B
belant ante	47-15244-B
bele	47-15827-B
belee	47-17369-B
belement	47-15961-B
belemnite	46-93361-B
beler	47-16264-B
belette	32-85556-B
belial	46-93668-B
belic ou belif ou bellif	32-87052-B
belier	32-87406-S
belier ou belier	32-87406-B
beliere	46-93890-B
belif	32-90692-B
belif ou bellif	32-87052-S
belin	32-90725-B,36-45020-S
belitre	46-95387-B
belladone	32-90781-B
bellatre	32-100508-B
belle	32-6244-S,32-91031-B,126-0-S
belle a voir	32-95050-B
belle d onze heures	32-91280-B
belle d un jour	32-91551-B
belle dame	32-91823-B
belle de jour	32-92126-B
belle de nuit	32-92341-B
belle fille	32-92640-B
belle fleur	32-93178-B
belle mere	32-93340-B
belle petite fille	32-94086-B
belle pucelle	32-94457-B
belle soeur	32-94603-B
bellegarde	32-95167-B
bellement	32-95253-B
belleric ou belliric	32-101116-B
bellerophon	32-101330-B
bellicant	32-96727-B
bellif	32-87052-S,32-96807-B
belligerance	32-96850-B
belligerant ante	32-97388-B
belligerer	32-97686-B
belliqueux euse	32-97872-B
belliric	32-101116-S
bellis	32-98876-B
bellissime	32-99095-B
bellone	32-99297-B
bellot otte	32-99602-B
belluaire	32-99952-B
beloce	32-101425-B
belon	46-94761-B
belostome	46-94963-B
belouse	32-102213-B
belveder ou belvedere	32-102376-B
belvedere	32-102376-S
belzebuth	32-102941-B
bemol	46-98222-B
bemoliser	46-99571-B
ben	32-103299-B
benace	32-103503-B
benar	46-99733-B
benarde	46-99850-B
benastre	32-104019-B
benate	46-100299-B
benaton	46-100481-B
benaut	32-104165-B
bene	241-59063-S
benedicite	46-116126-B
benedictin ine	46-116790-B
benedictine	46-117286-B
benedictinisme	46-117687-B
benediction	46-117969-B
benedictionnaire	46-121630-B
benefice	46-121804-B
beneficence	46-127655-B
beneficiaire	46-128265-B
beneficiairement	46-129025-B
beneficial ale	46-129324-B
beneficiature	46-129870-B
beneficiement	46-130094-B
beneficier	46-131300-B,46-132124-B
benet	32-110582-B
benevole	46-133421-B
benevolement	46-134262-B
bengale	32-104319-B
bengali	32-104434-B
beni ie	46-100591-B,46-112146-S
benignement	46-100653-B
benignite	46-101758-B
benin igne	46-103260-B
benir	46-105685-B
benissable	46-112049-B
benit ite ou beni ie	46-112146-B
benitier	46-114950-B
benito	321-62214-S
benjamin	32-105623-B
benjamine	32-105903-B
benjoin	32-106180-B
benne	32-107376-B
bennier	32-108061-B
benoit oite	32-108179-B
benoite	32-109092-B
benoitement	32-109548-B
benturong	32-109678-B
benzine	32-109840-B
benzoate	32-110218-B
benzoique	32-110424-B,373-169787-S
beotarque	46-134345-B
beotien	46-134564-B
beotisme	46-134766-B
beque bois	47-17511-B
beque fleur	46-58829-B
bequee	32-75962-S,46-138620-B
bequet	46-134885-B
bequeter	32-74281-S,46-135862-B
bequette	46-135906-B
bequillard	46-136154-B
bequille	46-136687-B
bequiller	46-137796-B
bequillon	46-138360-B
bequot	46-138499-B
ber	32-111444-B,32-111913-B
berber ere	32-111992-B
berberidee	32-112503-B
berbouisset	32-112413-B
bercail	32-112674-B
berce	32-113655-B,32-113853-B
berce ee	32-123785-B
berceau	32-113918-B
bercelle	32-119200-B
bercelonnette	32-119291-B
bercement	32-119365-B
bercer	32-119725-B
berceuse	32-122845-B
berche	32-123395-B
berenice chevelure de	46-141200-B
beret ou berret	46-138671-B
bergamasque	32-124314-B
bergame	32-124471-B
bergamote	32-124633-B
bergamotier	32-124970-B
berge	32-125131-B,32-126095-B
bergelade	32-126393-B
berger ere	32-126509-B
bergere	32-132564-B
bergerette	32-128996-B,32-129316-B
bergerie	32-130025-B
bergeron	32-131386-B
bergeronnette	32-131459-B
bergin	32-132391-B
bergot	32-132500-B
beriberi	46-139233-B
berichon ou berichot	46-139429-B
berichot	46-139429-S
beril	46-139535-B
berle	32-132826-B
berlin	32-133227-B
berline	32-133326-B
berlingot	32-133967-B
berloque	32-134166-B
berlue	32-134577-B
berme	32-135855-B
bermier iere	32-136731-B
bermudienne	32-136882-B
bernable	32-137063-B
bernache	32-137297-B
bernacle	32-137561-B
bernard	291-53361-S
bernard l hermite	32-137971-B
bernardin ine	32-138181-B
bernaudoir	32-138594-B
berne	32-138723-B,33-0-B,33-886-B
berne ee	33-4740-B
bernede	33-4177-B
bernement	33-1430-B
berner	33-1625-B
berneur	33-2305-B
bernicle	33-2571-B
bernique	33-2756-B
berniquet	33-3618-B
beroe	46-139635-B
berot	46-139580-B
berquinade	33-4952-B
berret	33-5423-B,46-138671-S
berretin	33-5467-B
bers	33-5577-B,46-58933-B
bersailler	33-5780-B
bertauche	33-6245-B
bertauder	33-6385-B
bertavelle	33-6443-B
berthe	33-6658-B
bertholler	33-7412-B
bertolet	33-7964-B
berubleau	46-139760-B
beryl	46-139853-B,286-0-S
berylle ee	46-140959-B
beryllium	46-140868-B
bes	33-8118-B
besace	33-8238-B
besacier	33-9192-B
besaigre	33-9504-B
besaigue	33-9769-B
besaine	33-10458-B
besant	33-10629-B
besante ee	33-12366-B
besas	33-12613-B
beschois	33-12758-B
beseau	47-0-B
besenge	33-12877-B
beset	33-12977-B
besi	33-13097-B
besicles	33-13623-B
besier	33-16094-B
besigue ou besy	33-16194-B
besin	33-16309-B
besoche	33-16459-B
besogne	33-17502-B,33-23395-B
besogner	33-21865-B
besoigneux euse	33-23594-B
besoin	33-24482-B
besolet	33-34720-B
bess	33-34876-B
besse	33-35080-B
bessi	33-35163-B
bessoir	33-35313-B
besson onne	33-35447-B
bestiaire	33-36731-B,33-36964-B
bestial ale	33-37240-B
bestialement	33-38729-B
bestialite	33-39624-B
bestiasse	33-40534-B
bestiaux	33-40662-B
bestiole	33-42276-B
bestion	33-42834-B
besy	33-16194-S,47-202-B
beta	47-17653-B,47-17889-B
betail	47-236-B
bete	47-18196-B
beteigeuse ou betelgeuse ou betelgheuse	33-44314-B
betel	47-2597-B
betelgeuse ou betelgheuse	33-44314-S
betelgheuse	33-44314-S
betement	47-27885-B
betise	47-28035-B
betoine	47-2975-B
betoire ou betoure	47-3644-B
beton	47-3852-B,47-4705-B
betonnage	47-6429-B
betonner	47-6544-B
betoure	47-3644-S
bette	33-44924-B
betterave	33-46371-B
betteravier iere	33-47139-B
betun	33-47651-B
betuse	47-6637-B
betyle	47-6790-B
beuglement	33-48147-B
beugler	33-48460-B
beuglon	33-49088-B
beurre	33-49466-B,33-55996-B
beurre ee	33-56119-B
beurree	33-56327-B
beurrer	33-53263-B
beurrerie	33-53465-B
beurrette	33-53578-B
beurrier	33-53754-B
beurrier iere	33-53819-B,33-55100-B
beurriere	33-55258-B,33-55506-B,33-55583-B
beuse	33-56453-B
beuverie	33-56633-B
bevue	47-7201-B
bey	33-57001-B
beye	46-59066-B
beylier	33-57192-B
beylieur	33-57278-B
beylik	33-57369-B
bezestan	33-57433-B
bezet	33-57975-B
bezoard	47-8352-B
bezoche	47-9967-B
bhang	33-58035-B
bi	33-58229-B
bi hebdomadaire	33-58412-B
biacide	33-58695-B
biais	33-58853-B
biais a	78-9038-S
biaisement	33-63589-B,33-64022-B
biaiser	33-64308-B
biaiseur euse	33-66208-B
biasse	33-66323-B
biatomique	33-66708-B
biauriculaire	33-66950-B
bibale	33-67116-B
bibasique	33-67208-B
bibasse	33-67563-B
bibassier	33-67727-B
bibeloter	33-67859-B
bibelots	33-68171-B
biberon	33-68931-B
biberon onne	33-69479-B
bibi	33-69958-B
bible	33-70242-B
bibliatrique	33-71104-B
biblicisme	33-71278-B
bibliciste	33-71794-B
bibliographe	33-72204-B
bibliographie	33-72523-B
bibliographique	33-72822-B
bibliolatre	33-72917-B
bibliolatrie	33-73213-B
bibliomancie	33-73401-B
bibliomane	33-73587-B
bibliomaniaque	33-73810-B
bibliomanie	33-73997-B
bibliophile	33-74392-B
bibliophilie	33-74561-B
bibliotaphe	33-74630-B
bibliothecaire	33-75832-B,333-204454-S
bibliotheque	33-74860-B
biblique	33-76211-B,277-181676-S
biblistique	33-76569-B
biblorhapte	33-76688-B
bibreuil	33-77018-B
bibus	33-77115-B
bicapsulaire	33-77872-B
bicarbonate	33-78058-B
bicarbone ee	33-78293-B
bicarbure	33-78499-B
bicarene ee	33-78701-B
bicaude ee	33-78894-B
biceps	33-79102-B
bicetre	33-88100-B
biche	33-79585-B,33-82078-B,33-82247-B,368-35161-S
bicheree	33-82352-B
bichet	33-82606-B,33-83401-B
bichette	33-83490-B,33-83823-B
bichoff	35-20008-S
bichon onne	33-84153-B
bichonne ee	33-84876-B
bichonner	33-84480-B
bicipital ale	33-84958-B
bicipite ee	33-85115-B
biclave ee	33-85249-B
bicolore	33-85414-B
biconcave	33-85550-B
biconvexe	33-85692-B
bicoq	33-85864-B
bicoque	33-86156-B
bicorde ee	33-87071-B
bicorne	33-87275-B
bicorporeite	33-87673-B
bicoude ee	33-87818-B
bicuspide ee	33-87949-B
bidauct	33-88580-B
bident	33-89018-B
bidente ee	33-89132-B
bidet	33-89246-B
bidigite ee	33-91448-B
bidon	33-91636-B
bief	33-92644-B,333-204607-S
biefeux euse	35-54098-B
bielle	33-92712-B
bien	33-93218-B,33-118102-B
bien aime ee	33-131933-B
bien cacefate	47-89660-S
bien dire	33-132523-B
bien disance	33-133977-B
bien disant ante	33-134591-B
bien etre	33-138240-B
bien faire	33-135204-B,33-135483-B
bien fonds	33-137095-B
bien intentionne ee	33-137265-B
bien mourir	33-137675-B
bien tenant ante	33-137881-B
bien tenue	33-138170-B
bienfaire s 	131-100574-S
bienfaisance	33-139299-B
bienfaisant ante	33-141383-B
bienfait	33-142878-B
bienfaiteur trice	33-147648-B
bienheureusement	33-150271-B
bienheureux euse	33-150610-B
biennal ale	33-153397-B
bienseance	33-153611-B
bienseant ante	33-157146-B
bientot	33-158683-B
bienveillance	33-160560-B
bienveillant ante	33-162738-B
bienvenir	33-164182-B
bienvenu ue	33-164813-B
bienvenue	34-0-B
bienvoulu ue	34-806-B
biere	35-49221-B,35-50402-B
bievre	35-53008-B
biez	34-1157-B
bifascie ee	34-2439-B
bifere	34-9225-B
biffage	34-2595-B
biffe	34-2700-B,34-3204-B
biffe ee	34-5651-B
biffement	34-3621-B
biffer	34-3977-B
biffure	34-5265-B
bifida	335-67204-S
bifide	34-5895-B
bifidite	34-6027-B
bifilaire	34-6140-B
biflabelle ee	34-6188-B
biflexe	34-6375-B
biflore	34-6534-B
bifolie ee	34-6655-B
bifore	34-6808-B
bifore ee	34-7582-B
biforme	34-7432-B
bifteck	34-7720-B
bifurcation	34-7935-B
bifurque ee	34-8837-B
bifurquer se	34-8418-B
bigaille	34-9383-B
bigalet	34-9665-B
bigame	34-9977-B
bigamie	34-10647-B
bigarade	34-11024-B
bigaradier	34-11446-B
bigarre ee	34-15934-B
bigarreau	34-11685-B
bigarreautier	34-11914-B
bigarrement	34-12025-B
bigarrer	34-12259-B
bigarrure	34-14908-B
bigaut	34-16421-B
bige	34-16504-B
bigemine ee	34-29172-B
bigemme	34-16654-B
bigenere	34-29420-B
bigle	34-16784-B,34-17800-B
bigler	34-17973-B
biglesse	34-18260-B
biglochide ee	34-18703-B
bigne	34-18877-B
bignon	34-19753-B
bigorne	34-20010-B
bigorneau	34-20688-B
bigorner	34-21063-B
bigorre	34-21186-B
bigot	34-21413-B
bigot ote	34-21792-B
bigotelle ou bigotere	34-25224-B
bigotere	34-25224-S
