oisillon	246-300683-B
oisivement	246-301351-B
oisivete	246-301508-B
oison	246-304161-B
oisonnerie	246-307386-B
oite	5-86950-S,32-108179-S,216-142196-S,392-27743-S
okygraphie	246-307511-B
okygraphique	246-307652-B
olacinees	246-307752-B
olanine	246-307884-B
olbers	246-308002-B
ole	393-102126-B
oleacees ou oleinees	247-11348-B
oleagineux euse	247-11523-B
oleandre	247-11890-B
oleate	247-12093-B
olecrane	247-12213-B
olecranien enne	177-14593-S
olecranien ienne	247-12726-B
oleene	247-15668-B
olefiant ante	247-12826-B
oleides	247-13080-B
oleifere	247-13237-B
oleine	247-13380-B
oleinees	247-11348-S
oleique	247-13738-B
oleomargarine	247-13965-B
oleometre	247-14128-B
oleone	247-14250-B
oleoresine	247-14413-B
oleoresineux euse	247-14718-B
oleosucre	247-14955-B
oleosulfurique	247-15326-B
olerace ee	247-15508-B
olfactif ive	246-308141-B
olfaction	246-308432-B
olfactoire	246-308559-B
oliban	246-308735-B
olibrius	246-309223-B
olidaire	246-310531-B
oliet	246-310675-B
olifant	246-310722-B
oligacanthe	246-311106-B
oliganthe	246-311266-B
oligarchie	246-311427-B
oligarchique	246-312545-B
oligarchiquement	246-312764-B
oligarchiser	246-312860-B
oligarque	246-313034-B
oligiste	246-313391-B
oligo	246-313647-B
oligocarpe	246-313787-B
oligocephale	246-314604-B
oligochrone	246-313938-B
oligochyle	246-314079-B
oligochylie	246-314268-B
oligoclase	246-314395-B
oligophylle	246-314819-B
oligoposie	246-315025-B
oligopsychie	246-315194-B
oligosperme	246-315366-B
oligotrichie	246-315578-B
oligotrique	246-315738-B
oligotrophie	246-315917-B
olim	246-316108-B
olinde	246-317027-B
oline	246-317542-B
olinet	246-317688-B
olinique	246-317915-B
olivace ee	246-318076-B
olivaie	246-318209-B
olivaire	246-318445-B
olivaison	246-319058-B
olivatre	247-2974-B
olive	246-319227-B
olivenite	247-0-B
oliver	247-109-B
oliverie	247-171-B
olivetain	247-4297-B
olivete	247-3879-B
olivetier	247-316-B
olivette	247-411-B
olivettes	247-678-B
olivier	247-849-B
oliviforme	247-2645-B
olivine	247-2770-B,247-2844-B
olla podrida	247-4641-B
ollaire	247-5155-B
olle	247-5957-B
ollure	247-6007-B
oloffee	247-6066-B
olographe	247-6136-B
olonier	247-6193-B
olonne	247-6249-B,264-198724-S
olympe	247-6317-B
olympia	247-7145-B
olympiade	247-7289-B
olympien enne	247-8672-B
olympionique	247-9198-B
olympique	247-9390-B
olynthienne	247-11145-B
omacephale	247-15834-B
ombelle	247-16122-B
ombelle ee	247-18036-B
ombellifere	247-17502-B
ombelliforme	247-17347-B
ombellule	247-17837-B
ombellule ee	247-17944-B
ombilic	247-18171-B
ombilical ale	247-19485-B
ombilique ee	247-20506-B
ombon	247-20680-B
ombrage	247-20934-B
ombrage ee	247-31681-B
ombragement	247-25851-B
ombrager	247-26066-B
ombrager s 	131-56250-S
ombrageusement	247-29598-B
ombrageux euse	247-29734-B
ombrant ante	247-32490-B
ombre	247-32742-B,247-64761-B,247-65792-B,247-66260-B
ombre ee	247-69753-B
ombrelle	247-66301-B
ombrer	247-67027-B
ombrette	247-67490-B
ombreusement	247-67553-B
ombreux euse	247-67777-B
ombrien	247-69135-B
ombrine	247-69258-B
ombrometre	247-69341-B
ombrometrie	247-69525-B
ombrometrique	247-69668-B
ombu	247-70482-B
omega	247-89468-B
omelette	247-70673-B
omentite	247-73124-B
omettre	247-73253-B
omicron	247-75126-B
omineux euse	247-75334-B
omis ise	247-75717-B
omission	247-75808-B
ommastrephe	247-77079-B
ommiade	247-77473-B
omnibus	247-77598-B
omnicolore	247-78955-B
omniel	247-79084-B
omnifacteur	247-79678-B
omniforme	247-80026-B
omnijuge	247-80198-B
omnipotence	247-80313-B
omnipotent ente	247-80811-B
omnipresence	247-81267-B
omnipresent ente	247-81505-B
omniscience	247-81885-B
omniscient ente	247-82476-B
omnitone	247-82761-B
omnium	247-83176-B
omnivore	247-84221-B
omnivorite	247-84672-B
omo hyoidien	247-84941-B
omocotyle	247-85199-B
omophage	247-85376-B
omophagie	247-85515-B
omophron	247-85593-B
omoplate	247-85787-B
omphalier	247-86539-B
omphalo mesenterique	247-86717-B
omphalo phlebite	247-86989-B
omphalocele	247-87171-B
omphalode	247-87320-B
omphalomancie	247-87781-B
omphalomyces	247-88104-B
omphalopsyque	247-88280-B
omphalorrhagie	247-88485-B
omphalos	247-88654-B
omphalosite	247-89044-B
omphalotomie	247-89329-B
ompte	281-189472-S
on	247-90077-B,291-73255-S
onage	247-105177-B
onagraire	247-105324-B
onagrariees	247-105435-B
onagre	247-105569-B,247-106369-B
onanisme	247-106518-B
onaye	247-106660-B
onc ou onques	247-106848-B
once	247-108873-B,247-112527-B
onceau	247-114148-B
onciaire	247-114245-B
oncial ale	247-114586-B
oncirostres	247-115822-B
oncle	163-114550-S,247-115972-B
oncocotyle	247-118257-B
oncotomie	247-118421-B
onction	139-96282-S,247-118611-B
onctueusement	247-123111-B
onctueux euse	247-123255-B
onctuosite	247-124281-B
ondatra	247-124828-B
onde	146-49483-S,153-11516-S,153-111654-S,192-1341-S,229-114401-S,238-172495-S,247-124956-B,281-63514-S,286-84244-S,311-104937-S,313-49843-S,325-120361-S,368-47152-S
onde ee	247-146304-B
ondee	247-147617-B
ondin ine	247-133011-B
ondoiement	247-134368-B
ondoyant ante	247-135160-B
ondoye ee	247-139893-B
ondoyer	247-137631-B
ondulant ante	247-140517-B
ondulation	247-141132-B
ondulatoire	247-143656-B
ondule ee	247-145794-B
onduler	247-144131-B
onduleux euse	247-144807-B
one	205-129055-S
oneraire	248-7610-B
onereusement	248-8113-B
onereux euse	248-8414-B
onglade	247-149573-B
ongle	78-57317-S,247-149679-B
ongle ee	247-162613-B
onglee	247-162963-B
onglet	247-159129-B
onglete ee	247-161894-B
onglette	247-161843-B
onglier	247-162040-B
onglon	247-162309-B
ongue	30-26185-S,211-4689-S,244-95784-S
ongueal m	247-166829-B
onguent	247-163606-B
onguicule	247-165555-B
onguicule ee	247-165716-B
onguiforme	247-166318-B
ongulaire	334-11389-S
ongule ee	247-166587-B
onguline	247-166461-B
onirocritie	247-166897-B
onirocritique	247-167112-B
onirodynie	247-167309-B
oniromance ou oniromancie	247-167491-B
oniromancie	247-167491-S
oniromancien	247-167669-B
onne	13-59123-S,33-35447-S,33-69479-S,33-84153-S,38-141461-S,39-123516-S,43-117764-S,135-716-S,140-373683-S,147-68753-S,151-20888-S,151-48553-S,153-147993-S,156-191651-S,160-108372-S,161-43656-S,164-158001-S,165-44350-S,165-77586-S,177-39150-S,209-16498-S,212-157826-S,215-104876-S,220-78508-S,224-68391-S,243-125574-S,245-80698-S,260-149974-S,267-40089-S,270-51667-S,274-13733-S,292-95166-S,293-99871-S,306-135237-S,349-26038-S,351-98640-S,351-133870-S,373-56351-S,377-71105-S
onnesse	205-197774-S
onocentaure	247-167755-B
onocrotale	247-168049-B
onomasticon	247-168221-B
onomastique	247-168606-B
onomatologie	247-168818-B
onomatomancie	247-168977-B
onomatopee	247-169282-B
onomatopeique	247-170725-B
ononide	247-170922-B
onoporde	247-170997-B
onosme	247-171183-B
onques	247-106848-S,247-171405-B
ontogenie	247-171642-B
ontogonie	247-171459-B
ontologie	247-171975-B
ontologique	247-173052-B
ontologiser	248-0-B
ontologiste	248-71-B
onychie	248-206-B
onychomancie	248-343-B
onychophore	248-585-B
onychoptose	248-766-B
onychose	248-941-B
onyx	248-1179-B
onyxis	248-2797-B
onzain	248-2972-B
onzaine	248-3124-B
onze	248-3669-B
onze heures	32-91280-S
onzieme	248-6110-B
onziemement	248-7457-B
oolithe	248-10717-B
oolithique	248-11396-B
oologie	248-11507-B
oologique	248-11664-B
oonin	248-11734-B
oonine	248-11844-B
oophoridie	248-12005-B
oophorite	248-12178-B
oospore	248-12377-B
ootheque	248-12514-B
opacifier	248-12676-B
opacite	248-12774-B
opalage	248-13828-B
opale	248-13881-B,326-152248-S
opaler	248-16577-B
opalescence	248-16732-B
opalescent ente	248-17161-B
opalin ine	248-17263-B
opalise ee	248-17619-B
opanki	248-17993-B
opaque	248-18145-B
opera	248-137038-B
operable	248-148278-B
operant ante	248-148374-B
operateur trice	248-148841-B
operatif ive	249-0-B
operation	78-58256-S,249-699-B
operatoire	249-5175-B
operculaire	248-19362-B
opercule	131-56516-S,248-19493-B
opercule ee	248-20812-B
operculifere	248-20410-B
operculine	248-20590-B
operculite	248-20688-B
opere ee	249-10057-B
operer	249-5476-B
operette	249-9623-B
opes	248-20890-B
ophi ou ophio	248-21432-B
ophiase ou ophiasis	248-21530-B
ophiasis	248-21530-S
ophicalce	248-21895-B
ophicephale	248-22920-B
ophicleide	248-22068-B
ophidien ienne	248-23156-B
ophidosauriens	248-23501-B
ophio	248-21432-S
ophiodonte	248-23684-B
ophioglosse	248-23810-B
ophiographe	248-24092-B
ophiographie	248-24263-B
ophiographique	248-24339-B
ophiolatrie	248-24805-B
ophiolithe	248-24427-B
ophiolithique	248-24596-B
ophiologie	248-24678-B
ophiomantie	248-24914-B
ophiomaque	248-25046-B
ophiophage	248-25187-B
ophiostome	248-25317-B
ophiosure	248-25510-B
ophique	248-25711-B
ophite	248-25866-B,248-25963-B,248-26700-B
ophiteux euse	248-26969-B
ophiuchus	248-27106-B
ophiures	248-27350-B
ophryon	248-27573-B
ophthalmalgie	248-27876-B
ophthalmie	248-28071-B
ophthalmique	248-28919-B
ophthalmo	248-29318-B
ophthalmoblennorrhee	248-29596-B
ophthalmocele	248-30119-B
ophthalmocopie	248-29779-B
ophthalmodynie	248-30256-B
ophthalmographie	248-30421-B
ophthalmoiatrie	248-30574-B
ophthalmolithe	248-30722-B
ophthalmologie	248-30855-B
ophthalmometre	248-30987-B
ophthalmometrie	248-31322-B
ophthalmorrhagie	248-31470-B
ophthalmoscope	248-31682-B
ophthalmoscopie	248-31852-B
ophthalmoscopique	248-32015-B
ophthalmostat	248-32319-B
ophthalmotheque	248-32520-B
ophthalmotomie	248-32701-B
ophthalmoxyse	248-32939-B
ophthalmoxystre	248-33176-B
opiace ee	248-33397-B
opianique	248-33521-B
opiat	248-33659-B
opilatif ive	248-34656-B
opilation	248-34768-B
opile ee	248-35392-B
opiler	248-35104-B
opimes	248-35570-B
opinant	248-36367-B
opiner	248-36639-B
opineur	248-40206-B
opiniatre	248-56514-B
opiniatre ee	248-63116-B
opiniatrement	248-63251-B
opiniatrer	248-59325-B
opiniatrete	248-61615-B
opinion	248-40499-B
opinioniste	248-56286-B
opiologie	248-64395-B
opiophage	248-64516-B
opisthocyphose	248-64632-B
opisthodome	248-64809-B
opisthogastrique	248-65281-B
opisthographe	248-65554-B
opisthographique	248-66107-B
opisthotonos	248-66305-B
opium	248-66705-B
oplite	248-69168-B
oplitodrome	248-69214-B
oplomachie	248-69787-B
opobalsamum	248-69850-B
opocephale	248-69998-B
opodeldoch ou opodeltoch	248-70310-B
opodeltoch	248-70310-S
opodidyme	248-70431-S
opodyme ou mieux opodidyme	248-70431-B
opopanax	248-70775-B
opossum	248-71080-B
oppienne	248-71312-B
oppignorer	248-71841-B
opportun une	248-72187-B
opportunement	248-74684-B
opportunisme	248-73199-B
opportuniste	248-73540-B
opportunite	248-73644-B
opposabilite	248-75057-B
opposable	248-75367-B
opposant ante	248-75606-B
oppose	37-147108-S
oppose ee	248-94739-B
opposer	248-77184-B
oppositaire	248-86439-B
opposite	248-86589-B
oppositi penne ee	248-88779-B
oppositif ive	248-89029-B
oppositiflore	248-89303-B
oppositifolie ee	248-89491-B
opposition	78-57807-S,248-89715-B,353-7026-S
oppositipetale	248-94422-B
oppositisepale	248-94570-B
oppresse ee	248-106317-B
oppresser	248-99068-B
oppresseur	248-101220-B
oppressif ive	248-102439-B
oppression	248-102585-B
oppressivement	248-106235-B
opprimant ante	248-108441-B
opprime ee	248-112799-B
opprimer	248-108793-B
opprobre	248-114023-B
oppugnateur	248-117008-B
opsigone	248-117385-B
opsimathie	248-117602-B
opsiometre	248-117839-B
opsiometrie	248-118041-B
opsiometrique	248-118118-B
opsomanie	248-118247-B
optatif ive	248-118406-B
optation	248-118869-B
optativement	248-119054-B
opter	248-119274-B
opticien	248-121049-B
opticite	248-121525-B
opticographe	248-121637-B
optimatie	248-122122-B
optime	248-124240-B
optimisme	248-122315-B
optimiste	248-123765-B
option	248-125206-B
optique	248-126568-B,248-129201-B
optiquement	248-131173-B
opto strie ee	248-131283-B
optogramme	248-131445-B
optographie	248-131827-B
optometre	248-132092-B
opulemment	248-132217-B
opulence	248-132893-B
opulent ente	248-134289-B
opuntia	248-136061-B
opuntiacees	248-136117-B
opuscule	248-136240-B
oque	245-68546-S
or	144-251023-S,249-10513-B,249-15109-B
or sol	249-38884-B
oracle	249-39333-B
oraculeux euse	249-46892-B
orage	249-47683-B
orage ee	249-58686-B
orager	249-55600-B
orageusement	249-55863-B
orageux euse	249-55977-B
oraison	249-58868-B
oral ale	249-67492-B
orang	249-69170-B
orang outang	249-69216-B
orange	249-70678-B
orange ee	249-78558-B
orangeade	249-73723-B
orangeat	249-73942-B
oranger	249-74217-B,249-75879-B
oranger ere	249-76498-B
orangerie	249-76757-B
orangette	249-77314-B
orangin	249-77546-B
orangine	249-77648-B
orangisme	249-77738-B
orangiste	249-78157-B,249-78381-B
oranvert	249-79750-B
orateur	249-79808-B
oratoire	249-84719-B,249-86008-B
oratoirement	249-88644-B
oratorien	249-88902-B
oratorio	249-89261-B
orbe	249-91153-B,249-93326-B,249-94411-B
orbicole	249-94516-B
orbiculaire	249-94768-B
