submerge ee	339-74112-B
submergement	339-72047-B
submerger	339-72238-B
submersible	339-75040-B
submersion	339-75276-B
submetalloide	339-76703-B
submission	339-76036-B
subobscur re	339-76800-B
suboculaire	339-77091-B
subodore ee	339-77539-B
subodorer	339-77167-B
subombilique ee	339-77642-B
subordination	339-77769-B
subordinement	339-79748-B
subordonnant ante	339-80086-B
subordonne ee	339-81405-B
subordonnement	339-82662-B
subordonner	339-80308-B
subornation	339-83049-B
suborne ee	339-87554-B
subornement	339-83712-B
suborner	339-84003-B
suborneur euse	339-86259-B
subostrace ee	339-87809-B
subovale	339-87903-B
subparasite	339-87975-B
subpentamere	339-88140-B
subpetiole ee	339-88654-B
subplacentaire	339-88261-B
subpolaire	339-88464-B
subrecargue	339-94414-B
subrecot	339-95068-B
subreniforme	339-95357-B
subreptice	339-88772-B
subrepticement	339-90115-B
subreption	339-90562-B
subrogateur	339-90979-B
subrogatif ive	339-91119-B
subrogation	339-91439-B
subrogatoire	339-92204-B
subroge ee	339-93874-B
subroger	339-92306-B
subsecutif ive	340-18488-B
subsepalaire	340-18781-B
subsequemment	340-19001-B
subsequent ente	340-19489-B
subsessile	339-95458-B
subside	339-95528-B
subsidence	339-97502-B
subsidiaire	339-98086-B
subsidiairement	339-100110-B
subsidie ee	339-100461-B
subsistance	339-100778-B
subsistant ante	339-103245-B
subsister	339-103905-B
subspherique	339-108653-B
subspontane ee	339-108753-B
substaminal ale	339-109234-B
substance	339-109449-B
substantialiser	340-0-B
substantialisme	340-170-B
substantialiste	340-344-B
substantialite	340-583-B
substantiel elle	340-738-B
substantiellement	340-3162-B
substantif	340-3564-B
substantif soit avec un adjectif	96-233500-S
substantifie ee	340-5990-B
substantifier	340-5541-B
substantivement	340-6592-B
substantiver	340-6777-B
substituant	340-7298-B
substitue ee	340-15877-B
substituer	340-7594-B
substitut	340-10232-B
substitutif ive	340-11150-B
substitution	340-11515-B
substitutionnaire	340-15486-B
substraction	340-17033-B
substratum	340-17102-B
substruction	340-17343-B
substructure	340-17894-B
subsumer	340-18033-B
subsumption	340-18175-B
subterfuge	340-19995-B
subtil ile	340-20970-B
subtilement	340-27980-B
subtilisation	340-29294-B
subtilise ee	340-33549-B
subtiliser	340-29514-B
subtiliseur	340-33407-B
subtilite	340-34030-B
subtropical ale	340-38116-B
subturbine ee	340-38402-B
subule ee	340-38791-B
subulicorne	340-38502-B
subulifolie ee	340-38599-B
subulirostre	340-38716-B
suburbain aine	340-39119-B
suburbicaire	340-39710-B
subutraquiste	340-40321-B
subvenir	340-40563-B
subvention	340-41538-B
subventionnaire	340-43058-B
subventionnel elle	340-43440-B
subventionner	340-43575-B
subventionniste	340-43714-B
subversif ive	340-44110-B
subversion	340-44420-B
subversivement	340-45528-B
subverti ie	340-45612-B
subvertir	340-45825-B
subvertissement	340-46914-B
suc	340-48885-B
succedane ee	340-88135-B
succeder	340-88566-B
succenturiaux	340-52379-B
succenturie	340-52551-B
succes	241-7234-S,340-81623-B
successeur	340-53024-B
successibilite	340-55304-B
successible	340-55783-B
successif ive	340-56438-B
succession	283-131961-S,340-58808-B
successivement	340-65225-B
successivite	340-66413-B
successoral ale	340-66718-B
succin	340-67215-B
succinate	340-69170-B
succinct incte	340-69333-B
succinctement	340-70335-B
succine ee	340-71341-B
succinee	340-71428-B
succinique	340-70963-B
succinite	340-71143-B
succinone	340-71199-B
succion	340-71601-B
succombance	340-72693-B
succombe ee	340-77512-B
succomber	340-73042-B
succotrin	340-77779-B
succube	340-77893-B
succulemment	340-78096-B
succulence	340-78269-B
succulent ente	340-78978-B
succursale	340-80077-B
succursaliste	340-80677-B
succussion	340-80880-B
suce boeuf	340-96607-B
suce ee	340-117299-B
suce fleur	340-96662-B
sucement	340-96730-B
sucer	340-97275-B
sucet	340-101474-B
sucette	340-101652-B
suceur	340-102308-B
sucoir	343-99291-B
sucon	343-99737-B
sucote ee	343-100574-B
sucoter	343-100310-B
sucrage	340-103276-B
sucrate	340-103447-B
sucre	220-115495-S,223-272400-S,340-103799-B
sucre ee	231-126293-S,340-115377-B
sucrer	340-111879-B
sucrerie	340-113089-B
sucreur	340-113591-B
sucrier	340-113681-B
sucrier ere	340-113995-B
sucriere	340-115165-B
sucrillon ou sucrion	340-114756-B
sucrin	340-114911-B
sucrion	340-114756-S
sud	340-117769-B
sud est	340-119095-B
sud ouest	340-119542-B
sudamina	340-120083-B
sudation	340-120442-B
sudatoire	340-120610-B
sudiste	340-120880-B
sudorate	340-121051-B
sudorifere	340-121423-B
sudorifique	340-121143-B
sudoripare	340-121562-B
sudorique	340-121730-B
sue ee	343-101181-B
suede	343-100645-B
suedois oise	343-101431-B
suee	343-101577-B
suer	340-121831-B
suerie	340-127940-B
suette	340-128800-B
sueur	340-129219-B
suffetes	340-170523-B
suffin	340-133586-B
suffire	340-134032-B
suffisamment	340-142030-B
suffisance	340-142928-B
suffisant ante	340-147710-B
suffixation	340-153571-B
suffixe	340-153931-B
suffixer	340-154640-B
suffocant ante	340-154932-B
suffocation	340-155444-B
suffoque ee	340-160076-B
suffoquer	340-156231-B
suffragant	340-161385-B
suffrage	340-163511-B
suffrutescent ente	340-169447-B
suffumigation	340-169588-B
suffusion	340-169897-B
sufisme	340-170858-B
suggere ee	340-175174-B
suggerer	340-173069-B
suggesteur	340-170907-B
suggestif ive	340-171193-B
suggestion	340-171446-B
sugillation	340-175470-B
sugiller	340-175709-B
sui generis	340-176152-B
suicide	340-176392-B
suicider se	340-179223-B
suie	340-180650-B
suif	276-114880-S,340-182298-B
suiffe ee	340-185229-B
suiffer	340-184792-B
suiffeux euse	340-184913-B
suiffier	340-185073-B
suillie	340-185295-B
suint	340-185403-B
suintement	340-186585-B
suinter	340-187092-B
suisse	340-188369-B
suisses	57-167250-S
suissesse	340-191128-B
suite	132-44372-S,340-191190-B
suitee	340-213792-B
suites	340-213402-B
suivable	340-214083-B
suivant	340-214228-B
suivant ante	340-215378-B
suivant l academie squammeux euse	336-69899-S
suivant l etymologie squirrhe	336-75940-S
suivant l etymologie squirrheux euse	336-76335-S
suivant l orthographe de quelques uns dit l academie cuillere	91-15881-S
suivant le dictionnaire de l academie et mieux hemorrhoidal ale	172-20174-S
suivant le dictionnaire de l academie mais mieux hemorrhagie	181-25310-S
suivant quelques uns chancel	51-4307-S
suivant une orthographe usitee aussi reversis	308-71601-S
suiver	340-218547-B
suiveur	340-218670-B
suivi ie	132-44767-S,340-218795-B
suivre	340-222631-B
suivre s 	132-45284-S
sujet	69-13251-S,79-38478-S,340-250114-B
sujet ette	340-263525-B
sujetion	340-273420-B
sulcature	340-278169-B
sulciforme	340-278368-B
sulf ou sulfo	340-278499-B
sulfacetique	340-278868-B
sulfacide	340-278640-B
sulfarsenieux	340-279049-B
sulfarsenique	340-279284-B
sulfatage	340-279455-B
sulfate	340-280070-B
sulfate ee	341-286-B
sulfater	340-280214-B
sulfateur	340-280382-B
sulfatique	340-280485-B
sulfatisation	341-0-B
sulfazotite	341-678-B
sulfhydrate	341-876-B
sulfhydrique	341-1067-B
sulfhydrometre	341-1340-B
sulfhydrometrie	341-1732-B
sulfhydrometrique	341-1822-B
sulfide	341-1956-B
sulfiode	341-2029-B
sulfisatine	341-2403-B
sulfite	341-2537-B
sulfiter	341-2679-B
sulfo	340-278499-S
sulfo margarique	219-111371-S
sulfoantimoniate	341-2878-B
sulfoantimonique	341-3026-B
sulfobase	341-3197-B
sulfocarbonatage	341-3319-B
sulfocarbonate	341-3570-B
sulfocarbonique	341-3726-B
sulfochlorure	341-3912-B
sulfocyanogene	341-4057-B
sulfocyanure	341-4143-B
sulfoglycerique	341-4299-B
sulfoleique	341-4465-B
sulfopurpurique	341-4610-B
sulfosel	341-4800-B
sulfovinate	341-4991-B
sulfovinique	341-5107-B
sulfurabilite	341-5251-B
sulfurable	341-5458-B
sulfuraire	341-5544-B
sulfuration	341-5738-B
sulfure	341-6454-B
sulfure ee	341-10609-B
sulfurer	341-7020-B
sulfureux euse	341-7868-B
sulfuride	341-8805-B
sulfurifere	341-8888-B
sulfurique	313-108914-S,341-9018-B,376-208985-S
sulfurique ou sulfo margarique	219-111371-S
sulfurisation	341-10226-B
sulin	341-10749-B
sully	341-10920-B
sulpicien	341-11108-B
sultan	341-11310-B,341-12572-B
sultanat	341-12852-B
sultane	341-12930-B,341-14315-B
sultanin	341-14572-B
sumac	341-15007-B
sumaquier	341-15961-B
sumbul	341-16154-B
sumerien ienne	341-16853-B
summum	341-16280-B
sumpit	341-16674-B
sunnite	341-17150-B
suovetaurilies	341-17415-B
supe ee	341-145640-B
super	341-17617-B,341-18050-B
superation	341-146213-B
superaxillaire	341-18234-B
superbe	341-18354-B,341-25336-B
superbement	341-27322-B
supercargo	341-28806-B
superceleste	341-31325-B
supercherie	341-28871-B
supercoquentieux euse	341-30711-B
supercretace ee	341-31128-B
supere	341-145127-B
superexcellence	341-31651-B
superfetation	341-50828-B
superficiaire	341-32049-B
superficiairement	341-32589-B
superficialite	341-32799-B
superficie	341-32951-B
superficiel	350-28801-S
superficiel elle	341-37007-B
superficiellement	341-40431-B
superfin ine	341-41503-B
superflu ue	341-41742-B
superfluite	341-46711-B
superfusion	341-50221-B
superieur eure	341-146431-B
superieurement	341-155177-B
superiorite	341-156085-B
superlatif ive	341-51625-B
superlativement	341-55374-B
supernaturalisme	341-55808-B
supernel elle	341-55898-B
superovarie ee	341-56217-B
superoxydation	341-56615-B
superposable	341-56727-B
superpose ee	341-57957-B
superposer	341-56939-B
superpositif ive	341-57158-B
superposition	341-57440-B
superpurgation	341-58230-B
supersecretion	341-66308-B
superseder	341-66415-B
supersensible	341-58639-B
superstitieusement	341-58808-B
superstitieux euse	341-59345-B
superstition	341-61482-B
superstitiosite	341-65178-B
superstruction	341-65512-B
superstructure	341-65783-B
supervolutif ive	341-66928-B
supin	341-67225-B
supinateur	341-67611-B
supination	341-67982-B
suppedane	341-135716-B
supplantateur	341-68396-B
supplantation	341-68788-B
supplante ee	341-72324-B
supplantement	341-69065-B
supplanter	341-69525-B
supplanteur	341-72129-B
suppleance	341-86025-B
suppleant ante	341-86216-B
supplee ee	341-96630-B
suppleer	341-86488-B
supplement	341-92100-B
supplementaire	341-95130-B
supplementairement	341-95621-B
suppletif ive	341-96032-B
suppletoire	341-96315-B
suppliant ante	341-72535-B
supplication	341-73995-B
supplicatoire	341-75439-B
supplice	341-75764-B
supplicie ee	341-82324-B
supplicier	341-81617-B
supplie ee	341-85909-B
supplier	341-82760-B
supplique	341-85290-B
support	341-96745-B
supportable	341-100871-B
supportablement	341-102450-B
supportage	341-102630-B
supportant ante	341-102741-B
supporte ee	341-109193-B
supporter	341-102867-B
supporter s 	132-46187-S
supporteur	341-109044-B
supposable	341-109319-B
suppose ee	341-122608-B
supposer	341-109437-B
supposeur	341-117192-B
suppositif ive	341-117299-B
supposition	341-117574-B
suppositoire	341-121945-B
suppot	341-135924-B,341-138693-B
suppressif ive	341-124468-B
suppression	341-124587-B
supprimable	341-126773-B
supprime ee	341-131150-B
supprimer	341-127154-B
suppurant ante	341-131389-B
suppuratif ive	341-131507-B
suppuration	341-132021-B
suppure ee	341-133267-B
suppurer	341-132339-B
supputant ante	341-133487-B
supputation	341-133683-B
suppute ee	341-135606-B
supputer	341-134912-B
supra axillaire	341-138731-B
suprajurassique	341-138858-B
supralapsaire	341-138994-B
supramondain aine	341-139360-B
supranaturalisme	341-139506-B
supranaturaliste	341-139724-B
suprasensible	341-139900-B
suprathoracique	341-139982-B
suprematie	341-140077-B
supreme	341-140960-B
supremement	341-144642-B
sur	341-158416-B
sur aller	341-201003-B
sur andouiller	341-201731-B
sur arbitre	341-201965-B
sur joint	271-104498-S
sur laryngien enne	341-202559-B
sur taux	353-30961-S
sur ure	341-199916-B,346-101917-B
sura ure	341-202773-B
surabondamment	341-202809-B
surabondance	341-203294-B
surabondant ante	341-205042-B
surabonder	341-206093-B
suraccabler	341-207246-B
surachat	341-207498-B
surachete ee	341-208613-B
suracheter	341-208057-B
suractivite	341-208694-B
suraddition	341-208841-B
suraffinage	341-209195-B
suraigu ue	341-209271-B
surajoute ee	341-209963-B
surajouter	341-209708-B
sural ale	341-210404-B
surannation	342-0-B
suranne ee	342-1670-B
suranner	342-732-B
surantimoniate	342-2950-B
surard	342-3102-B
surate	342-3284-B
surattendre	342-3544-B
surattribut	342-4070-B
surbaisse ee	342-4882-B
surbaissement	342-4299-B
surbaisser	342-4540-B
surbande	342-5599-B
surbasique	342-5841-B
surbau	342-5952-B
surbondineuse	342-6175-B
surbouchage	342-6265-B
surbouche	342-6412-B
surbout	342-6508-B
surcalcine ee	342-6651-B
surcase	342-6857-B
surcens	342-6947-B
surcharge	342-7258-B
surcharge ee	342-11987-B
surcharger	342-9144-B
surchauffe	342-13272-B
surchauffe ee	342-14391-B
surchauffer	342-13562-B
surchauffeur	342-13814-B
surchauffure	342-14211-B
