elephantoide	385-71319-B
elephantophage	385-70722-B
elephantopode	385-70927-B
elephantornithe	385-71104-B
eleusinies	384-75899-B
eleutheranthere ee	384-76072-B
eleutherie	384-76276-B
eleutheries	384-76554-B
eleutherogyne	384-76842-B
eleutherogynie	384-77027-B
eleutherophylle	384-77206-B
eleutheropode	384-77374-B
eleutheropome	384-77571-B
eleutherostemone	384-77741-B
elevable	384-77926-B
elevage	384-78083-B
elevateur	385-71475-B
elevation	385-72950-B
elevatoire	385-79866-B
eleve	385-41147-B,385-43734-B
eleve ee	384-96441-B
elevement	385-44085-B
elever	384-78579-B
eleveur	384-96070-B
elevure	384-96153-B
elfe	123-0-B
elide ee	384-101468-B
elider	384-100317-B
elier	384-101568-B
eligibilite	384-101677-B
eligible	384-101814-B
elime ee	384-105634-B
elimer	384-102504-B
elimer s 	384-102678-B
eliminateur trice	384-103422-B
elimination	384-103676-B
eliminatoire	384-104426-B
elimine ee	384-105428-B
eliminer	384-104683-B
elingue	384-105848-B
elingue ee	384-106729-B
elinguer	384-106295-B
elinguet	384-106579-B
elire	384-106917-B
elisant ante	384-110856-B
elision	384-111093-B
elite	385-0-B
elixation	385-2595-B
elixir	385-2952-B
ellagique	123-177-B
elle	2-194150-S,3-143566-S,4-79575-S,4-85593-S,4-103073-S,14-16935-S,14-80968-S,15-10157-S,15-21892-S,20-160318-S,21-8077-S,21-40727-S,34-76088-S,35-7584-S,35-19822-S,35-27842-S,55-114056-S,57-152731-S,60-186784-S,65-135709-S,66-54521-S,66-69225-S,73-202421-S,73-203252-S,74-40393-S,74-73707-S,74-114817-S,74-174438-S,74-188251-S,75-60153-S,75-100328-S,75-110666-S,75-161569-S,76-16058-S,76-99945-S,76-133937-S,76-289273-S,77-9066-S,77-58996-S,77-172854-S,77-207590-S,77-273425-S,80-56168-S,80-57595-S,80-99479-S,82-73354-S,82-132013-S,86-98959-S,88-13139-S,89-125376-S,91-138110-S,94-36787-S,97-56466-S,99-137888-S,100-80664-S,101-178733-S,102-31739-S,120-2416-S,123-570-B,135-138211-S,137-64858-S,137-107532-S,138-96998-S,139-41000-S,143-203266-S,146-32690-S,147-114079-S,148-83861-S,150-98404-S,163-17539-S,167-97336-S,169-136541-S,184-45766-S,184-93626-S,185-12793-S,185-182489-S,187-14479-S,187-85749-S,188-55164-S,188-85108-S,188-107546-S,188-126802-S,189-150043-S,190-51582-S,191-148429-S,192-58938-S,192-129277-S,193-8268-S,194-40866-S,194-91280-S,194-114333-S,194-132192-S,194-180970-S,195-15607-S,195-18169-S,195-106274-S,196-3953-S,196-4873-S,197-83537-S,198-27551-S,201-232052-S,201-251909-S,201-290376-S,201-360576-S,202-26590-S,210-88726-S,218-136677-S,218-153600-S,218-163374-S,221-43209-S,221-106267-S,221-130425-S,222-192668-S,222-195464-S,223-32129-S,223-80551-S,225-74108-S,229-196268-S,232-157209-S,238-133949-S,244-210338-S,245-20618-S,246-190099-S,250-31298-S,259-80505-S,259-389864-S,260-32471-S,260-70025-S,263-182959-S,264-51077-S,264-166262-S,272-79598-S,275-62975-S,277-158792-S,277-282212-S,280-170832-S,281-38429-S,282-12264-S,283-2935-S,283-39184-S,283-62675-S,284-55416-S,284-86847-S,284-126177-S,285-21037-S,285-92561-S,285-172588-S,289-101827-S,293-104280-S,293-189303-S,298-5849-S,300-44605-S,314-66161-S,315-75216-S,315-86766-S,315-136834-S,317-222606-S,318-5388-S,318-111642-S,319-157878-S,326-736-S,326-143189-S,326-147609-S,326-151560-S,326-164452-S,326-239517-S,326-243225-S,328-149714-S,331-45643-S,335-30588-S,335-84349-S,337-17977-S,340-738-S,340-43440-S,341-37007-S,341-55898-S,342-75903-S,346-61887-S,347-177038-S,349-114754-S,350-19574-S,350-139203-S,350-371233-S,351-140458-S,355-103076-S,357-60649-S,357-275664-S,358-51211-S,360-89940-S,361-61825-S,366-200614-S,366-215330-S,366-247681-S,367-88234-S,374-23563-S,374-113149-S,375-279295-S,376-231460-S,383-71659-S,391-87044-S,392-147636-S
elle ou excrementitiel elle	137-107532-S
elleborace ee	123-10127-B
ellebore	123-10272-B
elleborine	123-11699-B
elleboriser	123-11835-B
elleborisme	123-11940-B
ellipanthe	123-4709-B
ellipse	123-4900-B
ellipse jarni	200-38431-S
ellipsographe	123-6373-B
ellipsoidal ale	123-7007-B
ellipsoide	123-7127-B
ellipsologie	123-6527-B
ellipsosperme	123-6696-B
ellipsostome	123-6848-B
ellipticite	123-8319-B
elliptique	123-8899-B,366-114062-S
elliptiquement	123-9634-B
elme	320-107465-S
elme saint 	123-12269-B
elocher	385-4325-B
elocution	385-5268-B
elodicon	385-6487-B
elodites	385-6576-B
eloge	385-6675-B
elogier	385-8685-B
elogieux euse	385-8784-B
elogiste	385-8970-B
elohim	385-9124-B
elohiste	385-9437-B
eloi	385-9731-B
eloigne ee	385-19637-B
eloignement	385-10022-B
eloigner	385-13657-B
elongation	385-21617-B
elonger	385-22134-B
elongis	385-22562-B
eloquemment	385-22694-B
eloquence	385-23050-B
eloquent ente	385-27889-B
eltach	123-13606-B
elu ue	385-28889-B
elucidation	385-31592-B
elucider	385-31793-B
elucubrateur	385-32124-B
elucubration	385-32293-B
elucubrer	385-32803-B
eludable	385-33007-B
elude ee	385-35263-B
eluder	385-33109-B
eludeur	385-34975-B
eludorique	385-35083-B
elutriation	385-35474-B
elvan	123-13718-B
elyme	385-35709-B
elysee	385-36521-B
elyseen enne	385-38422-B
elysiens	385-35970-B
elytre	385-38567-B
elytrite	385-39311-B
elytrocele	385-39484-B
elytroide	385-40372-B
elytroplastie	385-39615-B
elytroptose	385-39812-B
elytrorrhagie	385-39956-B
elytrorrhaphie	385-40107-B
elzevir	123-13798-B
elzevirien ienne	123-14088-B
ema	385-80671-B
emaciation	385-80776-B
emacie ee	385-81004-B
email	79-54559-S,385-81248-B
emaillage	385-87530-B
emaille ee	79-54885-S,385-90832-B
emailler	79-54738-S,385-87869-B
emaillerie	385-89372-B
emailleur	385-89900-B
emaillure	385-90580-B
emanatif ive	385-91898-B
emanation	385-92261-B
emanche	385-93096-B,385-93171-B
emancipateur trice	385-93248-B
emancipation	385-93529-B
emancipe ee	385-96848-B
emanciper	385-94565-B
emandibule ee	385-97213-B
emandronage	385-97384-B
emane ee	385-99113-B
emaner	385-97532-B
emanue ee	385-98952-B
emarge ee	385-100889-B
emargement	385-99573-B
emarger	385-99731-B
emarginature	385-100483-B
emargine ee	385-100642-B
emasculateur	385-101210-B
emasculation	385-101552-B
emasculer	385-101659-B
embabouine ee	123-15215-B
embabouiner	123-14297-B
embacle	124-35263-B
emballage	123-15527-B
emballe ee	123-18864-B
emballer	123-15793-B
emballeur	123-17622-B
emballonure	123-18468-B
emballotter	123-18590-B
embande ee	123-19266-B
embander	123-19126-B
embanquer	123-19494-B
embarbe	123-19741-B
embarbe ee	123-20562-B
embarbotter s 	123-19845-B
embarbouiller	123-20110-B
embarcadere	123-20831-B
embarcation	123-21872-B
embardee	123-22765-B
embarder	123-22537-B
embargo	123-22930-B
embarillage	123-23464-B
embariller	123-23658-B
embarquant ante	123-23796-B
embarque ee	123-28722-B
embarquement	123-24073-B
embarquer	123-24941-B
embarras	123-29220-B
embarrassant ante	123-34087-B
embarrasse ee	123-39864-B
embarrassement	123-34534-B
embarrasser	123-35084-B
embarrasser s 	131-50636-S
embarrement	123-42563-B
embarrer	123-42657-B
embarriquer	123-43901-B
embarrure	123-44286-B
embas	123-44982-B
embase	123-45305-B
embasement	123-45929-B
embassure	123-46504-B
embastille ee	123-47312-B
embastillement	123-46635-B
embastiller	123-46905-B
embatage	123-47803-B
embataillement	123-47936-B
embatailler	123-48106-B
embataillonner	123-48246-B
embate ee	124-37739-B
embater	124-35652-B
embatoir	123-48425-B
embatonne ee	124-37416-B
embatonner	124-36433-B
embatre	123-48592-B
embatu ue	123-49821-B
embauchage	123-49897-B
embauche	123-50225-B
embauche ee	123-52679-B
embauchee	123-52770-B
embauchement	123-50753-B
embaucher	123-50850-B
embaucheur	123-51614-B
embauchoir	123-51986-B
embauchure	123-52531-B
embaume ee	123-55729-B
embaumement	123-52892-B
embaumer	123-53251-B
embaumeur	123-55630-B
embecquer	123-56467-B
embecqueter	123-56743-B
embeguine ee	124-38625-B
embeguiner	124-37816-B
embelle	123-56900-B
embelli ie	123-57053-B
embellie	123-57403-B
embellir	123-57607-B
embellissant ante	123-60804-B
embellissement	123-61241-B
embellisseur	123-62241-B
emberize	124-39021-B
emberlificoter	123-62324-B
emberlucoque ee	123-63891-B
emberlucoquer s 	123-62562-B
embesogne ee	123-64018-B
embetant ante	124-39226-B
embetement	124-39357-B
embeter	124-39504-B
embeurrer	123-65193-B
embichetage	123-65398-B
emblaison	123-65708-B
emblavage	123-65847-B
emblave ee	123-67381-B
emblaver	123-65908-B
emblavure	123-67267-B
emblee	94-87725-S
emblee d 	123-72931-B
emblematique	123-74718-B
embleme	123-70447-B
embler	123-67462-B,123-69328-B
embleur	123-69529-B
emblic	123-69577-B
emblier	123-69691-B
emblique	123-69870-B
embloquer	123-70194-B
emblure	123-70342-B
embobeliner ou embobiner	123-74854-B
embobiner	123-74854-S
embodinure	123-75577-B
emboire s 	123-75755-B
emboise ee	123-77561-B
emboiser	123-77055-B
emboiseur euse	123-77426-B
emboitage	123-102375-B
emboite ee	123-106696-B
emboitement	123-102686-B
emboiter	123-104119-B
emboiture	123-105589-B
embole	123-77650-B
embolie	123-78130-B
embolique	123-78400-B
embolisme	123-78515-B
embolismeen enne	123-79163-B
embolismique	123-79055-B
embonpoint	123-79261-B
emboquer	123-81139-B
embordure ee	123-81642-B
embordurer	123-81316-B
embossage	123-81732-B
embosse ee	123-82726-B
embosser	123-81918-B
embossure	123-82466-B
embotteler	123-82953-B
emboucauter	123-83261-B
embouche	123-83490-B
embouche ee	123-90052-B
embouchement	123-83687-B
emboucher	123-84153-B
embouchoir	123-86322-B
embouchure	123-87179-B
emboucle ee	123-91294-B
emboucler	123-90898-B
emboudinure	123-91449-B
emboue ee	123-102290-B
embouer	123-91515-B
embouquement	123-92383-B
embouquer	123-92549-B
embourbe ee	123-94562-B
embourbement	123-92869-B
embourber	123-93053-B
embourder	123-95352-B
embourdigue	123-95529-B
embourgeoiser	123-95678-B
embourrage	123-96299-B
embourre ee	123-97352-B
embourrement	123-96390-B
embourrer	123-96565-B
embourrure	123-97025-B
embourse ee	123-98413-B
emboursement	123-97488-B
embourser	123-97614-B
embouser	123-98521-B
embout	123-98991-B
emboute ee	123-102015-B
embouteillage	123-99130-B
embouteillement	123-99249-B
embouteiller	123-99548-B
embouter	123-99711-B
embouti ie	123-99790-B
emboutiquement	123-99887-B
emboutiquer	123-100293-B
emboutir	123-100811-B
emboutissage	123-101524-B
emboutisseur	123-101666-B
emboutissoir	123-101764-B
embranchement	123-107318-B
embrancher	123-108441-B
embraquer	123-108950-B
embrase ee	124-2445-B
embrasement	123-109156-B,123-111416-B
embraser	123-111541-B,123-114592-B
embraseur	123-114706-B
embrassade	123-114898-B
embrassant ante	123-115653-B
embrasse	123-116003-B
embrasse ee	124-344-B
embrassement	123-116184-B
embrasser	123-117329-B
embrasser s 	131-50778-S
embrasseur euse	123-127793-B
embrassoires	123-128040-B
embrassure	124-0-B
embrasure	124-1320-B
embrayage	124-4035-B
embrayer	124-4392-B
embrelage	124-6066-B
embreler	124-6127-B
embreloque ee	124-6342-B
embrene ee	124-7535-B
embrenement	124-30945-B
embrener	124-6634-B
embrevade	124-7800-B
embrevement	124-31072-B
embrever	124-8302-B
embrider	124-8785-B
embrigade ee	124-10047-B
embrigadement	124-9112-B
embrigader	124-9650-B
embriothlaste	124-10189-B
embrocation	124-10445-B
embroche ee	124-12719-B
embrochement	124-11195-B
embrocher	124-11310-B
embrocheur	124-12401-B
embroncher	124-12898-B
embroquement	124-14492-B
embrouillamini	124-15129-B
embrouille ee	124-19727-B
embrouillement	124-15593-B
embrouiller	124-15937-B
embrouilleur euse	124-19155-B
embroussaille ee	124-20406-B
embruger	124-21063-B
embruine ee	124-21362-B
embrume ee	124-22550-B
embrumer s 	124-21496-B
embrun	124-22880-B
embrune	124-23392-B
embruni	124-23530-B
embrunir	124-23601-B
embruyer	124-24120-B
embryoctonie	124-24234-B
embryogenie	124-24540-B
embryogenique	124-24804-B
embryographie	124-24413-B
embryologie	124-24894-B
embryologique	124-25128-B
embryologiste	124-25238-S
embryologue ou embryologiste	124-25238-B
embryon	124-25378-B
embryonelle	124-27455-B
embryonifere	124-27776-B
embryoniforme	124-27629-B
embryonnaire	124-27945-B
embryonne ee	124-28134-B
embryopare	124-28872-B
embryoplastique	124-29029-B
embryosac	124-29278-B
embryotege	124-30262-B
embryotocie	124-29458-B
embryotome	124-29677-B
embryotomie	124-29770-B
embryotrophe	124-30018-B
embryulce	124-30487-B
embryulcie	124-30699-B
embryule	124-30836-B
embu ue	124-31299-B
embuche	124-39685-B
embuchement	124-41927-B
embucher	124-42071-B,124-42200-B,124-42523-B
embuscade	124-31666-B
embusque ee	124-34743-B
embusquer	124-33009-B
embut	124-34946-B
emendateur	385-102109-B
emendatif ive	385-102360-B
emendation	385-102716-B
emende ee	385-104039-B
emender	385-103202-B
emeraldine	386-37367-B
emeraude	286-3864-S,385-104118-B
emeraudine	385-105627-B
emere	386-37230-B
emerge ee	385-108187-B
emergeant	385-105769-B
emergement	385-106010-B
emergence	385-106159-B
emergent ente	385-106519-B
emerger	385-107152-B
emeri	385-108329-B
emerillon	385-110101-B,385-111303-B
emerillonne ee	385-112493-B
emerillonner s 	385-112294-B
emeritat	386-37471-B
emerite	386-37590-B
emersion	385-113225-B
emerus	386-38304-B
emerveillable	385-114388-B
emerveille ee	385-117288-B
emerveillement	385-115329-B
emerveiller	385-116208-B
emeticite	386-38357-B
emetine	386-38459-B
emetique	386-38586-B
emetise ee	386-39980-B
emetiser	386-39739-B
emeto cathartique	386-40066-B
emetologie	386-40302-B
emetteur	385-117587-B
emettre	385-117904-B
emeu ou emeut	385-118703-B
emeulage	385-119044-B
emeuler	385-119114-B
emeut	385-118703-S
emeute	385-119638-B
emeuter	385-121604-B
emeutier	385-121913-B
emeutir	385-122023-B,385-122553-B
emeutition	385-123397-B
emiaule	385-123529-B
emie ee	385-142730-B
emier	385-123744-B
emiette ee	385-126102-B
emiettement	385-124791-B
emietter	385-124939-B
emigrant ante	385-126203-B
emigration	385-127557-B
emigre ee	385-130238-B
emigrer	385-128941-B
emigrette	385-129861-B
emince ee	385-131798-B
emincer	385-131468-B
emine	385-131930-B
eminemment	385-132084-B
eminence	385-132782-B
eminent ente	385-134807-B
eminentissime	385-137231-B
emir	385-137519-B
emis ise	385-137822-B
emissaire	385-138075-B
emissif ive	385-140500-B
emission	385-140995-B
emissionnaire	385-142468-B
emissole	385-142627-B
emmagasinage	124-42801-B
emmagasinateur trice	124-42905-B
emmagasine ee	124-45010-B
emmagasinement	124-43521-B
emmagasiner	124-43899-B
emmagasineur	124-44559-B
emmaigri ie	124-45371-B
emmaigrir	124-45451-B
emmaigrissement	124-46387-B
emmailloteur	124-46549-B
emmaillotte ee	124-48702-B
emmaillottement	124-46906-B
emmaillotter	124-47173-B
emmaladir	124-49422-B
emmanchage	124-49894-B
emmanche	124-50285-B
emmanche ee	124-52472-B
emmanchement	124-50467-B
