domiciliaire	104-44277-B
domicilie ee	104-45731-B
domicilier se	104-44738-B
domification	104-46784-B
domifier	104-47044-B
dominance	104-47282-B
dominant ante	104-47650-B
dominante	104-50425-B,333-214066-S,343-43490-S
dominateur trice	104-50960-B
dominatif ive	104-53236-B
domination	104-53425-B
domine	104-55868-B
domine ee	104-67257-B
dominer	104-56025-B
dominicain aine	104-60880-B
dominical ale	104-61734-B
dominicalier	104-63385-B
dominion	104-63530-B
domino	104-63823-B
dominoterie	104-66448-B
dominotier	104-66767-B
domite	104-67441-B
domitique	104-67655-B
dommage	104-68061-B
dommageable	104-75611-B
dommageablement	104-77322-B
domoide	104-77582-B
domptable	104-77751-B
domptage	104-78122-B
domptaire	104-78554-B
dompte ee	104-84676-B
dompte venin	104-78741-B
domptement	104-79003-B
dompter	104-79212-B
dompteur	104-83573-B
don	104-85356-B,104-85621-B
don juan	104-94797-B
don juanique	104-95648-B
don quichotte	104-95238-B
don quichottisme	104-95869-B
donace	104-96278-B
donat	104-96443-B
donataire	104-96649-B
donateur trice	104-97424-B
donatif	104-97981-B
donation	104-98314-B
donatisme	104-100274-B
donatiste	104-100342-B
donc	104-100732-B
dondaine	104-106232-B,104-106539-B
dondon	104-106842-B
dondos	104-107270-B
dongris	104-107373-B
donillage	104-107451-B
donilleux euse	104-107581-B
donjon	104-107729-B
donjonne ee	104-110007-B
donna	279-325423-S
donnant ante	104-110167-B
donne	104-110467-B,104-179791-B
donne ee	104-180716-B
donnee	104-182733-B,104-183644-B
donner	104-110701-B
donner s 	132-6520-S
donneur euse	104-177182-B
dono	136-109179-S
dont	104-184334-B
donte	104-201865-B
donville	104-202087-B
donzelle	104-202141-B
doquet	104-203618-B
dorade	104-203761-B
doradille	104-204485-B
doradon	104-204640-B
dorage	104-204740-B
dorcade ou dorcas	104-205000-B
dorcas	104-205000-S
dore	228-92832-S
dore ee	104-245517-B
doree	104-248223-B
doreme	104-250981-B
dorenavant	104-248556-B
dorer	104-205102-B
doreur euse	104-209153-B
dori	104-209622-B
doride ee	104-210048-B
dorien ienne	104-210170-B
dorimene	104-210676-B
dorine	104-210764-B
dorique	104-210964-B,282-184299-S
doris	104-213379-B,104-213524-B
dorking	104-213645-B
dorlote ee	104-216527-B
dorloter	104-213916-B
dorlotine	104-216397-B
dormailler	104-216692-B
dorman	104-217078-B
dormant ante	104-217172-B
dormeur euse	104-219660-B
dormeuse	104-220653-B
dormille	104-221717-B
dormilleuse	104-221814-B
dormilon	104-221925-B
dormir	104-221992-B
dormitif ive	104-235489-B
dormition	104-236064-B
dormoir	104-236695-B
dorne	104-237551-B
doroir	104-238076-B
doronic	104-238213-B
dorothee	104-238827-B
dorque	104-238968-B
dorsal ale	104-239146-B,234-117948-S,333-214625-S,357-47382-S
dorsay	104-240163-B
dorsch	104-240506-B
dorse ee	104-241626-B
dorset	104-240569-B
dorsibranche	104-240816-B
dorsipare	104-240969-B
dorsipede	104-241150-B
dorso	104-241301-B
dorso trachelien	210-247445-S
dorstenie	104-241480-B
dortoir	104-241783-B
dorure	104-242893-B
doryle	104-244353-B
doryphore	104-244522-B
dos	104-251183-B,356-190975-S
dosable	104-267150-B
dosage	104-267451-B
dose	104-267691-B
dose ee	105-3900-B
doser	104-269141-B
dosin	104-269652-B
dossage	104-269736-B
dosse	104-270146-B
dosseau	105-0-B
dosseret	105-256-B
dossier	105-1369-B
dossiere	105-3301-B
dossoyer	105-3700-B
dot	105-4007-B
dotal ale	105-7149-B
dotation	105-7721-B
dote ee	105-10381-B
dotel	105-8499-B
doter	105-8614-B
doterelle	105-9792-B
dothienenterie	105-9955-B
douaire	105-10834-B
douairier	105-13907-B
douairiere	105-14247-B
douane	105-14901-B
douaner	105-17698-B
douanier	105-17839-B
douar	105-18234-B
doublage	105-18518-B
doublant ante	105-19412-B
double	61-118778-S,96-250272-S,105-19756-B,163-176630-S,326-149649-S,333-214744-S
double aubier	105-38207-B
double bec	105-38401-B
double becassine	105-38715-B
double bouche	105-38514-B
double bulbe	105-38619-B
double canon	105-38835-B
double chaine	105-39167-B
double chaloupe	105-38980-B
double ee	105-57268-B,333-215190-S
double feuille	105-39292-B
double front	105-39430-B
double macreuse	105-39614-B
double main	105-39708-B
doubleau	18-63642-S,105-39885-B
doublement	105-40281-B,105-41966-B
doubler	105-43018-B
doublerie	105-49149-B
doublet	105-49349-B
doublete	105-51927-B
doublette	105-51433-B
doubleur euse	105-52088-B
doubleuse	105-52872-B
doublier	105-53025-B
doubliere	105-53366-B
doublis	105-53130-B,333-215061-S
doubloir	105-53522-B
doublon	105-53704-B
doublonne	105-55459-B
doublot	105-55567-B
doublure	105-55689-B
douc	105-59253-B
douce	7-108981-S,105-59420-B,105-82381-B,105-139888-S
douce amere	105-59512-B
douceatre	105-77776-B
doucement	105-59851-B
doucerette	105-64214-B
doucereusement	105-64341-B
doucereux euse	105-64473-B
doucet	105-66944-B
doucet ette	105-67134-B
doucette	105-68100-B,105-68229-B
doucettement	105-68427-B
douceur	105-68641-B
douche	105-78464-B
douche ee	105-80166-B
doucher	105-79695-B
doucheur euse	105-79996-B
douchi	105-80245-S
douci ie	105-80433-B
douci ou douchi	105-80245-B
doucin	105-80527-B,105-80644-B
doucine	105-81242-B
doucinelle	105-82109-B
doucir	105-82175-B
doucissage	105-82295-B
doue ee	105-163944-B
douelle	105-82820-B
douelliere	105-83650-B
douer	105-83851-B
douet	105-85554-B
douge	105-85740-B
douil	105-85806-B
douillage	105-85937-B
douille	105-86205-B
douillet ette	105-87908-B
douillette	105-89850-B
douillettement	105-90175-B
douilletter	105-90475-B
douilleux euse	105-90672-B
douillon	105-90997-B
doules	105-91130-B
douleur	105-91262-B,332-276390-S
douloir se	105-96833-B
douloureusement	105-100434-B
douloureux euse	105-101296-B
doum	105-105063-B
doupion	105-105617-B
dourah	105-105981-B
dourian	105-106374-B
douro	105-106437-B
doussin	105-106863-B
doute	105-107014-B
douter	105-115394-B
douteur	105-127929-B
douteusement	105-128741-B
douteux euse	105-129646-B
doutis	105-134862-B
douvain	105-134945-B
douve	105-135087-B,105-138604-B,105-138988-B,105-139740-B
douvelle	105-139225-B
douverret	105-139556-B
douville	105-139673-B
doux a l agneau	105-155562-S
doux agnel ou doux a l agneau	105-155562-B
doux aux guepes	105-155718-B
doux ballon	105-155810-B
doux douce	7-108981-S,105-139888-B
doux vert	105-155883-B
douzain	105-155941-B
douzaine	105-156656-B
douze	105-159534-B,186-84236-S
douzenier	105-161967-B
douzieme	105-162694-B
douziemement	105-163795-B
douzil	105-162097-B
doxologie	105-164292-B
doxologique	105-164616-B
doyen	105-164739-B,333-215603-S
doyenne	105-167314-B,105-167579-B
doyennete	105-167491-B
doyoussa	105-168479-B
draban	105-168681-B
dracenace ee	105-173450-B
dracene	105-173291-B
drache	105-169043-B,105-169088-B
drachme	105-169190-B
dracine	105-170510-B
dracocephale	105-170606-B
draconcule	105-170938-B
draconien ienne	105-171321-B,105-171578-B
draconine	105-171721-B
draconite	105-171815-B
draconte	105-172002-B
dracontiase	105-172093-B
dracontion	105-172368-B
dracontique	105-172693-B
dracontisome	105-172888-B
dracontocephale	105-173139-B
dragage	105-173573-B
dragan	105-173623-B
dragante	105-173747-B
drage	105-173867-B
dragee	105-191973-B
drageoir	105-174024-B,105-174677-B
drageon	105-174834-B
drageonnement	105-175501-B
drageonner	105-175781-B
dragoman	105-175958-B
dragon	105-176010-B,321-109535-S
dragon ou sang dragon	321-109535-S
dragonnade	105-185371-B
dragonne	105-185976-B,105-186348-B
dragonne ee	105-188079-B
dragonneau	105-186733-B
dragonner	105-187377-B
dragonnier	105-187780-B
draguage	105-188257-B
drague	105-188382-B,105-189964-B
drague ee	105-191873-B
draguer	105-190375-B
draguette	105-191185-B
dragueur euse	105-191297-B
draille	105-195227-B
drain	105-195585-B
drainage	105-196246-B
draine	105-196683-B
drainer	105-196943-B
drainette	105-197638-B
draineur	105-197815-B
draisienne	105-197907-B
draiure	105-198334-B
drakee	105-198384-B
dramatique	105-198488-B
dramatiquement	105-200651-B
dramatiser	105-200898-B
dramatiste	105-201203-B
dramaturge	106-0-B
dramaturgie	106-472-B
dramaturgique	106-1174-B
drame	106-1260-B
dran	106-3230-B
dranet	106-3295-B
dranguel	106-3455-B
dranguette	106-3563-B
drap	106-3640-B
drapade	106-11428-B
drapant	106-11522-B
drape ee	106-24057-B
drapeau	106-12100-B,276-101194-S
drapelet	106-17436-B
drapement	106-17763-B
draper	106-17941-B
draperie	106-20982-B
drapier	106-22946-B
drapiere	106-23913-B
drasse	106-24570-B
drastique	106-24620-B
drave	106-25339-B
dravidien ienne	106-25528-B
dravidique	106-25737-B
dravidisme	106-26094-B
dravidiste	106-26172-B
draviere	106-26279-B
dravoire	106-26468-B
draw back	106-26521-B
drayage	106-26935-B
draye	106-27017-B
drayer	106-27411-B
drayoire	106-27592-B
drayure	106-27676-B
dreche	106-135659-B
drege	106-135091-B,106-135191-B
dreger	106-135235-B
dreige	106-27801-B
dreigeur	106-27939-B
dreligne	106-28078-B
drelin	106-28148-B
drenne	106-28653-B
drepanophore	106-135502-B
dressage	106-28721-B
dressant	106-29564-B
dresse	106-30051-B
dresse ee	106-47552-B
dressee	106-49200-B
dressement	106-30295-B
dresser	106-30843-B
dresseur	106-45262-B
dresseuse	106-46105-B
dressoir	106-46283-B
dret drette	106-49452-B
drette	106-49452-S
drift	106-49614-B
drill	106-49996-B,106-50126-B
drillard ou drille	106-50191-B
drille	106-50191-S,106-50423-B,106-50575-B
driller	106-52150-B
drilles	106-53128-B
drilleux euse	106-53696-B
drillier	106-53805-B
drimyrrhizees	106-53978-B
drin	106-54163-B
drisse	106-54330-B
drivonette	106-54608-B
droc	106-54669-B
drogman	106-54782-B
drogmanat	106-55642-B
drogue	106-55739-B,106-58580-B,106-59270-B
drogue ee	106-64982-B
droguement	106-59507-B
droguer	106-59702-B,106-60448-B
droguerie	106-60650-B,106-61361-B
droguet	106-61489-B
droguetier	106-62758-B
drogueur	106-63021-B,106-63245-B,106-63858-B
droguier	106-64458-B
droguiste	106-64868-B
droit	37-146983-S,106-65213-B,259-240315-S,267-128414-S
droit droite	106-90142-B,106-102817-B
droite	106-90142-S,106-102817-S
droitement	106-107368-B
droiteure	106-108873-B
droitier ere	106-109059-B
droiture	106-109434-B
droiturier iere	106-113610-B
drolatique	106-114776-B
drolatiquement	106-115449-B
drole	106-136694-B
drolement	106-141378-B
drolerie	106-141710-B
drolesse	106-143664-B
drolette	106-144467-B
dromadaire	106-115578-B
dromadairerie	106-116259-B
dromalectore	106-116684-B
drome	106-116875-B
dromee	106-119061-B
dromie	106-117649-B
dromon	106-117957-B
dromornithe	106-118426-B
dromoscopique	106-118612-B
drongo	106-119152-B
dronte	106-119260-B
drop	106-119410-B
dropacisme	106-119645-B
dropax	106-119872-B
droschki	106-120067-B
drosera	106-121794-B
droseracees	106-122103-B
drosometre	106-120266-B
drosometrie	106-120430-B
drosse	106-120524-B
drosser	106-121499-B
drosseur	106-121742-B
droue	106-122553-B
drouillet	106-122667-B
drouillette	106-122884-B
drouine	106-123015-B
drouinier	106-123206-B
droussage	106-123451-B
drousse	106-123520-B
drousser	106-123595-B
droussette	106-123675-B
drousseur	106-123769-B
dru	233-64065-S
dru drue	106-123999-B
drue	106-123999-S,106-128600-B
druge	106-128654-B
drugeon	106-128924-B
druidal ale	106-129091-B
druide	106-129431-B
druidesse	106-131271-B
druidique	106-131498-B
druidisme	106-131805-B
drupace ee	106-132142-B
drupe	106-132438-B
drupeole ee	106-133028-B
drupeole ou drupole	106-132873-B
drupifere	106-132741-B
drupole	106-132873-S
druse	106-133200-B
drusiforme	106-133399-B
drusillaire	106-133527-B
drusique	106-133652-B
druzelle	106-133762-B
dryade	106-133821-B
dryade ee	106-134296-B
dryin	106-134549-B
dryite	106-134631-B
dryophile	106-134835-B
du	106-144690-B,122-15325-B
du canada	225-32837-S
du chat	96-252711-S
du corps	142-74171-S
du diable	303-197713-S
du due	122-16207-B
du perou	242-276264-S
du poids	26-145306-S,26-145351-S
dualine	106-145976-B
dualisme	106-146371-B
dualiste	106-147094-B
dualistique	106-147223-B
dualite	106-147476-B
duarchie	106-148144-B
dub	106-148298-B
dubitateur	106-148558-B
dubitatif ive	106-148940-B
dubitation	106-149363-B
dubitativement	106-149967-B
duc	25-172762-S,106-150099-B,106-150849-B
ducal ale	106-153396-B,163-114381-S
ducasse	106-154362-B
