arnicine	19-129963-B
arnier	19-26643-S
arnique	19-129600-S
aroidees	20-255-B
arolle	19-130056-B
aromate	19-130320-B
aromaticite	19-131644-B
aromatique	19-131986-B
aromatisation	19-132450-B
aromatise ee	19-133175-B
aromatiser	19-132575-B
arome	19-133269-B
arompo	19-133820-B
aronde	19-133999-B,79-24183-S
aroutine ee	20-0-B
arpailleur	20-397-B
arpege	20-6075-B
arpegement	20-6450-B
arpeger	20-6629-B
arpent	20-494-B
arpentage	20-2907-B
arpente ee	20-5914-B
arpentement	20-3370-B
arpenter	20-3840-B
arpenteur	20-5145-B
arpenteuse	20-5588-B,96-245198-S
arpon	20-5975-B
arque ee	20-15315-B
arquebusade	20-6952-B
arquebuse	20-7751-B,276-90239-S
arquebuse ee	20-13949-B
arquebuser	20-11877-B
arquebuser s 	131-48806-S
arquebuserie	20-12418-B
arquebusier	20-12954-B
arquer	20-14116-B
arquet	20-14696-B
arr	20-16111-B
arrachage	20-16248-B
arrache	353-131643-S
arrache ee	20-27349-B
arrache pied d 	20-16340-B
arrache sonde	20-16826-B
arrachement	20-17058-B
arracher	20-17959-B
arracheur euse	20-25931-B
arrachis	20-26511-B
arrachoir	20-27212-B
arraisonne ee	20-30840-B
arraisonnement	20-28216-B
arraisonner	20-29098-B
arrange ee	20-37317-B
arrangeant ante	20-30944-B
arrangement	20-31101-B
arranger	20-33403-B
arrangeur	20-37009-B
arratel	20-38424-B
arrente ee	20-39723-B
arrentement	20-38585-B
arrenter	20-39351-B
arrerager	20-95387-B
arrerages	20-95758-B
arrestation	20-39804-B
arrestographe	20-40632-B
arret	20-97225-B
arret et saisie brandon et saisie execution et saisie gagerie et saisie revendication	320-120432-S
arretable	20-104571-B
arretant	20-105053-B
arrete	20-121804-B
arrete boeuf	20-105165-B
arrete ee	20-122024-B
arretement	20-105641-B
arreter	20-105825-B,320-137542-S
arreteur	20-121167-B
arretiste	20-121296-B
arretoir	20-121520-B
arrhe ee	20-43686-B
arrhement	20-40897-B
arrher	20-40977-B
arrhes	20-41317-B
arrhize	20-43462-B
arriere	20-55643-B
arriere alliance	20-60915-B
arriere ban	20-61155-B
arriere bec	20-64101-B
arriere bouche	20-64336-B
arriere boutique	20-64479-B
arriere cabinet	20-64613-B
arriere cadet	20-65142-B
arriere caution	20-65408-B
arriere chambre	20-65527-B
arriere change	20-65713-B
arriere charte	20-65841-B
arriere choeur	20-66026-B
arriere corps	20-66178-B
arriere cour	20-66585-B
arriere demi file	20-66710-B
arriere ee	20-78107-B
arriere faix	20-66911-B
arriere fente	20-67514-B
arriere fermier	20-67687-B
arriere fief	20-67877-B
arriere fleur	20-68540-B
arriere foin	20-68789-B
arriere froidure	20-68900-B
arriere garant	20-69122-B
arriere garde	20-69254-B
arriere gout	20-70218-B
arriere graisse	20-70417-B
arriere main	20-70613-B
arriere molaire	20-71566-B
arriere narines	20-71727-B
arriere neveu	20-71912-B
arriere niece	20-72382-B
arriere panage	20-72547-B
arriere pensee	20-72754-B
arriere petit fils	20-73099-B
arriere petits enfants	20-73346-B
arriere plan	20-73481-B
arriere point	20-73755-B
arriere pointeuse	20-73947-B
arriere radier	20-74088-B
arriere rang	20-74141-B
arriere saison	20-74261-B
arriere sens	20-75302-B
arriere train	20-75671-B
arriere vassal	20-76042-B
arriere vassalite	20-76257-B
arriere vieillesse	20-76413-B
arriere voussure	20-76586-B
arrierer	20-76851-B
arrimage	20-43763-B
arrime ee	20-45077-B
arrimer	20-43984-B
arrimeur	20-44777-B
arrioler s 	20-45160-B
arrise ee	20-45493-B
arriser	20-45350-B
arrivage	20-45550-B
arrive ee	20-53434-B
arrivee	20-54915-B
arriver	20-46080-B,376-133022-S
arrobe	20-78760-B
arroche	20-79309-B
arrogamment	20-79809-B
arrogance	20-80411-B
arrogant ante	20-81672-B
arroger s 	20-82929-B
arroi	20-83689-B
arrondi ie	20-85325-B
arrondir	20-85837-B
arrondissage	20-87317-B
arrondissement	20-87484-B,333-201664-S
arrondisseur	20-89077-B
arrosable	20-89188-B
arrosage	20-89431-B
arrose ee	20-94406-B
arrosement	20-89711-B
arroser	20-90659-B
arrosoir	20-94122-B
arrow root	20-94816-B
arrugie	20-95178-B
ars	20-123378-B,194-182893-S
ars arse	19-23419-S,20-124828-B
arse	19-23419-S,20-124828-S,380-145148-S,380-145670-S,386-141728-S
arsenal	20-124901-B
arseniate	20-132415-B
arsenic	20-127773-B
arsenical ale	20-129410-B
arsenicophage	20-129781-B
arsenie ee	20-133247-B
arsenieux	20-132596-B
arsenifere	20-132748-B
arsenique	20-132797-B,20-132915-B
arsenite	20-132967-B
arseniure	20-133134-B
arsin	20-130213-B
arsis	20-131165-B
arsouille	20-131912-B
arsouiller	20-132051-B
art	20-133432-B,20-139374-B
artaban	20-139454-B
arte	292-80228-S
artelle	20-139839-B
artemise	21-7318-B
artemonien	21-7507-B
artere	21-6132-B,279-239620-S,357-45021-S
arterialisation	21-7651-B
arterialise ee	21-7934-B
arterialiser	21-7829-B
arteriel elle	21-8077-B
arterieux euse	21-8998-B
arteriole	21-9540-B
arteriologie	21-9694-B
arteriotomie	21-9866-B
arterite	127-73197-S
artesien enne	21-10239-B
arthralgie	20-139959-B
arthrite	20-140147-B
arthritique	20-140320-B
arthrodial ale	20-141042-B
arthrodie	20-141175-B
arthrodiees	20-141555-B
arthropyose	20-141733-B
artichaud	20-141895-B
artichaut	20-142397-B
artichautiere	20-143670-B
article	20-143817-B
articulaire	20-149796-B,274-19931-S
articulairement	20-150514-B
articulat	20-150933-B
articulation	20-151190-B
articule ee	20-155097-B
articulement	20-156202-B
articuler	20-152661-B
artien	20-156494-B
artifice	20-157147-B
artificiel elle	20-160318-B
artificiellement	20-163246-B
artificier	20-164122-B
artificieusement	20-164527-B
artificieux euse	20-165069-B
artille ee	20-169277-B
artiller	20-166367-B
artillerie	20-166599-B
artilleur	20-168826-B
artimon	20-170939-B
artiozoaire	20-171291-B
artisan	20-171463-B
artison	21-0-B
artisonne ee	21-1668-B
artiste	21-1777-B
artistement	21-3987-B
artistique	21-4760-B
artocarpe	21-5066-B
artolatre	21-5440-B
artolithe	21-5219-B
artophage	21-5753-B
artotyrite	21-5876-B
arum	21-10495-B
arundel	21-10774-B
arundinacees	21-10994-B
aruspice	21-11146-B
aruspicine	21-11557-B
arvales	21-11696-B
arvicole	21-11987-B
aryaque	21-12201-B
aryballe	21-12823-B
aryen enne	21-13069-B
arytenoide	21-13391-B
arytenoidien ienne	87-122901-S
arzegaye	21-13972-B
arzel	21-14173-B
as	21-29257-B
asacramentaire	21-31666-B
asaret	21-32016-B
asarine	21-32338-B
asbeste	21-32428-B,285-273064-S
asboline	21-32804-B
ascaride	21-32947-B
ascele	21-43653-B
ascendance	21-33617-B
ascendant	21-34410-B
ascendant ante	21-37370-B
ascenseur	21-39009-B
ascension	21-39490-B
ascensionnel elle	21-40727-B
ascensionniste	21-41015-B
ascete	21-43801-B
ascetique	21-43986-B
ascetisme	21-44410-B
aschee	21-41196-B
ascidie	21-41353-B
asciens	21-41527-B
ascite	21-41879-B,21-42163-B
ascitique	21-42408-B
asclepiade	21-42524-B,21-42936-B
asclepiion	21-43284-B
ascophore	21-43470-B
ascot	21-43610-B
aseite	22-158373-B
asia	21-44504-B
asialie	21-44588-B
asiarchat	21-44703-B
asiarque	21-44882-B
asiatique	21-45036-B
asile ou asyle	21-45151-B,21-47784-B
asinaire	21-47894-B
asine	21-48256-B
asiner	21-48725-B
asinifier s 	21-48964-B
asinine	21-49216-B
asion	21-49657-B
asitie	21-49771-B
asmodee	21-49956-B
asparagine	21-50522-B
aspe ou asple	21-50688-B
aspect	21-51080-B
asperge	21-54738-B
asperge ee	21-58186-B
aspergement	21-55399-B
asperger	21-56006-B
asperges	21-57331-B
aspergiere	21-57007-B
aspergilliforme	21-56828-B
aspericorne	21-74006-B
asperifolie ee	21-74183-B
asperite	21-74372-B
asperme	21-58333-B
aspermie	21-58502-B
aspersion	21-58605-B
aspersoir	21-59283-B
asperule	21-75517-B
asphaltage	21-59680-B
asphalte	21-59822-B
asphodele	21-60213-B
asphyxiant ante	21-61029-B
asphyxie	21-61124-B
asphyxie ee	21-62595-B
asphyxier	21-61535-B
asphyxique	21-62187-B
aspic	21-62743-B,21-63910-B,21-64397-B
aspidocephale	21-64889-B
aspidophore	21-65045-B
aspiole	21-65207-B
aspirail	21-65729-B
aspirance	21-65890-B
aspirant ante	21-66257-B,21-66408-B
aspirateur trice	21-66751-B
aspiratif ive	21-66943-B
aspiration	21-67317-B
aspire ee	21-72245-B
aspirer	21-68696-B
asple	21-50688-S,21-72623-B
aspre	21-72675-B
assa	21-75715-B
assagir	21-76110-B
assagissement	21-76873-B
assai	21-77294-B
assaillant	21-77495-B
assailleur	21-78151-B
assailli ie	21-78287-B
assaillir	21-78636-B,78-0-S
assaini ie	21-83574-B
assainir	21-83693-B
assainissement	21-83928-B
assaisonnant ante	21-84095-B
assaisonne ee	21-87652-B
assaisonnement	21-84385-B
assaisonner	21-85296-B
assaisonneur	21-87542-B
assaki	21-87838-B
assassin	21-88655-B
assassin ine	21-92295-B
assassinant ante	21-92824-B
assassinat	21-93173-B
assassinateur	21-94250-B
assassine ee	21-96857-B
assassiner	21-94578-B
assassiner s 	131-49047-S
assassineur euse	21-96525-B
assation	21-97210-B
assaugue ou essaugue	8-108423-S
assaut	21-97551-B
assauvagir	21-100685-B
assavoir	21-101304-B
asse	21-102729-B,163-162869-S
asseau	21-102901-B
assec	21-103255-B
assechage	22-129568-B
assechement	22-129784-B
assecher	22-129886-B
asseieur	22-131052-B
assemblage	21-103383-B
assemble ee	21-111822-B
assemble nuages	21-104799-B
assemblee	21-112839-B,78-291-S
assemblement	21-105120-B
assembler	21-105788-B
assembleur euse	21-111323-B
assene ee	21-121232-B
assener	21-115043-B
assentement ou assentiment	21-118105-B
assentiment	21-118105-S,21-118506-B
assentir	21-119769-B,21-120995-B
asseoir	21-121514-B
assermente ee	21-132220-B
assermenter	21-131762-B
assertif ive	22-0-B
assertion	22-203-B
assertivement	22-983-B
assertoire ou assertorique	22-1247-B
assertorique	22-1247-S,22-1557-B
asservi ie	22-1624-B
asservir	22-2803-B
asservissable	22-5727-B
asservissant ante	22-5843-B
asservissement	22-5950-B
asservisseur	22-6318-B
assesseur	22-6615-B
assessoral ale	22-7421-B
assessorat	22-7559-B
assessorial ale	22-7622-B
assette	22-7730-B
assez	22-8083-B
assibilation	22-16357-B
assibiler	22-16866-B
assidu ue	22-17127-B
assiduite	22-19472-B
assidument	22-20777-B
assiege ee	22-58980-B
assiegeant ante	22-55337-B
assiegement	22-55588-B
assieger	22-55869-B,78-643-S
assiegeur	22-58854-B
assien ienne	22-21939-B
assiente ou assiento	22-22149-B
assientiste	22-22454-B
assiento	22-22149-S
assiette	22-22589-B,269-37442-S,276-90431-S
assiettee	22-32060-B
assiettes	61-118138-S
assignable	22-32182-B
assignat	22-32924-B
assignation	22-33606-B
assigne ee	22-38853-B
assigner	22-35335-B
assigner s 	131-49300-S
assimilabilite	22-39528-B
assimilable	22-39767-B
assimilant ante	22-39841-B
assimilateur trice	22-40049-B
assimilatif ive	22-40197-B
assimilation	22-40676-B
assimile ee	22-43591-B
assimiler	22-42028-B
assis ise	22-43775-B
assise	22-44912-B
assistance	22-48355-B
assistant ante	22-50799-B
assiste ee	22-55023-B
assister	22-52002-B
associable	22-59649-B
association	22-59865-B
associationisme	22-60517-B
associationiste	22-60818-B
associe ee	22-64747-B
associement	22-61073-B
associer	22-61330-B
assogue	22-65762-B
assole ee	22-66339-B
assolement	22-65991-B
assoler	22-66206-B
assombri ie	22-66449-B
assombrir	22-66636-B
assombrissement	22-66990-B
assommant ante	22-67219-B
assomme ee	22-71986-B
assommeiller s 	22-67624-B
assommement	22-67892-B
assommer	22-68204-B
assommer s 	131-49610-S
assommeur	22-71199-B
assommoir	22-71350-B
assomptif ive	22-72209-B
assomption	22-72550-B
assonah	22-73541-B
assonance	22-73657-B
assonant ante	22-74409-B
assorath	22-74576-B
assorti ie	22-74669-B
assortiment	22-75680-B
assortir	22-77192-B
assortissant ante	22-80803-B
assortisseur	22-81213-B
assortissoir	22-81430-B
assortissoire	22-81624-B
assote ee	22-83034-B
assoter	22-81759-B
assouchement	22-83273-B
assoupi ie	22-83416-B
assoupir	22-84316-B
assoupissant ante	22-86522-B
assoupissement	22-86658-B
assoupli ie	22-87451-B
assouplir	22-87647-B
assourdi ie	22-88889-B
assourdir	22-89347-B
assourdissant ante	22-90392-B
assourdissement	22-90519-B
assouvi ie	22-90837-B
assouvir	22-91407-B
assouvissement	22-95730-B
assujeti ie et aussi assujetti ie	22-96274-B
assujetir et aussi assujettir	22-97123-B
assujetissant ante et assujettissant ante	22-98911-B
assujetissement et assujettissement	22-99103-B
assujetti ie	22-96274-S
assujettir	22-97123-S
assujettissant ante	22-98911-S
