pyrale ee	288-2090-B
pyrallolite	288-2022-B
pyrame	288-2236-B
pyramidal ale	288-2564-B
pyramidale	288-4170-B
pyramide	288-4290-B
pyramider	288-8593-B
pyramidion	288-9409-B
pyramidoide	288-9567-B
pyramydographie	288-9746-B
pyree	288-36194-B
pyrelaine	288-36566-B
pyrenaine	288-36711-B
pyrene	288-35579-B
pyreneen enne	288-37128-B,334-17399-S
pyreneite	288-37251-B
pyrenoide	288-37011-B
pyrethre	288-35731-B
pyrethrine	288-37347-B
pyretique	288-37482-B
pyretologie	288-37602-B
pyretologique	288-37763-B
pyretologiste	288-37854-B
pyrexie	288-9913-B
pyrheliometre	288-10133-B
pyrheliometrique	288-10354-B
pyridine	288-10594-B
pyriforme	288-10709-B
pyrilampe	288-10766-B
pyrique	288-10867-B
pyrite	288-11142-B
pyriteux euse	288-11842-B
pyritifere	288-12175-B
pyritiforme	288-12044-B
pyritiser	288-12323-B
pyro	288-12409-B
pyroacetique	288-12551-B
pyrobalistique	288-12748-B
pyrobole	288-12909-B
pyrobolique	288-13090-B
pyrochimie	288-13236-B
pyrochlore	288-13330-B
pyrochroides	288-13430-B
pyrocitrique	288-13591-B
pyrodes	288-13708-B
pyrodigitaline	288-13873-B
pyroelectricite	288-27982-B
pyroelectrique	288-28352-B
pyrogallique	288-14028-B
pyrogene	288-14973-B
pyrogene ee	288-15112-B
pyrogenese	288-14257-B
pyrogenetique	288-15513-B
pyrognostique	288-14329-B
pyrographique	288-14532-B
pyroide	288-28649-B
pyrolacees	288-15619-B
pyrolatre	288-16494-B
pyrolatrie	288-16601-B
pyrole	288-15716-B
pyroligneux euse	288-15761-B
pyrolignite	288-15958-B
pyrologie	288-16072-B
pyrolysite	288-16176-B
pyromancie	288-16667-B
pyromancien	288-16939-B
pyromanie	288-17120-B
pyromaque	288-17208-B
pyrometre	288-17715-B
pyrometrie	288-19174-B
pyrometrique	288-19311-B
pyromorphite	288-17410-B
pyromuqueux	288-17489-B
pyronomie	288-19508-B
pyrope	288-19638-B
pyrophage	288-19923-B
pyrophone	288-20035-B
pyrophore	288-20787-B
pyrophorique	288-22011-B
pyrophosphate	288-22196-B
pyrophyllite	288-22328-B
pyropine	288-22488-B
pyropneumatique	288-22639-B
pyroquinique	288-22897-B
pyrorthite	288-23046-B
pyroscaphe	288-23217-B
pyrosclerite	288-23334-B
pyroscope	288-23482-B
pyrosis	288-23948-B
pyrosome	288-24238-B
pyrosphere	288-24744-B
pyrostat	288-24908-B
pyrostearine	288-25027-B
pyrotartrate	288-25203-B
pyrotartrique	288-25319-B
pyrotechnie	288-25540-B
pyrotechnique	288-26280-B
pyrothonide	288-26513-B
pyrotique	288-26737-B
pyrovinique	288-26976-B
pyroxanthine	288-27157-B
pyroxene	288-27710-B
pyroxenique	288-27874-B
pyroxyle	288-27295-B
pyroxyline	288-27549-B
pyroxylique	288-27618-B
pyrrhique	288-28996-B,288-29801-B
pyrrhonien ienne	288-30018-B
pyrrhoniser	288-32127-B
pyrrhonisme	288-32281-B
pyrrhule	288-34234-B
pyrule	288-34663-B
pyruvique	288-35334-B
pythagore	288-37978-B
pythagoricien ienne	288-38331-B
pythagorique	288-39068-B
pythagoriser	288-39930-B
pythagorisme	288-40177-B
pythagoriste	288-40423-B
pythiade	288-40623-B
pythie	288-40953-B
pythien ienne	288-41260-B
pythiques	288-41566-B
python	288-41767-B
pythonisse	288-43147-B
pyulque	288-43714-B
pyurie	288-43925-B
pyxide	288-44074-B
pyxide ee	288-44727-B
pyxidie	288-44644-B
q	291-71874-B
qu admet aussi l academie boulevart	39-48597-S
qu en dira t on	291-73255-B
qu es aco ou qu es aquo	291-73703-B
qu es aquo	291-73703-S
qu est ce	260-40312-S
qua non	329-160877-S
quachi	291-74767-B
quadragenaire	291-75212-B
quadragesimal ale	291-75852-B
quadragesime	291-76321-B
quadragesimo	291-74859-B
quadrangle	291-76767-B
quadrangulaire	291-77415-B
quadrangule ee	291-77967-B
quadrans ou quadrant	291-78075-B
quadrant	291-78075-S
quadrat	291-78227-B
quadrat ate	291-78292-B
quadrateur	291-78573-B
quadratin	291-78705-B
quadratique	291-78760-B
quadratoriste	291-79025-B
quadratrice	291-79198-B
quadrature	291-79469-B,291-81371-B,291-81452-B
quadrer	291-81677-B
quadri	291-81734-B
quadri aile ee	291-82040-B
quadribasique	291-82156-B
quadricarbure	291-82487-B
quadricolore	291-82653-B
quadricotyledone ee	291-82787-B
quadricuspide ee	291-82972-B
quadridente ee	291-83132-B
quadridigite ee	291-83277-B
quadriennal	291-83505-B
quadriepointe ee	291-96770-B
quadrifascie ee	291-83570-B
quadrifide	291-83758-B
quadriflore	291-83990-B
quadrifolie ee	291-84283-B
quadrifoliole ee	291-84112-B
quadriforme	291-84500-B
quadrifurque ee	291-84744-B
quadrigamme ee	291-84895-B
quadrige	291-85325-B
quadrijugue ee	291-85791-B
quadrijumeaux	291-86008-B
quadrilateral ale	291-86582-B
quadrilatere	291-86209-B
quadrillage	291-86723-B
quadrille	291-87243-B,291-90481-B,291-91030-B,291-91391-B
quadrille ee	291-92001-B
quadrillion	291-91485-B
quadrilobe ee	291-92378-B
quadriloculaire	291-92512-B
quadrimanes	291-92678-B
quadrimestre	291-92868-B
quadringentesimo	291-92987-B
quadrinome	291-93389-B
quadriparti ie ou quadripartite	291-93594-B
quadripartite	291-93594-S
quadripartition	291-93830-B
quadriplombique	291-93976-B
quadriponctue ee	291-94172-B
quadrireme	291-94347-B
quadrisaieul eule	291-94731-B
quadrisel	291-95306-B
quadrisulfure	291-95613-B
quadrisyllabe	291-95816-B
quadrisyllabique	291-95964-B
quadrivalve ee	291-96065-S
quadrivalve ou quadrivalve ee	291-96065-B
quadrivalvule ee	291-96234-B
quadrivium	291-96337-B
quadroxalate	291-96972-B
quadroxyde	291-97149-B
quadrumane	291-97313-B
quadrupede	292-5641-B
quadruplateur	292-0-B
quadruple	292-108-B,334-17786-S
quadruple ee	292-5536-B
quadruplement	292-3696-B
quadrupler	292-4090-B
quadruplication	292-4759-B
quadruplique	292-5129-B
quai	292-7414-B
quaiage	292-9536-B
quaiche	292-9585-B
quairelle ou querelle	292-9769-B
quaker ou quakre	292-9951-B
quakerisme	292-11810-B
quakre	292-9951-S
qual	292-12058-B
qualifiable	292-12122-B
qualificateur	292-12206-B
qualificatif ive	292-12545-B
qualification	292-13111-B
qualifie ee	292-17438-B
qualifier	292-14371-B
qualitative	292-19378-B
qualite	292-19584-B
quamoclit	292-31183-B
quand	292-31346-B
quand est ce	292-41230-B
quanquam	292-41538-B
quanquan	292-42099-B
quant	292-42147-B
quant ante	292-45881-B
quantes	292-54552-B
quantieme	292-52547-B
quantitatif ive	292-47869-B
quantite	292-48326-B
quantum	292-54204-B
quarantain	292-54956-B,292-55260-B
quarantaine	292-55454-B,292-55755-B
quarantainier	292-59046-B
quarante	292-59118-B
quarante huit	186-86371-S
quarante langues	292-63596-B
quarantenaire	292-63718-B
quarantenier	292-64069-B
quarantie	292-64191-B
quarantieme	292-64740-B
quarantin	292-64352-B
quarderonne ee	292-65600-B
quarderonner	292-65363-B
quarre	292-65725-B,292-66490-B
quarrement	292-66540-B
quarrer	292-66395-B
quarrure	292-66440-B
quart	25-179956-S,37-73093-S,292-66601-B,326-153185-S
quart arte	292-80228-B
quart biscuite	292-83917-B
quart est	241-40860-S
quart nord	241-41025-S,241-42263-S
quart nord est	241-42623-S
quart nord ouest	241-42773-S
quart ouest	241-42440-S
quartager	292-84085-B
quartaieul eule	292-87229-B
quartaine	292-84178-B
quartaire	292-85157-B
quartan	292-85279-B
quartanier	292-85326-B
quartation	292-85508-B
quartaut	292-86020-B
quarte	292-87561-B
quarte fagot	292-90753-B
quartelot	292-90863-B
quartenaire	292-91696-B
quartenier	292-92366-B
quarter	292-93253-B
quarteron	292-93383-B
quarteron onne	292-95166-B
quartette	292-95381-B
quartetto	292-95460-B
quartidi	292-95582-B
quartier	150-29117-S,292-95729-B,303-37702-S,334-18160-S
quartier maitre	292-123872-B
quartier mestre	292-125247-B
quartil	292-125448-B
quartile	292-125497-B,326-153304-S
quartine	292-125934-B
quartinier	292-126144-B
quarto	186-86623-S,292-126204-B,292-126444-B
quarto deciman ane	292-126486-B
quarts	361-106704-S,362-8550-S,362-8861-S
quartz	292-127407-B
quartzeux euse	292-129154-B,347-87745-S
quartzifere	292-129620-B
quartziforme	292-129509-B
quartzite	292-129723-B
quas	292-129799-B
quasi	292-129836-B,292-132282-B
quasi contrat	292-132388-B
quasi delit	292-132755-B
quasi faux	292-132880-B
quasi legitimite	292-133129-B
quasi restauration	292-133376-B
quasiment	292-133584-B
quasimodo	292-133915-B
quassia	292-134521-B
quassier	292-134892-B
quassine	292-135064-B
quassite	292-135118-B
quater	292-135276-B
quaternaire	292-135452-B
quaterne	292-136379-B
quaterne ee	292-137443-B
quaternifolie ee	292-136708-B
quaternite	292-136874-B
quatorzaine	292-137765-B
quatorze	292-137978-B
quatorzieme	292-142060-B
quatorziemement	292-143370-B
quatrain	292-143503-B,292-144130-B,292-144699-B,373-165534-S
quatre	98-11489-S,186-87602-S,186-88420-S,292-144844-B
quatre cornes	292-155211-B
quatre deux a la	330-44888-S
quatre nations	292-155299-B
quatre oeil	292-155543-B
quatre pieds	292-155613-B
quatre quint	292-155723-B
quatre quinze	292-155901-B
quatre temps	292-156060-B
quatre vingt	292-156548-B
quatre vingt seize	186-87020-S
quatre vingtieme	292-156605-B
quatre vingts	292-157215-B
quatrieme	292-161249-B
quatriemement	292-164384-B
quatriennal ale	292-160389-B
quatrillion	292-161090-B
quatrin	292-161199-B
quattrocentiste	292-164507-B
quatuor	292-164746-B
quatuorvir	292-166275-B
quatuorviral ale	292-166731-B
quatuorvirat	292-166884-B
quayage	292-167211-B
que	200-95901-S,257-71244-S,257-100977-S,278-127905-S,278-210009-S,292-167514-B,292-209308-B,292-233873-B,292-234050-S,292-258850-S
que parfait	272-120253-S
quebot	293-191507-B
quel que	292-234050-B
quel quelle	292-238093-B
quelconque	292-246736-B
quelle	292-238093-S
quellement	292-248616-B
quelqu un une	292-249361-B
quelque	292-253556-B
quelque que	292-258850-B
quelquefois	292-265712-B
quelquefois ambrosie	11-44284-S
quelquefois aqua tinte	17-217498-S
quelques uns chancel	51-4307-S
quelques uns dit l academie cuillere	91-15881-S
quelques uns ecrivent dit l academie devoument	121-169582-S
quemand ande	293-191656-B
quemander	293-192486-B
quemanderie	293-192710-B
quemandeur euse	293-192784-B
quenaille	292-267105-B
quenelle	292-267567-B
quennon	292-268470-B
quenolle	292-268701-B
quenot	293-192885-B
quenotte	292-269236-B
quenouille	292-270453-B
quenouillee	292-276409-B
quenouillere	292-275937-B
quenouillette	292-275221-B
quenouillon	292-275797-B
querabilite	293-192972-B
querable	294-0-B
querce	292-276789-B
quercicole	292-276917-B
quercine	292-277070-B
quercite	292-277259-B
quercitrin	292-277397-B
quercitron	292-277566-B
querelle	292-9769-S,292-277796-B
querelle ee	292-291319-B
quereller	292-284453-B
quereller s 	132-34706-S
querelleur euse	292-289162-B
querelleux euse	292-290195-B
quereux	292-291687-B
querimonie	294-180-B
querir	292-291949-B
querre	292-294286-B,292-294361-B
quertin	292-294737-B
quesnellisme	292-295052-B
quesnelliste	292-295297-B
quessoy	292-295490-B
questal ale	292-295672-B
questche wasser	292-296183-B
questeur	292-296363-B
question	292-296826-B
questionnaire	292-309900-B,292-310729-B
questionnant ante	292-311120-B
questionne ee	292-314245-B
questionnement	292-311302-B
questionner	292-311489-B
questionneur euse	292-313322-B
questure	292-314518-B
quet	292-314781-B
quete	294-807-B,294-4626-B
quete ee	294-8639-B
queter	294-4972-B
queteur euse	294-7603-B
quetsche	292-314950-B
quetschier	292-315049-B
queue	28-118714-S,31-75158-S,35-91478-S,41-78032-S,44-99245-S,84-218318-S,85-195571-S,148-307783-S,171-119433-S,253-107510-S,263-52222-S,276-112807-S,292-315186-B,292-344532-B,292-344628-B,304-13733-S,312-71305-S,362-175470-S
queue d aronde	79-24183-S
queue du chat	96-252711-S
queuleuleu	292-345458-B
queumi	293-0-S
queuser	292-345915-B
queussi queumi	293-0-B
queute ee	293-749-B
queuter	293-570-B
queux	293-1134-B,293-2313-B
qui	293-3468-B
qui gardent	156-87551-S
qui peut	323-117033-S
qui se dit tantot des personnes qui gardent	156-87551-S
qui va la	293-35964-B
qui vive	293-36807-B
quia	293-38297-B
quibus	293-39355-B
quiche	293-40247-B
quichee	293-40350-B
quichotte	104-95238-S
quichottisme	104-95869-S
quiconque	293-40976-B
quidam	293-46575-B
quiddite	293-48030-B
quiescence	293-48621-B
quiescent ente	293-48701-B
quiet ete	293-49821-B
quietement	293-153114-B
quietisme	293-153334-B
quietiste	293-155202-B
quietude	293-156309-B
quignon	293-50257-B
quilai	293-51017-B
quilboquet	293-51186-B
quiledin	293-51388-B
quillage	293-51642-B
quille	79-24411-S,293-51989-B,293-53509-B,293-61169-B
quille ee	293-61310-B
quiller	293-58444-B
quillette	293-59132-B
quillier	293-59627-B,293-59852-B
quillion	293-60047-B
quilloir	293-60413-B
quillon	293-60603-B
quina	293-61444-B
quinaire	293-61718-B,293-62214-B,326-153457-S
quinaquina	293-63007-B
quinate	293-63405-B
quinaud aude	293-63452-B
quinauderie	293-64533-B
quincaille	293-64838-B
quincaillerie	293-65924-B
quincailleur	293-67268-B
quincaillier	293-67467-B
quincajou	293-67968-B
quinconce	293-68023-B
quinconcial ale	293-69234-B
quinconneau	293-118401-B
quincyte	293-69625-B
quindecagone	293-70403-B
quindecemvirs ou mieux quindecimvirs puisque le latin est quindecimviri	293-70574-B
quindecennal ale	293-71158-B
quindecimviral ale	293-71548-B
quindecimvirat	293-71660-B
quindecimviri	293-70574-S
quindecimvirs puisque le latin est quindecimviri	293-70574-S
quindente ee	293-69746-B
quindigitaire	293-69924-B
quine	293-71797-B
quine ee	293-118580-B
quinetine	293-118693-B
quingentesimo	293-72515-B
quinicine	293-72868-B
quinidine	293-72995-B
quinine	293-73158-B
quinique	293-73524-B
