repare ee	317-49735-B
reparee	317-50847-B
reparer	305-123313-B,317-35838-B
reparition	317-45867-B
reparler	305-123544-B
reparon	305-124737-B
repart	305-125099-B
repartager	305-125517-B
repartement	317-45955-B
reparti ie	305-125740-B,305-125875-B,317-46207-B
repartie	305-126000-B
repartir	305-128537-B,305-129680-B,317-46465-B
repartissable	317-48118-B
repartiteur	317-48327-B
repartition	317-48769-B,334-19389-S
reparton	305-130525-B
repartonnage	305-130622-B
repas	305-130953-B
repassage	305-134196-B
repasse	305-134810-B
repasse ee	305-148847-B
repasser	305-135086-B
repasseresse	305-148128-B
repassette	305-148237-B
repasseur	305-148350-B
repasseuse	305-148611-B
repatriage ou repatriement	305-149468-B
repatriement	305-149468-S
repatrier	305-149777-B
repaumer	305-150233-B
repavage	305-150370-B
repave ee	305-150871-B
repavement	305-150586-B
repaver	305-150648-B
repayer	305-151016-B
repechage	306-128872-B
repeche	306-128975-B
repeche ee	306-130283-B
repecher	306-129157-B
repecheur	306-129689-B
repeindre	305-155945-B
repeint einte	305-157197-B
repeler	305-157700-B
rependre	305-157809-B
repenelle	305-158149-B
repenser	305-158402-B
repentance	305-160164-B
repentant ante	305-162012-B
repenti ie	305-162746-B
repentir	305-163924-B
repentir se	305-166844-B
repepion	306-127061-B
reperage	306-127155-B
reperce ee	305-171039-B
repercee	305-171369-B
repercer	305-170642-B
reperceur euse	305-170938-B
repercussif ive	317-50897-B
repercussion	317-51988-B
repercute ee	317-54832-B
repercuter	317-53545-B
reperdre	305-171557-B
reperdu ue	305-173221-B
repere	306-125672-B
reperer	306-127866-B
repertoire	317-55046-B
repeser	305-173327-B
repetaille ee	317-159731-B
repetailler	317-159447-B
repetasser	305-173853-B
repete ee	317-178806-B
repeter	317-159899-B
repetible	317-170352-B
repetiteur	317-170622-B
repetition	317-172652-B
repetrir	306-128503-B
repeuple ee	305-177338-B
repeuplement	305-174097-B
repeupler	305-174758-B
repic	305-177607-B
repiger	305-178201-B
repile	305-178662-B
repiler	305-178302-B
repiller	305-178472-B
repincer	305-178983-B
repiocher	305-179114-B
repiquage	305-179254-B
repique ee	305-180531-B
repiquement	305-179771-B
repiquer	305-179840-B
repit	317-57157-B
replace ee	305-182085-B
replacer	305-181163-B
replaider	305-182232-B
replaindre	305-182870-B
replanir	305-183259-B
replant	305-183394-B
replantable	305-183442-B
replantation	305-183653-B
replante ee	305-185224-B
replantement	305-183924-B
replanter	305-184169-B
replaquer	305-185442-B
replat	305-185809-B
replatrage	305-202045-B
replatre ee	305-204171-B
replatrer	305-202546-B
replatreur	305-203805-B
replet ete	305-186037-B
repletion	317-66022-B
repleurer	305-187632-B
repleuvoir	305-187956-B
repli	305-188100-B
repliable	305-192329-B
replicatif ive	305-192546-B
replie ee	305-197018-B
repliement	305-192774-B
replier	305-193156-B
replique	317-59590-B
replique ee	317-65881-B
repliquer	317-63303-B
reploiement	305-197331-B
replonge ee	305-200387-B
replonger	305-197756-B
reployer	305-200979-B
repoli ie	305-205022-B
repolir	305-205110-B
repolissage	305-206122-B
repolon	305-206189-B
repompement	305-206351-B
repomper	305-206516-B
reponchonner	305-207045-B
repondant	317-67547-B
repondeur	317-68930-B
repondre	317-69305-B
repondre s 	132-39601-S
repondu ue	317-93409-B
repons	317-93643-B
reponse	317-94650-B
repopulation	305-207142-B
report	305-207489-B
reportage	305-209041-B
reporte ee	305-213872-B
reporter	305-209625-B,305-212349-B
reporteur	305-212785-B
repos	305-213985-B
reposant ante	305-232288-B
repose ee	306-3222-B
reposee	306-4415-B
reposer	305-232498-B
reposition	317-101033-B
reposoir	306-0-B
reposseder	306-2467-B
reposte ee	306-2929-B
reposter	306-2715-B
repourvoir	306-5866-B
repourvu ue	306-6068-B
repous	306-6403-B
repoussable	306-6493-B
repoussant ante	306-6727-B
repousse	306-7239-B
repousse ee	306-18041-B
repoussement	306-7547-B
repousser	306-8242-B
repousseur	306-15859-B
repoussoir	306-16095-B
repoustage	306-18987-B
repouster	306-19053-B
reprecher	306-118977-B
reprehenseur	317-118413-B
reprehensible	317-118615-B
reprehensiblement	317-119505-B
reprehension	317-119631-B
reprendre	306-19224-B
repreneur	306-44738-B
represaille	306-82308-B
representable	306-85067-B
representant ante	306-85269-B
representateur trice	306-88348-B
representatif ive	306-88665-B
representation	306-91112-B
representativement	306-101359-B
represente ee	306-117881-B
representer	306-101897-B
representeur	306-117726-B
represser	306-46039-B
represseur	317-101271-B
repressif ive	317-101672-B
repression	317-101944-B
repreter	306-119183-B
reprier	306-46419-B
reprimable	317-102249-B
reprimande	317-102667-B
reprimande ee	317-104470-B
reprimander	317-104076-B
reprimant ante	317-104597-B
reprime ee	317-109475-B
reprimer	317-105333-B
reprimeur	317-109364-B
repris ise	306-47190-B
reprise	306-48142-B
repriser	306-57749-B,306-57874-B,306-57964-B
repriseuse	306-58176-B
reprobateur trice	317-109744-B
reprobation	317-110036-B
reprochable	306-58285-B
reproche	306-59191-B
reproche ee	306-71476-B
reprocher	306-65561-B
reprocher s 	132-38415-S
reproducteur trice	306-72091-B
reproductibilite	306-72655-B
reproductible	306-72836-B
reproductif ive	306-72949-B
reproduction	306-73621-B
reproductivement	306-75523-B
reproductivite	306-75648-B
reproduire	306-75775-B
reproduit ite	306-80087-B
repromener	306-80423-B
repromettre	306-80693-B
repromission	306-81103-B
reproteger	306-81467-B
reprouvable	317-111277-B
reprouve ee	306-81893-B,317-115576-B
reprouver	306-81710-B,317-111858-B
reprovigner	306-82042-B
reps	306-119497-B
reptation	306-119652-B
reptatoire	306-119817-B
reptile	306-119973-B
reptilivore	306-122263-B
repu ue	306-122414-B
republicain aine	317-121112-B
republicainement	317-124041-B
republicaniser	317-124284-B
republicanisme	317-124979-B
republier	306-123197-B
republique	317-125230-B
repudiable	317-134584-B
repudiation	317-134722-B
repudie ee	317-138745-B
repudiement	317-135862-B
repudier	317-136148-B
repudieur	317-138574-B
repue	306-123618-B
repugnance	317-139132-B
repugnant ante	317-142162-B
repugner	317-143252-B
repuiser	306-124316-B
repullulation	317-146468-B
repulluler	317-146585-B
repulsif ive	317-147102-B
repulsion	317-147926-B
repurger	306-124568-B
reputation	317-148847-B
repute ee	317-159132-B
reputer	317-157036-B
requerable	306-136661-B
requerant ante	306-137190-B
requerir	306-137672-B
requestionner	306-130421-B
requete	306-143108-B,306-148769-B,306-149429-B
requete ee	306-149538-B
requeter	306-148993-B
requiem	306-130639-B
requin	306-131859-B
requinque ee	306-134477-B
requinquer se	306-132429-B
requinquette	306-134377-B
requint	306-134955-B
requinteron onne	306-135237-B
requiper	317-180007-B
requis ise	306-135431-B
requisition	317-180239-B
requisitionnaire	317-181861-B
requisitionnement	317-182142-B
requisitionner	317-182397-B
requisitoire	317-182513-B
requisitorial ale	317-183558-B
requitter	306-136373-B
resaluer	306-149633-B
resarcissage	306-150350-B
resarcler	306-150752-B
resaucer	306-150860-B
rescellement	306-151119-B
resceller	306-151200-B
rescif	306-151260-B
rescif ou ressif	314-133877-S
rescindable	306-151304-B
rescindant	306-151414-B
rescinde ee	306-152854-B
rescindement	306-151619-B
rescinder	306-152197-B
rescisible	306-152958-B
rescision	306-153376-B
rescisoire	306-154754-B
rescousse	300-79621-S,306-155060-B
rescription	306-155347-B
rescrit	306-157605-B
reseau	317-183978-B
reseche ee	307-83388-B
resecher	307-83157-B
resection	317-187378-B
reseda	318-6628-B
resedacees	318-7232-B
reseleuse	317-187905-B
resequer	318-7362-B
reservataire	317-188164-B
reservation	317-188910-B
reserve	317-190347-B
reserve ee	317-206597-B
reservement	317-211443-B
reserver	317-198762-B
reserviste	317-203758-B
reservoir	317-204145-B
residant ante	317-211687-B
residence	241-6668-S,317-212295-B
resident	317-215714-B
resider	317-217488-B
residu	317-220134-B
residuaire	317-222265-B
residuel elle	317-222606-B
resignable	317-223025-B
resignant	317-223176-B
resignataire	317-223941-B
resignateur	317-224401-B
resignation	317-224518-B
resigne ee	317-230397-B
resigner	317-226737-B
resiliation	317-231197-B
resilie ee	317-231966-B
resiliement ou resiliment	317-231366-B
resilier	317-231469-B
resiliment	317-231366-S
resille	317-232092-B
resinage	317-232213-B
resinate	317-232385-B
resine	139-48075-S,161-73356-S,317-232496-B,334-19623-S
resineine	317-238433-B
resiner	317-234768-B
resineusement	317-235337-B
resineux euse	139-48312-S,161-77305-S,317-235522-B
resingle	317-236075-B
resinides	317-236158-B
resinier	317-236269-B
resinifere	317-237270-B
resinifiable	317-236425-B
resinification	317-236578-B
resinifier	317-236818-B
resiniforme	317-237151-B
resinite	317-237576-B
resino extractif ive	317-237812-B
resino gommeux euse	317-237986-B
resinoide	317-238153-B
resipiscence	317-238592-B
resistance	317-239522-B
resistant ante	317-247347-B
resister	317-248108-B
resistibilite	317-255473-B
resistible	317-255622-B
resolu ue	317-255867-B
resolubilite	317-258501-B
resoluble	317-258763-B
resolument	317-270819-B
resolutif ive	317-259659-B
resolution	317-261001-B
resolutivement	317-269557-B
resolutoire	317-270012-B
resolvant ante	317-270509-B
resommeiller	306-160356-B
resomptif ive	317-272798-B
resomption	317-273177-B
resonger	306-160645-B
resonnance	317-273622-B
resonnant ante	317-274783-B
resonnateur trice	317-275665-B
resonnement	317-276367-B
resonner	317-276904-B
resorbant ante	317-281257-B
resorber	317-281433-B
resorcine	317-282043-B
resorption	317-282187-B
resoudre	317-282884-B
resouffler	306-161204-B
resouper	306-161315-B
resous	317-299764-B
respect	276-113442-S,306-161546-B
respectabilite	306-175235-B
respectable	306-175473-B
respecte ee	306-184385-B
respecter	306-176715-B
respectif ive	306-180584-B
respectivement	306-181553-B
respectueusement	306-182339-B
respectueux euse	306-182709-B
respirabilite	306-184756-B
respirable	306-184869-B
respirant ante	306-185420-B
respirateur	306-185632-B
respiration	306-186477-B
respiratoire	306-188506-B
respire ee	306-199655-B
respirer	306-189257-B
resplendeur	306-199824-B
resplendir	306-200218-B
resplendissant ante	306-201680-B
resplendissement	306-202587-B
responsabilite	306-202968-B
responsable	306-203646-B
responsal	306-205461-B
responsif ive	306-205868-B
responsion	306-206650-B
ressac	306-206904-B
ressaigne ee	306-207815-B
ressaigner	306-207312-B
ressaisi ie	306-207964-B
ressaisir	306-208216-B
ressangler	306-210981-B
ressassage	306-211315-B
ressasse ee	306-213212-B
ressasser	306-211525-B
ressasseur	306-212870-B
ressaut	306-213982-B
ressaute ee	306-216707-B
ressauter	306-215708-B
ressayer	306-216814-B
resseant ante	307-15975-B
ressel	306-217151-B
resseller	306-217481-B
ressemblance	306-217652-B
ressemblant ante	306-221316-B
ressembler	306-222497-B
resseme ee	306-234251-B
ressemelage	306-232417-B
ressemele ee	306-233163-B
ressemeler	306-232640-B
ressemer	306-233266-B
ressence	306-234357-B
ressenti ie	306-234419-B
ressentiment	306-235000-B
ressentir	306-238777-B
resserre	306-246743-B
resserre ee	306-257689-B
resserrement	306-247819-B
resserrer	306-249497-B
resserreur	306-257524-B
resservir	306-261265-B
ressif	306-261898-B,314-133877-S
ressolliciter	306-261942-B
ressort	228-114471-S,272-24432-S,306-262177-B,306-272700-B
ressorti ie	306-278579-B
ressortir	306-278674-B,306-281395-B
ressortissant ante	306-282519-B
ressoude ee	306-284058-B
ressouder	306-282920-B
ressoudure	306-283997-B
ressouffler	306-284133-B
ressouffrir	306-284336-B
ressource	306-284723-B
ressouvenance	306-290193-B
ressouveneur	306-290477-B
ressouvenir	306-290750-B,307-0-B
ressuage	307-1501-B
ressuer	307-1998-B
ressui	307-3594-B
ressuiement	307-4141-B
ressuivre	307-4495-B
ressuscitable	307-4869-B
ressuscitant ante	307-5080-B
ressuscitatif ive	307-5318-B
ressuscitation	307-5552-B
ressuscite ee	307-13478-B
ressuscitement	307-5764-B
ressusciter	307-6077-B
ressusciteur	307-13145-B
ressuyage	307-14206-B
ressuyant	307-14497-B
ressuye ee	307-15606-B
ressuyer	307-14600-B
restant ante	307-16423-B
restapler	307-16814-B
restapleur	307-16942-B
restaur	307-17059-B
restaurant ante	307-17626-B
restaurateur trice	307-19122-B
restauratif ive	307-22695-B
restauration	292-133376-S,307-23123-B
restaure ee	307-28473-B
restaurer	307-25487-B
reste	307-29186-B
reste ee	307-82245-B
restencle	307-48690-B
rester	307-48791-B
restiacees	307-60144-B
restiforme	307-60350-B
restituable	307-60591-B
restitue ee	307-70690-B
restituer	307-61057-B
restituteur	307-65374-B
