campagnol	50-55667-B
campagnoule	50-55886-B
campan	50-56041-B
campanace ee	50-56176-B
campanaire	50-56341-B
campane	50-56520-B,259-238222-S
campanele ee	50-58542-B
campanelle	50-58409-B
campanette	50-58730-B
campaniflore	50-58792-B
campaniforme	50-58925-B
campanile	50-59057-B
campanne	50-59409-B
campanulace ee	50-59684-B
campanulaire	50-59887-B
campanule	50-59967-B
campanule ee	50-60712-B
campanuliflore	50-60553-B
campas	50-60871-B
campe	50-61188-B
campe ee	50-70419-B
campeche	50-71089-B
campement	50-61252-B
campene	50-70019-B
campephage	50-70909-B
camper	50-62373-B
camperche	50-64829-B
camphene	50-68154-B
camphine	50-64944-B
camphogene	50-65167-B
camphorate	50-65442-B
camphorides	50-65570-B
camphorifere	50-65707-B
camphorine	50-65857-B
camphorique	50-65999-B
camphoroide	50-66185-B
camphovinique	50-66326-B
camphre	50-66546-B
camphre ee	50-67912-B
camphree	50-68011-B
camphrer	50-67486-B
camphrier	50-67589-B
camphrone	50-67746-B
campicole	50-68364-B
campine	50-68508-B
campos	50-69120-B
campyloptere	50-69684-B
campylosome	50-69868-B
camus camuse	50-71357-B
camuse	50-71357-S
camuserie	50-74769-B
camuset ette	50-75163-B
camuson	50-75467-B
can ou cant	50-80893-B
canac	50-81125-B
canada	225-32837-S
canaille	50-81282-B
canaillerie	50-84272-B
canaillocratie	50-84427-B
canal	50-84814-B,259-238534-S
canalet	50-89754-B
canaliculaire	50-90341-B
canalicule	50-90536-B
canalicule ee	50-90683-B
canalifere	50-90945-B
canaliforme	50-90816-B
canalisable	50-91179-B
canalisateur	50-91310-B
canalisation	50-91510-B
canalise ee	50-91869-B
canaliser	50-91687-B
canamelle	50-91995-B
canape	50-92538-B
canapsa	50-92208-B
canard	50-93518-B
canarde ee	50-97507-B
canardeau	50-96553-B
canarder	50-96623-B
canardiere	50-97153-B
canari	50-97622-B,50-97847-B
canarie	51-0-B
canarine	51-808-B
canasse ou canastre	51-905-B
canastelle	51-1168-B
canastre	51-905-S
cancan	51-1437-B,51-1640-B
cancaner	51-4013-B
cancanier iere	51-4131-B
cancel et suivant quelques uns chancel	51-4307-B
cancellation	51-5345-B
cancelle	51-5637-B
cancelle ee	51-6749-B
canceller	51-5753-B
cancer	51-6916-B
cancereux euse	51-11040-B
canceride	51-11222-B
canceriforme	51-11355-B
cancerille	51-8548-B
cancerlin ou mieux crantzelin	86-176786-S
canche	51-8640-B
cancouele	51-9089-B
cancre	51-9422-B
cancrelas ou cancrelat	51-10096-B
cancrelat	51-10096-S
cancriforme	51-10406-B
cancrite	51-10532-B
cancrivore	51-10634-B
cancroide	51-10798-B
candace ou candaoce	51-11489-B
candaoce	51-11489-S
candefaction	51-18131-B
candelabre	51-18310-B
candelette	51-11808-B
candeur	51-11922-B
candi	51-13592-B
candi ie	51-14595-B
candidat	51-14749-B
candidature	51-15491-B
candide	51-15703-B
candidement	51-16875-B
candir se	51-17221-B
candisation	51-17807-B
candissoire	51-17957-B
cane	32-66437-S,51-19534-B
caneficier	51-99776-B
canelo	51-21857-B
canepetiere	51-22168-B
canephore	51-100067-B
canepin	51-22632-B
caner	51-23024-B
caneter	51-23177-B
canetiere	51-23466-B
caneton	51-23604-B
canette	51-23821-B,51-24724-B,51-25350-B,51-25607-B,51-25789-B
canevas	51-26014-B
caneveau	51-28288-B
canevette	51-28394-B
canezou	51-28759-B
cange	51-28822-B
cangette	51-29231-B
cangrene	51-29329-B
cangue	51-29512-B
cani	51-29673-B
caniard	51-29748-B
caniche	51-29803-B
canichon	51-30206-B
canicide	51-30342-B
caniculaire	51-30622-B
canicule	51-31441-B
canif	51-32768-B
canillee	51-34319-B
canillon	51-34055-B
canin ine	51-34419-B
canitie	51-36132-B
caniveau	51-36322-B,78-12493-S
canivet	51-36740-B
cannabin ine	51-37007-B
cannabine	51-37180-B
cannabinees	51-37356-B
cannace ee	51-37499-B
cannage	51-37631-B
cannaie	51-38018-B
cannameliste	51-38325-B
cannamelle	51-38279-B
canne	51-38677-B
canne ee	51-48974-B
canneau	51-41304-B
canneberge	51-41528-B
cannelade	51-41773-B
cannelas	51-41915-B
cannele ee	51-46258-B
canneler	51-42021-B
cannelet	51-42559-B
cannelle	51-42728-B
cannelle ou cannette	51-44789-B
cannellier	51-45565-B
cannelline	51-45703-B
cannelon	51-45798-B
cannelure	51-45868-B
cannequin	51-46830-B
cannetille	51-46926-B
cannetiller	51-47437-B
cannette	51-44789-S,51-47521-B
canneur	51-47700-B
cannibale	51-47797-B
cannibalisme	51-48594-B
cannier	51-48717-B
canniere	51-48869-B
canole	51-49264-B
canon	32-66962-S,51-49318-B,51-58434-B,51-58651-B,105-38835-S
canonial ale	51-63617-B
canonialement	51-64711-B
canonicat	51-65112-B
canonicite	51-65850-B
canonique	51-66169-B
canoniquement	51-67563-B
canonisable	51-67790-B
canonisation	51-67969-B
canonise ee	51-70715-B
canoniser	51-68323-B
canoniste	51-70028-B
canonnade	51-70894-B
canonnage	51-71938-B
canonne ee	51-76528-B
canonner	51-72082-B
canonnerie	51-73196-B
canonnier	51-73551-B
canonniere	51-75210-B
canope	51-76645-B
canopus	51-77198-B
canot	51-77427-B
canotage	51-78511-B
canoter	51-78592-B
canotier	51-78676-B
canque	51-78932-B
cant	50-80893-S,51-78990-B,51-79053-B
cantabile	51-79460-B
cantal	51-79816-B
cantales	51-80403-B
cantalite	51-79996-B
cantaloup	51-80104-B
cantanette	51-80801-B
cantarelle	51-81017-B
cantate	51-81199-B
cantatille	51-81701-B
cantatrice	51-81777-B
canter	51-81991-B,51-82108-B
cantharelle	51-82382-B
cantharide	51-82734-B
cantharide ee	51-83906-B
cantharider	51-83511-B
cantharidien	51-83613-B
cantharidine	51-83762-B
canthere	51-84546-B
canthus	51-84027-B
cantibay	51-84675-B
cantilene	51-84887-B
cantine	51-85320-B
cantinier iere	51-86729-B
cantique	51-86860-B
canton	51-88666-B,224-127869-S
cantonade	51-92377-B
cantonal ale	51-92815-B
cantonalisme	51-93100-B
cantonne ee	51-96894-B
cantonnement	51-93423-B
cantonner	51-94141-B
cantonnier	51-95707-B
cantonniere	51-96531-B
cantre	51-97868-B
canulaire	51-98089-B
canule	51-98275-B
canule ee	51-99143-B
canut	51-99370-B
canzone	51-99475-B
caolin	51-100706-B
caouane	51-100751-B
caoutchouc	51-100863-B
caoutchouter	51-101865-B
cap	51-102347-B,333-205551-S
capable	51-104731-B
capablement	51-111461-B
capace	51-111748-B
capacitaire	51-112052-B
capacite	51-112212-B
capade	51-115955-B
caparacon	51-116195-B
caparaconne ee	51-117529-B
caparaconner	51-117027-B
caparaconnier	51-117421-B
caparasse	51-116077-B
cape	51-117794-B,333-205756-S
capeer	52-92142-B
capelade	51-120616-B
capelage	51-120710-B
capelan	51-120843-B,52-0-B
capelanier	52-202-B
capeler	52-354-B
capelet	52-827-B
capeline	52-1086-B
capella	379-88181-S
capellade	52-2413-B
capelline	52-3162-B
capendu	52-3312-B
caperon	52-3661-B
capetien enne	52-92255-B
caphar	52-3709-B
capharnaum	52-3903-B
capie ee	52-43166-B
capier	52-4685-B
capigi	52-4828-B
capillace ee	52-5131-B
capillaire	52-5304-B,384-64035-S
capillament	52-7296-B
capillarite	52-7480-B,384-64302-S
capillifolie ee	52-7909-B
capilline	52-8085-B
capillitie	52-8218-B
capilotade	52-8406-B
capion	52-9448-B
capiou	52-9585-B
capiscol	52-9630-B
capistrate	52-9829-B
capistration	52-10018-B
capistre	52-10182-B
capitaine	52-10434-B
capitainerie	52-15669-B
capitainesse	52-16789-B
capital ale	52-17150-B
capitalement	52-26731-B
capitalisable	52-27548-B
capitalise ee	52-29395-B
capitaliser	52-27631-B
capitaliste	52-28295-B
capitan	52-29517-B
capitan pacha	52-29958-B
capitane	52-30285-B
capitation	52-30711-B
capite ee	52-42760-B
capitel	52-30971-B
capitelle ee	52-31381-B
capiteux euse	52-31572-B
capitiluve	52-31941-B
capitole	52-32096-B
capitolin ine	52-33661-B
capiton	52-33961-B
capitonnage	52-34685-B
capitonner	52-35158-B
capitoul	52-35438-B
capitoulat	52-36080-B
capitulaire	52-36300-B,52-36699-B
capitulairement	52-37234-B
capitulant	52-37442-B,52-37676-B
capitulation	52-37844-B
capitule	52-39353-B,52-39674-B
capitule ee	52-42103-B,52-42261-B
capituler	52-39883-B
capivard ou capiverd	52-43068-B
capiverd	52-43068-S
caplan	52-43269-B
caplanier	52-43316-B
capnofuge	52-43374-B
capnoide	52-44145-B
capnomancie	52-43531-B
capnophylle	52-43797-B
capnoptere	52-43993-B
capo	94-90291-S
capoc	52-44287-B
capolin	52-44639-B
capon	52-44702-B,52-46305-B
caponne ee	52-47632-B
caponner	52-46445-B,52-46805-B
caponniere	52-46936-B
capoquier	52-47759-B
caporal	52-47846-B
caporaliser	52-50034-B
caporalisme	52-50345-B
caposer	52-50787-B
capot	52-50918-B,52-51341-B,52-52335-B
capotage	52-52397-B,52-52502-B
capote	52-52900-B
capoter	52-53853-B
capouliere	52-53940-B
capparide ee	52-54039-B
cappe	52-54262-B
caprate	52-54493-B
capre	52-54607-B,93-52510-B
capreolaire	52-65540-B
capreole	52-65731-B
capreole ee	52-65859-B
capricant	52-54914-B
caprice	52-54969-B
capricer se	52-59780-B
capricieusement	52-60177-B
capricieux euse	52-60300-B
capricorne	52-61683-B
caprier	93-53268-B
capriere	93-53881-B
caprification	52-62693-B
caprifiguier	52-63051-B
caprifoliace ee	52-63205-B
caprimulge	52-63450-B
caprin ine	52-63615-B
capriole	52-63981-B
capripede	52-64062-B
caprique	52-64199-B
caprisant	52-64405-B
capron	52-64780-B,52-65075-B
caprone	52-65205-B
capronier	52-65438-B
capsage	52-65992-B
capse	52-66564-B
capselle	52-66815-B
capsulaire	52-66930-B
capsulation	52-67250-B
capsule	52-67476-B
capsulerie	52-68435-B
capsulifere	52-68529-B
captage	52-68679-B
captal	52-68737-B
captalat	52-69049-B
captateur trice	52-69264-B
captation	52-69430-B
captatoire	52-69679-B
capte ee	52-83684-B,52-83767-B
capteur	52-69819-B
captieusement	52-70016-B
captieusete	52-70143-B
captieux euse	52-70413-B
captif ive	52-71670-B
caption	52-75663-B
captivant ante	52-76283-B
captive ee	52-81629-B
captiver	52-76589-B
captiverie	52-79538-B
captivite	52-79734-B
capture	52-81772-B
capture ee	52-83574-B
capturer	52-83189-B
captureur	52-83387-B
capuce	52-85102-B
capuche	52-85500-B
capuchon	52-85642-B
capuchonne ee	52-87020-B
capuchonnement	52-86645-B
capuchonner	52-86739-B
capucin ine	52-87181-B
capucinade	52-88878-B
capucine	52-89127-B
capucinerie	52-90640-B
capuciniere	52-90936-B
capuloide	52-91133-B
caput mortuum	52-91291-B
capvirade	52-91915-B
caquage	52-92512-B
caque	52-92846-B
caque ee	52-103543-B
caquer	52-94197-B
caquerolle	52-94701-B
caquesangue	52-94794-B
caquet	52-95149-B
caquetage	52-98878-B
caquete	52-103339-B
caqueter	52-99144-B
caqueterie	52-101478-B
caqueteur euse	52-101831-B
caquetoire	52-102189-B
caqueur euse	52-102832-B
caqueux euse	52-103014-B
caquillier	52-103264-B
caqure	52-103618-B
car	52-103838-B
caraba	52-109122-B
carabas	52-109181-B
carabe	52-110952-B,52-119294-B
carabin	52-111145-B,52-113286-B
carabinade	52-114396-B
carabinage	52-115119-B
carabine	52-115252-B,276-94903-S
carabine ee	52-118838-B
carabiner	52-117892-B
carabineur	52-118115-B
carabinier	52-118313-B
carabique	52-119208-B
caracal	52-119628-B
caracara	52-119819-B
carach	53-0-B
caraco	53-37-B
caracol	53-466-B
caracole	53-538-B
caracoler	53-2253-B
caracolle	53-3097-B
caracore	53-3262-B
caracouler	53-3535-B
caractere	53-3609-B
caracterisant ante	53-13743-B
caracterise ee	53-15880-B
caracteriser	53-13998-B
caracterisme	53-14719-B
caracteristique	53-14931-B
carafe	53-16595-B
carafon	53-17506-B
caragan	53-17848-B
caragne	53-17928-B
caragouz	202-155810-S
carague	53-18106-B
caragueuse	53-18179-B
caraibe	53-30884-B
caraipe	53-31114-B
caraisme	53-31201-B
caraite	53-31266-B
carambolage	53-18504-B
carambole	53-18933-B
caramboler	53-19247-B
caramboleur	53-19445-B
carambolier	53-19567-B
caramel	53-19670-B
caramele ee	53-20986-B
caramelique	53-20174-B
caramelisation	53-20348-B
